INFO  14:13:41,702 - Compiling source file: C:\Users\ikadr\Desktop\PP\Projekat\Rad\workspace\MJCompiler\test\program.mj
INFO  14:13:41,785 - #2 program
INFO  14:13:41,785 - #28 test301
INFO  14:13:41,786 - #17 {
INFO  14:13:41,789 - #6 void
INFO  14:13:41,789 - #28 main
INFO  14:13:41,791 - #13 (
INFO  14:13:41,792 - #14 )
INFO  14:13:41,792 - #28 char
INFO  14:13:41,795 - #28 nizch
INFO  14:13:41,797 - #15 [
INFO  14:13:41,797 - #16 ]
INFO  14:13:41,797 - #10 ;
INFO  14:13:41,797 - #17 {
INFO  14:13:41,799 - #28 nizch
INFO  14:13:41,800 - #11 =
INFO  14:13:41,801 - #5 new
INFO  14:13:41,801 - #28 char
INFO  14:13:41,801 - #15 [
INFO  14:13:41,801 - #27 3
INFO  14:13:41,801 - #16 ]
INFO  14:13:41,802 - #10 ;
INFO  14:13:41,803 - #18 }
INFO  14:13:41,804 - #18 }
INFO  14:13:41,820 - Program(
  ProgName(
   test301
  ) [ProgName]
  GlobalDeclListEps(
  ) [GlobalDeclListEps]
  MethodDecl(
    MethodSignature(
      VoidableType(
      ) [VoidableType]
     main
    ) [MethodSignature]
    VarMethodDeclList_NoEps(
      VarMethodDeclList_Eps(
      ) [VarMethodDeclList_Eps]
      VarDecl(
        Type(
         char
        ) [Type]
        VarDeclItem(
          VarDeclDefineArray(
           nizch
          ) [VarDeclDefineArray]
        ) [VarDeclItem]
      ) [VarDecl]
    ) [VarMethodDeclList_NoEps]
    StatementList_NoEps(
      StatementList_Eps(
      ) [StatementList_Eps]
      StatementDes(
        DesignStatAssignment(
          DesIdent(
           nizch
          ) [DesIdent]
          AssignementExpr(
            TermExpr(
              TermFact(
                FactorNewArr(
                  Type(
                   char
                  ) [Type]
                  TermExpr(
                    TermFact(
                      FactorConst(
                        ConstNum(
                         3
                        ) [ConstNum]
                      ) [FactorConst]
                    ) [TermFact]
                  ) [TermExpr]
                ) [FactorNewArr]
              ) [TermFact]
            ) [TermExpr]
          ) [AssignementExpr]
        ) [DesignStatAssignment]
      ) [StatementDes]
    ) [StatementList_NoEps]
  ) [MethodDecl]
) [Program]
INFO  14:13:41,821 - ===================================
INFO  14:13:41,825 - Obradjuje se funkcija main na liniji 8
INFO  14:13:41,825 - Deklarisana promenljiva niza nizch tipa 2 na liniji 10
INFO  14:13:41,826 -  Print count calls = 0
INFO  14:13:41,826 -  Deklarisanih promenljivih ima = 0
INFO  14:13:41,837 - GENERATOR:
INFO  14:13:41,837 - Parsiranje uspesno zavrseno!
