INFO  21:46:22,569 - Compiling source file: C:\Users\ikadr\Desktop\PP\Projekat\Rad\workspace\MJCompiler\test\program.mj
INFO  21:46:22,632 - #2 program
INFO  21:46:22,632 - #28 prvi
INFO  21:46:22,632 - #9 enum
INFO  21:46:22,634 - #28 Broj
INFO  21:46:22,634 - #17 {
INFO  21:46:22,635 - #28 NULA
INFO  21:46:22,636 - #12 ,
INFO  21:46:22,636 - #28 JEDAN
INFO  21:46:22,636 - #12 ,
INFO  21:46:22,636 - #28 PET
INFO  21:46:22,637 - #11 =
INFO  21:46:22,637 - #27 5
INFO  21:46:22,637 - #12 ,
INFO  21:46:22,637 - #28 DESET
INFO  21:46:22,637 - #11 =
INFO  21:46:22,637 - #27 10
INFO  21:46:22,637 - #18 }
INFO  21:46:22,637 - #9 enum
INFO  21:46:22,639 - #28 Oblik
INFO  21:46:22,639 - #17 {
INFO  21:46:22,639 - #28 KOCKA
INFO  21:46:22,640 - #12 ,
INFO  21:46:22,640 - #28 KVADAR
INFO  21:46:22,640 - #11 =
INFO  21:46:22,640 - #27 5
INFO  21:46:22,640 - #12 ,
INFO  21:46:22,640 - #28 KUPA
INFO  21:46:22,640 - #18 }
INFO  21:46:22,640 - #28 int
INFO  21:46:22,640 - #28 bodovi
INFO  21:46:22,642 - #10 ;
INFO  21:46:22,642 - #17 {
INFO  21:46:22,643 - #6 void
INFO  21:46:22,643 - #28 main
INFO  21:46:22,644 - #13 (
INFO  21:46:22,644 - #14 )
INFO  21:46:22,644 - #28 Broj
INFO  21:46:22,646 - #28 nula
INFO  21:46:22,646 - #12 ,
INFO  21:46:22,646 - #28 jedan
INFO  21:46:22,646 - #10 ;
INFO  21:46:22,647 - #28 Oblik
INFO  21:46:22,648 - #28 ob
INFO  21:46:22,648 - #10 ;
INFO  21:46:22,648 - #17 {
INFO  21:46:22,648 - #28 ob
INFO  21:46:22,649 - #11 =
INFO  21:46:22,649 - #28 Broj
INFO  21:46:22,649 - #19 .
INFO  21:46:22,649 - #28 NULA
INFO  21:46:22,649 - #10 ;
INFO  21:46:22,650 - #28 nula
INFO  21:46:22,650 - #11 =
INFO  21:46:22,651 - #28 Broj
INFO  21:46:22,651 - #19 .
INFO  21:46:22,651 - #28 NULA
INFO  21:46:22,651 - #10 ;
INFO  21:46:22,651 - #28 jedan
INFO  21:46:22,651 - #11 =
INFO  21:46:22,651 - #28 Broj
INFO  21:46:22,651 - #19 .
INFO  21:46:22,651 - #28 JEDAN
INFO  21:46:22,652 - #10 ;
INFO  21:46:22,652 - #28 bodovi
INFO  21:46:22,652 - #11 =
INFO  21:46:22,652 - #27 0
INFO  21:46:22,652 - #10 ;
INFO  21:46:22,652 - #28 bodovi
INFO  21:46:22,653 - #20 ++
INFO  21:46:22,653 - #10 ;
INFO  21:46:22,653 - #28 jedan
INFO  21:46:22,653 - #11 =
INFO  21:46:22,653 - #28 Broj
INFO  21:46:22,653 - #19 .
INFO  21:46:22,653 - #28 PET
INFO  21:46:22,653 - #10 ;
INFO  21:46:22,654 - #4 print
INFO  21:46:22,654 - #13 (
INFO  21:46:22,654 - #28 bodovi
INFO  21:46:22,654 - #14 )
INFO  21:46:22,654 - #10 ;
INFO  21:46:22,654 - #28 bodovi
INFO  21:46:22,654 - #11 =
INFO  21:46:22,654 - #28 bodovi
INFO  21:46:22,655 - #23 +
INFO  21:46:22,655 - #28 jedan
INFO  21:46:22,657 - #10 ;
INFO  21:46:22,658 - #4 print
INFO  21:46:22,658 - #13 (
INFO  21:46:22,658 - #28 bodovi
INFO  21:46:22,658 - #14 )
INFO  21:46:22,658 - #10 ;
INFO  21:46:22,658 - #28 bodovi
INFO  21:46:22,658 - #11 =
INFO  21:46:22,658 - #28 bodovi
INFO  21:46:22,658 - #23 +
INFO  21:46:22,659 - #13 (
INFO  21:46:22,659 - #13 (
INFO  21:46:22,659 - #28 jedan
INFO  21:46:22,659 - #24 *
INFO  21:46:22,659 - #28 jedan
INFO  21:46:22,661 - #22 -
INFO  21:46:22,662 - #27 1
INFO  21:46:22,663 - #14 )
INFO  21:46:22,663 - #24 *
INFO  21:46:22,663 - #27 2
INFO  21:46:22,663 - #22 -
INFO  21:46:22,663 - #13 (
INFO  21:46:22,663 - #27 3
INFO  21:46:22,663 - #26 %
INFO  21:46:22,663 - #27 2
INFO  21:46:22,664 - #23 +
INFO  21:46:22,664 - #27 3
INFO  21:46:22,665 - #24 *
INFO  21:46:22,665 - #27 2
INFO  21:46:22,665 - #22 -
INFO  21:46:22,665 - #27 3
INFO  21:46:22,665 - #14 )
INFO  21:46:22,665 - #22 -
INFO  21:46:22,665 - #28 Broj
INFO  21:46:22,665 - #19 .
INFO  21:46:22,665 - #28 JEDAN
INFO  21:46:22,665 - #24 *
INFO  21:46:22,665 - #27 2
INFO  21:46:22,665 - #14 )
INFO  21:46:22,666 - #10 ;
INFO  21:46:22,666 - #4 print
INFO  21:46:22,666 - #13 (
INFO  21:46:22,666 - #28 bodovi
INFO  21:46:22,666 - #14 )
INFO  21:46:22,666 - #10 ;
INFO  21:46:22,666 - #18 }
INFO  21:46:22,666 - #18 }
INFO  21:46:22,684 - Program(
  ProgName(
   prvi
  ) [ProgName]
  GlobalDeclListL(
    GlobalDeclListL(
      GlobalDeclListL(
        GlobalDeclListEps(
        ) [GlobalDeclListEps]
        GlobalDeclEnum(
          EnumDecl(
            EnumName(
             Broj
            ) [EnumName]
            EnumDeclListL(
              EnumDeclListL(
                EnumDeclListL(
                  EnumDeclItem(
                    EnumDeclDefNoVal(
                     NULA
                    ) [EnumDeclDefNoVal]
                  ) [EnumDeclItem]
                  EnumDeclDefNoVal(
                   JEDAN
                  ) [EnumDeclDefNoVal]
                ) [EnumDeclListL]
                EnumDeclDefVal(
                 PET
                 5
                ) [EnumDeclDefVal]
              ) [EnumDeclListL]
              EnumDeclDefVal(
               DESET
               10
              ) [EnumDeclDefVal]
            ) [EnumDeclListL]
          ) [EnumDecl]
        ) [GlobalDeclEnum]
      ) [GlobalDeclListL]
      GlobalDeclEnum(
        EnumDecl(
          EnumName(
           Oblik
          ) [EnumName]
          EnumDeclListL(
            EnumDeclListL(
              EnumDeclItem(
                EnumDeclDefNoVal(
                 KOCKA
                ) [EnumDeclDefNoVal]
              ) [EnumDeclItem]
              EnumDeclDefVal(
               KVADAR
               5
              ) [EnumDeclDefVal]
            ) [EnumDeclListL]
            EnumDeclDefNoVal(
             KUPA
            ) [EnumDeclDefNoVal]
          ) [EnumDeclListL]
        ) [EnumDecl]
      ) [GlobalDeclEnum]
    ) [GlobalDeclListL]
    GlobalDeclVar(
      GlobalVarDecl(
        Type(
         int
        ) [Type]
        GlobalVarDeclItem(
          GlobalVarDeclDefOk(
            VarDeclDefineSingle(
             bodovi
            ) [VarDeclDefineSingle]
          ) [GlobalVarDeclDefOk]
        ) [GlobalVarDeclItem]
      ) [GlobalVarDecl]
    ) [GlobalDeclVar]
  ) [GlobalDeclListL]
  MethodDecl(
    MethodSignature(
      VoidableType(
      ) [VoidableType]
     main
    ) [MethodSignature]
    VarMethodDeclList_NoEps(
      VarMethodDeclList_NoEps(
        VarMethodDeclList_Eps(
        ) [VarMethodDeclList_Eps]
        VarDecl(
          Type(
           Broj
          ) [Type]
          VarDeclListL(
            VarDeclItem(
              VarDeclDefineSingle(
               nula
              ) [VarDeclDefineSingle]
            ) [VarDeclItem]
            VarDeclDefineSingle(
             jedan
            ) [VarDeclDefineSingle]
          ) [VarDeclListL]
        ) [VarDecl]
      ) [VarMethodDeclList_NoEps]
      VarDecl(
        Type(
         Oblik
        ) [Type]
        VarDeclItem(
          VarDeclDefineSingle(
           ob
          ) [VarDeclDefineSingle]
        ) [VarDeclItem]
      ) [VarDecl]
    ) [VarMethodDeclList_NoEps]
    StatementList_NoEps(
      StatementList_NoEps(
        StatementList_NoEps(
          StatementList_NoEps(
            StatementList_NoEps(
              StatementList_NoEps(
                StatementList_NoEps(
                  StatementList_NoEps(
                    StatementList_NoEps(
                      StatementList_NoEps(
                        StatementList_NoEps(
                          StatementList_Eps(
                          ) [StatementList_Eps]
                          StatementDes(
                            DesignStatAssignment(
                              DesIdent(
                               ob
                              ) [DesIdent]
                              AssignementExpr(
                                TermExpr(
                                  TermFact(
                                    FactorDesign(
                                      DesEnum(
                                       Broj
                                       NULA
                                      ) [DesEnum]
                                    ) [FactorDesign]
                                  ) [TermFact]
                                ) [TermExpr]
                              ) [AssignementExpr]
                            ) [DesignStatAssignment]
                          ) [StatementDes]
                        ) [StatementList_NoEps]
                        StatementDes(
                          DesignStatAssignment(
                            DesIdent(
                             nula
                            ) [DesIdent]
                            AssignementExpr(
                              TermExpr(
                                TermFact(
                                  FactorDesign(
                                    DesEnum(
                                     Broj
                                     NULA
                                    ) [DesEnum]
                                  ) [FactorDesign]
                                ) [TermFact]
                              ) [TermExpr]
                            ) [AssignementExpr]
                          ) [DesignStatAssignment]
                        ) [StatementDes]
                      ) [StatementList_NoEps]
                      StatementDes(
                        DesignStatAssignment(
                          DesIdent(
                           jedan
                          ) [DesIdent]
                          AssignementExpr(
                            TermExpr(
                              TermFact(
                                FactorDesign(
                                  DesEnum(
                                   Broj
                                   JEDAN
                                  ) [DesEnum]
                                ) [FactorDesign]
                              ) [TermFact]
                            ) [TermExpr]
                          ) [AssignementExpr]
                        ) [DesignStatAssignment]
                      ) [StatementDes]
                    ) [StatementList_NoEps]
                    StatementDes(
                      DesignStatAssignment(
                        DesIdent(
                         bodovi
                        ) [DesIdent]
                        AssignementExpr(
                          TermExpr(
                            TermFact(
                              FactorConst(
                                ConstNum(
                                 0
                                ) [ConstNum]
                              ) [FactorConst]
                            ) [TermFact]
                          ) [TermExpr]
                        ) [AssignementExpr]
                      ) [DesignStatAssignment]
                    ) [StatementDes]
                  ) [StatementList_NoEps]
                  StatementDes(
                    DesignStatInc(
                      DesIdent(
                       bodovi
                      ) [DesIdent]
                    ) [DesignStatInc]
                  ) [StatementDes]
                ) [StatementList_NoEps]
                StatementDes(
                  DesignStatAssignment(
                    DesIdent(
                     jedan
                    ) [DesIdent]
                    AssignementExpr(
                      TermExpr(
                        TermFact(
                          FactorDesign(
                            DesEnum(
                             Broj
                             PET
                            ) [DesEnum]
                          ) [FactorDesign]
                        ) [TermFact]
                      ) [TermExpr]
                    ) [AssignementExpr]
                  ) [DesignStatAssignment]
                ) [StatementDes]
              ) [StatementList_NoEps]
              StatPrint(
                TermExpr(
                  TermFact(
                    FactorDesign(
                      DesIdent(
                       bodovi
                      ) [DesIdent]
                    ) [FactorDesign]
                  ) [TermFact]
                ) [TermExpr]
              ) [StatPrint]
            ) [StatementList_NoEps]
            StatementDes(
              DesignStatAssignment(
                DesIdent(
                 bodovi
                ) [DesIdent]
                AssignementExpr(
                  AddopExp(
                    TermExpr(
                      TermFact(
                        FactorDesign(
                          DesIdent(
                           bodovi
                          ) [DesIdent]
                        ) [FactorDesign]
                      ) [TermFact]
                    ) [TermExpr]
                    Addop_Plus(
                    ) [Addop_Plus]
                    TermFact(
                      FactorDesign(
                        DesIdent(
                         jedan
                        ) [DesIdent]
                      ) [FactorDesign]
                    ) [TermFact]
                  ) [AddopExp]
                ) [AssignementExpr]
              ) [DesignStatAssignment]
            ) [StatementDes]
          ) [StatementList_NoEps]
          StatPrint(
            TermExpr(
              TermFact(
                FactorDesign(
                  DesIdent(
                   bodovi
                  ) [DesIdent]
                ) [FactorDesign]
              ) [TermFact]
            ) [TermExpr]
          ) [StatPrint]
        ) [StatementList_NoEps]
        StatementDes(
          DesignStatAssignment(
            DesIdent(
             bodovi
            ) [DesIdent]
            AssignementExpr(
              AddopExp(
                TermExpr(
                  TermFact(
                    FactorDesign(
                      DesIdent(
                       bodovi
                      ) [DesIdent]
                    ) [FactorDesign]
                  ) [TermFact]
                ) [TermExpr]
                Addop_Plus(
                ) [Addop_Plus]
                TermFact(
                  FactorExpr(
                    AddopExp(
                      AddopExp(
                        TermExpr(
                          TermMulop(
                            TermFact(
                              FactorExpr(
                                AddopExp(
                                  TermExpr(
                                    TermMulop(
                                      TermFact(
                                        FactorDesign(
                                          DesIdent(
                                           jedan
                                          ) [DesIdent]
                                        ) [FactorDesign]
                                      ) [TermFact]
                                      Mulop_Mul(
                                      ) [Mulop_Mul]
                                      FactorDesign(
                                        DesIdent(
                                         jedan
                                        ) [DesIdent]
                                      ) [FactorDesign]
                                    ) [TermMulop]
                                  ) [TermExpr]
                                  Addop_Minus(
                                  ) [Addop_Minus]
                                  TermFact(
                                    FactorConst(
                                      ConstNum(
                                       1
                                      ) [ConstNum]
                                    ) [FactorConst]
                                  ) [TermFact]
                                ) [AddopExp]
                              ) [FactorExpr]
                            ) [TermFact]
                            Mulop_Mul(
                            ) [Mulop_Mul]
                            FactorConst(
                              ConstNum(
                               2
                              ) [ConstNum]
                            ) [FactorConst]
                          ) [TermMulop]
                        ) [TermExpr]
                        Addop_Minus(
                        ) [Addop_Minus]
                        TermFact(
                          FactorExpr(
                            AddopExp(
                              AddopExp(
                                TermExpr(
                                  TermMulop(
                                    TermFact(
                                      FactorConst(
                                        ConstNum(
                                         3
                                        ) [ConstNum]
                                      ) [FactorConst]
                                    ) [TermFact]
                                    Mulop_Mod(
                                    ) [Mulop_Mod]
                                    FactorConst(
                                      ConstNum(
                                       2
                                      ) [ConstNum]
                                    ) [FactorConst]
                                  ) [TermMulop]
                                ) [TermExpr]
                                Addop_Plus(
                                ) [Addop_Plus]
                                TermMulop(
                                  TermFact(
                                    FactorConst(
                                      ConstNum(
                                       3
                                      ) [ConstNum]
                                    ) [FactorConst]
                                  ) [TermFact]
                                  Mulop_Mul(
                                  ) [Mulop_Mul]
                                  FactorConst(
                                    ConstNum(
                                     2
                                    ) [ConstNum]
                                  ) [FactorConst]
                                ) [TermMulop]
                              ) [AddopExp]
                              Addop_Minus(
                              ) [Addop_Minus]
                              TermFact(
                                FactorConst(
                                  ConstNum(
                                   3
                                  ) [ConstNum]
                                ) [FactorConst]
                              ) [TermFact]
                            ) [AddopExp]
                          ) [FactorExpr]
                        ) [TermFact]
                      ) [AddopExp]
                      Addop_Minus(
                      ) [Addop_Minus]
                      TermMulop(
                        TermFact(
                          FactorDesign(
                            DesEnum(
                             Broj
                             JEDAN
                            ) [DesEnum]
                          ) [FactorDesign]
                        ) [TermFact]
                        Mulop_Mul(
                        ) [Mulop_Mul]
                        FactorConst(
                          ConstNum(
                           2
                          ) [ConstNum]
                        ) [FactorConst]
                      ) [TermMulop]
                    ) [AddopExp]
                  ) [FactorExpr]
                ) [TermFact]
              ) [AddopExp]
            ) [AssignementExpr]
          ) [DesignStatAssignment]
        ) [StatementDes]
      ) [StatementList_NoEps]
      StatPrint(
        TermExpr(
          TermFact(
            FactorDesign(
              DesIdent(
               bodovi
              ) [DesIdent]
            ) [FactorDesign]
          ) [TermFact]
        ) [TermExpr]
      ) [StatPrint]
    ) [StatementList_NoEps]
  ) [MethodDecl]
) [Program]
INFO  21:46:22,685 - ===================================
INFO  21:46:22,689 - Deklarisan novi enum tip Broj na liniji 3
INFO  21:46:22,689 - Deklarisana konstanta NULA unutar enuma Broj na liniji 3
INFO  21:46:22,689 - Deklarisana konstanta JEDAN unutar enuma Broj na liniji 3
INFO  21:46:22,689 - Deklarisana konstanta PET unutar enuma Broj na liniji 3
INFO  21:46:22,689 - Deklarisana konstanta DESET unutar enuma Broj na liniji 3
INFO  21:46:22,689 - Deklarisan novi enum tip Oblik na liniji 4
INFO  21:46:22,690 - Deklarisana konstanta KOCKA unutar enuma Oblik na liniji 4
INFO  21:46:22,690 - Deklarisana konstanta KVADAR unutar enuma Oblik na liniji 4
INFO  21:46:22,690 - Deklarisana konstanta KUPA unutar enuma Oblik na liniji 4
INFO  21:46:22,690 - Deklarisana promenljiva bodovi tipa 1 na liniji 5
INFO  21:46:22,690 - Obradjuje se funkcija main na liniji 8
INFO  21:46:22,690 - Deklarisana promenljiva nula tipa 6 na liniji 9
INFO  21:46:22,690 - Deklarisana promenljiva jedan tipa 6 na liniji 9
INFO  21:46:22,690 - Deklarisana promenljiva ob tipa 6 na liniji 10
ERROR 21:46:22,691 - Greska: U enumu Broj ne postoji vrednost za NULA na liniji 12
INFO  21:46:22,691 - noObj
ERROR 21:46:22,692 - Greska: nekompatibilni tipovi u dodeli na liniji 12
ERROR 21:46:22,692 - 6 je kind designatora, 0 je kind assignmenta
ERROR 21:46:22,692 - Greska: U enumu Broj ne postoji vrednost za NULA na liniji 14
INFO  21:46:22,692 - noObj
ERROR 21:46:22,692 - Greska: nekompatibilni tipovi u dodeli na liniji 14
ERROR 21:46:22,692 - 6 je kind designatora, 0 je kind assignmenta
ERROR 21:46:22,692 - Greska: U enumu Broj ne postoji vrednost za JEDAN na liniji 15
INFO  21:46:22,692 - noObj
ERROR 21:46:22,692 - Greska: nekompatibilni tipovi u dodeli na liniji 15
ERROR 21:46:22,692 - 6 je kind designatora, 0 je kind assignmenta
INFO  21:46:22,692 - 
INFO  21:46:22,693 - Dodeljenja vrednost: 1 je design,1 je assign
INFO  21:46:22,693 - Inkrementirana vrednost
ERROR 21:46:22,693 - Greska: U enumu Broj ne postoji vrednost za PET na liniji 19
INFO  21:46:22,693 - noObj
ERROR 21:46:22,693 - Greska: nekompatibilni tipovi u dodeli na liniji 19
ERROR 21:46:22,693 - 6 je kind designatora, 0 je kind assignmenta
INFO  21:46:22,694 - Print funkcija na liniji 20
INFO  21:46:22,694 - bodovi
INFO  21:46:22,694 - Dodeljenja vrednost: 1 je design,1 je assign
INFO  21:46:22,694 - Print funkcija na liniji 23
ERROR 21:46:22,694 - Greska: U enumu Broj ne postoji vrednost za JEDAN na liniji 25
INFO  21:46:22,694 - bodovi
INFO  21:46:22,694 - Dodeljenja vrednost: 1 je design,1 je assign
INFO  21:46:22,694 - Print funkcija na liniji 26
INFO  21:46:22,694 -  Print count calls = 3
INFO  21:46:22,695 -  Deklarisanih promenljivih ima = 5
ERROR 21:46:22,696 - Parsiranje NIJE uspesno zavrseno!
