INFO  10:40:23,556 - Compiling source file: C:\Users\ikadr\Desktop\PP\Projekat\Rad\workspace\MJCompiler\test\program.mj
INFO  10:40:23,619 - #2 program
INFO  10:40:23,619 - #28 test301
INFO  10:40:23,619 - #9 enum
INFO  10:40:23,619 - #28 Broj
INFO  10:40:23,619 - #17 {
INFO  10:40:23,619 - #28 NULA
INFO  10:40:23,619 - #12 ,
INFO  10:40:23,619 - #28 JEDAN
INFO  10:40:23,619 - #12 ,
INFO  10:40:23,619 - #28 PET
INFO  10:40:23,619 - #11 =
INFO  10:40:23,619 - #27 5
INFO  10:40:23,619 - #12 ,
INFO  10:40:23,619 - #28 DESET
INFO  10:40:23,619 - #11 =
INFO  10:40:23,619 - #27 10
INFO  10:40:23,619 - #18 }
INFO  10:40:23,619 - #8 const
INFO  10:40:23,619 - #28 int
INFO  10:40:23,619 - #28 jedan
INFO  10:40:23,619 - #11 =
INFO  10:40:23,634 - #27 1
INFO  10:40:23,634 - #10 ;
INFO  10:40:23,634 - #8 const
INFO  10:40:23,634 - #28 int
INFO  10:40:23,634 - #28 pet
INFO  10:40:23,634 - #11 =
INFO  10:40:23,634 - #27 5
INFO  10:40:23,634 - #10 ;
INFO  10:40:23,634 - #8 const
INFO  10:40:23,634 - #28 char
INFO  10:40:23,634 - #28 znak
INFO  10:40:23,634 - #11 =
INFO  10:40:23,634 - #29 a
INFO  10:40:23,634 - #10 ;
INFO  10:40:23,634 - #28 int
INFO  10:40:23,634 - #28 niz
INFO  10:40:23,634 - #15 [
INFO  10:40:23,634 - #16 ]
INFO  10:40:23,634 - #10 ;
INFO  10:40:23,634 - #28 char
INFO  10:40:23,634 - #28 nizch
INFO  10:40:23,634 - #15 [
INFO  10:40:23,634 - #16 ]
INFO  10:40:23,634 - #10 ;
INFO  10:40:23,634 - #17 {
INFO  10:40:23,634 - #6 void
INFO  10:40:23,634 - #28 main
INFO  10:40:23,634 - #13 (
INFO  10:40:23,634 - #14 )
INFO  10:40:23,634 - #28 int
INFO  10:40:23,650 - #28 bodovi
INFO  10:40:23,650 - #10 ;
INFO  10:40:23,650 - #28 Broj
INFO  10:40:23,650 - #28 nula
INFO  10:40:23,650 - #12 ,
INFO  10:40:23,650 - #28 jedan
INFO  10:40:23,650 - #10 ;
INFO  10:40:23,650 - #17 {
INFO  10:40:23,650 - #28 nula
INFO  10:40:23,650 - #11 =
INFO  10:40:23,650 - #28 Broj
INFO  10:40:23,650 - #19 .
INFO  10:40:23,650 - #28 NULA
INFO  10:40:23,650 - #10 ;
INFO  10:40:23,650 - #28 jedan
INFO  10:40:23,650 - #11 =
INFO  10:40:23,650 - #28 Broj
INFO  10:40:23,650 - #19 .
INFO  10:40:23,650 - #28 JEDAN
INFO  10:40:23,650 - #10 ;
INFO  10:40:23,650 - #28 bodovi
INFO  10:40:23,650 - #11 =
INFO  10:40:23,650 - #27 0
INFO  10:40:23,650 - #10 ;
INFO  10:40:23,650 - #28 bodovi
ERROR 10:40:23,650 - 
Sintaksna greska na liniji 23
INFO  10:40:23,650 - #20 ++
INFO  10:40:23,650 - #10 ;
INFO  10:40:23,650 - #28 bodovi
INFO  10:40:23,650 - #11 =
INFO  10:40:23,650 - #28 bodovi
INFO  10:40:23,650 - Oporavak od greske u konstrukciji iskaza dodele na liniji 1
INFO  10:40:23,650 - #23 +
INFO  10:40:23,650 - #28 jedan
INFO  10:40:23,650 - #10 ;
INFO  10:40:23,650 - #28 bodovi
INFO  10:40:23,650 - #11 =
INFO  10:40:23,650 - #28 bodovi
INFO  10:40:23,650 - #24 *
INFO  10:40:23,650 - #28 pet
INFO  10:40:23,666 - #10 ;
INFO  10:40:23,666 - #28 bodovi
INFO  10:40:23,666 - #21 --
INFO  10:40:23,666 - #10 ;
INFO  10:40:23,666 - #4 print
INFO  10:40:23,666 - #13 (
INFO  10:40:23,666 - #28 bodovi
INFO  10:40:23,666 - #14 )
INFO  10:40:23,666 - #10 ;
INFO  10:40:23,666 - #28 niz
INFO  10:40:23,666 - #11 =
INFO  10:40:23,666 - #5 new
INFO  10:40:23,666 - #28 int
INFO  10:40:23,666 - #15 [
INFO  10:40:23,666 - #27 2
INFO  10:40:23,666 - #16 ]
ERROR 10:40:23,666 - 
Sintaksna greska na liniji 30
INFO  10:40:23,666 - #10 ;
INFO  10:40:23,666 - #28 niz
INFO  10:40:23,666 - #15 [
INFO  10:40:23,666 - #28 nula
INFO  10:40:23,666 - Oporavak od greske u konstrukciji iskaza dodele na liniji 1
INFO  10:40:23,666 - #16 ]
INFO  10:40:23,666 - #11 =
INFO  10:40:23,666 - #28 pet
INFO  10:40:23,666 - #10 ;
INFO  10:40:23,666 - #28 niz
INFO  10:40:23,666 - #15 [
INFO  10:40:23,666 - #27 1
INFO  10:40:23,666 - #16 ]
ERROR 10:40:23,666 - 
Sintaksna greska na liniji 32
INFO  10:40:23,666 - #11 =
INFO  10:40:23,666 - #28 Broj
INFO  10:40:23,666 - #19 .
INFO  10:40:23,666 - #28 DESET
INFO  10:40:23,666 - #10 ;
INFO  10:40:23,666 - #28 bodovi
INFO  10:40:23,666 - #11 =
INFO  10:40:23,666 - #28 niz
INFO  10:40:23,666 - Oporavak od greske u konstrukciji iskaza dodele na liniji 1
INFO  10:40:23,666 - #15 [
INFO  10:40:23,666 - #27 1
INFO  10:40:23,666 - #16 ]
ERROR 10:40:23,666 - 
Sintaksna greska na liniji 33
INFO  10:40:23,666 - #25 /
INFO  10:40:23,666 - #28 niz
INFO  10:40:23,666 - #15 [
INFO  10:40:23,666 - #27 0
INFO  10:40:23,666 - #16 ]
INFO  10:40:23,666 - #10 ;
INFO  10:40:23,666 - #4 print
INFO  10:40:23,666 - #13 (
INFO  10:40:23,666 - #28 bodovi
INFO  10:40:23,666 - Oporavak od greske u konstrukciji iskaza dodele na liniji 1
INFO  10:40:23,666 - #14 )
INFO  10:40:23,666 - #10 ;
INFO  10:40:23,666 - #4 print
INFO  10:40:23,666 - #13 (
INFO  10:40:23,666 - #28 niz
INFO  10:40:23,666 - #15 [
INFO  10:40:23,666 - #28 Broj
INFO  10:40:23,666 - #19 .
INFO  10:40:23,666 - #28 JEDAN
INFO  10:40:23,666 - #16 ]
INFO  10:40:23,666 - #14 )
INFO  10:40:23,666 - #10 ;
INFO  10:40:23,666 - #28 nizch
INFO  10:40:23,666 - #11 =
INFO  10:40:23,666 - #5 new
INFO  10:40:23,666 - #28 char
INFO  10:40:23,666 - #15 [
INFO  10:40:23,666 - #27 3
INFO  10:40:23,666 - #16 ]
ERROR 10:40:23,666 - 
Sintaksna greska na liniji 38
INFO  10:40:23,666 - #10 ;
INFO  10:40:23,666 - #28 nizch
INFO  10:40:23,666 - #15 [
INFO  10:40:23,666 - #27 0
INFO  10:40:23,666 - Oporavak od greske u konstrukciji iskaza dodele na liniji 1
INFO  10:40:23,666 - #16 ]
ERROR 10:40:23,666 - 
Sintaksna greska na liniji 39
INFO  10:40:23,666 - #11 =
INFO  10:40:23,666 - #29 a
INFO  10:40:23,666 - #10 ;
INFO  10:40:23,666 - #28 nizch
INFO  10:40:23,666 - #15 [
INFO  10:40:23,666 - #28 jedan
INFO  10:40:23,666 - Oporavak od greske u konstrukciji iskaza dodele na liniji 1
INFO  10:40:23,666 - #16 ]
INFO  10:40:23,666 - #11 =
INFO  10:40:23,666 - #29 b
INFO  10:40:23,681 - #10 ;
INFO  10:40:23,681 - #28 nizch
ERROR 10:40:23,681 - 
Sintaksna greska na liniji 41
INFO  10:40:23,681 - #15 [
INFO  10:40:23,681 - #28 pet
INFO  10:40:23,681 - #22 -
INFO  10:40:23,681 - #27 3
INFO  10:40:23,681 - #16 ]
INFO  10:40:23,681 - #11 =
INFO  10:40:23,681 - #29 c
INFO  10:40:23,681 - #10 ;
INFO  10:40:23,681 - #4 print
INFO  10:40:23,681 - #13 (
INFO  10:40:23,681 - #28 nizch
INFO  10:40:23,681 - Oporavak od greske u konstrukciji iskaza dodele na liniji 1
INFO  10:40:23,681 - #15 [
INFO  10:40:23,681 - #27 2
INFO  10:40:23,681 - #22 -
ERROR 10:40:23,681 - 
Sintaksna greska na liniji 42
INFO  10:40:23,681 - #27 1
INFO  10:40:23,681 - #16 ]
INFO  10:40:23,681 - #14 )
INFO  10:40:23,681 - #10 ;
INFO  10:40:23,681 - #4 print
INFO  10:40:23,681 - #13 (
INFO  10:40:23,681 - #28 nizch
INFO  10:40:23,681 - Oporavak od greske u konstrukciji iskaza dodele na liniji 1
INFO  10:40:23,681 - #15 [
INFO  10:40:23,681 - #28 jedan
INFO  10:40:23,681 - #24 *
INFO  10:40:23,681 - #27 2
INFO  10:40:23,681 - #16 ]
ERROR 10:40:23,681 - 
Sintaksna greska na liniji 43
INFO  10:40:23,681 - #14 )
INFO  10:40:23,681 - #10 ;
INFO  10:40:23,681 - #28 bodovi
INFO  10:40:23,681 - #11 =
INFO  10:40:23,681 - #28 bodovi
INFO  10:40:23,681 - Oporavak od greske u konstrukciji iskaza dodele na liniji 1
INFO  10:40:23,681 - #23 +
INFO  10:40:23,681 - #13 (
INFO  10:40:23,681 - #13 (
INFO  10:40:23,681 - #28 pet
INFO  10:40:23,681 - #24 *
INFO  10:40:23,681 - #28 jedan
INFO  10:40:23,681 - #22 -
INFO  10:40:23,681 - #27 1
INFO  10:40:23,681 - #14 )
ERROR 10:40:23,681 - 
Sintaksna greska na liniji 46
INFO  10:40:23,681 - #24 *
INFO  10:40:23,681 - #27 2
INFO  10:40:23,681 - #22 -
INFO  10:40:23,681 - #13 (
INFO  10:40:23,681 - #27 3
INFO  10:40:23,681 - #26 %
INFO  10:40:23,681 - #27 2
INFO  10:40:23,681 - #23 +
INFO  10:40:23,681 - #27 3
INFO  10:40:23,681 - #24 *
INFO  10:40:23,681 - #27 2
INFO  10:40:23,681 - #22 -
INFO  10:40:23,681 - #27 3
INFO  10:40:23,681 - #14 )
INFO  10:40:23,681 - #22 -
INFO  10:40:23,681 - #28 Broj
INFO  10:40:23,681 - #19 .
INFO  10:40:23,681 - #28 JEDAN
INFO  10:40:23,681 - #24 *
INFO  10:40:23,681 - #27 0
INFO  10:40:23,681 - #14 )
INFO  10:40:23,681 - #10 ;
INFO  10:40:23,681 - #4 print
INFO  10:40:23,681 - #13 (
INFO  10:40:23,681 - #28 bodovi
INFO  10:40:23,681 - Oporavak od greske u konstrukciji iskaza dodele na liniji 1
INFO  10:40:23,681 - #14 )
INFO  10:40:23,681 - #10 ;
INFO  10:40:23,681 - #3 read
INFO  10:40:23,681 - #13 (
INFO  10:40:23,681 - #28 bodovi
INFO  10:40:23,681 - #14 )
INFO  10:40:23,681 - #10 ;
INFO  10:40:23,681 - #28 bodovi
INFO  10:40:23,681 - #11 =
INFO  10:40:23,681 - #28 bodovi
INFO  10:40:23,681 - #23 +
INFO  10:40:23,681 - #27 1
INFO  10:40:23,681 - #10 ;
INFO  10:40:23,681 - #4 print
ERROR 10:40:23,681 - 
Sintaksna greska na liniji 52
INFO  10:40:23,681 - #13 (
INFO  10:40:23,681 - #28 bodovi
INFO  10:40:23,681 - #14 )
INFO  10:40:23,681 - #10 ;
INFO  10:40:23,681 - #18 }
INFO  10:40:23,681 - #18 }
INFO  10:40:23,681 - Oporavak od greske u konstrukciji iskaza dodele na liniji 1
INFO  10:40:23,713 - Program(
  ProgName(
   test301
  ) [ProgName]
  GlobalDeclListL(
    GlobalDeclListL(
      GlobalDeclListL(
        GlobalDeclListL(
          GlobalDeclListL(
            GlobalDeclListL(
              GlobalDeclListEps(
              ) [GlobalDeclListEps]
              GlobalDeclEnum(
                EnumDecl(
                 Broj
                  EnumDeclListL(
                    EnumDeclListL(
                      EnumDeclListL(
                        EnumDeclItem(
                          EnumDeclDefNoVal(
                           NULA
                          ) [EnumDeclDefNoVal]
                        ) [EnumDeclItem]
                        EnumDeclDefNoVal(
                         JEDAN
                        ) [EnumDeclDefNoVal]
                      ) [EnumDeclListL]
                      EnumDeclDefVal(
                       PET
                       5
                      ) [EnumDeclDefVal]
                    ) [EnumDeclListL]
                    EnumDeclDefVal(
                     DESET
                     10
                    ) [EnumDeclDefVal]
                  ) [EnumDeclListL]
                ) [EnumDecl]
              ) [GlobalDeclEnum]
            ) [GlobalDeclListL]
            GlobalDeclConst(
              ConstDeclSingle(
                Type(
                 int
                ) [Type]
               jedan
                ConstNum(
                 1
                ) [ConstNum]
              ) [ConstDeclSingle]
            ) [GlobalDeclConst]
          ) [GlobalDeclListL]
          GlobalDeclConst(
            ConstDeclSingle(
              Type(
               int
              ) [Type]
             pet
              ConstNum(
               5
              ) [ConstNum]
            ) [ConstDeclSingle]
          ) [GlobalDeclConst]
        ) [GlobalDeclListL]
        GlobalDeclConst(
          ConstDeclSingle(
            Type(
             char
            ) [Type]
           znak
            ConstChar(
             a
            ) [ConstChar]
          ) [ConstDeclSingle]
        ) [GlobalDeclConst]
      ) [GlobalDeclListL]
      GlobalDeclVar(
        GlobalVarDecl(
          Type(
           int
          ) [Type]
          GlobalVarDeclItem(
            GlobalVarDeclDefOk(
              VarDeclDefineArray(
               niz
              ) [VarDeclDefineArray]
            ) [GlobalVarDeclDefOk]
          ) [GlobalVarDeclItem]
        ) [GlobalVarDecl]
      ) [GlobalDeclVar]
    ) [GlobalDeclListL]
    GlobalDeclVar(
      GlobalVarDecl(
        Type(
         char
        ) [Type]
        GlobalVarDeclItem(
          GlobalVarDeclDefOk(
            VarDeclDefineArray(
             nizch
            ) [VarDeclDefineArray]
          ) [GlobalVarDeclDefOk]
        ) [GlobalVarDeclItem]
      ) [GlobalVarDecl]
    ) [GlobalDeclVar]
  ) [GlobalDeclListL]
  MethodDecl(
    MethodSignature(
      VoidableType(
      ) [VoidableType]
     main
    ) [MethodSignature]
    VarMethodDeclList_NoEps(
      VarMethodDeclList_NoEps(
        VarMethodDeclList_Eps(
        ) [VarMethodDeclList_Eps]
        VarDecl(
          Type(
           int
          ) [Type]
          VarDeclItem(
            VarDeclDefineSingle(
             bodovi
            ) [VarDeclDefineSingle]
          ) [VarDeclItem]
        ) [VarDecl]
      ) [VarMethodDeclList_NoEps]
      VarDecl(
        Type(
         Broj
        ) [Type]
        VarDeclListL(
          VarDeclItem(
            VarDeclDefineSingle(
             nula
            ) [VarDeclDefineSingle]
          ) [VarDeclItem]
          VarDeclDefineSingle(
           jedan
          ) [VarDeclDefineSingle]
        ) [VarDeclListL]
      ) [VarDecl]
    ) [VarMethodDeclList_NoEps]
    StatementList_NoEps(
      StatementList_NoEps(
        StatementList_NoEps(
          StatementList_NoEps(
            StatementList_NoEps(
              StatementList_NoEps(
                StatementList_NoEps(
                  StatementList_NoEps(
                    StatementList_NoEps(
                      StatementList_NoEps(
                        StatementList_NoEps(
                          StatementList_NoEps(
                            StatementList_NoEps(
                              StatementList_NoEps(
                                StatementList_NoEps(
                                  StatementList_NoEps(
                                    StatementList_NoEps(
                                      StatementList_NoEps(
                                        StatementList_NoEps(
                                          StatementList_NoEps(
                                            StatementList_NoEps(
                                              StatementList_NoEps(
                                                StatementList_Eps(
                                                ) [StatementList_Eps]
                                                StatementDes(
                                                  DesignStatAssignment(
                                                    Designator(
                                                     nula
                                                      DesDerived1(
                                                      ) [DesDerived1]
                                                    ) [Designator]
                                                    TermExpr(
                                                      TermFact(
                                                        FactorDesign(
                                                          Designator(
                                                           Broj
                                                            DesEnum(
                                                             NULA
                                                            ) [DesEnum]
                                                          ) [Designator]
                                                        ) [FactorDesign]
                                                      ) [TermFact]
                                                    ) [TermExpr]
                                                  ) [DesignStatAssignment]
                                                ) [StatementDes]
                                              ) [StatementList_NoEps]
                                              StatementDes(
                                                DesignStatAssignment(
                                                  Designator(
                                                   jedan
                                                    DesDerived1(
                                                    ) [DesDerived1]
                                                  ) [Designator]
                                                  TermExpr(
                                                    TermFact(
                                                      FactorDesign(
                                                        Designator(
                                                         Broj
                                                          DesEnum(
                                                           JEDAN
                                                          ) [DesEnum]
                                                        ) [Designator]
                                                      ) [FactorDesign]
                                                    ) [TermFact]
                                                  ) [TermExpr]
                                                ) [DesignStatAssignment]
                                              ) [StatementDes]
                                            ) [StatementList_NoEps]
                                            StatementDes(
                                              AssignementExprError(
                                              ) [AssignementExprError]
                                            ) [StatementDes]
                                          ) [StatementList_NoEps]
                                          StatementDes(
                                            DesignStatAssignment(
                                              Designator(
                                               bodovi
                                                DesDerived1(
                                                ) [DesDerived1]
                                              ) [Designator]
                                              AddopExp(
                                                TermExpr(
                                                  TermFact(
                                                    FactorDesign(
                                                      Designator(
                                                       bodovi
                                                        DesDerived1(
                                                        ) [DesDerived1]
                                                      ) [Designator]
                                                    ) [FactorDesign]
                                                  ) [TermFact]
                                                ) [TermExpr]
                                                Addop(
                                                ) [Addop]
                                                TermFact(
                                                  FactorDesign(
                                                    Designator(
                                                     jedan
                                                      DesDerived1(
                                                      ) [DesDerived1]
                                                    ) [Designator]
                                                  ) [FactorDesign]
                                                ) [TermFact]
                                              ) [AddopExp]
                                            ) [DesignStatAssignment]
                                          ) [StatementDes]
                                        ) [StatementList_NoEps]
                                        StatementDes(
                                          DesignStatAssignment(
                                            Designator(
                                             bodovi
                                              DesDerived1(
                                              ) [DesDerived1]
                                            ) [Designator]
                                            TermExpr(
                                              TermMulop(
                                                TermFact(
                                                  FactorDesign(
                                                    Designator(
                                                     bodovi
                                                      DesDerived1(
                                                      ) [DesDerived1]
                                                    ) [Designator]
                                                  ) [FactorDesign]
                                                ) [TermFact]
                                                Mulop(
                                                ) [Mulop]
                                                FactorDesign(
                                                  Designator(
                                                   pet
                                                    DesDerived1(
                                                    ) [DesDerived1]
                                                  ) [Designator]
                                                ) [FactorDesign]
                                              ) [TermMulop]
                                            ) [TermExpr]
                                          ) [DesignStatAssignment]
                                        ) [StatementDes]
                                      ) [StatementList_NoEps]
                                      StatementDes(
                                        DesignStatDec(
                                          Designator(
                                           bodovi
                                            DesDerived1(
                                            ) [DesDerived1]
                                          ) [Designator]
                                        ) [DesignStatDec]
                                      ) [StatementDes]
                                    ) [StatementList_NoEps]
                                    StatPrint(
                                      TermExpr(
                                        TermFact(
                                          FactorDesign(
                                            Designator(
                                             bodovi
                                              DesDerived1(
                                              ) [DesDerived1]
                                            ) [Designator]
                                          ) [FactorDesign]
                                        ) [TermFact]
                                      ) [TermExpr]
                                    ) [StatPrint]
                                  ) [StatementList_NoEps]
                                  StatementDes(
                                    AssignementExprError(
                                    ) [AssignementExprError]
                                  ) [StatementDes]
                                ) [StatementList_NoEps]
                                StatementDes(
                                  DesignStatAssignment(
                                    Designator(
                                     niz
                                      DesExpr(
                                        TermExpr(
                                          TermFact(
                                            FactorDesign(
                                              Designator(
                                               nula
                                                DesDerived1(
                                                ) [DesDerived1]
                                              ) [Designator]
                                            ) [FactorDesign]
                                          ) [TermFact]
                                        ) [TermExpr]
                                      ) [DesExpr]
                                    ) [Designator]
                                    TermExpr(
                                      TermFact(
                                        FactorDesign(
                                          Designator(
                                           pet
                                            DesDerived1(
                                            ) [DesDerived1]
                                          ) [Designator]
                                        ) [FactorDesign]
                                      ) [TermFact]
                                    ) [TermExpr]
                                  ) [DesignStatAssignment]
                                ) [StatementDes]
                              ) [StatementList_NoEps]
                              StatementDes(
                                AssignementExprError(
                                ) [AssignementExprError]
                              ) [StatementDes]
                            ) [StatementList_NoEps]
                            StatementDes(
                              AssignementExprError(
                              ) [AssignementExprError]
                            ) [StatementDes]
                          ) [StatementList_NoEps]
                          StatPrint(
                            TermExpr(
                              TermFact(
                                FactorDesign(
                                  Designator(
                                   bodovi
                                    DesDerived1(
                                    ) [DesDerived1]
                                  ) [Designator]
                                ) [FactorDesign]
                              ) [TermFact]
                            ) [TermExpr]
                          ) [StatPrint]
                        ) [StatementList_NoEps]
                        StatPrint(
                          TermExpr(
                            TermFact(
                              FactorDesign(
                                Designator(
                                 niz
                                  DesExpr(
                                    TermExpr(
                                      TermFact(
                                        FactorDesign(
                                          Designator(
                                           Broj
                                            DesEnum(
                                             JEDAN
                                            ) [DesEnum]
                                          ) [Designator]
                                        ) [FactorDesign]
                                      ) [TermFact]
                                    ) [TermExpr]
                                  ) [DesExpr]
                                ) [Designator]
                              ) [FactorDesign]
                            ) [TermFact]
                          ) [TermExpr]
                        ) [StatPrint]
                      ) [StatementList_NoEps]
                      StatementDes(
                        AssignementExprError(
                        ) [AssignementExprError]
                      ) [StatementDes]
                    ) [StatementList_NoEps]
                    StatementDes(
                      AssignementExprError(
                      ) [AssignementExprError]
                    ) [StatementDes]
                  ) [StatementList_NoEps]
                  StatementDes(
                    AssignementExprError(
                    ) [AssignementExprError]
                  ) [StatementDes]
                ) [StatementList_NoEps]
                StatementDes(
                  AssignementExprError(
                  ) [AssignementExprError]
                ) [StatementDes]
              ) [StatementList_NoEps]
              StatementDes(
                AssignementExprError(
                ) [AssignementExprError]
              ) [StatementDes]
            ) [StatementList_NoEps]
            StatementDes(
              AssignementExprError(
              ) [AssignementExprError]
            ) [StatementDes]
          ) [StatementList_NoEps]
          StatPrint(
            TermExpr(
              TermFact(
                FactorDesign(
                  Designator(
                   bodovi
                    DesDerived1(
                    ) [DesDerived1]
                  ) [Designator]
                ) [FactorDesign]
              ) [TermFact]
            ) [TermExpr]
          ) [StatPrint]
        ) [StatementList_NoEps]
        StatRead(
          Designator(
           bodovi
            DesDerived1(
            ) [DesDerived1]
          ) [Designator]
        ) [StatRead]
      ) [StatementList_NoEps]
      StatementDes(
        AssignementExprError(
        ) [AssignementExprError]
      ) [StatementDes]
    ) [StatementList_NoEps]
  ) [MethodDecl]
) [Program]
INFO  10:40:23,713 - ===================================
INFO  10:40:23,713 - Deklarisan novi enum tip Broj na liniji 5
INFO  10:40:23,713 - Deklarisana konstanta 'jedan' na liniji 7
INFO  10:40:23,713 - Deklarisana konstanta 'pet' na liniji 8
INFO  10:40:23,713 - Deklarisana konstanta 'znak' na liniji 9
INFO  10:40:23,713 - Deklarisana promenljiva niza niz na liniji 11
INFO  10:40:23,713 - Deklarisana promenljiva niza nizch na liniji 12
INFO  10:40:23,713 - Obradjuje se funkcija main na liniji 15
INFO  10:40:23,713 - Deklarisana promenljiva bodovi na liniji 16
INFO  10:40:23,713 - Deklarisana promenljiva nula na liniji 17
INFO  10:40:23,713 - Deklarisana promenljiva jedan na liniji 17
INFO  10:40:23,713 -  Print count calls = 0
INFO  10:40:23,713 -  Deklarisanih promenljivih ima = 9
ERROR 10:40:23,728 - Parsiranje NIJE uspesno zavrseno!
