INFO  16:31:30,534 - Compiling source file: C:\Users\ikadr\Desktop\PP\Projekat\Rad\workspace\MJCompiler\test\program.mj
INFO  16:31:30,597 - #2 program
INFO  16:31:30,597 - #28 test301
INFO  16:31:30,597 - #8 const
INFO  16:31:30,600 - #28 int
INFO  16:31:30,600 - #28 jedan
INFO  16:31:30,601 - #11 =
INFO  16:31:30,601 - #27 1
INFO  16:31:30,601 - #10 ;
INFO  16:31:30,603 - #8 const
INFO  16:31:30,604 - #28 int
INFO  16:31:30,604 - #28 pet
INFO  16:31:30,604 - #11 =
INFO  16:31:30,604 - #27 5
INFO  16:31:30,604 - #10 ;
INFO  16:31:30,604 - #28 int
INFO  16:31:30,605 - #28 niz
INFO  16:31:30,605 - #15 [
INFO  16:31:30,605 - #16 ]
INFO  16:31:30,605 - #10 ;
INFO  16:31:30,605 - #28 char
INFO  16:31:30,607 - #28 nizch
INFO  16:31:30,607 - #15 [
INFO  16:31:30,607 - #16 ]
INFO  16:31:30,607 - #10 ;
INFO  16:31:30,607 - #17 {
INFO  16:31:30,607 - #6 void
INFO  16:31:30,607 - #28 main
INFO  16:31:30,608 - #13 (
INFO  16:31:30,608 - #14 )
INFO  16:31:30,608 - #28 int
INFO  16:31:30,610 - #28 bodovi
INFO  16:31:30,610 - #10 ;
INFO  16:31:30,611 - #17 {
INFO  16:31:30,612 - #28 bodovi
INFO  16:31:30,613 - #11 =
INFO  16:31:30,613 - #27 4
INFO  16:31:30,613 - #10 ;
INFO  16:31:30,614 - #28 niz
INFO  16:31:30,614 - #11 =
INFO  16:31:30,614 - #5 new
INFO  16:31:30,614 - #28 int
INFO  16:31:30,614 - #15 [
INFO  16:31:30,614 - #27 2
INFO  16:31:30,614 - #16 ]
INFO  16:31:30,614 - #10 ;
INFO  16:31:30,615 - #28 niz
INFO  16:31:30,615 - #15 [
INFO  16:31:30,616 - #27 0
INFO  16:31:30,616 - #16 ]
INFO  16:31:30,616 - #11 =
INFO  16:31:30,616 - #22 -
INFO  16:31:30,616 - #27 15
INFO  16:31:30,616 - #10 ;
INFO  16:31:30,617 - #4 print
INFO  16:31:30,617 - #13 (
INFO  16:31:30,617 - #28 niz
INFO  16:31:30,617 - #15 [
INFO  16:31:30,617 - #27 0
INFO  16:31:30,617 - #16 ]
INFO  16:31:30,617 - #14 )
INFO  16:31:30,618 - #10 ;
INFO  16:31:30,618 - #28 niz
INFO  16:31:30,619 - #15 [
INFO  16:31:30,619 - #27 0
INFO  16:31:30,619 - #16 ]
INFO  16:31:30,619 - #11 =
INFO  16:31:30,620 - #27 1
INFO  16:31:30,620 - #10 ;
INFO  16:31:30,624 - #28 niz
INFO  16:31:30,625 - #15 [
INFO  16:31:30,625 - #27 1
INFO  16:31:30,625 - #16 ]
INFO  16:31:30,625 - #11 =
INFO  16:31:30,625 - #27 6
INFO  16:31:30,625 - #10 ;
INFO  16:31:30,625 - #4 print
INFO  16:31:30,625 - #13 (
INFO  16:31:30,625 - #28 niz
INFO  16:31:30,625 - #15 [
INFO  16:31:30,626 - #28 niz
INFO  16:31:30,626 - #15 [
INFO  16:31:30,626 - #27 0
INFO  16:31:30,626 - #16 ]
INFO  16:31:30,626 - #16 ]
INFO  16:31:30,626 - #14 )
INFO  16:31:30,627 - #10 ;
INFO  16:31:30,627 - #28 niz
INFO  16:31:30,627 - #15 [
INFO  16:31:30,627 - #28 niz
INFO  16:31:30,627 - #15 [
INFO  16:31:30,627 - #27 0
INFO  16:31:30,627 - #16 ]
INFO  16:31:30,628 - #16 ]
INFO  16:31:30,628 - #21 --
INFO  16:31:30,628 - #10 ;
INFO  16:31:30,628 - #4 print
INFO  16:31:30,628 - #13 (
INFO  16:31:30,628 - #28 niz
INFO  16:31:30,629 - #15 [
INFO  16:31:30,629 - #28 niz
INFO  16:31:30,629 - #15 [
INFO  16:31:30,629 - #27 0
INFO  16:31:30,629 - #16 ]
INFO  16:31:30,629 - #16 ]
INFO  16:31:30,629 - #14 )
INFO  16:31:30,629 - #10 ;
INFO  16:31:30,629 - #28 nizch
INFO  16:31:30,629 - #11 =
INFO  16:31:30,629 - #5 new
INFO  16:31:30,630 - #28 char
INFO  16:31:30,630 - #15 [
INFO  16:31:30,630 - #27 5
INFO  16:31:30,630 - #16 ]
INFO  16:31:30,630 - #10 ;
INFO  16:31:30,630 - #28 nizch
INFO  16:31:30,630 - #15 [
INFO  16:31:30,630 - #27 0
INFO  16:31:30,630 - #16 ]
INFO  16:31:30,630 - #11 =
INFO  16:31:30,631 - #29 a
INFO  16:31:30,631 - #10 ;
INFO  16:31:30,631 - #28 nizch
INFO  16:31:30,631 - #15 [
INFO  16:31:30,631 - #28 jedan
INFO  16:31:30,631 - #16 ]
INFO  16:31:30,631 - #11 =
INFO  16:31:30,631 - #29 b
INFO  16:31:30,632 - #10 ;
INFO  16:31:30,632 - #28 nizch
INFO  16:31:30,632 - #15 [
INFO  16:31:30,632 - #28 pet
INFO  16:31:30,632 - #22 -
INFO  16:31:30,632 - #27 3
INFO  16:31:30,635 - #16 ]
INFO  16:31:30,635 - #11 =
INFO  16:31:30,635 - #29 c
INFO  16:31:30,635 - #10 ;
INFO  16:31:30,635 - #28 nizch
INFO  16:31:30,636 - #15 [
INFO  16:31:30,636 - #28 pet
INFO  16:31:30,636 - #22 -
INFO  16:31:30,636 - #27 2
INFO  16:31:30,636 - #16 ]
INFO  16:31:30,636 - #11 =
INFO  16:31:30,636 - #29 d
INFO  16:31:30,636 - #10 ;
INFO  16:31:30,636 - #28 nizch
INFO  16:31:30,636 - #15 [
INFO  16:31:30,636 - #28 pet
INFO  16:31:30,637 - #22 -
INFO  16:31:30,637 - #28 jedan
INFO  16:31:30,637 - #16 ]
INFO  16:31:30,637 - #11 =
INFO  16:31:30,637 - #29 e
INFO  16:31:30,637 - #10 ;
INFO  16:31:30,637 - #4 print
INFO  16:31:30,637 - #13 (
INFO  16:31:30,637 - #28 nizch
INFO  16:31:30,637 - #15 [
INFO  16:31:30,637 - #27 2
INFO  16:31:30,637 - #22 -
INFO  16:31:30,637 - #27 1
INFO  16:31:30,638 - #16 ]
INFO  16:31:30,638 - #14 )
INFO  16:31:30,638 - #10 ;
INFO  16:31:30,638 - #4 print
INFO  16:31:30,638 - #13 (
INFO  16:31:30,638 - #28 nizch
INFO  16:31:30,638 - #15 [
INFO  16:31:30,638 - #28 pet
INFO  16:31:30,638 - #24 *
INFO  16:31:30,638 - #27 2
INFO  16:31:30,641 - #22 -
INFO  16:31:30,641 - #28 pet
INFO  16:31:30,641 - #22 -
INFO  16:31:30,641 - #28 jedan
INFO  16:31:30,642 - #16 ]
INFO  16:31:30,642 - #14 )
INFO  16:31:30,642 - #10 ;
INFO  16:31:30,642 - #18 }
INFO  16:31:30,642 - #18 }
INFO  16:31:30,660 - Program(
  ProgName(
   test301
  ) [ProgName]
  GlobalDeclListL(
    GlobalDeclListL(
      GlobalDeclListL(
        GlobalDeclListL(
          GlobalDeclListEps(
          ) [GlobalDeclListEps]
          GlobalDeclConst(
            ConstDecl(
              Type(
               int
              ) [Type]
              ConstDeclItem(
                ConstDef(
                 jedan
                  ConstNum(
                   1
                  ) [ConstNum]
                ) [ConstDef]
              ) [ConstDeclItem]
            ) [ConstDecl]
          ) [GlobalDeclConst]
        ) [GlobalDeclListL]
        GlobalDeclConst(
          ConstDecl(
            Type(
             int
            ) [Type]
            ConstDeclItem(
              ConstDef(
               pet
                ConstNum(
                 5
                ) [ConstNum]
              ) [ConstDef]
            ) [ConstDeclItem]
          ) [ConstDecl]
        ) [GlobalDeclConst]
      ) [GlobalDeclListL]
      GlobalDeclVar(
        GlobalVarDecl(
          Type(
           int
          ) [Type]
          GlobalVarDeclItem(
            GlobalVarDeclDefOk(
              VarDeclDefineArray(
               niz
              ) [VarDeclDefineArray]
            ) [GlobalVarDeclDefOk]
          ) [GlobalVarDeclItem]
        ) [GlobalVarDecl]
      ) [GlobalDeclVar]
    ) [GlobalDeclListL]
    GlobalDeclVar(
      GlobalVarDecl(
        Type(
         char
        ) [Type]
        GlobalVarDeclItem(
          GlobalVarDeclDefOk(
            VarDeclDefineArray(
             nizch
            ) [VarDeclDefineArray]
          ) [GlobalVarDeclDefOk]
        ) [GlobalVarDeclItem]
      ) [GlobalVarDecl]
    ) [GlobalDeclVar]
  ) [GlobalDeclListL]
  MethodDecl(
    MethodSignature(
      VoidableType(
      ) [VoidableType]
     main
    ) [MethodSignature]
    VarMethodDeclList_NoEps(
      VarMethodDeclList_Eps(
      ) [VarMethodDeclList_Eps]
      VarDecl(
        Type(
         int
        ) [Type]
        VarDeclItem(
          VarDeclDefineSingle(
           bodovi
          ) [VarDeclDefineSingle]
        ) [VarDeclItem]
      ) [VarDecl]
    ) [VarMethodDeclList_NoEps]
    StatementList_NoEps(
      StatementList_NoEps(
        StatementList_NoEps(
          StatementList_NoEps(
            StatementList_NoEps(
              StatementList_NoEps(
                StatementList_NoEps(
                  StatementList_NoEps(
                    StatementList_NoEps(
                      StatementList_NoEps(
                        StatementList_NoEps(
                          StatementList_NoEps(
                            StatementList_NoEps(
                              StatementList_NoEps(
                                StatementList_NoEps(
                                  StatementList_NoEps(
                                    StatementList_NoEps(
                                      StatementList_Eps(
                                      ) [StatementList_Eps]
                                      StatementDes(
                                        DesignStatAssignment(
                                          DesIdent(
                                           bodovi
                                          ) [DesIdent]
                                          AssignementExpr(
                                            TermExpr(
                                              TermFact(
                                                FactorConst(
                                                  ConstNum(
                                                   4
                                                  ) [ConstNum]
                                                ) [FactorConst]
                                              ) [TermFact]
                                            ) [TermExpr]
                                          ) [AssignementExpr]
                                        ) [DesignStatAssignment]
                                      ) [StatementDes]
                                    ) [StatementList_NoEps]
                                    StatementDes(
                                      DesignStatAssignment(
                                        DesIdent(
                                         niz
                                        ) [DesIdent]
                                        AssignementExpr(
                                          TermExpr(
                                            TermFact(
                                              FactorNewArr(
                                                Type(
                                                 int
                                                ) [Type]
                                                TermExpr(
                                                  TermFact(
                                                    FactorConst(
                                                      ConstNum(
                                                       2
                                                      ) [ConstNum]
                                                    ) [FactorConst]
                                                  ) [TermFact]
                                                ) [TermExpr]
                                              ) [FactorNewArr]
                                            ) [TermFact]
                                          ) [TermExpr]
                                        ) [AssignementExpr]
                                      ) [DesignStatAssignment]
                                    ) [StatementDes]
                                  ) [StatementList_NoEps]
                                  StatementDes(
                                    DesignStatAssignment(
                                      DesArr(
                                        ArrayName(
                                         niz
                                        ) [ArrayName]
                                        TermExpr(
                                          TermFact(
                                            FactorConst(
                                              ConstNum(
                                               0
                                              ) [ConstNum]
                                            ) [FactorConst]
                                          ) [TermFact]
                                        ) [TermExpr]
                                      ) [DesArr]
                                      AssignementExpr(
                                        NegTermExpr(
                                          TermFact(
                                            FactorConst(
                                              ConstNum(
                                               15
                                              ) [ConstNum]
                                            ) [FactorConst]
                                          ) [TermFact]
                                        ) [NegTermExpr]
                                      ) [AssignementExpr]
                                    ) [DesignStatAssignment]
                                  ) [StatementDes]
                                ) [StatementList_NoEps]
                                StatPrint(
                                  TermExpr(
                                    TermFact(
                                      FactorDesign(
                                        DesArr(
                                          ArrayName(
                                           niz
                                          ) [ArrayName]
                                          TermExpr(
                                            TermFact(
                                              FactorConst(
                                                ConstNum(
                                                 0
                                                ) [ConstNum]
                                              ) [FactorConst]
                                            ) [TermFact]
                                          ) [TermExpr]
                                        ) [DesArr]
                                      ) [FactorDesign]
                                    ) [TermFact]
                                  ) [TermExpr]
                                ) [StatPrint]
                              ) [StatementList_NoEps]
                              StatementDes(
                                DesignStatAssignment(
                                  DesArr(
                                    ArrayName(
                                     niz
                                    ) [ArrayName]
                                    TermExpr(
                                      TermFact(
                                        FactorConst(
                                          ConstNum(
                                           0
                                          ) [ConstNum]
                                        ) [FactorConst]
                                      ) [TermFact]
                                    ) [TermExpr]
                                  ) [DesArr]
                                  AssignementExpr(
                                    TermExpr(
                                      TermFact(
                                        FactorConst(
                                          ConstNum(
                                           1
                                          ) [ConstNum]
                                        ) [FactorConst]
                                      ) [TermFact]
                                    ) [TermExpr]
                                  ) [AssignementExpr]
                                ) [DesignStatAssignment]
                              ) [StatementDes]
                            ) [StatementList_NoEps]
                            StatementDes(
                              DesignStatAssignment(
                                DesArr(
                                  ArrayName(
                                   niz
                                  ) [ArrayName]
                                  TermExpr(
                                    TermFact(
                                      FactorConst(
                                        ConstNum(
                                         1
                                        ) [ConstNum]
                                      ) [FactorConst]
                                    ) [TermFact]
                                  ) [TermExpr]
                                ) [DesArr]
                                AssignementExpr(
                                  TermExpr(
                                    TermFact(
                                      FactorConst(
                                        ConstNum(
                                         6
                                        ) [ConstNum]
                                      ) [FactorConst]
                                    ) [TermFact]
                                  ) [TermExpr]
                                ) [AssignementExpr]
                              ) [DesignStatAssignment]
                            ) [StatementDes]
                          ) [StatementList_NoEps]
                          StatPrint(
                            TermExpr(
                              TermFact(
                                FactorDesign(
                                  DesArr(
                                    ArrayName(
                                     niz
                                    ) [ArrayName]
                                    TermExpr(
                                      TermFact(
                                        FactorDesign(
                                          DesArr(
                                            ArrayName(
                                             niz
                                            ) [ArrayName]
                                            TermExpr(
                                              TermFact(
                                                FactorConst(
                                                  ConstNum(
                                                   0
                                                  ) [ConstNum]
                                                ) [FactorConst]
                                              ) [TermFact]
                                            ) [TermExpr]
                                          ) [DesArr]
                                        ) [FactorDesign]
                                      ) [TermFact]
                                    ) [TermExpr]
                                  ) [DesArr]
                                ) [FactorDesign]
                              ) [TermFact]
                            ) [TermExpr]
                          ) [StatPrint]
                        ) [StatementList_NoEps]
                        StatementDes(
                          DesignStatDec(
                            DesArr(
                              ArrayName(
                               niz
                              ) [ArrayName]
                              TermExpr(
                                TermFact(
                                  FactorDesign(
                                    DesArr(
                                      ArrayName(
                                       niz
                                      ) [ArrayName]
                                      TermExpr(
                                        TermFact(
                                          FactorConst(
                                            ConstNum(
                                             0
                                            ) [ConstNum]
                                          ) [FactorConst]
                                        ) [TermFact]
                                      ) [TermExpr]
                                    ) [DesArr]
                                  ) [FactorDesign]
                                ) [TermFact]
                              ) [TermExpr]
                            ) [DesArr]
                          ) [DesignStatDec]
                        ) [StatementDes]
                      ) [StatementList_NoEps]
                      StatPrint(
                        TermExpr(
                          TermFact(
                            FactorDesign(
                              DesArr(
                                ArrayName(
                                 niz
                                ) [ArrayName]
                                TermExpr(
                                  TermFact(
                                    FactorDesign(
                                      DesArr(
                                        ArrayName(
                                         niz
                                        ) [ArrayName]
                                        TermExpr(
                                          TermFact(
                                            FactorConst(
                                              ConstNum(
                                               0
                                              ) [ConstNum]
                                            ) [FactorConst]
                                          ) [TermFact]
                                        ) [TermExpr]
                                      ) [DesArr]
                                    ) [FactorDesign]
                                  ) [TermFact]
                                ) [TermExpr]
                              ) [DesArr]
                            ) [FactorDesign]
                          ) [TermFact]
                        ) [TermExpr]
                      ) [StatPrint]
                    ) [StatementList_NoEps]
                    StatementDes(
                      DesignStatAssignment(
                        DesIdent(
                         nizch
                        ) [DesIdent]
                        AssignementExpr(
                          TermExpr(
                            TermFact(
                              FactorNewArr(
                                Type(
                                 char
                                ) [Type]
                                TermExpr(
                                  TermFact(
                                    FactorConst(
                                      ConstNum(
                                       5
                                      ) [ConstNum]
                                    ) [FactorConst]
                                  ) [TermFact]
                                ) [TermExpr]
                              ) [FactorNewArr]
                            ) [TermFact]
                          ) [TermExpr]
                        ) [AssignementExpr]
                      ) [DesignStatAssignment]
                    ) [StatementDes]
                  ) [StatementList_NoEps]
                  StatementDes(
                    DesignStatAssignment(
                      DesArr(
                        ArrayName(
                         nizch
                        ) [ArrayName]
                        TermExpr(
                          TermFact(
                            FactorConst(
                              ConstNum(
                               0
                              ) [ConstNum]
                            ) [FactorConst]
                          ) [TermFact]
                        ) [TermExpr]
                      ) [DesArr]
                      AssignementExpr(
                        TermExpr(
                          TermFact(
                            FactorConst(
                              ConstChar(
                               a
                              ) [ConstChar]
                            ) [FactorConst]
                          ) [TermFact]
                        ) [TermExpr]
                      ) [AssignementExpr]
                    ) [DesignStatAssignment]
                  ) [StatementDes]
                ) [StatementList_NoEps]
                StatementDes(
                  DesignStatAssignment(
                    DesArr(
                      ArrayName(
                       nizch
                      ) [ArrayName]
                      TermExpr(
                        TermFact(
                          FactorDesign(
                            DesIdent(
                             jedan
                            ) [DesIdent]
                          ) [FactorDesign]
                        ) [TermFact]
                      ) [TermExpr]
                    ) [DesArr]
                    AssignementExpr(
                      TermExpr(
                        TermFact(
                          FactorConst(
                            ConstChar(
                             b
                            ) [ConstChar]
                          ) [FactorConst]
                        ) [TermFact]
                      ) [TermExpr]
                    ) [AssignementExpr]
                  ) [DesignStatAssignment]
                ) [StatementDes]
              ) [StatementList_NoEps]
              StatementDes(
                DesignStatAssignment(
                  DesArr(
                    ArrayName(
                     nizch
                    ) [ArrayName]
                    AddopExp(
                      TermExpr(
                        TermFact(
                          FactorDesign(
                            DesIdent(
                             pet
                            ) [DesIdent]
                          ) [FactorDesign]
                        ) [TermFact]
                      ) [TermExpr]
                      Addop_Minus(
                      ) [Addop_Minus]
                      TermFact(
                        FactorConst(
                          ConstNum(
                           3
                          ) [ConstNum]
                        ) [FactorConst]
                      ) [TermFact]
                    ) [AddopExp]
                  ) [DesArr]
                  AssignementExpr(
                    TermExpr(
                      TermFact(
                        FactorConst(
                          ConstChar(
                           c
                          ) [ConstChar]
                        ) [FactorConst]
                      ) [TermFact]
                    ) [TermExpr]
                  ) [AssignementExpr]
                ) [DesignStatAssignment]
              ) [StatementDes]
            ) [StatementList_NoEps]
            StatementDes(
              DesignStatAssignment(
                DesArr(
                  ArrayName(
                   nizch
                  ) [ArrayName]
                  AddopExp(
                    TermExpr(
                      TermFact(
                        FactorDesign(
                          DesIdent(
                           pet
                          ) [DesIdent]
                        ) [FactorDesign]
                      ) [TermFact]
                    ) [TermExpr]
                    Addop_Minus(
                    ) [Addop_Minus]
                    TermFact(
                      FactorConst(
                        ConstNum(
                         2
                        ) [ConstNum]
                      ) [FactorConst]
                    ) [TermFact]
                  ) [AddopExp]
                ) [DesArr]
                AssignementExpr(
                  TermExpr(
                    TermFact(
                      FactorConst(
                        ConstChar(
                         d
                        ) [ConstChar]
                      ) [FactorConst]
                    ) [TermFact]
                  ) [TermExpr]
                ) [AssignementExpr]
              ) [DesignStatAssignment]
            ) [StatementDes]
          ) [StatementList_NoEps]
          StatementDes(
            DesignStatAssignment(
              DesArr(
                ArrayName(
                 nizch
                ) [ArrayName]
                AddopExp(
                  TermExpr(
                    TermFact(
                      FactorDesign(
                        DesIdent(
                         pet
                        ) [DesIdent]
                      ) [FactorDesign]
                    ) [TermFact]
                  ) [TermExpr]
                  Addop_Minus(
                  ) [Addop_Minus]
                  TermFact(
                    FactorDesign(
                      DesIdent(
                       jedan
                      ) [DesIdent]
                    ) [FactorDesign]
                  ) [TermFact]
                ) [AddopExp]
              ) [DesArr]
              AssignementExpr(
                TermExpr(
                  TermFact(
                    FactorConst(
                      ConstChar(
                       e
                      ) [ConstChar]
                    ) [FactorConst]
                  ) [TermFact]
                ) [TermExpr]
              ) [AssignementExpr]
            ) [DesignStatAssignment]
          ) [StatementDes]
        ) [StatementList_NoEps]
        StatPrint(
          TermExpr(
            TermFact(
              FactorDesign(
                DesArr(
                  ArrayName(
                   nizch
                  ) [ArrayName]
                  AddopExp(
                    TermExpr(
                      TermFact(
                        FactorConst(
                          ConstNum(
                           2
                          ) [ConstNum]
                        ) [FactorConst]
                      ) [TermFact]
                    ) [TermExpr]
                    Addop_Minus(
                    ) [Addop_Minus]
                    TermFact(
                      FactorConst(
                        ConstNum(
                         1
                        ) [ConstNum]
                      ) [FactorConst]
                    ) [TermFact]
                  ) [AddopExp]
                ) [DesArr]
              ) [FactorDesign]
            ) [TermFact]
          ) [TermExpr]
        ) [StatPrint]
      ) [StatementList_NoEps]
      StatPrint(
        TermExpr(
          TermFact(
            FactorDesign(
              DesArr(
                ArrayName(
                 nizch
                ) [ArrayName]
                AddopExp(
                  AddopExp(
                    TermExpr(
                      TermMulop(
                        TermFact(
                          FactorDesign(
                            DesIdent(
                             pet
                            ) [DesIdent]
                          ) [FactorDesign]
                        ) [TermFact]
                        Mulop_Mul(
                        ) [Mulop_Mul]
                        FactorConst(
                          ConstNum(
                           2
                          ) [ConstNum]
                        ) [FactorConst]
                      ) [TermMulop]
                    ) [TermExpr]
                    Addop_Minus(
                    ) [Addop_Minus]
                    TermFact(
                      FactorDesign(
                        DesIdent(
                         pet
                        ) [DesIdent]
                      ) [FactorDesign]
                    ) [TermFact]
                  ) [AddopExp]
                  Addop_Minus(
                  ) [Addop_Minus]
                  TermFact(
                    FactorDesign(
                      DesIdent(
                       jedan
                      ) [DesIdent]
                    ) [FactorDesign]
                  ) [TermFact]
                ) [AddopExp]
              ) [DesArr]
            ) [FactorDesign]
          ) [TermFact]
        ) [TermExpr]
      ) [StatPrint]
    ) [StatementList_NoEps]
  ) [MethodDecl]
) [Program]
INFO  16:31:30,661 - ===================================
INFO  16:31:30,665 - Deklarisana konstanta 'jedan' na liniji 5
INFO  16:31:30,665 - Deklarisana konstanta 'pet' na liniji 6
INFO  16:31:30,666 - Deklarisana promenljiva niza niz tipa 1 na liniji 7
INFO  16:31:30,666 - Deklarisana promenljiva niza nizch tipa 2 na liniji 8
INFO  16:31:30,671 - Obradjuje se funkcija main na liniji 11
INFO  16:31:30,673 - Deklarisana promenljiva bodovi tipa 1 na liniji 12
INFO  16:31:30,674 - Dodeljenja vrednost: 1 je design,1 je assign
INFO  16:31:30,676 - 1 je kind terma
INFO  16:31:30,680 - Print funkcija na liniji 18
INFO  16:31:30,681 - Print funkcija na liniji 21
INFO  16:31:30,681 - Dekrementirana vrednost
INFO  16:31:30,681 - Print funkcija na liniji 23
INFO  16:31:30,681 - Print funkcija na liniji 31
INFO  16:31:30,682 - Print funkcija na liniji 32
INFO  16:31:30,682 -  Print count calls = 5
INFO  16:31:30,682 -  Deklarisanih promenljivih ima = 3
INFO  16:31:30,809 - 
INFO  16:31:30,810 - Parsiranje uspesno zavrseno!
