INFO  17:31:53,904 - Compiling source file: C:\Users\ikadr\Desktop\PP\Projekat\Rad\workspace\MJCompiler\test\program.mj
INFO  17:31:53,968 - #2 program
INFO  17:31:53,968 - #28 test301
INFO  17:31:53,968 - #9 enum
INFO  17:31:53,968 - #28 Broj
INFO  17:31:53,968 - #17 {
INFO  17:31:53,968 - #28 NULA
INFO  17:31:53,968 - #12 ,
INFO  17:31:53,968 - #28 JEDAN
INFO  17:31:53,968 - #12 ,
INFO  17:31:53,968 - #28 PET
INFO  17:31:53,968 - #11 =
INFO  17:31:53,968 - #27 5
INFO  17:31:53,968 - #12 ,
INFO  17:31:53,968 - #28 DESET
INFO  17:31:53,968 - #11 =
INFO  17:31:53,968 - #27 10
INFO  17:31:53,968 - #18 }
INFO  17:31:53,968 - #8 const
INFO  17:31:53,983 - #28 int
INFO  17:31:53,983 - #28 jedan
INFO  17:31:53,983 - #11 =
INFO  17:31:53,983 - #27 1
INFO  17:31:53,983 - #10 ;
INFO  17:31:53,983 - #8 const
INFO  17:31:53,983 - #28 int
INFO  17:31:53,983 - #28 pet
INFO  17:31:53,983 - #11 =
INFO  17:31:53,983 - #27 5
INFO  17:31:53,983 - #10 ;
INFO  17:31:53,983 - #28 int
INFO  17:31:53,983 - #28 niz
INFO  17:31:53,983 - #15 [
INFO  17:31:53,983 - #16 ]
INFO  17:31:53,983 - #10 ;
INFO  17:31:53,983 - #28 char
INFO  17:31:53,983 - #28 nizch
INFO  17:31:53,983 - #15 [
INFO  17:31:53,983 - #16 ]
INFO  17:31:53,983 - #10 ;
INFO  17:31:53,983 - #17 {
INFO  17:31:53,983 - #6 void
INFO  17:31:53,983 - #28 main
INFO  17:31:53,983 - #13 (
INFO  17:31:53,983 - #14 )
INFO  17:31:53,983 - #17 {
INFO  17:31:53,983 - #4 print
INFO  17:31:53,983 - #13 (
INFO  17:31:53,983 - #27 1
INFO  17:31:53,983 - #14 )
INFO  17:31:53,983 - #10 ;
INFO  17:31:53,983 - #4 print
INFO  17:31:53,983 - #13 (
INFO  17:31:53,983 - #27 2
INFO  17:31:53,999 - #14 )
INFO  17:31:53,999 - #10 ;
INFO  17:31:53,999 - #18 }
INFO  17:31:53,999 - #18 }
INFO  17:31:54,010 - Program(
  ProgName(
   test301
  ) [ProgName]
  GlobalDeclListL(
    GlobalDeclListL(
      GlobalDeclListL(
        GlobalDeclListL(
          GlobalDeclListL(
            GlobalDeclListEps(
            ) [GlobalDeclListEps]
            GlobalDeclEnum(
              EnumDecl(
               Broj
                EnumDeclListL(
                  EnumDeclListL(
                    EnumDeclListL(
                      EnumDeclItem(
                        EnumDeclDefNoVal(
                         NULA
                        ) [EnumDeclDefNoVal]
                      ) [EnumDeclItem]
                      EnumDeclDefNoVal(
                       JEDAN
                      ) [EnumDeclDefNoVal]
                    ) [EnumDeclListL]
                    EnumDeclDefVal(
                     PET
                     5
                    ) [EnumDeclDefVal]
                  ) [EnumDeclListL]
                  EnumDeclDefVal(
                   DESET
                   10
                  ) [EnumDeclDefVal]
                ) [EnumDeclListL]
              ) [EnumDecl]
            ) [GlobalDeclEnum]
          ) [GlobalDeclListL]
          GlobalDeclConst(
            ConstDecl(
              Type(
               int
              ) [Type]
              ConstDeclItem(
                ConstDef(
                 jedan
                  ConstNum(
                   1
                  ) [ConstNum]
                ) [ConstDef]
              ) [ConstDeclItem]
            ) [ConstDecl]
          ) [GlobalDeclConst]
        ) [GlobalDeclListL]
        GlobalDeclConst(
          ConstDecl(
            Type(
             int
            ) [Type]
            ConstDeclItem(
              ConstDef(
               pet
                ConstNum(
                 5
                ) [ConstNum]
              ) [ConstDef]
            ) [ConstDeclItem]
          ) [ConstDecl]
        ) [GlobalDeclConst]
      ) [GlobalDeclListL]
      GlobalDeclVar(
        GlobalVarDecl(
          Type(
           int
          ) [Type]
          GlobalVarDeclItem(
            GlobalVarDeclDefOk(
              VarDeclDefineArray(
               niz
              ) [VarDeclDefineArray]
            ) [GlobalVarDeclDefOk]
          ) [GlobalVarDeclItem]
        ) [GlobalVarDecl]
      ) [GlobalDeclVar]
    ) [GlobalDeclListL]
    GlobalDeclVar(
      GlobalVarDecl(
        Type(
         char
        ) [Type]
        GlobalVarDeclItem(
          GlobalVarDeclDefOk(
            VarDeclDefineArray(
             nizch
            ) [VarDeclDefineArray]
          ) [GlobalVarDeclDefOk]
        ) [GlobalVarDeclItem]
      ) [GlobalVarDecl]
    ) [GlobalDeclVar]
  ) [GlobalDeclListL]
  MethodDecl(
    MethodSignature(
      VoidableType(
      ) [VoidableType]
     main
    ) [MethodSignature]
    VarMethodDeclList_Eps(
    ) [VarMethodDeclList_Eps]
    StatementList_NoEps(
      StatementList_NoEps(
        StatementList_Eps(
        ) [StatementList_Eps]
        StatPrint(
          TermExpr(
            TermFact(
              FactorConst(
                ConstNum(
                 1
                ) [ConstNum]
              ) [FactorConst]
            ) [TermFact]
          ) [TermExpr]
        ) [StatPrint]
      ) [StatementList_NoEps]
      StatPrint(
        TermExpr(
          TermFact(
            FactorConst(
              ConstNum(
               2
              ) [ConstNum]
            ) [FactorConst]
          ) [TermFact]
        ) [TermExpr]
      ) [StatPrint]
    ) [StatementList_NoEps]
  ) [MethodDecl]
) [Program]
INFO  17:31:54,010 - ===================================
INFO  17:31:54,077 - Deklarisan novi enum tip Broj na liniji 5
INFO  17:31:54,077 - Deklarisana konstanta 'jedan' na liniji 7
INFO  17:31:54,077 - Deklarisana konstanta 'pet' na liniji 8
INFO  17:31:54,077 - Deklarisana promenljiva niza niz tipa 1 na liniji 10
INFO  17:31:54,078 - Deklarisana promenljiva niza nizch tipa 2 na liniji 11
INFO  17:31:54,078 - Obradjuje se funkcija main na liniji 14
INFO  17:31:54,078 -  Print count calls = 2
INFO  17:31:54,078 -  Deklarisanih promenljivih ima = 4
