INFO  17:06:29,515 - Compiling source file: C:\Users\ikadr\Desktop\PP\Projekat\Rad\workspace\MJCompiler\test\program.mj
INFO  17:06:29,578 - #2 program
INFO  17:06:29,578 - #28 test301
INFO  17:06:29,578 - #9 enum
INFO  17:06:29,578 - #28 Broj
INFO  17:06:29,578 - #17 {
INFO  17:06:29,578 - #28 NULA
INFO  17:06:29,578 - #12 ,
INFO  17:06:29,578 - #28 JEDAN
INFO  17:06:29,578 - #12 ,
INFO  17:06:29,578 - #28 PET
INFO  17:06:29,578 - #11 =
INFO  17:06:29,578 - #27 5
INFO  17:06:29,578 - #12 ,
INFO  17:06:29,578 - #28 DESET
INFO  17:06:29,578 - #11 =
INFO  17:06:29,578 - #27 10
INFO  17:06:29,578 - #18 }
INFO  17:06:29,578 - #8 const
INFO  17:06:29,578 - #28 int
INFO  17:06:29,578 - #28 jedan
INFO  17:06:29,578 - #11 =
INFO  17:06:29,594 - #27 1
INFO  17:06:29,594 - #10 ;
INFO  17:06:29,594 - #8 const
INFO  17:06:29,594 - #28 int
INFO  17:06:29,594 - #28 pet
INFO  17:06:29,594 - #11 =
INFO  17:06:29,594 - #27 5
INFO  17:06:29,594 - #10 ;
INFO  17:06:29,594 - #28 int
INFO  17:06:29,594 - #28 niz
INFO  17:06:29,594 - #15 [
INFO  17:06:29,594 - #16 ]
INFO  17:06:29,594 - #10 ;
INFO  17:06:29,594 - #28 char
INFO  17:06:29,594 - #28 nizch
INFO  17:06:29,594 - #15 [
INFO  17:06:29,594 - #16 ]
INFO  17:06:29,594 - #10 ;
INFO  17:06:29,594 - #28 int
INFO  17:06:29,594 - #28 p
INFO  17:06:29,594 - #11 =
ERROR 17:06:29,594 - 
Sintaksna greska na liniji 12
INFO  17:06:29,609 - #27 2
INFO  17:06:29,609 - #10 ;
INFO  17:06:29,609 - #17 {
INFO  17:06:29,609 - #6 void
INFO  17:06:29,609 - #28 main
INFO  17:06:29,609 - #13 (
INFO  17:06:29,609 - #14 )
INFO  17:06:29,609 - #28 int
INFO  17:06:29,609 - #28 bodovi
INFO  17:06:29,609 - #10 ;
INFO  17:06:29,609 - #28 Broj
INFO  17:06:29,609 - #28 nula
INFO  17:06:29,609 - #12 ,
INFO  17:06:29,609 - #28 jedan
INFO  17:06:29,609 - #10 ;
INFO  17:06:29,609 - #17 {
INFO  17:06:29,609 - #28 nula
INFO  17:06:29,609 - #11 =
INFO  17:06:29,609 - #28 Broj
INFO  17:06:29,609 - #19 .
INFO  17:06:29,609 - #28 NULA
INFO  17:06:29,609 - #10 ;
INFO  17:06:29,609 - #28 jedan
INFO  17:06:29,609 - #11 =
INFO  17:06:29,609 - #28 Broj
INFO  17:06:29,609 - #19 .
INFO  17:06:29,609 - #28 JEDAN
INFO  17:06:29,609 - #10 ;
INFO  17:06:29,609 - #28 bodovi
INFO  17:06:29,609 - #11 =
INFO  17:06:29,609 - #27 0
INFO  17:06:29,609 - #10 ;
INFO  17:06:29,609 - #28 bodovi
INFO  17:06:29,609 - #20 ++
INFO  17:06:29,609 - #10 ;
INFO  17:06:29,609 - #28 bodovi
INFO  17:06:29,609 - #11 =
INFO  17:06:29,609 - #28 bodovi
INFO  17:06:29,609 - #23 +
INFO  17:06:29,609 - #28 jedan
INFO  17:06:29,609 - #10 ;
INFO  17:06:29,609 - #28 bodovi
INFO  17:06:29,609 - #11 =
INFO  17:06:29,609 - #28 bodovi
INFO  17:06:29,616 - #24 *
INFO  17:06:29,616 - #28 pet
INFO  17:06:29,616 - #10 ;
INFO  17:06:29,616 - #28 bodovi
INFO  17:06:29,616 - #21 --
INFO  17:06:29,616 - #10 ;
INFO  17:06:29,616 - #4 print
INFO  17:06:29,616 - #13 (
INFO  17:06:29,616 - #28 bodovi
INFO  17:06:29,616 - #14 )
INFO  17:06:29,616 - #10 ;
INFO  17:06:29,616 - #28 niz
INFO  17:06:29,616 - #11 =
INFO  17:06:29,616 - #5 new
INFO  17:06:29,616 - #28 int
INFO  17:06:29,616 - #15 [
INFO  17:06:29,616 - #27 2
INFO  17:06:29,616 - #16 ]
INFO  17:06:29,616 - #10 ;
INFO  17:06:29,616 - #28 niz
INFO  17:06:29,616 - #15 [
INFO  17:06:29,616 - #28 nula
INFO  17:06:29,616 - #16 ]
INFO  17:06:29,616 - #11 =
INFO  17:06:29,616 - #28 pet
INFO  17:06:29,616 - #10 ;
INFO  17:06:29,616 - #28 niz
INFO  17:06:29,616 - #15 [
INFO  17:06:29,616 - #27 1
INFO  17:06:29,616 - #16 ]
INFO  17:06:29,616 - #11 =
INFO  17:06:29,616 - #28 Broj
INFO  17:06:29,616 - #19 .
INFO  17:06:29,616 - #28 DESET
INFO  17:06:29,616 - #10 ;
INFO  17:06:29,616 - #28 bodovi
INFO  17:06:29,616 - #11 =
INFO  17:06:29,616 - #28 niz
INFO  17:06:29,616 - #15 [
INFO  17:06:29,616 - #27 1
INFO  17:06:29,616 - #16 ]
INFO  17:06:29,616 - #25 /
INFO  17:06:29,616 - #28 niz
INFO  17:06:29,616 - #15 [
INFO  17:06:29,616 - #27 0
INFO  17:06:29,616 - #16 ]
INFO  17:06:29,616 - #10 ;
INFO  17:06:29,616 - #4 print
INFO  17:06:29,616 - #13 (
INFO  17:06:29,616 - #28 bodovi
INFO  17:06:29,616 - #14 )
INFO  17:06:29,616 - #10 ;
INFO  17:06:29,616 - #4 print
INFO  17:06:29,616 - #13 (
INFO  17:06:29,616 - #28 niz
INFO  17:06:29,616 - #15 [
INFO  17:06:29,616 - #28 Broj
INFO  17:06:29,616 - #19 .
INFO  17:06:29,616 - #28 JEDAN
INFO  17:06:29,616 - #16 ]
INFO  17:06:29,616 - #14 )
INFO  17:06:29,616 - #10 ;
INFO  17:06:29,616 - #28 nizch
INFO  17:06:29,616 - #11 =
INFO  17:06:29,616 - #5 new
INFO  17:06:29,616 - #28 char
INFO  17:06:29,616 - #15 [
INFO  17:06:29,616 - #27 3
INFO  17:06:29,616 - #16 ]
INFO  17:06:29,616 - #10 ;
INFO  17:06:29,616 - #28 nizch
INFO  17:06:29,616 - #15 [
INFO  17:06:29,616 - #27 0
INFO  17:06:29,616 - #16 ]
INFO  17:06:29,616 - #11 =
INFO  17:06:29,616 - #29 a
INFO  17:06:29,616 - #10 ;
INFO  17:06:29,616 - #28 nizch
INFO  17:06:29,616 - #15 [
INFO  17:06:29,616 - #28 jedan
INFO  17:06:29,616 - #16 ]
INFO  17:06:29,616 - #11 =
INFO  17:06:29,616 - #29 b
INFO  17:06:29,616 - #10 ;
INFO  17:06:29,616 - #28 nizch
INFO  17:06:29,616 - #15 [
INFO  17:06:29,616 - #28 pet
INFO  17:06:29,616 - #22 -
INFO  17:06:29,616 - #27 3
INFO  17:06:29,616 - #16 ]
INFO  17:06:29,616 - #11 =
INFO  17:06:29,616 - #29 c
INFO  17:06:29,616 - #10 ;
INFO  17:06:29,616 - #4 print
INFO  17:06:29,616 - #13 (
INFO  17:06:29,616 - #28 nizch
INFO  17:06:29,616 - #15 [
INFO  17:06:29,616 - #27 2
INFO  17:06:29,616 - #22 -
INFO  17:06:29,616 - #27 1
INFO  17:06:29,631 - #16 ]
INFO  17:06:29,631 - #14 )
INFO  17:06:29,631 - #10 ;
INFO  17:06:29,631 - #4 print
INFO  17:06:29,631 - #13 (
INFO  17:06:29,631 - #28 nizch
INFO  17:06:29,631 - #15 [
INFO  17:06:29,631 - #28 jedan
INFO  17:06:29,631 - #24 *
INFO  17:06:29,631 - #27 2
INFO  17:06:29,631 - #16 ]
INFO  17:06:29,631 - #14 )
INFO  17:06:29,631 - #10 ;
INFO  17:06:29,631 - #28 bodovi
INFO  17:06:29,631 - #11 =
INFO  17:06:29,631 - #28 bodovi
INFO  17:06:29,631 - #23 +
INFO  17:06:29,631 - #13 (
INFO  17:06:29,631 - #13 (
INFO  17:06:29,631 - #28 pet
INFO  17:06:29,631 - #24 *
INFO  17:06:29,631 - #28 jedan
INFO  17:06:29,631 - #22 -
INFO  17:06:29,631 - #27 1
INFO  17:06:29,631 - #14 )
INFO  17:06:29,631 - #24 *
INFO  17:06:29,631 - #27 2
INFO  17:06:29,631 - #22 -
INFO  17:06:29,631 - #13 (
INFO  17:06:29,631 - #27 3
INFO  17:06:29,631 - #26 %
INFO  17:06:29,631 - #27 2
INFO  17:06:29,631 - #23 +
INFO  17:06:29,631 - #27 3
INFO  17:06:29,631 - #24 *
INFO  17:06:29,631 - #27 2
INFO  17:06:29,631 - #22 -
INFO  17:06:29,631 - #27 3
INFO  17:06:29,631 - #14 )
INFO  17:06:29,631 - #22 -
INFO  17:06:29,631 - #28 Broj
INFO  17:06:29,631 - #19 .
INFO  17:06:29,631 - #28 JEDAN
INFO  17:06:29,631 - #24 *
INFO  17:06:29,631 - #27 0
INFO  17:06:29,631 - #14 )
INFO  17:06:29,631 - #10 ;
INFO  17:06:29,631 - #4 print
INFO  17:06:29,631 - #13 (
INFO  17:06:29,631 - #28 bodovi
INFO  17:06:29,631 - #14 )
INFO  17:06:29,631 - #10 ;
INFO  17:06:29,631 - #3 read
INFO  17:06:29,631 - #13 (
INFO  17:06:29,631 - #28 bodovi
INFO  17:06:29,631 - #14 )
INFO  17:06:29,631 - #10 ;
INFO  17:06:29,631 - #28 bodovi
INFO  17:06:29,631 - #11 =
INFO  17:06:29,631 - #28 bodovi
INFO  17:06:29,631 - #23 +
INFO  17:06:29,631 - #27 1
INFO  17:06:29,631 - #10 ;
INFO  17:06:29,631 - #4 print
INFO  17:06:29,631 - #13 (
INFO  17:06:29,631 - #28 bodovi
INFO  17:06:29,631 - #14 )
INFO  17:06:29,631 - #10 ;
INFO  17:06:29,631 - #18 }
INFO  17:06:29,631 - #18 }
ERROR 17:06:29,631 - Fatalna greska, parsiranje se ne moze nastaviti na liniji 58
