INFO  12:33:05,812 - Compiling source file: C:\Users\ikadr\Desktop\PP\Projekat\Rad\workspace\MJCompiler\test\program.mj
INFO  12:33:05,813 - ===============SINTAKSNA OBRADA====================
INFO  12:33:05,880 - #2 program
INFO  12:33:05,880 - #29 test301
INFO  12:33:05,880 - #9 enum
INFO  12:33:05,882 - #29 Broj
INFO  12:33:05,882 - #17 {
INFO  12:33:05,884 - #29 NULA
INFO  12:33:05,884 - #12 ,
INFO  12:33:05,885 - #29 JEDAN
INFO  12:33:05,885 - #12 ,
INFO  12:33:05,885 - #29 PET
INFO  12:33:05,885 - #11 =
INFO  12:33:05,885 - #28 5
INFO  12:33:05,885 - #12 ,
INFO  12:33:05,885 - #29 DESET
INFO  12:33:05,885 - #11 =
INFO  12:33:05,886 - #28 10
INFO  12:33:05,886 - #18 }
INFO  12:33:05,886 - #8 const
INFO  12:33:05,887 - #29 int
INFO  12:33:05,888 - #29 jedan
INFO  12:33:05,888 - #11 =
INFO  12:33:05,889 - #28 1
INFO  12:33:05,889 - #10 ;
INFO  12:33:05,890 - #8 const
INFO  12:33:05,891 - #29 int
INFO  12:33:05,891 - #29 pet
INFO  12:33:05,891 - #11 =
INFO  12:33:05,891 - #28 5
INFO  12:33:05,891 - #10 ;
INFO  12:33:05,891 - #29 int
INFO  12:33:05,891 - #29 niz
INFO  12:33:05,891 - #15 [
INFO  12:33:05,891 - #16 ]
INFO  12:33:05,892 - #10 ;
INFO  12:33:05,892 - #29 char
INFO  12:33:05,893 - #29 nizch
INFO  12:33:05,893 - #15 [
INFO  12:33:05,893 - #16 ]
INFO  12:33:05,893 - #10 ;
INFO  12:33:05,893 - #17 {
INFO  12:33:05,893 - #6 void
INFO  12:33:05,893 - #29 main
INFO  12:33:05,895 - #13 (
INFO  12:33:05,895 - #14 )
INFO  12:33:05,895 - #29 int
INFO  12:33:05,897 - #29 bodovi
INFO  12:33:05,897 - #10 ;
INFO  12:33:05,898 - #29 Broj
INFO  12:33:05,899 - #29 nula
INFO  12:33:05,900 - #12 ,
INFO  12:33:05,900 - #29 jedan
INFO  12:33:05,900 - #10 ;
INFO  12:33:05,900 - #17 {
INFO  12:33:05,900 - #29 nula
INFO  12:33:05,902 - #11 =
INFO  12:33:05,902 - #29 Broj
INFO  12:33:05,902 - #19 .
INFO  12:33:05,902 - #29 NULA
INFO  12:33:05,902 - #10 ;
INFO  12:33:05,903 - #29 jedan
INFO  12:33:05,903 - #11 =
INFO  12:33:05,903 - #29 Broj
INFO  12:33:05,903 - #19 .
INFO  12:33:05,903 - #29 JEDAN
INFO  12:33:05,904 - #10 ;
INFO  12:33:05,904 - #29 bodovi
INFO  12:33:05,904 - #11 =
INFO  12:33:05,904 - #28 0
INFO  12:33:05,904 - #10 ;
INFO  12:33:05,904 - #29 bodovi
INFO  12:33:05,904 - #20 ++
INFO  12:33:05,904 - #10 ;
INFO  12:33:05,905 - #29 bodovi
INFO  12:33:05,905 - #11 =
INFO  12:33:05,905 - #28 2
INFO  12:33:05,905 - #10 ;
INFO  12:33:05,905 - #4 print
INFO  12:33:05,905 - #13 (
INFO  12:33:05,905 - #29 bodovi
INFO  12:33:05,905 - #14 )
INFO  12:33:05,906 - #10 ;
INFO  12:33:05,906 - #18 }
INFO  12:33:05,907 - #18 }
INFO  12:33:05,923 - Program(
  ProgName(
   test301
  ) [ProgName]
  GlobalDeclListL(
    GlobalDeclListL(
      GlobalDeclListL(
        GlobalDeclListL(
          GlobalDeclListL(
            GlobalDeclListEps(
            ) [GlobalDeclListEps]
            GlobalDeclEnum(
              EnumDecl(
                EnumName(
                 Broj
                ) [EnumName]
                EnumDeclListL(
                  EnumDeclListL(
                    EnumDeclListL(
                      EnumDeclItem(
                        EnumDeclDefNoVal(
                         NULA
                        ) [EnumDeclDefNoVal]
                      ) [EnumDeclItem]
                      EnumDeclDefNoVal(
                       JEDAN
                      ) [EnumDeclDefNoVal]
                    ) [EnumDeclListL]
                    EnumDeclDefVal(
                     PET
                     5
                    ) [EnumDeclDefVal]
                  ) [EnumDeclListL]
                  EnumDeclDefVal(
                   DESET
                   10
                  ) [EnumDeclDefVal]
                ) [EnumDeclListL]
              ) [EnumDecl]
            ) [GlobalDeclEnum]
          ) [GlobalDeclListL]
          GlobalDeclConst(
            ConstDecl(
              Type(
               int
              ) [Type]
              ConstDeclItem(
                ConstDef(
                 jedan
                  ConstNum(
                   1
                  ) [ConstNum]
                ) [ConstDef]
              ) [ConstDeclItem]
            ) [ConstDecl]
          ) [GlobalDeclConst]
        ) [GlobalDeclListL]
        GlobalDeclConst(
          ConstDecl(
            Type(
             int
            ) [Type]
            ConstDeclItem(
              ConstDef(
               pet
                ConstNum(
                 5
                ) [ConstNum]
              ) [ConstDef]
            ) [ConstDeclItem]
          ) [ConstDecl]
        ) [GlobalDeclConst]
      ) [GlobalDeclListL]
      GlobalDeclVar(
        GlobalVarDecl(
          Type(
           int
          ) [Type]
          GlobalVarDeclItem(
            GlobalVarDeclDefOk(
              VarDeclDefineArray(
               niz
              ) [VarDeclDefineArray]
            ) [GlobalVarDeclDefOk]
          ) [GlobalVarDeclItem]
        ) [GlobalVarDecl]
      ) [GlobalDeclVar]
    ) [GlobalDeclListL]
    GlobalDeclVar(
      GlobalVarDecl(
        Type(
         char
        ) [Type]
        GlobalVarDeclItem(
          GlobalVarDeclDefOk(
            VarDeclDefineArray(
             nizch
            ) [VarDeclDefineArray]
          ) [GlobalVarDeclDefOk]
        ) [GlobalVarDeclItem]
      ) [GlobalVarDecl]
    ) [GlobalDeclVar]
  ) [GlobalDeclListL]
  MethodDecl(
    MethodSignature(
      VoidableType(
      ) [VoidableType]
     main
    ) [MethodSignature]
    VarMethodDeclList_NoEps(
      VarMethodDeclList_NoEps(
        VarMethodDeclList_Eps(
        ) [VarMethodDeclList_Eps]
        VarDecl(
          Type(
           int
          ) [Type]
          VarDeclItem(
            VarDeclDefineSingle(
             bodovi
            ) [VarDeclDefineSingle]
          ) [VarDeclItem]
        ) [VarDecl]
      ) [VarMethodDeclList_NoEps]
      VarDecl(
        Type(
         Broj
        ) [Type]
        VarDeclListL(
          VarDeclItem(
            VarDeclDefineSingle(
             nula
            ) [VarDeclDefineSingle]
          ) [VarDeclItem]
          VarDeclDefineSingle(
           jedan
          ) [VarDeclDefineSingle]
        ) [VarDeclListL]
      ) [VarDecl]
    ) [VarMethodDeclList_NoEps]
    StatementList_NoEps(
      StatementList_NoEps(
        StatementList_NoEps(
          StatementList_NoEps(
            StatementList_NoEps(
              StatementList_NoEps(
                StatementList_Eps(
                ) [StatementList_Eps]
                StatementDes(
                  DesignStatAssignment(
                    DesIdent(
                     nula
                    ) [DesIdent]
                    AssignementExpr(
                      TermExpr(
                        TermFact(
                          FactorDesign(
                            DesEnum(
                             Broj
                             NULA
                            ) [DesEnum]
                          ) [FactorDesign]
                        ) [TermFact]
                      ) [TermExpr]
                    ) [AssignementExpr]
                  ) [DesignStatAssignment]
                ) [StatementDes]
              ) [StatementList_NoEps]
              StatementDes(
                DesignStatAssignment(
                  DesIdent(
                   jedan
                  ) [DesIdent]
                  AssignementExpr(
                    TermExpr(
                      TermFact(
                        FactorDesign(
                          DesEnum(
                           Broj
                           JEDAN
                          ) [DesEnum]
                        ) [FactorDesign]
                      ) [TermFact]
                    ) [TermExpr]
                  ) [AssignementExpr]
                ) [DesignStatAssignment]
              ) [StatementDes]
            ) [StatementList_NoEps]
            StatementDes(
              DesignStatAssignment(
                DesIdent(
                 bodovi
                ) [DesIdent]
                AssignementExpr(
                  TermExpr(
                    TermFact(
                      FactorConst(
                        ConstNum(
                         0
                        ) [ConstNum]
                      ) [FactorConst]
                    ) [TermFact]
                  ) [TermExpr]
                ) [AssignementExpr]
              ) [DesignStatAssignment]
            ) [StatementDes]
          ) [StatementList_NoEps]
          StatementDes(
            DesignStatInc(
              DesIdent(
               bodovi
              ) [DesIdent]
            ) [DesignStatInc]
          ) [StatementDes]
        ) [StatementList_NoEps]
        StatementDes(
          DesignStatAssignment(
            DesIdent(
             bodovi
            ) [DesIdent]
            AssignementExpr(
              TermExpr(
                TermFact(
                  FactorConst(
                    ConstNum(
                     2
                    ) [ConstNum]
                  ) [FactorConst]
                ) [TermFact]
              ) [TermExpr]
            ) [AssignementExpr]
          ) [DesignStatAssignment]
        ) [StatementDes]
      ) [StatementList_NoEps]
      StatPrint(
        TermExpr(
          TermFact(
            FactorDesign(
              DesIdent(
               bodovi
              ) [DesIdent]
            ) [FactorDesign]
          ) [TermFact]
        ) [TermExpr]
      ) [StatPrint]
    ) [StatementList_NoEps]
  ) [MethodDecl]
) [Program]
INFO  12:33:05,924 - ===============SEMANTICKA OBRADA====================
INFO  12:33:05,930 - Deklarisan novi enum tip Broj na liniji 5
INFO  12:33:05,931 - Deklarisana konstanta Broj.NULA unutar enuma Broj na liniji 5
INFO  12:33:05,931 - Deklarisana konstanta Broj.JEDAN unutar enuma Broj na liniji 5
INFO  12:33:05,931 - Deklarisana konstanta Broj.PET unutar enuma Broj na liniji 5
INFO  12:33:05,931 - Deklarisana konstanta Broj.DESET unutar enuma Broj na liniji 5
INFO  12:33:05,932 - Deklarisana konstanta 'jedan' na liniji 7
INFO  12:33:05,932 - Deklarisana konstanta 'pet' na liniji 8
INFO  12:33:05,932 - Deklarisana promenljiva niza 'niz' tipa 1 na liniji 10
INFO  12:33:05,932 - Deklarisana promenljiva niza 'nizch' tipa 2 na liniji 11
INFO  12:33:05,933 - Obradjuje se funkcija main na liniji 14
INFO  12:33:05,933 - Deklarisana promenljiva 'bodovi' tipa int na liniji 15
INFO  12:33:05,933 - Deklarisana promenljiva 'nula' tipa Broj na liniji 16
INFO  12:33:05,933 - Deklarisana promenljiva 'jedan' tipa Broj na liniji 16
INFO  12:33:05,934 - Izvresna dodela vrednosti
INFO  12:33:05,935 - Inkrementirana vrednost
INFO  12:33:05,935 - Izvresna dodela vrednosti
INFO  12:33:05,935 - Print funkcija na liniji 27
INFO  12:33:05,935 -  Print count calls = 1
INFO  12:33:05,936 -  Deklarisanih promenljivih ima = 5
INFO  12:33:05,948 - 
INFO  12:33:05,948 - Parsiranje uspesno zavrseno!
