INFO  20:16:24,472 - Compiling source file: C:\Users\ikadr\Desktop\PP\Projekat\Rad\workspace\MJCompiler\test\program.mj
INFO  20:16:25,051 - #2 program
INFO  20:16:25,051 - #28 test301
INFO  20:16:25,051 - #9 enum
INFO  20:16:25,082 - #28 Broj
INFO  20:16:25,082 - #17 {
INFO  20:16:25,083 - #28 NULA
INFO  20:16:25,083 - #12 ,
INFO  20:16:25,084 - #28 JEDAN
INFO  20:16:25,084 - #12 ,
INFO  20:16:25,085 - #28 PET
INFO  20:16:25,085 - #11 =
INFO  20:16:25,085 - #27 5
INFO  20:16:25,085 - #12 ,
INFO  20:16:25,085 - #28 DESET
INFO  20:16:25,086 - #11 =
INFO  20:16:25,086 - #27 10
INFO  20:16:25,086 - #18 }
INFO  20:16:25,086 - #8 const
INFO  20:16:25,103 - #28 int
INFO  20:16:25,104 - #28 jedan
INFO  20:16:25,115 - #11 =
INFO  20:16:25,116 - #27 1
INFO  20:16:25,116 - #10 ;
INFO  20:16:25,149 - #8 const
INFO  20:16:25,158 - #28 int
INFO  20:16:25,158 - #28 pet
INFO  20:16:25,158 - #11 =
INFO  20:16:25,158 - #27 5
INFO  20:16:25,159 - #10 ;
INFO  20:16:25,159 - #28 int
INFO  20:16:25,159 - #28 niz
INFO  20:16:25,159 - #15 [
INFO  20:16:25,159 - #16 ]
INFO  20:16:25,159 - #10 ;
INFO  20:16:25,160 - #28 char
INFO  20:16:25,183 - #28 nizch
INFO  20:16:25,183 - #15 [
INFO  20:16:25,183 - #16 ]
INFO  20:16:25,183 - #10 ;
INFO  20:16:25,183 - #17 {
INFO  20:16:25,183 - #6 void
INFO  20:16:25,183 - #28 main
INFO  20:16:25,185 - #13 (
INFO  20:16:25,186 - #14 )
INFO  20:16:25,186 - #28 int
INFO  20:16:25,198 - #28 bodovi
INFO  20:16:25,198 - #10 ;
INFO  20:16:25,198 - #17 {
INFO  20:16:25,200 - #28 bodovi
INFO  20:16:25,211 - #11 =
INFO  20:16:25,211 - #27 0
INFO  20:16:25,211 - #10 ;
INFO  20:16:25,212 - #28 bodovi
INFO  20:16:25,213 - #20 ++
INFO  20:16:25,213 - #10 ;
INFO  20:16:25,213 - #3 read
INFO  20:16:25,213 - #13 (
INFO  20:16:25,213 - #28 bodovi
INFO  20:16:25,214 - #14 )
INFO  20:16:25,214 - #10 ;
INFO  20:16:25,214 - #18 }
INFO  20:16:25,214 - #18 }
INFO  20:16:25,256 - Program(
  ProgName(
   test301
  ) [ProgName]
  GlobalDeclListL(
    GlobalDeclListL(
      GlobalDeclListL(
        GlobalDeclListL(
          GlobalDeclListL(
            GlobalDeclListEps(
            ) [GlobalDeclListEps]
            GlobalDeclEnum(
              EnumDecl(
               Broj
                EnumDeclListL(
                  EnumDeclListL(
                    EnumDeclListL(
                      EnumDeclItem(
                        EnumDeclDefNoVal(
                         NULA
                        ) [EnumDeclDefNoVal]
                      ) [EnumDeclItem]
                      EnumDeclDefNoVal(
                       JEDAN
                      ) [EnumDeclDefNoVal]
                    ) [EnumDeclListL]
                    EnumDeclDefVal(
                     PET
                     5
                    ) [EnumDeclDefVal]
                  ) [EnumDeclListL]
                  EnumDeclDefVal(
                   DESET
                   10
                  ) [EnumDeclDefVal]
                ) [EnumDeclListL]
              ) [EnumDecl]
            ) [GlobalDeclEnum]
          ) [GlobalDeclListL]
          GlobalDeclConst(
            ConstDecl(
              Type(
               int
              ) [Type]
              ConstDeclItem(
                ConstDef(
                 jedan
                  ConstNum(
                   1
                  ) [ConstNum]
                ) [ConstDef]
              ) [ConstDeclItem]
            ) [ConstDecl]
          ) [GlobalDeclConst]
        ) [GlobalDeclListL]
        GlobalDeclConst(
          ConstDecl(
            Type(
             int
            ) [Type]
            ConstDeclItem(
              ConstDef(
               pet
                ConstNum(
                 5
                ) [ConstNum]
              ) [ConstDef]
            ) [ConstDeclItem]
          ) [ConstDecl]
        ) [GlobalDeclConst]
      ) [GlobalDeclListL]
      GlobalDeclVar(
        GlobalVarDecl(
          Type(
           int
          ) [Type]
          GlobalVarDeclItem(
            GlobalVarDeclDefOk(
              VarDeclDefineArray(
               niz
              ) [VarDeclDefineArray]
            ) [GlobalVarDeclDefOk]
          ) [GlobalVarDeclItem]
        ) [GlobalVarDecl]
      ) [GlobalDeclVar]
    ) [GlobalDeclListL]
    GlobalDeclVar(
      GlobalVarDecl(
        Type(
         char
        ) [Type]
        GlobalVarDeclItem(
          GlobalVarDeclDefOk(
            VarDeclDefineArray(
             nizch
            ) [VarDeclDefineArray]
          ) [GlobalVarDeclDefOk]
        ) [GlobalVarDeclItem]
      ) [GlobalVarDecl]
    ) [GlobalDeclVar]
  ) [GlobalDeclListL]
  MethodDecl(
    MethodSignature(
      VoidableType(
      ) [VoidableType]
     main
    ) [MethodSignature]
    VarMethodDeclList_NoEps(
      VarMethodDeclList_Eps(
      ) [VarMethodDeclList_Eps]
      VarDecl(
        Type(
         int
        ) [Type]
        VarDeclItem(
          VarDeclDefineSingle(
           bodovi
          ) [VarDeclDefineSingle]
        ) [VarDeclItem]
      ) [VarDecl]
    ) [VarMethodDeclList_NoEps]
    StatementList_NoEps(
      StatementList_NoEps(
        StatementList_NoEps(
          StatementList_Eps(
          ) [StatementList_Eps]
          StatementDes(
            DesignStatAssignment(
              DesIdent(
               bodovi
              ) [DesIdent]
              AssignementExpr(
                TermExpr(
                  TermFact(
                    FactorConst(
                      ConstNum(
                       0
                      ) [ConstNum]
                    ) [FactorConst]
                  ) [TermFact]
                ) [TermExpr]
              ) [AssignementExpr]
            ) [DesignStatAssignment]
          ) [StatementDes]
        ) [StatementList_NoEps]
        StatementDes(
          DesignStatInc(
            DesIdent(
             bodovi
            ) [DesIdent]
          ) [DesignStatInc]
        ) [StatementDes]
      ) [StatementList_NoEps]
      StatRead(
        DesIdent(
         bodovi
        ) [DesIdent]
      ) [StatRead]
    ) [StatementList_NoEps]
  ) [MethodDecl]
) [Program]
INFO  20:16:25,256 - ===================================
INFO  20:16:25,306 - Deklarisan novi enum tip Broj na liniji 5
INFO  20:16:25,308 - Deklarisana konstanta 'jedan' na liniji 7
INFO  20:16:25,309 - Deklarisana konstanta 'pet' na liniji 8
INFO  20:16:25,324 - Deklarisana promenljiva niza niz tipa 1 na liniji 10
INFO  20:16:25,324 - Deklarisana promenljiva niza nizch tipa 2 na liniji 11
INFO  20:16:25,324 - Obradjuje se funkcija main na liniji 14
INFO  20:16:25,325 - Deklarisana promenljiva bodovi tipa 1 na liniji 15
INFO  20:16:25,325 - Dodeljenja vrednost: 1 je design,1 je assign
INFO  20:16:25,325 - Inkrementirana vrednost
INFO  20:16:25,325 -  Print count calls = 0
INFO  20:16:25,326 -  Deklarisanih promenljivih ima = 1
INFO  20:16:25,389 - Parsiranje uspesno zavrseno!
