INFO  18:04:05,969 - Compiling source file: C:\Users\ikadr\Desktop\PP\Projekat\Rad\workspace\MJCompiler\test\program.mj
INFO  18:04:06,163 - #2 program
INFO  18:04:06,164 - #28 test301
INFO  18:04:06,164 - #9 enum
INFO  18:04:06,168 - #28 Broj
INFO  18:04:06,169 - #17 {
INFO  18:04:06,169 - #28 NULA
INFO  18:04:06,169 - #12 ,
INFO  18:04:06,170 - #28 JEDAN
INFO  18:04:06,171 - #12 ,
INFO  18:04:06,171 - #28 PET
INFO  18:04:06,171 - #11 =
INFO  18:04:06,171 - #27 5
INFO  18:04:06,172 - #12 ,
INFO  18:04:06,172 - #28 DESET
INFO  18:04:06,172 - #11 =
INFO  18:04:06,173 - #27 10
INFO  18:04:06,173 - #18 }
INFO  18:04:06,173 - #28 int
INFO  18:04:06,178 - #28 niz
INFO  18:04:06,180 - #15 [
INFO  18:04:06,180 - #16 ]
INFO  18:04:06,187 - #10 ;
INFO  18:04:06,188 - #17 {
INFO  18:04:06,191 - #6 void
INFO  18:04:06,192 - #28 main
INFO  18:04:06,194 - #13 (
INFO  18:04:06,194 - #14 )
INFO  18:04:06,194 - #17 {
INFO  18:04:06,197 - #28 niz
INFO  18:04:06,201 - #11 =
INFO  18:04:06,204 - #5 new
INFO  18:04:06,204 - #28 int
INFO  18:04:06,204 - #15 [
INFO  18:04:06,204 - #27 2
INFO  18:04:06,204 - #16 ]
INFO  18:04:06,205 - #10 ;
INFO  18:04:06,206 - #18 }
INFO  18:04:06,206 - #18 }
INFO  18:04:06,239 - Program(
  ProgName(
   test301
  ) [ProgName]
  GlobalDeclListL(
    GlobalDeclListL(
      GlobalDeclListEps(
      ) [GlobalDeclListEps]
      GlobalDeclEnum(
        EnumDecl(
         Broj
          EnumDeclListL(
            EnumDeclListL(
              EnumDeclListL(
                EnumDeclItem(
                  EnumDeclDefNoVal(
                   NULA
                  ) [EnumDeclDefNoVal]
                ) [EnumDeclItem]
                EnumDeclDefNoVal(
                 JEDAN
                ) [EnumDeclDefNoVal]
              ) [EnumDeclListL]
              EnumDeclDefVal(
               PET
               5
              ) [EnumDeclDefVal]
            ) [EnumDeclListL]
            EnumDeclDefVal(
             DESET
             10
            ) [EnumDeclDefVal]
          ) [EnumDeclListL]
        ) [EnumDecl]
      ) [GlobalDeclEnum]
    ) [GlobalDeclListL]
    GlobalDeclVar(
      GlobalVarDecl(
        Type(
         int
        ) [Type]
        GlobalVarDeclItem(
          GlobalVarDeclDefOk(
            VarDeclDefineArray(
             niz
            ) [VarDeclDefineArray]
          ) [GlobalVarDeclDefOk]
        ) [GlobalVarDeclItem]
      ) [GlobalVarDecl]
    ) [GlobalDeclVar]
  ) [GlobalDeclListL]
  MethodDecl(
    MethodSignature(
      VoidableType(
      ) [VoidableType]
     main
    ) [MethodSignature]
    VarMethodDeclList_Eps(
    ) [VarMethodDeclList_Eps]
    StatementList_NoEps(
      StatementList_Eps(
      ) [StatementList_Eps]
      StatementDes(
        DesignStatAssignment(
          Designator(
            ArrayInd(
            ) [ArrayInd]
           niz
            DesDerived1(
            ) [DesDerived1]
          ) [Designator]
          AssignementExpr(
            TermExpr(
              TermFact(
                FactorNewArr(
                  Type(
                   int
                  ) [Type]
                  TermExpr(
                    TermFact(
                      FactorConst(
                        ConstNum(
                         2
                        ) [ConstNum]
                      ) [FactorConst]
                    ) [TermFact]
                  ) [TermExpr]
                ) [FactorNewArr]
              ) [TermFact]
            ) [TermExpr]
          ) [AssignementExpr]
        ) [DesignStatAssignment]
      ) [StatementDes]
    ) [StatementList_NoEps]
  ) [MethodDecl]
) [Program]
INFO  18:04:06,241 - ===================================
INFO  18:04:06,248 - Deklarisan novi enum tip Broj na liniji 5
INFO  18:04:06,249 - Deklarisana promenljiva niza niz tipa 1 na liniji 6
INFO  18:04:06,249 - Obradjuje se funkcija main na liniji 8
INFO  18:04:06,249 - kind niza u newArr je3, a elemenata 1
INFO  18:04:06,249 -  Print count calls = 0
INFO  18:04:06,250 -  Deklarisanih promenljivih ima = 0
INFO  18:04:06,264 - Parsiranje uspesno zavrseno!
INFO  18:04:06,264 - GENERATOR:newarr 1
