INFO  15:36:54,376 - Compiling source file: C:\Users\ikadr\Desktop\PP\Projekat\Rad\workspace\MJCompiler\test\program.mj
INFO  15:36:54,452 - #2 program
INFO  15:36:54,452 - #28 test301
INFO  15:36:54,453 - #28 int
INFO  15:36:54,455 - #28 niz
INFO  15:36:54,457 - #15 [
INFO  15:36:54,457 - #16 ]
INFO  15:36:54,457 - #10 ;
INFO  15:36:54,458 - #17 {
INFO  15:36:54,459 - #6 void
INFO  15:36:54,459 - #28 main
INFO  15:36:54,460 - #13 (
INFO  15:36:54,460 - #14 )
INFO  15:36:54,460 - #17 {
INFO  15:36:54,462 - #28 niz
INFO  15:36:54,464 - #11 =
INFO  15:36:54,464 - #5 new
INFO  15:36:54,464 - #28 int
INFO  15:36:54,464 - #15 [
INFO  15:36:54,465 - #27 2
INFO  15:36:54,465 - #16 ]
INFO  15:36:54,466 - #10 ;
INFO  15:36:54,467 - #18 }
INFO  15:36:54,467 - #18 }
INFO  15:36:54,483 - Program(
  ProgName(
   test301
  ) [ProgName]
  GlobalDeclListL(
    GlobalDeclListEps(
    ) [GlobalDeclListEps]
    GlobalDeclVar(
      GlobalVarDecl(
        Type(
         int
        ) [Type]
        GlobalVarDeclItem(
          GlobalVarDeclDefOk(
            VarDeclDefineArray(
             niz
            ) [VarDeclDefineArray]
          ) [GlobalVarDeclDefOk]
        ) [GlobalVarDeclItem]
      ) [GlobalVarDecl]
    ) [GlobalDeclVar]
  ) [GlobalDeclListL]
  MethodDecl(
    MethodSignature(
      VoidableType(
      ) [VoidableType]
     main
    ) [MethodSignature]
    VarMethodDeclList_Eps(
    ) [VarMethodDeclList_Eps]
    StatementList_NoEps(
      StatementList_Eps(
      ) [StatementList_Eps]
      StatementDes(
        DesignStatAssignment(
          DesIdent(
           niz
          ) [DesIdent]
          AssignementExpr(
            TermExpr(
              TermFact(
                FactorNewArr(
                  Type(
                   int
                  ) [Type]
                  TermExpr(
                    TermFact(
                      FactorConst(
                        ConstNum(
                         2
                        ) [ConstNum]
                      ) [FactorConst]
                    ) [TermFact]
                  ) [TermExpr]
                ) [FactorNewArr]
              ) [TermFact]
            ) [TermExpr]
          ) [AssignementExpr]
        ) [DesignStatAssignment]
      ) [StatementDes]
    ) [StatementList_NoEps]
  ) [MethodDecl]
) [Program]
INFO  15:36:54,484 - ===================================
INFO  15:36:54,487 - Deklarisana promenljiva niza niz tipa 1 na liniji 7
INFO  15:36:54,487 - Obradjuje se funkcija main na liniji 9
INFO  15:36:54,487 -  Print count calls = 0
INFO  15:36:54,487 -  Deklarisanih promenljivih ima = 0
INFO  15:36:54,497 - GENERATOR:
INFO  15:36:54,497 - Parsiranje uspesno zavrseno!
