INFO  16:10:27,082 - Compiling source file: C:\Users\ikadr\Desktop\PP\Projekat\Rad\workspace\MJCompiler\test\program.mj
INFO  16:10:27,151 - #2 program
INFO  16:10:27,151 - #28 prvi
INFO  16:10:27,151 - #9 enum
INFO  16:10:27,153 - #28 Broj
INFO  16:10:27,153 - #17 {
INFO  16:10:27,154 - #28 NULA
INFO  16:10:27,154 - #12 ,
INFO  16:10:27,155 - #28 JEDAN
INFO  16:10:27,155 - #12 ,
INFO  16:10:27,155 - #28 PET
INFO  16:10:27,155 - #11 =
INFO  16:10:27,155 - #27 5
INFO  16:10:27,155 - #12 ,
INFO  16:10:27,156 - #28 DESET
INFO  16:10:27,156 - #11 =
INFO  16:10:27,156 - #27 10
INFO  16:10:27,156 - #18 }
INFO  16:10:27,156 - #9 enum
INFO  16:10:27,157 - #28 Oblik
INFO  16:10:27,158 - #17 {
INFO  16:10:27,158 - #28 KOCKA
INFO  16:10:27,158 - #12 ,
INFO  16:10:27,158 - #28 KVADAR
INFO  16:10:27,158 - #11 =
INFO  16:10:27,158 - #27 5
INFO  16:10:27,158 - #12 ,
INFO  16:10:27,159 - #28 KUPA
INFO  16:10:27,159 - #18 }
INFO  16:10:27,159 - #28 int
INFO  16:10:27,159 - #28 bodovi
INFO  16:10:27,160 - #10 ;
INFO  16:10:27,160 - #17 {
INFO  16:10:27,162 - #6 void
INFO  16:10:27,162 - #28 main
INFO  16:10:27,163 - #13 (
INFO  16:10:27,163 - #14 )
INFO  16:10:27,163 - #28 Broj
INFO  16:10:27,166 - #28 nula
INFO  16:10:27,166 - #12 ,
INFO  16:10:27,166 - #28 jedan
INFO  16:10:27,166 - #10 ;
INFO  16:10:27,166 - #28 Oblik
INFO  16:10:27,168 - #28 ob
INFO  16:10:27,168 - #10 ;
INFO  16:10:27,168 - #17 {
INFO  16:10:27,168 - #28 ob
INFO  16:10:27,169 - #11 =
INFO  16:10:27,169 - #28 Oblik
INFO  16:10:27,169 - #19 .
INFO  16:10:27,169 - #28 KUPA
INFO  16:10:27,169 - #10 ;
INFO  16:10:27,170 - #28 nula
INFO  16:10:27,170 - #11 =
INFO  16:10:27,170 - #28 Broj
INFO  16:10:27,170 - #19 .
INFO  16:10:27,171 - #28 NULA
INFO  16:10:27,171 - #10 ;
INFO  16:10:27,171 - #28 jedan
INFO  16:10:27,171 - #11 =
INFO  16:10:27,171 - #28 Broj
INFO  16:10:27,171 - #19 .
INFO  16:10:27,172 - #28 JEDAN
INFO  16:10:27,172 - #10 ;
INFO  16:10:27,172 - #28 bodovi
INFO  16:10:27,172 - #11 =
INFO  16:10:27,172 - #27 0
INFO  16:10:27,172 - #10 ;
INFO  16:10:27,173 - #28 bodovi
INFO  16:10:27,173 - #20 ++
INFO  16:10:27,173 - #10 ;
INFO  16:10:27,173 - #28 jedan
INFO  16:10:27,173 - #11 =
INFO  16:10:27,173 - #28 Broj
INFO  16:10:27,173 - #19 .
INFO  16:10:27,173 - #28 PET
INFO  16:10:27,174 - #10 ;
INFO  16:10:27,174 - #4 print
INFO  16:10:27,174 - #13 (
INFO  16:10:27,174 - #28 jedan
INFO  16:10:27,174 - #14 )
INFO  16:10:27,174 - #10 ;
INFO  16:10:27,174 - #18 }
INFO  16:10:27,174 - #18 }
INFO  16:10:27,192 - Program(
  ProgName(
   prvi
  ) [ProgName]
  GlobalDeclListL(
    GlobalDeclListL(
      GlobalDeclListL(
        GlobalDeclListEps(
        ) [GlobalDeclListEps]
        GlobalDeclEnum(
          EnumDecl(
            EnumName(
             Broj
            ) [EnumName]
            EnumDeclListL(
              EnumDeclListL(
                EnumDeclListL(
                  EnumDeclItem(
                    EnumDeclDefNoVal(
                     NULA
                    ) [EnumDeclDefNoVal]
                  ) [EnumDeclItem]
                  EnumDeclDefNoVal(
                   JEDAN
                  ) [EnumDeclDefNoVal]
                ) [EnumDeclListL]
                EnumDeclDefVal(
                 PET
                 5
                ) [EnumDeclDefVal]
              ) [EnumDeclListL]
              EnumDeclDefVal(
               DESET
               10
              ) [EnumDeclDefVal]
            ) [EnumDeclListL]
          ) [EnumDecl]
        ) [GlobalDeclEnum]
      ) [GlobalDeclListL]
      GlobalDeclEnum(
        EnumDecl(
          EnumName(
           Oblik
          ) [EnumName]
          EnumDeclListL(
            EnumDeclListL(
              EnumDeclItem(
                EnumDeclDefNoVal(
                 KOCKA
                ) [EnumDeclDefNoVal]
              ) [EnumDeclItem]
              EnumDeclDefVal(
               KVADAR
               5
              ) [EnumDeclDefVal]
            ) [EnumDeclListL]
            EnumDeclDefNoVal(
             KUPA
            ) [EnumDeclDefNoVal]
          ) [EnumDeclListL]
        ) [EnumDecl]
      ) [GlobalDeclEnum]
    ) [GlobalDeclListL]
    GlobalDeclVar(
      GlobalVarDecl(
        Type(
         int
        ) [Type]
        GlobalVarDeclItem(
          GlobalVarDeclDefOk(
            VarDeclDefineSingle(
             bodovi
            ) [VarDeclDefineSingle]
          ) [GlobalVarDeclDefOk]
        ) [GlobalVarDeclItem]
      ) [GlobalVarDecl]
    ) [GlobalDeclVar]
  ) [GlobalDeclListL]
  MethodDecl(
    MethodSignature(
      VoidableType(
      ) [VoidableType]
     main
    ) [MethodSignature]
    VarMethodDeclList_NoEps(
      VarMethodDeclList_NoEps(
        VarMethodDeclList_Eps(
        ) [VarMethodDeclList_Eps]
        VarDecl(
          Type(
           Broj
          ) [Type]
          VarDeclListL(
            VarDeclItem(
              VarDeclDefineSingle(
               nula
              ) [VarDeclDefineSingle]
            ) [VarDeclItem]
            VarDeclDefineSingle(
             jedan
            ) [VarDeclDefineSingle]
          ) [VarDeclListL]
        ) [VarDecl]
      ) [VarMethodDeclList_NoEps]
      VarDecl(
        Type(
         Oblik
        ) [Type]
        VarDeclItem(
          VarDeclDefineSingle(
           ob
          ) [VarDeclDefineSingle]
        ) [VarDeclItem]
      ) [VarDecl]
    ) [VarMethodDeclList_NoEps]
    StatementList_NoEps(
      StatementList_NoEps(
        StatementList_NoEps(
          StatementList_NoEps(
            StatementList_NoEps(
              StatementList_NoEps(
                StatementList_NoEps(
                  StatementList_Eps(
                  ) [StatementList_Eps]
                  StatementDes(
                    DesignStatAssignment(
                      DesIdent(
                       ob
                      ) [DesIdent]
                      AssignementExpr(
                        TermExpr(
                          TermFact(
                            FactorDesign(
                              DesEnum(
                               Oblik
                               KUPA
                              ) [DesEnum]
                            ) [FactorDesign]
                          ) [TermFact]
                        ) [TermExpr]
                      ) [AssignementExpr]
                    ) [DesignStatAssignment]
                  ) [StatementDes]
                ) [StatementList_NoEps]
                StatementDes(
                  DesignStatAssignment(
                    DesIdent(
                     nula
                    ) [DesIdent]
                    AssignementExpr(
                      TermExpr(
                        TermFact(
                          FactorDesign(
                            DesEnum(
                             Broj
                             NULA
                            ) [DesEnum]
                          ) [FactorDesign]
                        ) [TermFact]
                      ) [TermExpr]
                    ) [AssignementExpr]
                  ) [DesignStatAssignment]
                ) [StatementDes]
              ) [StatementList_NoEps]
              StatementDes(
                DesignStatAssignment(
                  DesIdent(
                   jedan
                  ) [DesIdent]
                  AssignementExpr(
                    TermExpr(
                      TermFact(
                        FactorDesign(
                          DesEnum(
                           Broj
                           JEDAN
                          ) [DesEnum]
                        ) [FactorDesign]
                      ) [TermFact]
                    ) [TermExpr]
                  ) [AssignementExpr]
                ) [DesignStatAssignment]
              ) [StatementDes]
            ) [StatementList_NoEps]
            StatementDes(
              DesignStatAssignment(
                DesIdent(
                 bodovi
                ) [DesIdent]
                AssignementExpr(
                  TermExpr(
                    TermFact(
                      FactorConst(
                        ConstNum(
                         0
                        ) [ConstNum]
                      ) [FactorConst]
                    ) [TermFact]
                  ) [TermExpr]
                ) [AssignementExpr]
              ) [DesignStatAssignment]
            ) [StatementDes]
          ) [StatementList_NoEps]
          StatementDes(
            DesignStatInc(
              DesIdent(
               bodovi
              ) [DesIdent]
            ) [DesignStatInc]
          ) [StatementDes]
        ) [StatementList_NoEps]
        StatementDes(
          DesignStatAssignment(
            DesIdent(
             jedan
            ) [DesIdent]
            AssignementExpr(
              TermExpr(
                TermFact(
                  FactorDesign(
                    DesEnum(
                     Broj
                     PET
                    ) [DesEnum]
                  ) [FactorDesign]
                ) [TermFact]
              ) [TermExpr]
            ) [AssignementExpr]
          ) [DesignStatAssignment]
        ) [StatementDes]
      ) [StatementList_NoEps]
      StatPrint(
        TermExpr(
          TermFact(
            FactorDesign(
              DesIdent(
               jedan
              ) [DesIdent]
            ) [FactorDesign]
          ) [TermFact]
        ) [TermExpr]
      ) [StatPrint]
    ) [StatementList_NoEps]
  ) [MethodDecl]
) [Program]
INFO  16:10:27,193 - ===================================
INFO  16:10:27,197 - Deklarisan novi enum tip Broj na liniji 3
INFO  16:10:27,197 - Deklarisana konstanta NULA unutar enuma Broj na liniji 3
INFO  16:10:27,198 - Deklarisana konstanta JEDAN unutar enuma Broj na liniji 3
INFO  16:10:27,198 - Deklarisana konstanta PET unutar enuma Broj na liniji 3
INFO  16:10:27,198 - Deklarisana konstanta DESET unutar enuma Broj na liniji 3
INFO  16:10:27,198 - Deklarisan novi enum tip Oblik na liniji 4
INFO  16:10:27,198 - Deklarisana konstanta KOCKA unutar enuma Oblik na liniji 4
INFO  16:10:27,198 - Deklarisana konstanta KVADAR unutar enuma Oblik na liniji 4
INFO  16:10:27,198 - Deklarisana konstanta KUPA unutar enuma Oblik na liniji 4
INFO  16:10:27,198 - Deklarisana promenljiva bodovi tipa 1 na liniji 5
INFO  16:10:27,198 - Obradjuje se funkcija main na liniji 8
INFO  16:10:27,198 - Deklarisana promenljiva nula tipa 6 na liniji 9
INFO  16:10:27,199 - Deklarisana promenljiva jedan tipa 6 na liniji 9
INFO  16:10:27,199 - Deklarisana promenljiva ob tipa 6 na liniji 10
INFO  16:10:27,199 - Dodeljenja vrednost enuma promenljivoj enuma
INFO  16:10:27,199 - Dodeljenja vrednost enuma promenljivoj enuma
INFO  16:10:27,200 - Dodeljenja vrednost enuma promenljivoj enuma
INFO  16:10:27,200 - Dodeljenja vrednost: 1 je design,1 je assign
INFO  16:10:27,200 - Inkrementirana vrednost
INFO  16:10:27,200 - Dodeljenja vrednost enuma promenljivoj enuma
INFO  16:10:27,200 - Print funkcija na liniji 21
INFO  16:10:27,200 -  Print count calls = 1
INFO  16:10:27,200 -  Deklarisanih promenljivih ima = 5
INFO  16:10:27,217 - 
INFO  16:10:27,218 - Parsiranje uspesno zavrseno!
