INFO  20:32:32,640 - Compiling source file: C:\Users\ikadr\Desktop\PP\Projekat\Rad\workspace\MJCompiler\test\program.mj
INFO  20:32:32,702 - #2 program
INFO  20:32:32,702 - #28 test301
INFO  20:32:32,718 - #9 enum
INFO  20:32:32,718 - #28 Broj
INFO  20:32:32,718 - #17 {
INFO  20:32:32,718 - #28 NULA
INFO  20:32:32,718 - #12 ,
INFO  20:32:32,718 - #28 JEDAN
INFO  20:32:32,718 - #12 ,
INFO  20:32:32,718 - #28 PET
INFO  20:32:32,718 - #11 =
INFO  20:32:32,718 - #27 5
INFO  20:32:32,718 - #12 ,
INFO  20:32:32,718 - #28 DESET
INFO  20:32:32,718 - #11 =
INFO  20:32:32,718 - #27 10
INFO  20:32:32,718 - #18 }
INFO  20:32:32,718 - #8 const
INFO  20:32:32,718 - #28 int
INFO  20:32:32,718 - #28 jedan
INFO  20:32:32,718 - #11 =
INFO  20:32:32,733 - #27 1
INFO  20:32:32,733 - #10 ;
INFO  20:32:32,733 - #8 const
INFO  20:32:32,733 - #28 int
INFO  20:32:32,733 - #28 pet
INFO  20:32:32,733 - #11 =
INFO  20:32:32,733 - #27 5
INFO  20:32:32,733 - #10 ;
INFO  20:32:32,733 - #28 int
INFO  20:32:32,733 - #28 niz
INFO  20:32:32,733 - #15 [
INFO  20:32:32,733 - #16 ]
INFO  20:32:32,733 - #10 ;
INFO  20:32:32,733 - #28 char
INFO  20:32:32,733 - #28 nizch
INFO  20:32:32,733 - #15 [
INFO  20:32:32,733 - #16 ]
INFO  20:32:32,733 - #10 ;
INFO  20:32:32,733 - #17 {
INFO  20:32:32,733 - #6 void
INFO  20:32:32,733 - #28 main
INFO  20:32:32,733 - #13 (
INFO  20:32:32,733 - #14 )
INFO  20:32:32,733 - #28 int
INFO  20:32:32,733 - #28 bodovi
INFO  20:32:32,733 - #10 ;
INFO  20:32:32,733 - #28 Broj
INFO  20:32:32,733 - #28 nula
INFO  20:32:32,733 - #12 ,
INFO  20:32:32,733 - #28 jedan
INFO  20:32:32,733 - #10 ;
INFO  20:32:32,733 - #17 {
INFO  20:32:32,733 - #28 nula
INFO  20:32:32,733 - #11 =
INFO  20:32:32,749 - #28 Broj
INFO  20:32:32,749 - #19 .
INFO  20:32:32,749 - #28 NULA
INFO  20:32:32,749 - #10 ;
INFO  20:32:32,749 - #28 jedan
INFO  20:32:32,749 - #11 =
INFO  20:32:32,749 - #28 Broj
INFO  20:32:32,749 - #19 .
INFO  20:32:32,749 - #28 JEDAN
INFO  20:32:32,749 - #10 ;
INFO  20:32:32,749 - #28 bodovi
INFO  20:32:32,749 - #11 =
INFO  20:32:32,749 - #27 0
INFO  20:32:32,749 - #10 ;
INFO  20:32:32,749 - #28 bodovi
ERROR 20:32:32,749 - 
Sintaksna greska na liniji 22
INFO  20:32:32,749 - #20 ++
INFO  20:32:32,749 - #10 ;
INFO  20:32:32,749 - #28 bodovi
INFO  20:32:32,749 - #11 =
INFO  20:32:32,749 - #28 bodovi
INFO  20:32:32,749 - Oporavak od greske u konstrukciji iskaza dodele na liniji 21
INFO  20:32:32,749 - #23 +
INFO  20:32:32,749 - #28 jedan
INFO  20:32:32,749 - #10 ;
INFO  20:32:32,749 - #28 bodovi
INFO  20:32:32,749 - #11 =
INFO  20:32:32,749 - #28 bodovi
INFO  20:32:32,749 - #24 *
INFO  20:32:32,749 - #28 pet
INFO  20:32:32,749 - #10 ;
INFO  20:32:32,749 - #28 bodovi
INFO  20:32:32,749 - #21 --
INFO  20:32:32,749 - #10 ;
INFO  20:32:32,749 - #4 print
INFO  20:32:32,749 - #13 (
INFO  20:32:32,749 - #28 bodovi
INFO  20:32:32,749 - #14 )
INFO  20:32:32,749 - #10 ;
INFO  20:32:32,749 - #28 niz
INFO  20:32:32,749 - #11 =
INFO  20:32:32,749 - #5 new
INFO  20:32:32,749 - #28 int
INFO  20:32:32,749 - #15 [
INFO  20:32:32,749 - #27 2
INFO  20:32:32,749 - #16 ]
ERROR 20:32:32,749 - 
Sintaksna greska na liniji 29
INFO  20:32:32,749 - #10 ;
INFO  20:32:32,749 - #28 niz
INFO  20:32:32,749 - #15 [
INFO  20:32:32,749 - #28 nula
INFO  20:32:32,749 - Oporavak od greske u konstrukciji iskaza dodele na liniji 29
INFO  20:32:32,749 - #16 ]
INFO  20:32:32,749 - #11 =
INFO  20:32:32,749 - #28 pet
INFO  20:32:32,749 - #10 ;
INFO  20:32:32,749 - #28 niz
INFO  20:32:32,749 - #15 [
INFO  20:32:32,749 - #27 1
INFO  20:32:32,749 - #16 ]
ERROR 20:32:32,749 - 
Sintaksna greska na liniji 31
ERROR 20:32:32,749 - Fatalna greska, parsiranje se ne moze nastaviti na liniji 31
