INFO  00:47:20,658 - Compiling source file: C:\Users\ikadr\Desktop\PP\Projekat\Rad\workspace\MJCompiler\test\program.mj
INFO  00:47:20,724 - #2 program
INFO  00:47:20,725 - #28 test301
INFO  00:47:20,725 - #9 enum
INFO  00:47:20,727 - #28 Broj
INFO  00:47:20,727 - #17 {
INFO  00:47:20,727 - #28 NULA
INFO  00:47:20,728 - #12 ,
INFO  00:47:20,728 - #28 JEDAN
INFO  00:47:20,728 - #12 ,
INFO  00:47:20,728 - #28 PET
INFO  00:47:20,728 - #11 =
INFO  00:47:20,729 - #27 5
INFO  00:47:20,729 - #12 ,
INFO  00:47:20,729 - #28 DESET
INFO  00:47:20,729 - #11 =
INFO  00:47:20,729 - #27 10
INFO  00:47:20,729 - #18 }
INFO  00:47:20,729 - #17 {
INFO  00:47:20,731 - #6 void
INFO  00:47:20,731 - #28 main
INFO  00:47:20,732 - #13 (
INFO  00:47:20,780 - #14 )
INFO  00:47:20,780 - #28 int
INFO  00:47:20,782 - #28 x
INFO  00:47:20,787 - #10 ;
INFO  00:47:20,788 - #17 {
INFO  00:47:20,791 - #28 x
INFO  00:47:20,794 - #11 =
INFO  00:47:20,799 - #27 3
INFO  00:47:20,800 - #10 ;
INFO  00:47:20,802 - #4 print
INFO  00:47:20,803 - #13 (
INFO  00:47:20,803 - #29 a
INFO  00:47:20,803 - #14 )
INFO  00:47:20,804 - #10 ;
INFO  00:47:20,804 - #4 print
INFO  00:47:20,804 - #13 (
INFO  00:47:20,805 - #28 x
INFO  00:47:20,805 - #14 )
INFO  00:47:20,805 - #10 ;
INFO  00:47:20,805 - #18 }
INFO  00:47:20,806 - #18 }
INFO  00:47:20,826 - Program(
  ProgName(
   test301
  ) [ProgName]
  GlobalDeclListL(
    GlobalDeclListEps(
    ) [GlobalDeclListEps]
    GlobalDeclEnum(
      EnumDecl(
       Broj
        EnumDeclListL(
          EnumDeclListL(
            EnumDeclListL(
              EnumDeclItem(
                EnumDeclDefNoVal(
                 NULA
                ) [EnumDeclDefNoVal]
              ) [EnumDeclItem]
              EnumDeclDefNoVal(
               JEDAN
              ) [EnumDeclDefNoVal]
            ) [EnumDeclListL]
            EnumDeclDefVal(
             PET
             5
            ) [EnumDeclDefVal]
          ) [EnumDeclListL]
          EnumDeclDefVal(
           DESET
           10
          ) [EnumDeclDefVal]
        ) [EnumDeclListL]
      ) [EnumDecl]
    ) [GlobalDeclEnum]
  ) [GlobalDeclListL]
  MethodDecl(
    MethodSignature(
      VoidableType(
      ) [VoidableType]
     main
    ) [MethodSignature]
    VarMethodDeclList_NoEps(
      VarMethodDeclList_Eps(
      ) [VarMethodDeclList_Eps]
      VarDecl(
        Type(
         int
        ) [Type]
        VarDeclItem(
          VarDeclDefineSingle(
           x
          ) [VarDeclDefineSingle]
        ) [VarDeclItem]
      ) [VarDecl]
    ) [VarMethodDeclList_NoEps]
    StatementList_NoEps(
      StatementList_NoEps(
        StatementList_NoEps(
          StatementList_Eps(
          ) [StatementList_Eps]
          StatementDes(
            DesignStatAssignment(
              Designator(
               x
                DesDerived1(
                ) [DesDerived1]
              ) [Designator]
              AssignementExpr(
                TermExpr(
                  TermFact(
                    FactorConst(
                      ConstNum(
                       3
                      ) [ConstNum]
                    ) [FactorConst]
                  ) [TermFact]
                ) [TermExpr]
              ) [AssignementExpr]
            ) [DesignStatAssignment]
          ) [StatementDes]
        ) [StatementList_NoEps]
        StatPrint(
          TermExpr(
            TermFact(
              FactorConst(
                ConstChar(
                 a
                ) [ConstChar]
              ) [FactorConst]
            ) [TermFact]
          ) [TermExpr]
        ) [StatPrint]
      ) [StatementList_NoEps]
      StatPrint(
        TermExpr(
          TermFact(
            FactorDesign(
              Designator(
               x
                DesDerived1(
                ) [DesDerived1]
              ) [Designator]
            ) [FactorDesign]
          ) [TermFact]
        ) [TermExpr]
      ) [StatPrint]
    ) [StatementList_NoEps]
  ) [MethodDecl]
) [Program]
INFO  00:47:20,827 - ===================================
INFO  00:47:20,831 - Deklarisan novi enum tip Broj na liniji 5
INFO  00:47:20,832 - Obradjuje se funkcija main na liniji 8
INFO  00:47:20,832 - Deklarisana promenljiva x tipa 1 na liniji 9
INFO  00:47:20,832 - Dodeljenja vrednost: 1 je design,1 je assign
INFO  00:47:20,832 -  Print count calls = 2
INFO  00:47:20,832 -  Deklarisanih promenljivih ima = 5
INFO  00:47:20,844 - Parsiranje uspesno zavrseno!
