INFO  17:50:27,771 - Compiling source file: C:\Users\ikadr\Desktop\PP\Projekat\Rad\workspace\MJCompiler\test\program.mj
INFO  17:50:27,835 - #2 program
INFO  17:50:27,835 - #28 test301
INFO  17:50:27,835 - #9 enum
INFO  17:50:27,835 - #28 Broj
INFO  17:50:27,835 - #17 {
INFO  17:50:27,835 - #28 NULA
INFO  17:50:27,835 - #12 ,
INFO  17:50:27,835 - #28 JEDAN
INFO  17:50:27,835 - #12 ,
INFO  17:50:27,835 - #28 PET
INFO  17:50:27,835 - #11 =
INFO  17:50:27,835 - #27 5
INFO  17:50:27,835 - #12 ,
INFO  17:50:27,835 - #28 DESET
INFO  17:50:27,835 - #11 =
INFO  17:50:27,835 - #27 10
INFO  17:50:27,835 - #18 }
INFO  17:50:27,835 - #28 int
INFO  17:50:27,835 - #28 niz
INFO  17:50:27,850 - #15 [
INFO  17:50:27,850 - #16 ]
INFO  17:50:27,875 - #10 ;
INFO  17:50:27,876 - #17 {
INFO  17:50:27,878 - #6 void
INFO  17:50:27,879 - #28 main
INFO  17:50:27,880 - #13 (
INFO  17:50:27,880 - #14 )
INFO  17:50:27,881 - #28 int
INFO  17:50:27,884 - #28 x
INFO  17:50:27,884 - #12 ,
INFO  17:50:27,884 - #28 y
INFO  17:50:27,884 - #12 ,
INFO  17:50:27,885 - #28 z
INFO  17:50:27,885 - #10 ;
INFO  17:50:27,885 - #28 Broj
INFO  17:50:27,887 - #28 pet
INFO  17:50:27,887 - #10 ;
INFO  17:50:27,887 - #17 {
INFO  17:50:27,888 - #28 niz
INFO  17:50:27,889 - #11 =
INFO  17:50:27,892 - #5 new
INFO  17:50:27,892 - #28 int
INFO  17:50:27,892 - #15 [
INFO  17:50:27,892 - #27 2
INFO  17:50:27,893 - #16 ]
INFO  17:50:27,894 - #10 ;
INFO  17:50:27,894 - #28 niz
INFO  17:50:27,895 - #15 [
INFO  17:50:27,895 - #27 1
INFO  17:50:27,895 - #16 ]
INFO  17:50:27,896 - #11 =
INFO  17:50:27,896 - #27 2
INFO  17:50:27,896 - #10 ;
INFO  17:50:27,896 - #28 x
INFO  17:50:27,896 - #11 =
INFO  17:50:27,897 - #27 6
INFO  17:50:27,897 - #10 ;
INFO  17:50:27,897 - #28 z
INFO  17:50:27,897 - #11 =
INFO  17:50:27,897 - #28 x
INFO  17:50:27,897 - #24 *
INFO  17:50:27,898 - #28 niz
INFO  17:50:27,900 - #15 [
INFO  17:50:27,901 - #27 1
INFO  17:50:27,901 - #16 ]
INFO  17:50:27,901 - #10 ;
INFO  17:50:27,901 - #4 print
INFO  17:50:27,902 - #13 (
INFO  17:50:27,902 - #28 z
INFO  17:50:27,902 - #14 )
INFO  17:50:27,902 - #10 ;
INFO  17:50:27,902 - #18 }
INFO  17:50:27,902 - #18 }
INFO  17:50:27,962 - Program(
  ProgName(
   test301
  ) [ProgName]
  GlobalDeclListL(
    GlobalDeclListL(
      GlobalDeclListEps(
      ) [GlobalDeclListEps]
      GlobalDeclEnum(
        EnumDecl(
         Broj
          EnumDeclListL(
            EnumDeclListL(
              EnumDeclListL(
                EnumDeclItem(
                  EnumDeclDefNoVal(
                   NULA
                  ) [EnumDeclDefNoVal]
                ) [EnumDeclItem]
                EnumDeclDefNoVal(
                 JEDAN
                ) [EnumDeclDefNoVal]
              ) [EnumDeclListL]
              EnumDeclDefVal(
               PET
               5
              ) [EnumDeclDefVal]
            ) [EnumDeclListL]
            EnumDeclDefVal(
             DESET
             10
            ) [EnumDeclDefVal]
          ) [EnumDeclListL]
        ) [EnumDecl]
      ) [GlobalDeclEnum]
    ) [GlobalDeclListL]
    GlobalDeclVar(
      GlobalVarDecl(
        Type(
         int
        ) [Type]
        GlobalVarDeclItem(
          GlobalVarDeclDefOk(
            VarDeclDefineArray(
             niz
            ) [VarDeclDefineArray]
          ) [GlobalVarDeclDefOk]
        ) [GlobalVarDeclItem]
      ) [GlobalVarDecl]
    ) [GlobalDeclVar]
  ) [GlobalDeclListL]
  MethodDecl(
    MethodSignature(
      VoidableType(
      ) [VoidableType]
     main
    ) [MethodSignature]
    VarMethodDeclList_NoEps(
      VarMethodDeclList_NoEps(
        VarMethodDeclList_Eps(
        ) [VarMethodDeclList_Eps]
        VarDecl(
          Type(
           int
          ) [Type]
          VarDeclListL(
            VarDeclListL(
              VarDeclItem(
                VarDeclDefineSingle(
                 x
                ) [VarDeclDefineSingle]
              ) [VarDeclItem]
              VarDeclDefineSingle(
               y
              ) [VarDeclDefineSingle]
            ) [VarDeclListL]
            VarDeclDefineSingle(
             z
            ) [VarDeclDefineSingle]
          ) [VarDeclListL]
        ) [VarDecl]
      ) [VarMethodDeclList_NoEps]
      VarDecl(
        Type(
         Broj
        ) [Type]
        VarDeclItem(
          VarDeclDefineSingle(
           pet
          ) [VarDeclDefineSingle]
        ) [VarDeclItem]
      ) [VarDecl]
    ) [VarMethodDeclList_NoEps]
    StatementList_NoEps(
      StatementList_NoEps(
        StatementList_NoEps(
          StatementList_NoEps(
            StatementList_NoEps(
              StatementList_Eps(
              ) [StatementList_Eps]
              StatementDes(
                DesignStatAssignment(
                  Designator(
                   niz
                    DesDerived1(
                    ) [DesDerived1]
                  ) [Designator]
                  AssignementExpr(
                    TermExpr(
                      TermFact(
                        FactorNewArr(
                          Type(
                           int
                          ) [Type]
                          TermExpr(
                            TermFact(
                              FactorConst(
                                ConstNum(
                                 2
                                ) [ConstNum]
                              ) [FactorConst]
                            ) [TermFact]
                          ) [TermExpr]
                        ) [FactorNewArr]
                      ) [TermFact]
                    ) [TermExpr]
                  ) [AssignementExpr]
                ) [DesignStatAssignment]
              ) [StatementDes]
            ) [StatementList_NoEps]
            StatementDes(
              DesignStatAssignment(
                Designator(
                 niz
                  DesArr(
                    TermExpr(
                      TermFact(
                        FactorConst(
                          ConstNum(
                           1
                          ) [ConstNum]
                        ) [FactorConst]
                      ) [TermFact]
                    ) [TermExpr]
                  ) [DesArr]
                ) [Designator]
                AssignementExpr(
                  TermExpr(
                    TermFact(
                      FactorConst(
                        ConstNum(
                         2
                        ) [ConstNum]
                      ) [FactorConst]
                    ) [TermFact]
                  ) [TermExpr]
                ) [AssignementExpr]
              ) [DesignStatAssignment]
            ) [StatementDes]
          ) [StatementList_NoEps]
          StatementDes(
            DesignStatAssignment(
              Designator(
               x
                DesDerived1(
                ) [DesDerived1]
              ) [Designator]
              AssignementExpr(
                TermExpr(
                  TermFact(
                    FactorConst(
                      ConstNum(
                       6
                      ) [ConstNum]
                    ) [FactorConst]
                  ) [TermFact]
                ) [TermExpr]
              ) [AssignementExpr]
            ) [DesignStatAssignment]
          ) [StatementDes]
        ) [StatementList_NoEps]
        StatementDes(
          DesignStatAssignment(
            Designator(
             z
              DesDerived1(
              ) [DesDerived1]
            ) [Designator]
            AssignementExpr(
              TermExpr(
                TermMulop(
                  TermFact(
                    FactorDesign(
                      Designator(
                       x
                        DesDerived1(
                        ) [DesDerived1]
                      ) [Designator]
                    ) [FactorDesign]
                  ) [TermFact]
                  Mulop_Mul(
                  ) [Mulop_Mul]
                  FactorDesign(
                    Designator(
                     niz
                      DesArr(
                        TermExpr(
                          TermFact(
                            FactorConst(
                              ConstNum(
                               1
                              ) [ConstNum]
                            ) [FactorConst]
                          ) [TermFact]
                        ) [TermExpr]
                      ) [DesArr]
                    ) [Designator]
                  ) [FactorDesign]
                ) [TermMulop]
              ) [TermExpr]
            ) [AssignementExpr]
          ) [DesignStatAssignment]
        ) [StatementDes]
      ) [StatementList_NoEps]
      StatPrint(
        TermExpr(
          TermFact(
            FactorDesign(
              Designator(
               z
                DesDerived1(
                ) [DesDerived1]
              ) [Designator]
            ) [FactorDesign]
          ) [TermFact]
        ) [TermExpr]
      ) [StatPrint]
    ) [StatementList_NoEps]
  ) [MethodDecl]
) [Program]
INFO  17:50:27,963 - ===================================
INFO  17:50:27,972 - Deklarisan novi enum tip Broj na liniji 5
INFO  17:50:27,973 - Deklarisana promenljiva niza niz tipa 1 na liniji 6
INFO  17:50:27,973 - Obradjuje se funkcija main na liniji 8
INFO  17:50:27,973 - Deklarisana promenljiva x tipa 1 na liniji 9
INFO  17:50:27,974 - Deklarisana promenljiva y tipa 1 na liniji 9
INFO  17:50:27,974 - Deklarisana promenljiva z tipa 1 na liniji 9
INFO  17:50:27,974 - Deklarisana promenljiva pet tipa 6 na liniji 10
INFO  17:50:27,976 - Dodeljenja vrednost: 1 je design,1 je assign
INFO  17:50:27,977 - Dodeljenja vrednost: 1 je design,1 je assign
INFO  17:50:27,977 - Dodeljenja vrednost: 1 je design,1 je assign
INFO  17:50:27,978 - Dodeljenja vrednost: 1 je design,1 je assign
INFO  17:50:27,978 -  Print count calls = 1
INFO  17:50:27,979 -  Deklarisanih promenljivih ima = 4
INFO  17:50:27,988 - Parsiranje uspesno zavrseno!
