INFO  18:03:59,324 - Compiling source file: C:\Users\ikadr\Desktop\PP\Projekat\Rad\workspace\MJCompiler\test\program.mj
INFO  18:03:59,402 - #2 program
INFO  18:03:59,402 - #28 test301
INFO  18:03:59,403 - #9 enum
INFO  18:03:59,406 - #28 Broj
INFO  18:03:59,406 - #17 {
INFO  18:03:59,408 - #28 NULA
INFO  18:03:59,408 - #12 ,
INFO  18:03:59,409 - #28 JEDAN
INFO  18:03:59,409 - #12 ,
INFO  18:03:59,409 - #28 PET
INFO  18:03:59,409 - #11 =
INFO  18:03:59,409 - #27 5
INFO  18:03:59,409 - #12 ,
INFO  18:03:59,410 - #28 DESET
INFO  18:03:59,410 - #11 =
INFO  18:03:59,410 - #27 10
INFO  18:03:59,410 - #18 }
INFO  18:03:59,410 - #8 const
INFO  18:03:59,412 - #28 int
INFO  18:03:59,412 - #28 jedan
INFO  18:03:59,414 - #11 =
INFO  18:03:59,441 - #27 1
INFO  18:03:59,441 - #10 ;
INFO  18:03:59,443 - #8 const
INFO  18:03:59,444 - #28 int
INFO  18:03:59,444 - #28 pet
INFO  18:03:59,444 - #11 =
INFO  18:03:59,444 - #27 5
INFO  18:03:59,444 - #10 ;
INFO  18:03:59,445 - #28 int
INFO  18:03:59,445 - #28 niz
INFO  18:03:59,445 - #15 [
INFO  18:03:59,445 - #16 ]
INFO  18:03:59,445 - #10 ;
INFO  18:03:59,445 - #28 char
INFO  18:03:59,447 - #28 nizch
INFO  18:03:59,447 - #15 [
INFO  18:03:59,447 - #16 ]
INFO  18:03:59,447 - #10 ;
INFO  18:03:59,448 - #17 {
INFO  18:03:59,448 - #6 void
INFO  18:03:59,448 - #28 main
INFO  18:03:59,449 - #13 (
INFO  18:03:59,449 - #14 )
INFO  18:03:59,449 - #28 int
INFO  18:03:59,453 - #28 bodovi
INFO  18:03:59,453 - #10 ;
INFO  18:03:59,454 - #28 Broj
INFO  18:03:59,455 - #28 nula
INFO  18:03:59,456 - #12 ,
INFO  18:03:59,456 - #28 jedan
INFO  18:03:59,456 - #10 ;
INFO  18:03:59,457 - #17 {
INFO  18:03:59,457 - #28 nula
INFO  18:03:59,459 - #11 =
INFO  18:03:59,460 - #28 Broj
INFO  18:03:59,460 - #19 .
INFO  18:03:59,460 - #28 NULA
INFO  18:03:59,460 - #10 ;
INFO  18:03:59,461 - #28 jedan
INFO  18:03:59,462 - #11 =
INFO  18:03:59,462 - #28 Broj
INFO  18:03:59,462 - #19 .
INFO  18:03:59,462 - #28 JEDAN
INFO  18:03:59,462 - #10 ;
INFO  18:03:59,463 - #28 bodovi
INFO  18:03:59,463 - #11 =
INFO  18:03:59,463 - #27 0
INFO  18:03:59,463 - #10 ;
INFO  18:03:59,464 - #28 bodovi
INFO  18:03:59,464 - #20 ++
INFO  18:03:59,464 - #10 ;
INFO  18:03:59,464 - #28 bodovi
INFO  18:03:59,464 - #11 =
INFO  18:03:59,465 - #28 bodovi
INFO  18:03:59,465 - #23 +
INFO  18:03:59,465 - #28 jedan
INFO  18:03:59,467 - #10 ;
INFO  18:03:59,468 - #28 bodovi
INFO  18:03:59,468 - #11 =
INFO  18:03:59,468 - #28 bodovi
INFO  18:03:59,468 - #24 *
INFO  18:03:59,468 - #28 pet
INFO  18:03:59,471 - #10 ;
INFO  18:03:59,471 - #28 bodovi
INFO  18:03:59,471 - #21 --
INFO  18:03:59,471 - #10 ;
INFO  18:03:59,472 - #4 print
INFO  18:03:59,472 - #13 (
INFO  18:03:59,472 - #28 bodovi
INFO  18:03:59,472 - #14 )
INFO  18:03:59,472 - #10 ;
INFO  18:03:59,472 - #28 niz
INFO  18:03:59,473 - #11 =
INFO  18:03:59,473 - #5 new
INFO  18:03:59,473 - #28 int
INFO  18:03:59,473 - #15 [
INFO  18:03:59,473 - #27 2
INFO  18:03:59,474 - #16 ]
INFO  18:03:59,474 - #10 ;
INFO  18:03:59,474 - #28 niz
INFO  18:03:59,474 - #15 [
INFO  18:03:59,477 - #28 nula
INFO  18:03:59,477 - #16 ]
INFO  18:03:59,477 - #11 =
INFO  18:03:59,477 - #28 pet
INFO  18:03:59,478 - #10 ;
INFO  18:03:59,478 - #28 niz
INFO  18:03:59,479 - #15 [
INFO  18:03:59,479 - #27 1
INFO  18:03:59,479 - #16 ]
INFO  18:03:59,479 - #11 =
INFO  18:03:59,479 - #28 Broj
INFO  18:03:59,479 - #19 .
INFO  18:03:59,479 - #28 DESET
INFO  18:03:59,479 - #10 ;
INFO  18:03:59,479 - #28 bodovi
INFO  18:03:59,480 - #11 =
INFO  18:03:59,480 - #28 niz
INFO  18:03:59,480 - #15 [
INFO  18:03:59,480 - #27 1
INFO  18:03:59,480 - #16 ]
INFO  18:03:59,480 - #25 /
INFO  18:03:59,480 - #28 niz
INFO  18:03:59,481 - #15 [
INFO  18:03:59,482 - #27 0
INFO  18:03:59,482 - #16 ]
INFO  18:03:59,482 - #10 ;
INFO  18:03:59,482 - #4 print
INFO  18:03:59,482 - #13 (
INFO  18:03:59,482 - #28 bodovi
INFO  18:03:59,482 - #14 )
INFO  18:03:59,487 - #10 ;
INFO  18:03:59,488 - #4 print
INFO  18:03:59,488 - #13 (
INFO  18:03:59,488 - #28 niz
INFO  18:03:59,488 - #15 [
INFO  18:03:59,488 - #28 Broj
INFO  18:03:59,488 - #19 .
INFO  18:03:59,488 - #28 JEDAN
INFO  18:03:59,488 - #16 ]
INFO  18:03:59,488 - #14 )
INFO  18:03:59,488 - #10 ;
INFO  18:03:59,488 - #28 nizch
INFO  18:03:59,489 - #11 =
INFO  18:03:59,489 - #5 new
INFO  18:03:59,489 - #28 char
INFO  18:03:59,489 - #15 [
INFO  18:03:59,489 - #27 3
INFO  18:03:59,489 - #16 ]
INFO  18:03:59,489 - #10 ;
INFO  18:03:59,489 - #28 nizch
INFO  18:03:59,489 - #15 [
INFO  18:03:59,489 - #27 0
INFO  18:03:59,489 - #16 ]
INFO  18:03:59,489 - #11 =
INFO  18:03:59,489 - #29 a
INFO  18:03:59,489 - #10 ;
INFO  18:03:59,490 - #28 nizch
INFO  18:03:59,490 - #15 [
INFO  18:03:59,490 - #28 jedan
INFO  18:03:59,490 - #16 ]
INFO  18:03:59,490 - #11 =
INFO  18:03:59,490 - #29 b
INFO  18:03:59,490 - #10 ;
INFO  18:03:59,490 - #28 nizch
INFO  18:03:59,490 - #15 [
INFO  18:03:59,490 - #28 pet
INFO  18:03:59,490 - #22 -
INFO  18:03:59,491 - #27 3
INFO  18:03:59,492 - #16 ]
INFO  18:03:59,492 - #11 =
INFO  18:03:59,492 - #29 c
INFO  18:03:59,492 - #10 ;
INFO  18:03:59,492 - #4 print
INFO  18:03:59,492 - #13 (
INFO  18:03:59,492 - #28 nizch
INFO  18:03:59,492 - #15 [
INFO  18:03:59,493 - #27 2
INFO  18:03:59,493 - #22 -
INFO  18:03:59,493 - #27 1
INFO  18:03:59,493 - #16 ]
INFO  18:03:59,493 - #14 )
INFO  18:03:59,493 - #10 ;
INFO  18:03:59,493 - #4 print
INFO  18:03:59,493 - #13 (
INFO  18:03:59,493 - #28 nizch
INFO  18:03:59,493 - #15 [
INFO  18:03:59,493 - #28 jedan
INFO  18:03:59,493 - #24 *
INFO  18:03:59,494 - #27 2
INFO  18:03:59,494 - #16 ]
INFO  18:03:59,494 - #14 )
INFO  18:03:59,494 - #10 ;
INFO  18:03:59,494 - #28 bodovi
INFO  18:03:59,494 - #11 =
INFO  18:03:59,494 - #28 bodovi
INFO  18:03:59,494 - #23 +
INFO  18:03:59,494 - #13 (
INFO  18:03:59,494 - #13 (
INFO  18:03:59,494 - #28 pet
INFO  18:03:59,495 - #24 *
INFO  18:03:59,495 - #28 jedan
INFO  18:03:59,495 - #22 -
INFO  18:03:59,495 - #27 1
INFO  18:03:59,495 - #14 )
INFO  18:03:59,495 - #24 *
INFO  18:03:59,495 - #27 2
INFO  18:03:59,495 - #22 -
INFO  18:03:59,495 - #13 (
INFO  18:03:59,495 - #27 3
INFO  18:03:59,496 - #26 %
INFO  18:03:59,496 - #27 2
INFO  18:03:59,497 - #23 +
INFO  18:03:59,497 - #27 3
INFO  18:03:59,497 - #24 *
INFO  18:03:59,497 - #27 2
INFO  18:03:59,497 - #22 -
INFO  18:03:59,497 - #27 3
INFO  18:03:59,497 - #14 )
INFO  18:03:59,497 - #22 -
INFO  18:03:59,497 - #28 Broj
INFO  18:03:59,498 - #19 .
INFO  18:03:59,498 - #28 JEDAN
INFO  18:03:59,498 - #24 *
INFO  18:03:59,498 - #27 0
INFO  18:03:59,498 - #14 )
INFO  18:03:59,498 - #10 ;
INFO  18:03:59,498 - #4 print
INFO  18:03:59,498 - #13 (
INFO  18:03:59,498 - #28 bodovi
INFO  18:03:59,498 - #14 )
INFO  18:03:59,498 - #10 ;
INFO  18:03:59,499 - #3 read
INFO  18:03:59,499 - #13 (
INFO  18:03:59,499 - #28 bodovi
INFO  18:03:59,499 - #14 )
INFO  18:03:59,499 - #10 ;
INFO  18:03:59,499 - #28 bodovi
INFO  18:03:59,499 - #11 =
INFO  18:03:59,499 - #28 bodovi
INFO  18:03:59,499 - #23 +
INFO  18:03:59,499 - #27 1
INFO  18:03:59,500 - #10 ;
INFO  18:03:59,500 - #4 print
INFO  18:03:59,500 - #13 (
INFO  18:03:59,500 - #28 bodovi
INFO  18:03:59,500 - #14 )
INFO  18:03:59,500 - #10 ;
INFO  18:03:59,500 - #18 }
INFO  18:03:59,500 - #18 }
INFO  18:03:59,526 - Program(
  ProgName(
   test301
  ) [ProgName]
  GlobalDeclListL(
    GlobalDeclListL(
      GlobalDeclListL(
        GlobalDeclListL(
          GlobalDeclListL(
            GlobalDeclListEps(
            ) [GlobalDeclListEps]
            GlobalDeclEnum(
              EnumDecl(
                EnumName(
                 Broj
                ) [EnumName]
                EnumDeclListL(
                  EnumDeclListL(
                    EnumDeclListL(
                      EnumDeclItem(
                        EnumDeclDefNoVal(
                         NULA
                        ) [EnumDeclDefNoVal]
                      ) [EnumDeclItem]
                      EnumDeclDefNoVal(
                       JEDAN
                      ) [EnumDeclDefNoVal]
                    ) [EnumDeclListL]
                    EnumDeclDefVal(
                     PET
                     5
                    ) [EnumDeclDefVal]
                  ) [EnumDeclListL]
                  EnumDeclDefVal(
                   DESET
                   10
                  ) [EnumDeclDefVal]
                ) [EnumDeclListL]
              ) [EnumDecl]
            ) [GlobalDeclEnum]
          ) [GlobalDeclListL]
          GlobalDeclConst(
            ConstDecl(
              Type(
               int
              ) [Type]
              ConstDeclItem(
                ConstDef(
                 jedan
                  ConstNum(
                   1
                  ) [ConstNum]
                ) [ConstDef]
              ) [ConstDeclItem]
            ) [ConstDecl]
          ) [GlobalDeclConst]
        ) [GlobalDeclListL]
        GlobalDeclConst(
          ConstDecl(
            Type(
             int
            ) [Type]
            ConstDeclItem(
              ConstDef(
               pet
                ConstNum(
                 5
                ) [ConstNum]
              ) [ConstDef]
            ) [ConstDeclItem]
          ) [ConstDecl]
        ) [GlobalDeclConst]
      ) [GlobalDeclListL]
      GlobalDeclVar(
        GlobalVarDecl(
          Type(
           int
          ) [Type]
          GlobalVarDeclItem(
            GlobalVarDeclDefOk(
              VarDeclDefineArray(
               niz
              ) [VarDeclDefineArray]
            ) [GlobalVarDeclDefOk]
          ) [GlobalVarDeclItem]
        ) [GlobalVarDecl]
      ) [GlobalDeclVar]
    ) [GlobalDeclListL]
    GlobalDeclVar(
      GlobalVarDecl(
        Type(
         char
        ) [Type]
        GlobalVarDeclItem(
          GlobalVarDeclDefOk(
            VarDeclDefineArray(
             nizch
            ) [VarDeclDefineArray]
          ) [GlobalVarDeclDefOk]
        ) [GlobalVarDeclItem]
      ) [GlobalVarDecl]
    ) [GlobalDeclVar]
  ) [GlobalDeclListL]
  MethodDecl(
    MethodSignature(
      VoidableType(
      ) [VoidableType]
     main
    ) [MethodSignature]
    VarMethodDeclList_NoEps(
      VarMethodDeclList_NoEps(
        VarMethodDeclList_Eps(
        ) [VarMethodDeclList_Eps]
        VarDecl(
          Type(
           int
          ) [Type]
          VarDeclItem(
            VarDeclDefineSingle(
             bodovi
            ) [VarDeclDefineSingle]
          ) [VarDeclItem]
        ) [VarDecl]
      ) [VarMethodDeclList_NoEps]
      VarDecl(
        Type(
         Broj
        ) [Type]
        VarDeclListL(
          VarDeclItem(
            VarDeclDefineSingle(
             nula
            ) [VarDeclDefineSingle]
          ) [VarDeclItem]
          VarDeclDefineSingle(
           jedan
          ) [VarDeclDefineSingle]
        ) [VarDeclListL]
      ) [VarDecl]
    ) [VarMethodDeclList_NoEps]
    StatementList_NoEps(
      StatementList_NoEps(
        StatementList_NoEps(
          StatementList_NoEps(
            StatementList_NoEps(
              StatementList_NoEps(
                StatementList_NoEps(
                  StatementList_NoEps(
                    StatementList_NoEps(
                      StatementList_NoEps(
                        StatementList_NoEps(
                          StatementList_NoEps(
                            StatementList_NoEps(
                              StatementList_NoEps(
                                StatementList_NoEps(
                                  StatementList_NoEps(
                                    StatementList_NoEps(
                                      StatementList_NoEps(
                                        StatementList_NoEps(
                                          StatementList_NoEps(
                                            StatementList_NoEps(
                                              StatementList_NoEps(
                                                StatementList_NoEps(
                                                  StatementList_NoEps(
                                                    StatementList_NoEps(
                                                      StatementList_Eps(
                                                      ) [StatementList_Eps]
                                                      StatementDes(
                                                        DesignStatAssignment(
                                                          DesIdent(
                                                           nula
                                                          ) [DesIdent]
                                                          AssignementExpr(
                                                            TermExpr(
                                                              TermFact(
                                                                FactorDesign(
                                                                  DesEnum(
                                                                   Broj
                                                                   NULA
                                                                  ) [DesEnum]
                                                                ) [FactorDesign]
                                                              ) [TermFact]
                                                            ) [TermExpr]
                                                          ) [AssignementExpr]
                                                        ) [DesignStatAssignment]
                                                      ) [StatementDes]
                                                    ) [StatementList_NoEps]
                                                    StatementDes(
                                                      DesignStatAssignment(
                                                        DesIdent(
                                                         jedan
                                                        ) [DesIdent]
                                                        AssignementExpr(
                                                          TermExpr(
                                                            TermFact(
                                                              FactorDesign(
                                                                DesEnum(
                                                                 Broj
                                                                 JEDAN
                                                                ) [DesEnum]
                                                              ) [FactorDesign]
                                                            ) [TermFact]
                                                          ) [TermExpr]
                                                        ) [AssignementExpr]
                                                      ) [DesignStatAssignment]
                                                    ) [StatementDes]
                                                  ) [StatementList_NoEps]
                                                  StatementDes(
                                                    DesignStatAssignment(
                                                      DesIdent(
                                                       bodovi
                                                      ) [DesIdent]
                                                      AssignementExpr(
                                                        TermExpr(
                                                          TermFact(
                                                            FactorConst(
                                                              ConstNum(
                                                               0
                                                              ) [ConstNum]
                                                            ) [FactorConst]
                                                          ) [TermFact]
                                                        ) [TermExpr]
                                                      ) [AssignementExpr]
                                                    ) [DesignStatAssignment]
                                                  ) [StatementDes]
                                                ) [StatementList_NoEps]
                                                StatementDes(
                                                  DesignStatInc(
                                                    DesIdent(
                                                     bodovi
                                                    ) [DesIdent]
                                                  ) [DesignStatInc]
                                                ) [StatementDes]
                                              ) [StatementList_NoEps]
                                              StatementDes(
                                                DesignStatAssignment(
                                                  DesIdent(
                                                   bodovi
                                                  ) [DesIdent]
                                                  AssignementExpr(
                                                    AddopExp(
                                                      TermExpr(
                                                        TermFact(
                                                          FactorDesign(
                                                            DesIdent(
                                                             bodovi
                                                            ) [DesIdent]
                                                          ) [FactorDesign]
                                                        ) [TermFact]
                                                      ) [TermExpr]
                                                      Addop_Plus(
                                                      ) [Addop_Plus]
                                                      TermFact(
                                                        FactorDesign(
                                                          DesIdent(
                                                           jedan
                                                          ) [DesIdent]
                                                        ) [FactorDesign]
                                                      ) [TermFact]
                                                    ) [AddopExp]
                                                  ) [AssignementExpr]
                                                ) [DesignStatAssignment]
                                              ) [StatementDes]
                                            ) [StatementList_NoEps]
                                            StatementDes(
                                              DesignStatAssignment(
                                                DesIdent(
                                                 bodovi
                                                ) [DesIdent]
                                                AssignementExpr(
                                                  TermExpr(
                                                    TermMulop(
                                                      TermFact(
                                                        FactorDesign(
                                                          DesIdent(
                                                           bodovi
                                                          ) [DesIdent]
                                                        ) [FactorDesign]
                                                      ) [TermFact]
                                                      Mulop_Mul(
                                                      ) [Mulop_Mul]
                                                      FactorDesign(
                                                        DesIdent(
                                                         pet
                                                        ) [DesIdent]
                                                      ) [FactorDesign]
                                                    ) [TermMulop]
                                                  ) [TermExpr]
                                                ) [AssignementExpr]
                                              ) [DesignStatAssignment]
                                            ) [StatementDes]
                                          ) [StatementList_NoEps]
                                          StatementDes(
                                            DesignStatDec(
                                              DesIdent(
                                               bodovi
                                              ) [DesIdent]
                                            ) [DesignStatDec]
                                          ) [StatementDes]
                                        ) [StatementList_NoEps]
                                        StatPrint(
                                          TermExpr(
                                            TermFact(
                                              FactorDesign(
                                                DesIdent(
                                                 bodovi
                                                ) [DesIdent]
                                              ) [FactorDesign]
                                            ) [TermFact]
                                          ) [TermExpr]
                                        ) [StatPrint]
                                      ) [StatementList_NoEps]
                                      StatementDes(
                                        DesignStatAssignment(
                                          DesIdent(
                                           niz
                                          ) [DesIdent]
                                          AssignementExpr(
                                            TermExpr(
                                              TermFact(
                                                FactorNewArr(
                                                  Type(
                                                   int
                                                  ) [Type]
                                                  TermExpr(
                                                    TermFact(
                                                      FactorConst(
                                                        ConstNum(
                                                         2
                                                        ) [ConstNum]
                                                      ) [FactorConst]
                                                    ) [TermFact]
                                                  ) [TermExpr]
                                                ) [FactorNewArr]
                                              ) [TermFact]
                                            ) [TermExpr]
                                          ) [AssignementExpr]
                                        ) [DesignStatAssignment]
                                      ) [StatementDes]
                                    ) [StatementList_NoEps]
                                    StatementDes(
                                      DesignStatAssignment(
                                        DesArr(
                                          ArrayName(
                                           niz
                                          ) [ArrayName]
                                          TermExpr(
                                            TermFact(
                                              FactorDesign(
                                                DesIdent(
                                                 nula
                                                ) [DesIdent]
                                              ) [FactorDesign]
                                            ) [TermFact]
                                          ) [TermExpr]
                                        ) [DesArr]
                                        AssignementExpr(
                                          TermExpr(
                                            TermFact(
                                              FactorDesign(
                                                DesIdent(
                                                 pet
                                                ) [DesIdent]
                                              ) [FactorDesign]
                                            ) [TermFact]
                                          ) [TermExpr]
                                        ) [AssignementExpr]
                                      ) [DesignStatAssignment]
                                    ) [StatementDes]
                                  ) [StatementList_NoEps]
                                  StatementDes(
                                    DesignStatAssignment(
                                      DesArr(
                                        ArrayName(
                                         niz
                                        ) [ArrayName]
                                        TermExpr(
                                          TermFact(
                                            FactorConst(
                                              ConstNum(
                                               1
                                              ) [ConstNum]
                                            ) [FactorConst]
                                          ) [TermFact]
                                        ) [TermExpr]
                                      ) [DesArr]
                                      AssignementExpr(
                                        TermExpr(
                                          TermFact(
                                            FactorDesign(
                                              DesEnum(
                                               Broj
                                               DESET
                                              ) [DesEnum]
                                            ) [FactorDesign]
                                          ) [TermFact]
                                        ) [TermExpr]
                                      ) [AssignementExpr]
                                    ) [DesignStatAssignment]
                                  ) [StatementDes]
                                ) [StatementList_NoEps]
                                StatementDes(
                                  DesignStatAssignment(
                                    DesIdent(
                                     bodovi
                                    ) [DesIdent]
                                    AssignementExpr(
                                      TermExpr(
                                        TermMulop(
                                          TermFact(
                                            FactorDesign(
                                              DesArr(
                                                ArrayName(
                                                 niz
                                                ) [ArrayName]
                                                TermExpr(
                                                  TermFact(
                                                    FactorConst(
                                                      ConstNum(
                                                       1
                                                      ) [ConstNum]
                                                    ) [FactorConst]
                                                  ) [TermFact]
                                                ) [TermExpr]
                                              ) [DesArr]
                                            ) [FactorDesign]
                                          ) [TermFact]
                                          Mulop_Div(
                                          ) [Mulop_Div]
                                          FactorDesign(
                                            DesArr(
                                              ArrayName(
                                               niz
                                              ) [ArrayName]
                                              TermExpr(
                                                TermFact(
                                                  FactorConst(
                                                    ConstNum(
                                                     0
                                                    ) [ConstNum]
                                                  ) [FactorConst]
                                                ) [TermFact]
                                              ) [TermExpr]
                                            ) [DesArr]
                                          ) [FactorDesign]
                                        ) [TermMulop]
                                      ) [TermExpr]
                                    ) [AssignementExpr]
                                  ) [DesignStatAssignment]
                                ) [StatementDes]
                              ) [StatementList_NoEps]
                              StatPrint(
                                TermExpr(
                                  TermFact(
                                    FactorDesign(
                                      DesIdent(
                                       bodovi
                                      ) [DesIdent]
                                    ) [FactorDesign]
                                  ) [TermFact]
                                ) [TermExpr]
                              ) [StatPrint]
                            ) [StatementList_NoEps]
                            StatPrint(
                              TermExpr(
                                TermFact(
                                  FactorDesign(
                                    DesArr(
                                      ArrayName(
                                       niz
                                      ) [ArrayName]
                                      TermExpr(
                                        TermFact(
                                          FactorDesign(
                                            DesEnum(
                                             Broj
                                             JEDAN
                                            ) [DesEnum]
                                          ) [FactorDesign]
                                        ) [TermFact]
                                      ) [TermExpr]
                                    ) [DesArr]
                                  ) [FactorDesign]
                                ) [TermFact]
                              ) [TermExpr]
                            ) [StatPrint]
                          ) [StatementList_NoEps]
                          StatementDes(
                            DesignStatAssignment(
                              DesIdent(
                               nizch
                              ) [DesIdent]
                              AssignementExpr(
                                TermExpr(
                                  TermFact(
                                    FactorNewArr(
                                      Type(
                                       char
                                      ) [Type]
                                      TermExpr(
                                        TermFact(
                                          FactorConst(
                                            ConstNum(
                                             3
                                            ) [ConstNum]
                                          ) [FactorConst]
                                        ) [TermFact]
                                      ) [TermExpr]
                                    ) [FactorNewArr]
                                  ) [TermFact]
                                ) [TermExpr]
                              ) [AssignementExpr]
                            ) [DesignStatAssignment]
                          ) [StatementDes]
                        ) [StatementList_NoEps]
                        StatementDes(
                          DesignStatAssignment(
                            DesArr(
                              ArrayName(
                               nizch
                              ) [ArrayName]
                              TermExpr(
                                TermFact(
                                  FactorConst(
                                    ConstNum(
                                     0
                                    ) [ConstNum]
                                  ) [FactorConst]
                                ) [TermFact]
                              ) [TermExpr]
                            ) [DesArr]
                            AssignementExpr(
                              TermExpr(
                                TermFact(
                                  FactorConst(
                                    ConstChar(
                                     a
                                    ) [ConstChar]
                                  ) [FactorConst]
                                ) [TermFact]
                              ) [TermExpr]
                            ) [AssignementExpr]
                          ) [DesignStatAssignment]
                        ) [StatementDes]
                      ) [StatementList_NoEps]
                      StatementDes(
                        DesignStatAssignment(
                          DesArr(
                            ArrayName(
                             nizch
                            ) [ArrayName]
                            TermExpr(
                              TermFact(
                                FactorDesign(
                                  DesIdent(
                                   jedan
                                  ) [DesIdent]
                                ) [FactorDesign]
                              ) [TermFact]
                            ) [TermExpr]
                          ) [DesArr]
                          AssignementExpr(
                            TermExpr(
                              TermFact(
                                FactorConst(
                                  ConstChar(
                                   b
                                  ) [ConstChar]
                                ) [FactorConst]
                              ) [TermFact]
                            ) [TermExpr]
                          ) [AssignementExpr]
                        ) [DesignStatAssignment]
                      ) [StatementDes]
                    ) [StatementList_NoEps]
                    StatementDes(
                      DesignStatAssignment(
                        DesArr(
                          ArrayName(
                           nizch
                          ) [ArrayName]
                          AddopExp(
                            TermExpr(
                              TermFact(
                                FactorDesign(
                                  DesIdent(
                                   pet
                                  ) [DesIdent]
                                ) [FactorDesign]
                              ) [TermFact]
                            ) [TermExpr]
                            Addop_Minus(
                            ) [Addop_Minus]
                            TermFact(
                              FactorConst(
                                ConstNum(
                                 3
                                ) [ConstNum]
                              ) [FactorConst]
                            ) [TermFact]
                          ) [AddopExp]
                        ) [DesArr]
                        AssignementExpr(
                          TermExpr(
                            TermFact(
                              FactorConst(
                                ConstChar(
                                 c
                                ) [ConstChar]
                              ) [FactorConst]
                            ) [TermFact]
                          ) [TermExpr]
                        ) [AssignementExpr]
                      ) [DesignStatAssignment]
                    ) [StatementDes]
                  ) [StatementList_NoEps]
                  StatPrint(
                    TermExpr(
                      TermFact(
                        FactorDesign(
                          DesArr(
                            ArrayName(
                             nizch
                            ) [ArrayName]
                            AddopExp(
                              TermExpr(
                                TermFact(
                                  FactorConst(
                                    ConstNum(
                                     2
                                    ) [ConstNum]
                                  ) [FactorConst]
                                ) [TermFact]
                              ) [TermExpr]
                              Addop_Minus(
                              ) [Addop_Minus]
                              TermFact(
                                FactorConst(
                                  ConstNum(
                                   1
                                  ) [ConstNum]
                                ) [FactorConst]
                              ) [TermFact]
                            ) [AddopExp]
                          ) [DesArr]
                        ) [FactorDesign]
                      ) [TermFact]
                    ) [TermExpr]
                  ) [StatPrint]
                ) [StatementList_NoEps]
                StatPrint(
                  TermExpr(
                    TermFact(
                      FactorDesign(
                        DesArr(
                          ArrayName(
                           nizch
                          ) [ArrayName]
                          TermExpr(
                            TermMulop(
                              TermFact(
                                FactorDesign(
                                  DesIdent(
                                   jedan
                                  ) [DesIdent]
                                ) [FactorDesign]
                              ) [TermFact]
                              Mulop_Mul(
                              ) [Mulop_Mul]
                              FactorConst(
                                ConstNum(
                                 2
                                ) [ConstNum]
                              ) [FactorConst]
                            ) [TermMulop]
                          ) [TermExpr]
                        ) [DesArr]
                      ) [FactorDesign]
                    ) [TermFact]
                  ) [TermExpr]
                ) [StatPrint]
              ) [StatementList_NoEps]
              StatementDes(
                DesignStatAssignment(
                  DesIdent(
                   bodovi
                  ) [DesIdent]
                  AssignementExpr(
                    AddopExp(
                      TermExpr(
                        TermFact(
                          FactorDesign(
                            DesIdent(
                             bodovi
                            ) [DesIdent]
                          ) [FactorDesign]
                        ) [TermFact]
                      ) [TermExpr]
                      Addop_Plus(
                      ) [Addop_Plus]
                      TermFact(
                        FactorExpr(
                          AddopExp(
                            AddopExp(
                              TermExpr(
                                TermMulop(
                                  TermFact(
                                    FactorExpr(
                                      AddopExp(
                                        TermExpr(
                                          TermMulop(
                                            TermFact(
                                              FactorDesign(
                                                DesIdent(
                                                 pet
                                                ) [DesIdent]
                                              ) [FactorDesign]
                                            ) [TermFact]
                                            Mulop_Mul(
                                            ) [Mulop_Mul]
                                            FactorDesign(
                                              DesIdent(
                                               jedan
                                              ) [DesIdent]
                                            ) [FactorDesign]
                                          ) [TermMulop]
                                        ) [TermExpr]
                                        Addop_Minus(
                                        ) [Addop_Minus]
                                        TermFact(
                                          FactorConst(
                                            ConstNum(
                                             1
                                            ) [ConstNum]
                                          ) [FactorConst]
                                        ) [TermFact]
                                      ) [AddopExp]
                                    ) [FactorExpr]
                                  ) [TermFact]
                                  Mulop_Mul(
                                  ) [Mulop_Mul]
                                  FactorConst(
                                    ConstNum(
                                     2
                                    ) [ConstNum]
                                  ) [FactorConst]
                                ) [TermMulop]
                              ) [TermExpr]
                              Addop_Minus(
                              ) [Addop_Minus]
                              TermFact(
                                FactorExpr(
                                  AddopExp(
                                    AddopExp(
                                      TermExpr(
                                        TermMulop(
                                          TermFact(
                                            FactorConst(
                                              ConstNum(
                                               3
                                              ) [ConstNum]
                                            ) [FactorConst]
                                          ) [TermFact]
                                          Mulop_Mod(
                                          ) [Mulop_Mod]
                                          FactorConst(
                                            ConstNum(
                                             2
                                            ) [ConstNum]
                                          ) [FactorConst]
                                        ) [TermMulop]
                                      ) [TermExpr]
                                      Addop_Plus(
                                      ) [Addop_Plus]
                                      TermMulop(
                                        TermFact(
                                          FactorConst(
                                            ConstNum(
                                             3
                                            ) [ConstNum]
                                          ) [FactorConst]
                                        ) [TermFact]
                                        Mulop_Mul(
                                        ) [Mulop_Mul]
                                        FactorConst(
                                          ConstNum(
                                           2
                                          ) [ConstNum]
                                        ) [FactorConst]
                                      ) [TermMulop]
                                    ) [AddopExp]
                                    Addop_Minus(
                                    ) [Addop_Minus]
                                    TermFact(
                                      FactorConst(
                                        ConstNum(
                                         3
                                        ) [ConstNum]
                                      ) [FactorConst]
                                    ) [TermFact]
                                  ) [AddopExp]
                                ) [FactorExpr]
                              ) [TermFact]
                            ) [AddopExp]
                            Addop_Minus(
                            ) [Addop_Minus]
                            TermMulop(
                              TermFact(
                                FactorDesign(
                                  DesEnum(
                                   Broj
                                   JEDAN
                                  ) [DesEnum]
                                ) [FactorDesign]
                              ) [TermFact]
                              Mulop_Mul(
                              ) [Mulop_Mul]
                              FactorConst(
                                ConstNum(
                                 0
                                ) [ConstNum]
                              ) [FactorConst]
                            ) [TermMulop]
                          ) [AddopExp]
                        ) [FactorExpr]
                      ) [TermFact]
                    ) [AddopExp]
                  ) [AssignementExpr]
                ) [DesignStatAssignment]
              ) [StatementDes]
            ) [StatementList_NoEps]
            StatPrint(
              TermExpr(
                TermFact(
                  FactorDesign(
                    DesIdent(
                     bodovi
                    ) [DesIdent]
                  ) [FactorDesign]
                ) [TermFact]
              ) [TermExpr]
            ) [StatPrint]
          ) [StatementList_NoEps]
          StatRead(
            DesIdent(
             bodovi
            ) [DesIdent]
          ) [StatRead]
        ) [StatementList_NoEps]
        StatementDes(
          DesignStatAssignment(
            DesIdent(
             bodovi
            ) [DesIdent]
            AssignementExpr(
              AddopExp(
                TermExpr(
                  TermFact(
                    FactorDesign(
                      DesIdent(
                       bodovi
                      ) [DesIdent]
                    ) [FactorDesign]
                  ) [TermFact]
                ) [TermExpr]
                Addop_Plus(
                ) [Addop_Plus]
                TermFact(
                  FactorConst(
                    ConstNum(
                     1
                    ) [ConstNum]
                  ) [FactorConst]
                ) [TermFact]
              ) [AddopExp]
            ) [AssignementExpr]
          ) [DesignStatAssignment]
        ) [StatementDes]
      ) [StatementList_NoEps]
      StatPrint(
        TermExpr(
          TermFact(
            FactorDesign(
              DesIdent(
               bodovi
              ) [DesIdent]
            ) [FactorDesign]
          ) [TermFact]
        ) [TermExpr]
      ) [StatPrint]
    ) [StatementList_NoEps]
  ) [MethodDecl]
) [Program]
INFO  18:03:59,534 - ===================================
INFO  18:03:59,540 - Deklarisan novi enum tip Broj na liniji 5
INFO  18:03:59,541 - Deklarisana konstanta NULA unutar enuma Broj na liniji 5
INFO  18:03:59,541 - Deklarisana konstanta JEDAN unutar enuma Broj na liniji 5
INFO  18:03:59,541 - Deklarisana konstanta PET unutar enuma Broj na liniji 5
INFO  18:03:59,542 - Deklarisana konstanta DESET unutar enuma Broj na liniji 5
INFO  18:03:59,543 - Deklarisana konstanta 'jedan' na liniji 7
INFO  18:03:59,543 - Deklarisana konstanta 'pet' na liniji 8
INFO  18:03:59,543 - Deklarisana promenljiva niza niz tipa 1 na liniji 10
INFO  18:03:59,543 - Deklarisana promenljiva niza nizch tipa 2 na liniji 11
INFO  18:03:59,543 - Obradjuje se funkcija main na liniji 14
INFO  18:03:59,543 - Deklarisana promenljiva bodovi tipa 1 na liniji 15
INFO  18:03:59,544 - Deklarisana promenljiva nula tipa 6 na liniji 16
INFO  18:03:59,544 - Deklarisana promenljiva jedan tipa 6 na liniji 16
INFO  18:03:59,544 - Dodeljenja vrednost enuma promenljivoj enuma
INFO  18:03:59,545 - Dodeljenja vrednost enuma promenljivoj enuma
INFO  18:03:59,545 - Dodeljenja vrednost: 1 je design,1 je assign
INFO  18:03:59,545 - Inkrementirana vrednost
INFO  18:03:59,545 - Dodeljenja vrednost: 1 je design,1 je assign
INFO  18:03:59,545 - Dodeljenja vrednost: 1 je design,1 je assign
INFO  18:03:59,545 - Dekrementirana vrednost
ERROR 18:03:59,545 - Greska: parametar print funkcije nije validan na liniji 26
INFO  18:03:59,545 - Dodeljenja vrednost: 1 je design,1 je assign
ERROR 18:03:59,545 - Greska: parametar print funkcije nije validan na liniji 33
ERROR 18:03:59,545 - Greska: parametar print funkcije nije validan na liniji 34
ERROR 18:03:59,546 - Greska: parametar print funkcije nije validan na liniji 41
ERROR 18:03:59,546 - Greska: parametar print funkcije nije validan na liniji 42
INFO  18:03:59,546 - Dodeljenja vrednost: 1 je design,1 je assign
ERROR 18:03:59,546 - Greska: parametar print funkcije nije validan na liniji 46
INFO  18:03:59,546 - Read funkcija na liniji 49
INFO  18:03:59,546 - Dodeljenja vrednost: 1 je design,1 je assign
ERROR 18:03:59,546 - Greska: parametar print funkcije nije validan na liniji 51
INFO  18:03:59,546 -  Print count calls = 0
INFO  18:03:59,546 -  Deklarisanih promenljivih ima = 5
ERROR 18:03:59,547 - Parsiranje NIJE uspesno zavrseno!
