INFO  12:42:19,961 - Compiling source file: C:\Users\ikadr\Desktop\PP\Projekat\Rad\workspace\MJCompiler\test\program.mj
INFO  12:42:20,053 - #2 program
INFO  12:42:20,053 - #28 test301
INFO  12:42:20,053 - #17 {
INFO  12:42:20,056 - #6 void
INFO  12:42:20,056 - #28 main
INFO  12:42:20,058 - #13 (
INFO  12:42:20,058 - #14 )
INFO  12:42:20,058 - #28 int
INFO  12:42:20,060 - #28 niz
INFO  12:42:20,061 - #15 [
INFO  12:42:20,061 - #16 ]
INFO  12:42:20,061 - #10 ;
INFO  12:42:20,062 - #17 {
INFO  12:42:20,063 - #28 niz
INFO  12:42:20,065 - #11 =
INFO  12:42:20,065 - #5 new
INFO  12:42:20,065 - #28 int
INFO  12:42:20,066 - #15 [
INFO  12:42:20,066 - #27 2
INFO  12:42:20,066 - #16 ]
INFO  12:42:20,068 - #10 ;
INFO  12:42:20,069 - #18 }
INFO  12:42:20,070 - #18 }
INFO  12:42:20,091 - Program(
  ProgName(
   test301
  ) [ProgName]
  GlobalDeclListEps(
  ) [GlobalDeclListEps]
  MethodDecl(
    MethodSignature(
      VoidableType(
      ) [VoidableType]
     main
    ) [MethodSignature]
    VarMethodDeclList_NoEps(
      VarMethodDeclList_Eps(
      ) [VarMethodDeclList_Eps]
      VarDecl(
        Type(
         int
        ) [Type]
        VarDeclItem(
          VarDeclDefineArray(
           niz
          ) [VarDeclDefineArray]
        ) [VarDeclItem]
      ) [VarDecl]
    ) [VarMethodDeclList_NoEps]
    StatementList_NoEps(
      StatementList_Eps(
      ) [StatementList_Eps]
      StatementDes(
        DesignStatAssignment(
          DesIdent(
           niz
          ) [DesIdent]
          AssignementExpr(
            TermExpr(
              TermFact(
                FactorNewArr(
                  Type(
                   int
                  ) [Type]
                  TermExpr(
                    TermFact(
                      FactorConst(
                        ConstNum(
                         2
                        ) [ConstNum]
                      ) [FactorConst]
                    ) [TermFact]
                  ) [TermExpr]
                ) [FactorNewArr]
              ) [TermFact]
            ) [TermExpr]
          ) [AssignementExpr]
        ) [DesignStatAssignment]
      ) [StatementDes]
    ) [StatementList_NoEps]
  ) [MethodDecl]
) [Program]
INFO  12:42:20,092 - ===================================
INFO  12:42:20,098 - Obradjuje se funkcija main na liniji 8
INFO  12:42:20,098 - Deklarisana promenljiva niza niz tipa 1 na liniji 10
INFO  12:42:20,099 -  Print count calls = 0
INFO  12:42:20,100 -  Deklarisanih promenljivih ima = 0
INFO  12:42:20,116 - GENERATOR:design nakon store niz
INFO  12:42:20,116 - Parsiranje uspesno zavrseno!
