INFO  20:30:24,704 - Compiling source file: C:\Users\ikadr\Desktop\PP\Projekat\Rad\workspace\MJCompiler\test\program.mj
INFO  20:30:24,782 - #2 program
INFO  20:30:24,782 - #28 test301
INFO  20:30:24,782 - #9 enum
INFO  20:30:24,782 - #28 Broj
INFO  20:30:24,782 - #17 {
INFO  20:30:24,782 - #28 NULA
INFO  20:30:24,782 - #12 ,
INFO  20:30:24,782 - #28 JEDAN
INFO  20:30:24,782 - #12 ,
INFO  20:30:24,782 - #28 PET
INFO  20:30:24,782 - #11 =
INFO  20:30:24,782 - #27 5
INFO  20:30:24,782 - #12 ,
INFO  20:30:24,782 - #28 DESET
INFO  20:30:24,782 - #11 =
INFO  20:30:24,782 - #27 10
INFO  20:30:24,782 - #18 }
INFO  20:30:24,782 - #8 const
INFO  20:30:24,782 - #28 int
INFO  20:30:24,782 - #28 jedan
INFO  20:30:24,782 - #11 =
INFO  20:30:24,797 - #27 1
INFO  20:30:24,797 - #10 ;
INFO  20:30:24,797 - #8 const
INFO  20:30:24,797 - #28 int
INFO  20:30:24,797 - #28 pet
INFO  20:30:24,797 - #11 =
INFO  20:30:24,797 - #27 5
INFO  20:30:24,797 - #10 ;
INFO  20:30:24,797 - #28 int
INFO  20:30:24,797 - #28 niz
INFO  20:30:24,797 - #15 [
INFO  20:30:24,797 - #16 ]
INFO  20:30:24,797 - #10 ;
INFO  20:30:24,797 - #28 char
INFO  20:30:24,797 - #28 nizch
INFO  20:30:24,797 - #15 [
INFO  20:30:24,797 - #16 ]
INFO  20:30:24,797 - #10 ;
INFO  20:30:24,797 - #17 {
INFO  20:30:24,797 - #6 void
INFO  20:30:24,797 - #28 main
INFO  20:30:24,797 - #13 (
INFO  20:30:24,797 - #14 )
INFO  20:30:24,797 - #28 int
INFO  20:30:24,797 - #28 bodovi
INFO  20:30:24,797 - #10 ;
INFO  20:30:24,797 - #28 Broj
INFO  20:30:24,797 - #28 nula
INFO  20:30:24,797 - #12 ,
INFO  20:30:24,797 - #28 jedan
INFO  20:30:24,797 - #10 ;
INFO  20:30:24,797 - #17 {
INFO  20:30:24,797 - #28 nula
INFO  20:30:24,797 - #11 =
INFO  20:30:24,797 - #28 Broj
INFO  20:30:24,797 - #19 .
INFO  20:30:24,797 - #28 NULA
INFO  20:30:24,797 - #10 ;
INFO  20:30:24,813 - #28 jedan
INFO  20:30:24,813 - #11 =
INFO  20:30:24,813 - #28 Broj
INFO  20:30:24,813 - #19 .
INFO  20:30:24,813 - #28 JEDAN
INFO  20:30:24,813 - #10 ;
INFO  20:30:24,813 - #28 niz
INFO  20:30:24,813 - #11 =
INFO  20:30:24,813 - #5 new
INFO  20:30:24,813 - #28 int
INFO  20:30:24,813 - #15 [
INFO  20:30:24,813 - #27 2
INFO  20:30:24,813 - #16 ]
INFO  20:30:24,813 - #10 ;
INFO  20:30:24,813 - #28 niz
INFO  20:30:24,813 - #15 [
INFO  20:30:24,813 - #27 1
INFO  20:30:24,813 - #16 ]
INFO  20:30:24,813 - #11 =
INFO  20:30:24,813 - #27 5
INFO  20:30:24,813 - #10 ;
INFO  20:30:24,813 - #18 }
INFO  20:30:24,813 - #18 }
INFO  20:30:24,829 - Program(
  ProgName(
   test301
  ) [ProgName]
  GlobalDeclListL(
    GlobalDeclListL(
      GlobalDeclListL(
        GlobalDeclListL(
          GlobalDeclListL(
            GlobalDeclListEps(
            ) [GlobalDeclListEps]
            GlobalDeclEnum(
              EnumDecl(
               Broj
                EnumDeclListL(
                  EnumDeclListL(
                    EnumDeclListL(
                      EnumDeclItem(
                        EnumDeclDefNoVal(
                         NULA
                        ) [EnumDeclDefNoVal]
                      ) [EnumDeclItem]
                      EnumDeclDefNoVal(
                       JEDAN
                      ) [EnumDeclDefNoVal]
                    ) [EnumDeclListL]
                    EnumDeclDefVal(
                     PET
                     5
                    ) [EnumDeclDefVal]
                  ) [EnumDeclListL]
                  EnumDeclDefVal(
                   DESET
                   10
                  ) [EnumDeclDefVal]
                ) [EnumDeclListL]
              ) [EnumDecl]
            ) [GlobalDeclEnum]
          ) [GlobalDeclListL]
          GlobalDeclConst(
            ConstDecl(
              Type(
               int
              ) [Type]
              ConstDeclItem(
                ConstDef(
                 jedan
                  ConstNum(
                   1
                  ) [ConstNum]
                ) [ConstDef]
              ) [ConstDeclItem]
            ) [ConstDecl]
          ) [GlobalDeclConst]
        ) [GlobalDeclListL]
        GlobalDeclConst(
          ConstDecl(
            Type(
             int
            ) [Type]
            ConstDeclItem(
              ConstDef(
               pet
                ConstNum(
                 5
                ) [ConstNum]
              ) [ConstDef]
            ) [ConstDeclItem]
          ) [ConstDecl]
        ) [GlobalDeclConst]
      ) [GlobalDeclListL]
      GlobalDeclVar(
        GlobalVarDecl(
          Type(
           int
          ) [Type]
          GlobalVarDeclItem(
            GlobalVarDeclDefOk(
              VarDeclDefineArray(
               niz
              ) [VarDeclDefineArray]
            ) [GlobalVarDeclDefOk]
          ) [GlobalVarDeclItem]
        ) [GlobalVarDecl]
      ) [GlobalDeclVar]
    ) [GlobalDeclListL]
    GlobalDeclVar(
      GlobalVarDecl(
        Type(
         char
        ) [Type]
        GlobalVarDeclItem(
          GlobalVarDeclDefOk(
            VarDeclDefineArray(
             nizch
            ) [VarDeclDefineArray]
          ) [GlobalVarDeclDefOk]
        ) [GlobalVarDeclItem]
      ) [GlobalVarDecl]
    ) [GlobalDeclVar]
  ) [GlobalDeclListL]
  MethodDecl(
    MethodSignature(
      VoidableType(
      ) [VoidableType]
     main
    ) [MethodSignature]
    VarMethodDeclList_NoEps(
      VarMethodDeclList_NoEps(
        VarMethodDeclList_Eps(
        ) [VarMethodDeclList_Eps]
        VarDecl(
          Type(
           int
          ) [Type]
          VarDeclItem(
            VarDeclDefineSingle(
             bodovi
            ) [VarDeclDefineSingle]
          ) [VarDeclItem]
        ) [VarDecl]
      ) [VarMethodDeclList_NoEps]
      VarDecl(
        Type(
         Broj
        ) [Type]
        VarDeclListL(
          VarDeclItem(
            VarDeclDefineSingle(
             nula
            ) [VarDeclDefineSingle]
          ) [VarDeclItem]
          VarDeclDefineSingle(
           jedan
          ) [VarDeclDefineSingle]
        ) [VarDeclListL]
      ) [VarDecl]
    ) [VarMethodDeclList_NoEps]
    StatementList_NoEps(
      StatementList_NoEps(
        StatementList_NoEps(
          StatementList_NoEps(
            StatementList_Eps(
            ) [StatementList_Eps]
            StatementDes(
              DesignStatAssignment(
                Designator(
                 nula
                  DesDerived1(
                  ) [DesDerived1]
                ) [Designator]
                AssignementExpr(
                  TermExpr(
                    TermFact(
                      FactorDesign(
                        Designator(
                         Broj
                          DesEnum(
                           NULA
                          ) [DesEnum]
                        ) [Designator]
                      ) [FactorDesign]
                    ) [TermFact]
                  ) [TermExpr]
                ) [AssignementExpr]
              ) [DesignStatAssignment]
            ) [StatementDes]
          ) [StatementList_NoEps]
          StatementDes(
            DesignStatAssignment(
              Designator(
               jedan
                DesDerived1(
                ) [DesDerived1]
              ) [Designator]
              AssignementExpr(
                TermExpr(
                  TermFact(
                    FactorDesign(
                      Designator(
                       Broj
                        DesEnum(
                         JEDAN
                        ) [DesEnum]
                      ) [Designator]
                    ) [FactorDesign]
                  ) [TermFact]
                ) [TermExpr]
              ) [AssignementExpr]
            ) [DesignStatAssignment]
          ) [StatementDes]
        ) [StatementList_NoEps]
        StatementDes(
          DesignStatAssignment(
            Designator(
             niz
              DesDerived1(
              ) [DesDerived1]
            ) [Designator]
            AssignementExpr(
              TermExpr(
                TermFact(
                  FactorNewArr(
                    Type(
                     int
                    ) [Type]
                    TermExpr(
                      TermFact(
                        FactorConst(
                          ConstNum(
                           2
                          ) [ConstNum]
                        ) [FactorConst]
                      ) [TermFact]
                    ) [TermExpr]
                  ) [FactorNewArr]
                ) [TermFact]
              ) [TermExpr]
            ) [AssignementExpr]
          ) [DesignStatAssignment]
        ) [StatementDes]
      ) [StatementList_NoEps]
      StatementDes(
        DesignStatAssignment(
          Designator(
           niz
            DesArr(
              TermExpr(
                TermFact(
                  FactorConst(
                    ConstNum(
                     1
                    ) [ConstNum]
                  ) [FactorConst]
                ) [TermFact]
              ) [TermExpr]
            ) [DesArr]
          ) [Designator]
          AssignementExpr(
            TermExpr(
              TermFact(
                FactorConst(
                  ConstNum(
                   5
                  ) [ConstNum]
                ) [FactorConst]
              ) [TermFact]
            ) [TermExpr]
          ) [AssignementExpr]
        ) [DesignStatAssignment]
      ) [StatementDes]
    ) [StatementList_NoEps]
  ) [MethodDecl]
) [Program]
INFO  20:30:24,829 - ===================================
INFO  20:30:24,829 - Deklarisan novi enum tip Broj na liniji 5
INFO  20:30:24,829 - Deklarisana konstanta 'jedan' na liniji 7
INFO  20:30:24,829 - Deklarisana konstanta 'pet' na liniji 8
INFO  20:30:24,829 - Deklarisana promenljiva niza niz tipa 1 na liniji 10
INFO  20:30:24,829 - Deklarisana promenljiva niza nizch tipa 2 na liniji 11
INFO  20:30:24,829 - Obradjuje se funkcija main na liniji 14
INFO  20:30:24,829 - Deklarisana promenljiva bodovi tipa 1 na liniji 15
INFO  20:30:24,829 - Deklarisana promenljiva nula tipa 6 na liniji 16
INFO  20:30:24,829 - Deklarisana promenljiva jedan tipa 6 na liniji 16
INFO  20:30:24,829 - Designator ident je: nula, 6
INFO  20:30:24,829 - Designator ident je: Broj, 6
INFO  20:30:24,829 - Design kind je 6
INFO  20:30:24,829 - Dodeljenja vrednost: 6 je design,6 je assign
INFO  20:30:24,829 - Designator ident je: jedan, 6
INFO  20:30:24,829 - Designator ident je: Broj, 6
INFO  20:30:24,829 - Design kind je 6
INFO  20:30:24,829 - Dodeljenja vrednost: 6 je design,6 je assign
INFO  20:30:24,829 - Designator ident je: niz, 3
INFO  20:30:24,829 - Design kind je 3
INFO  20:30:24,829 - Dodeljenja vrednost: 3 je design,3 je assign
INFO  20:30:24,829 - Designator ident je: niz, 3
INFO  20:30:24,829 - Design kind je 3
ERROR 20:30:24,829 - Greska: nekompatibilni tipovi u dodeli na liniji 30
INFO  20:30:24,829 -  Print count calls = 0
INFO  20:30:24,829 -  Deklarisanih promenljivih ima = 3
ERROR 20:30:24,844 - Parsiranje NIJE uspesno zavrseno!
