INFO  17:38:04,494 - Compiling source file: C:\Users\ikadr\Desktop\PP\Projekat\Rad\workspace\MJCompiler\test\program.mj
INFO  17:38:04,557 - #2 program
INFO  17:38:04,557 - #28 test301
INFO  17:38:04,557 - #9 enum
INFO  17:38:04,559 - #28 Broj
INFO  17:38:04,559 - #17 {
INFO  17:38:04,559 - #28 NULA
INFO  17:38:04,560 - #12 ,
INFO  17:38:04,560 - #28 JEDAN
INFO  17:38:04,560 - #12 ,
INFO  17:38:04,560 - #28 PET
INFO  17:38:04,560 - #11 =
INFO  17:38:04,560 - #27 5
INFO  17:38:04,560 - #12 ,
INFO  17:38:04,561 - #28 DESET
INFO  17:38:04,561 - #11 =
INFO  17:38:04,561 - #27 10
INFO  17:38:04,561 - #18 }
INFO  17:38:04,561 - #28 int
INFO  17:38:04,562 - #28 niz
INFO  17:38:04,563 - #15 [
INFO  17:38:04,563 - #16 ]
INFO  17:38:04,564 - #10 ;
INFO  17:38:04,565 - #17 {
INFO  17:38:04,566 - #6 void
INFO  17:38:04,567 - #28 main
INFO  17:38:04,568 - #13 (
INFO  17:38:04,568 - #14 )
INFO  17:38:04,568 - #28 int
INFO  17:38:04,570 - #28 x
INFO  17:38:04,570 - #12 ,
INFO  17:38:04,570 - #28 y
INFO  17:38:04,571 - #12 ,
INFO  17:38:04,571 - #28 z
INFO  17:38:04,571 - #10 ;
INFO  17:38:04,571 - #28 Broj
INFO  17:38:04,572 - #28 pet
INFO  17:38:04,572 - #10 ;
INFO  17:38:04,572 - #17 {
INFO  17:38:04,572 - #28 niz
INFO  17:38:04,573 - #11 =
INFO  17:38:04,573 - #5 new
INFO  17:38:04,573 - #28 int
INFO  17:38:04,573 - #15 [
INFO  17:38:04,574 - #27 2
INFO  17:38:04,574 - #16 ]
INFO  17:38:04,574 - #10 ;
INFO  17:38:04,575 - #28 pet
INFO  17:38:04,575 - #11 =
INFO  17:38:04,575 - #28 Broj
INFO  17:38:04,575 - #19 .
INFO  17:38:04,575 - #28 JEDAN
INFO  17:38:04,576 - #10 ;
INFO  17:38:04,576 - #28 x
INFO  17:38:04,576 - #11 =
INFO  17:38:04,576 - #27 7
INFO  17:38:04,576 - #10 ;
INFO  17:38:04,576 - #28 y
INFO  17:38:04,576 - #11 =
INFO  17:38:04,577 - #27 5
INFO  17:38:04,577 - #10 ;
INFO  17:38:04,577 - #28 z
INFO  17:38:04,577 - #11 =
INFO  17:38:04,577 - #28 x
INFO  17:38:04,577 - #24 *
INFO  17:38:04,577 - #28 pet
INFO  17:38:04,579 - #10 ;
INFO  17:38:04,580 - #4 print
INFO  17:38:04,580 - #13 (
INFO  17:38:04,585 - #29 a
INFO  17:38:04,585 - #14 )
INFO  17:38:04,585 - #10 ;
INFO  17:38:04,585 - #4 print
INFO  17:38:04,586 - #13 (
INFO  17:38:04,586 - #28 y
INFO  17:38:04,586 - #14 )
INFO  17:38:04,586 - #10 ;
INFO  17:38:04,586 - #4 print
INFO  17:38:04,586 - #13 (
INFO  17:38:04,586 - #28 z
INFO  17:38:04,586 - #14 )
INFO  17:38:04,586 - #10 ;
INFO  17:38:04,587 - #28 x
INFO  17:38:04,587 - #21 --
INFO  17:38:04,587 - #10 ;
INFO  17:38:04,587 - #4 print
INFO  17:38:04,587 - #13 (
INFO  17:38:04,587 - #28 x
INFO  17:38:04,588 - #14 )
INFO  17:38:04,588 - #10 ;
INFO  17:38:04,588 - #18 }
INFO  17:38:04,588 - #18 }
INFO  17:38:04,604 - Program(
  ProgName(
   test301
  ) [ProgName]
  GlobalDeclListL(
    GlobalDeclListL(
      GlobalDeclListEps(
      ) [GlobalDeclListEps]
      GlobalDeclEnum(
        EnumDecl(
         Broj
          EnumDeclListL(
            EnumDeclListL(
              EnumDeclListL(
                EnumDeclItem(
                  EnumDeclDefNoVal(
                   NULA
                  ) [EnumDeclDefNoVal]
                ) [EnumDeclItem]
                EnumDeclDefNoVal(
                 JEDAN
                ) [EnumDeclDefNoVal]
              ) [EnumDeclListL]
              EnumDeclDefVal(
               PET
               5
              ) [EnumDeclDefVal]
            ) [EnumDeclListL]
            EnumDeclDefVal(
             DESET
             10
            ) [EnumDeclDefVal]
          ) [EnumDeclListL]
        ) [EnumDecl]
      ) [GlobalDeclEnum]
    ) [GlobalDeclListL]
    GlobalDeclVar(
      GlobalVarDecl(
        Type(
         int
        ) [Type]
        GlobalVarDeclItem(
          GlobalVarDeclDefOk(
            VarDeclDefineArray(
             niz
            ) [VarDeclDefineArray]
          ) [GlobalVarDeclDefOk]
        ) [GlobalVarDeclItem]
      ) [GlobalVarDecl]
    ) [GlobalDeclVar]
  ) [GlobalDeclListL]
  MethodDecl(
    MethodSignature(
      VoidableType(
      ) [VoidableType]
     main
    ) [MethodSignature]
    VarMethodDeclList_NoEps(
      VarMethodDeclList_NoEps(
        VarMethodDeclList_Eps(
        ) [VarMethodDeclList_Eps]
        VarDecl(
          Type(
           int
          ) [Type]
          VarDeclListL(
            VarDeclListL(
              VarDeclItem(
                VarDeclDefineSingle(
                 x
                ) [VarDeclDefineSingle]
              ) [VarDeclItem]
              VarDeclDefineSingle(
               y
              ) [VarDeclDefineSingle]
            ) [VarDeclListL]
            VarDeclDefineSingle(
             z
            ) [VarDeclDefineSingle]
          ) [VarDeclListL]
        ) [VarDecl]
      ) [VarMethodDeclList_NoEps]
      VarDecl(
        Type(
         Broj
        ) [Type]
        VarDeclItem(
          VarDeclDefineSingle(
           pet
          ) [VarDeclDefineSingle]
        ) [VarDeclItem]
      ) [VarDecl]
    ) [VarMethodDeclList_NoEps]
    StatementList_NoEps(
      StatementList_NoEps(
        StatementList_NoEps(
          StatementList_NoEps(
            StatementList_NoEps(
              StatementList_NoEps(
                StatementList_NoEps(
                  StatementList_NoEps(
                    StatementList_NoEps(
                      StatementList_NoEps(
                        StatementList_Eps(
                        ) [StatementList_Eps]
                        StatementDes(
                          DesignStatAssignment(
                            DesIdent(
                             niz
                            ) [DesIdent]
                            AssignementExpr(
                              TermExpr(
                                TermFact(
                                  FactorNewArr(
                                    Type(
                                     int
                                    ) [Type]
                                    TermExpr(
                                      TermFact(
                                        FactorConst(
                                          ConstNum(
                                           2
                                          ) [ConstNum]
                                        ) [FactorConst]
                                      ) [TermFact]
                                    ) [TermExpr]
                                  ) [FactorNewArr]
                                ) [TermFact]
                              ) [TermExpr]
                            ) [AssignementExpr]
                          ) [DesignStatAssignment]
                        ) [StatementDes]
                      ) [StatementList_NoEps]
                      StatementDes(
                        DesignStatAssignment(
                          DesIdent(
                           pet
                          ) [DesIdent]
                          AssignementExpr(
                            TermExpr(
                              TermFact(
                                FactorDesign(
                                  DesEnum(
                                   Broj
                                   JEDAN
                                  ) [DesEnum]
                                ) [FactorDesign]
                              ) [TermFact]
                            ) [TermExpr]
                          ) [AssignementExpr]
                        ) [DesignStatAssignment]
                      ) [StatementDes]
                    ) [StatementList_NoEps]
                    StatementDes(
                      DesignStatAssignment(
                        DesIdent(
                         x
                        ) [DesIdent]
                        AssignementExpr(
                          TermExpr(
                            TermFact(
                              FactorConst(
                                ConstNum(
                                 7
                                ) [ConstNum]
                              ) [FactorConst]
                            ) [TermFact]
                          ) [TermExpr]
                        ) [AssignementExpr]
                      ) [DesignStatAssignment]
                    ) [StatementDes]
                  ) [StatementList_NoEps]
                  StatementDes(
                    DesignStatAssignment(
                      DesIdent(
                       y
                      ) [DesIdent]
                      AssignementExpr(
                        TermExpr(
                          TermFact(
                            FactorConst(
                              ConstNum(
                               5
                              ) [ConstNum]
                            ) [FactorConst]
                          ) [TermFact]
                        ) [TermExpr]
                      ) [AssignementExpr]
                    ) [DesignStatAssignment]
                  ) [StatementDes]
                ) [StatementList_NoEps]
                StatementDes(
                  DesignStatAssignment(
                    DesIdent(
                     z
                    ) [DesIdent]
                    AssignementExpr(
                      TermExpr(
                        TermMulop(
                          TermFact(
                            FactorDesign(
                              DesIdent(
                               x
                              ) [DesIdent]
                            ) [FactorDesign]
                          ) [TermFact]
                          Mulop_Mul(
                          ) [Mulop_Mul]
                          FactorDesign(
                            DesIdent(
                             pet
                            ) [DesIdent]
                          ) [FactorDesign]
                        ) [TermMulop]
                      ) [TermExpr]
                    ) [AssignementExpr]
                  ) [DesignStatAssignment]
                ) [StatementDes]
              ) [StatementList_NoEps]
              StatPrint(
                TermExpr(
                  TermFact(
                    FactorConst(
                      ConstChar(
                       a
                      ) [ConstChar]
                    ) [FactorConst]
                  ) [TermFact]
                ) [TermExpr]
              ) [StatPrint]
            ) [StatementList_NoEps]
            StatPrint(
              TermExpr(
                TermFact(
                  FactorDesign(
                    DesIdent(
                     y
                    ) [DesIdent]
                  ) [FactorDesign]
                ) [TermFact]
              ) [TermExpr]
            ) [StatPrint]
          ) [StatementList_NoEps]
          StatPrint(
            TermExpr(
              TermFact(
                FactorDesign(
                  DesIdent(
                   z
                  ) [DesIdent]
                ) [FactorDesign]
              ) [TermFact]
            ) [TermExpr]
          ) [StatPrint]
        ) [StatementList_NoEps]
        StatementDes(
          DesignStatDec(
            DesIdent(
             x
            ) [DesIdent]
          ) [DesignStatDec]
        ) [StatementDes]
      ) [StatementList_NoEps]
      StatPrint(
        TermExpr(
          TermFact(
            FactorDesign(
              DesIdent(
               x
              ) [DesIdent]
            ) [FactorDesign]
          ) [TermFact]
        ) [TermExpr]
      ) [StatPrint]
    ) [StatementList_NoEps]
  ) [MethodDecl]
) [Program]
INFO  17:38:04,605 - ===================================
INFO  17:38:04,608 - Deklarisan novi enum tip Broj na liniji 5
INFO  17:38:04,609 - Deklarisana promenljiva niza niz tipa 1 na liniji 6
INFO  17:38:04,609 - Obradjuje se funkcija main na liniji 8
INFO  17:38:04,609 - Deklarisana promenljiva x tipa 1 na liniji 9
INFO  17:38:04,609 - Deklarisana promenljiva y tipa 1 na liniji 9
INFO  17:38:04,609 - Deklarisana promenljiva z tipa 1 na liniji 9
INFO  17:38:04,609 - Deklarisana promenljiva pet tipa 6 na liniji 10
INFO  17:38:04,610 - Dodeljenja vrednost enuma promenljivoj enuma
INFO  17:38:04,610 - Dodeljenja vrednost: 1 je design,1 je assign
INFO  17:38:04,610 - Dodeljenja vrednost: 1 je design,1 je assign
INFO  17:38:04,610 - Dodeljenja vrednost: 1 je design,1 je assign
INFO  17:38:04,610 - Dekrementirana vrednost
INFO  17:38:04,610 -  Print count calls = 4
INFO  17:38:04,610 -  Deklarisanih promenljivih ima = 4
INFO  17:38:04,620 - GENERATOR:design nakon store AssignementExpr(
  TermExpr(
    TermMulop(
      TermFact(
        FactorDesign(
          DesIdent(
           x
          ) [DesIdent]
        ) [FactorDesign]
      ) [TermFact]
      Mulop_Mul(
      ) [Mulop_Mul]
      FactorDesign(
        DesIdent(
         pet
        ) [DesIdent]
      ) [FactorDesign]
    ) [TermMulop]
  ) [TermExpr]
) [AssignementExpr]
INFO  17:38:04,620 - Parsiranje uspesno zavrseno!
