INFO  21:14:10,196 - Compiling source file: C:\Users\ikadr\Desktop\PP\Projekat\Rad\workspace\MJCompiler\test\program.mj
INFO  21:14:10,273 - #2 program
INFO  21:14:10,273 - #28 test301
INFO  21:14:10,273 - #9 enum
INFO  21:14:10,276 - #28 Broj
INFO  21:14:10,276 - #17 {
INFO  21:14:10,278 - #28 NULA
INFO  21:14:10,278 - #12 ,
INFO  21:14:10,279 - #28 JEDAN
INFO  21:14:10,279 - #12 ,
INFO  21:14:10,279 - #28 PET
INFO  21:14:10,279 - #11 =
INFO  21:14:10,279 - #27 5
INFO  21:14:10,279 - #12 ,
INFO  21:14:10,280 - #28 DESET
INFO  21:14:10,280 - #11 =
INFO  21:14:10,280 - #27 10
INFO  21:14:10,280 - #18 }
INFO  21:14:10,280 - #8 const
INFO  21:14:10,282 - #28 int
INFO  21:14:10,283 - #28 jedan
INFO  21:14:10,284 - #11 =
INFO  21:14:10,285 - #27 1
INFO  21:14:10,285 - #10 ;
INFO  21:14:10,287 - #8 const
INFO  21:14:10,288 - #28 int
INFO  21:14:10,288 - #28 pet
INFO  21:14:10,288 - #11 =
INFO  21:14:10,288 - #27 5
INFO  21:14:10,289 - #10 ;
INFO  21:14:10,289 - #28 int
INFO  21:14:10,289 - #28 niz
INFO  21:14:10,289 - #15 [
INFO  21:14:10,289 - #16 ]
INFO  21:14:10,289 - #10 ;
INFO  21:14:10,290 - #28 char
INFO  21:14:10,291 - #28 nizch
INFO  21:14:10,291 - #15 [
INFO  21:14:10,291 - #16 ]
INFO  21:14:10,291 - #10 ;
INFO  21:14:10,291 - #17 {
INFO  21:14:10,292 - #6 void
INFO  21:14:10,292 - #28 main
INFO  21:14:10,293 - #13 (
INFO  21:14:10,293 - #14 )
INFO  21:14:10,293 - #28 int
INFO  21:14:10,296 - #28 bodovi
INFO  21:14:10,296 - #10 ;
INFO  21:14:10,297 - #28 Broj
INFO  21:14:10,299 - #28 nula
INFO  21:14:10,299 - #12 ,
INFO  21:14:10,299 - #28 jedan
INFO  21:14:10,299 - #10 ;
INFO  21:14:10,299 - #17 {
INFO  21:14:10,300 - #28 nula
INFO  21:14:10,301 - #11 =
INFO  21:14:10,302 - #28 Broj
INFO  21:14:10,302 - #19 .
INFO  21:14:10,302 - #28 NULA
INFO  21:14:10,302 - #10 ;
INFO  21:14:10,303 - #28 jedan
INFO  21:14:10,303 - #11 =
INFO  21:14:10,303 - #28 Broj
INFO  21:14:10,303 - #19 .
INFO  21:14:10,303 - #28 JEDAN
INFO  21:14:10,304 - #10 ;
INFO  21:14:10,304 - #28 bodovi
INFO  21:14:10,304 - #11 =
INFO  21:14:10,304 - #27 0
INFO  21:14:10,304 - #10 ;
INFO  21:14:10,304 - #28 bodovi
INFO  21:14:10,304 - #20 ++
INFO  21:14:10,305 - #10 ;
INFO  21:14:10,305 - #28 bodovi
INFO  21:14:10,305 - #11 =
INFO  21:14:10,305 - #28 bodovi
INFO  21:14:10,305 - #23 +
INFO  21:14:10,305 - #28 jedan
INFO  21:14:10,308 - #10 ;
INFO  21:14:10,308 - #28 bodovi
INFO  21:14:10,308 - #11 =
INFO  21:14:10,309 - #28 bodovi
INFO  21:14:10,309 - #24 *
INFO  21:14:10,309 - #28 pet
INFO  21:14:10,312 - #10 ;
INFO  21:14:10,313 - #28 bodovi
INFO  21:14:10,313 - #21 --
INFO  21:14:10,313 - #10 ;
INFO  21:14:10,313 - #4 print
INFO  21:14:10,314 - #13 (
INFO  21:14:10,314 - #28 bodovi
INFO  21:14:10,314 - #14 )
INFO  21:14:10,314 - #10 ;
INFO  21:14:10,314 - #28 niz
INFO  21:14:10,315 - #11 =
INFO  21:14:10,315 - #5 new
INFO  21:14:10,315 - #28 int
INFO  21:14:10,315 - #15 [
INFO  21:14:10,315 - #27 2
INFO  21:14:10,315 - #16 ]
INFO  21:14:10,315 - #10 ;
INFO  21:14:10,316 - #28 niz
INFO  21:14:10,316 - #15 [
INFO  21:14:10,318 - #28 nula
INFO  21:14:10,318 - #16 ]
INFO  21:14:10,318 - #11 =
INFO  21:14:10,318 - #28 pet
INFO  21:14:10,318 - #10 ;
INFO  21:14:10,319 - #28 niz
INFO  21:14:10,319 - #15 [
INFO  21:14:10,319 - #27 1
INFO  21:14:10,319 - #16 ]
INFO  21:14:10,319 - #11 =
INFO  21:14:10,319 - #28 Broj
INFO  21:14:10,319 - #19 .
INFO  21:14:10,320 - #28 DESET
INFO  21:14:10,320 - #10 ;
INFO  21:14:10,320 - #28 bodovi
INFO  21:14:10,320 - #11 =
INFO  21:14:10,320 - #28 niz
INFO  21:14:10,320 - #15 [
INFO  21:14:10,320 - #27 1
INFO  21:14:10,320 - #16 ]
INFO  21:14:10,320 - #25 /
INFO  21:14:10,321 - #28 niz
INFO  21:14:10,322 - #15 [
INFO  21:14:10,322 - #27 0
INFO  21:14:10,323 - #16 ]
INFO  21:14:10,323 - #10 ;
INFO  21:14:10,323 - #4 print
INFO  21:14:10,323 - #13 (
INFO  21:14:10,323 - #28 bodovi
INFO  21:14:10,323 - #14 )
INFO  21:14:10,330 - #10 ;
INFO  21:14:10,330 - #4 print
INFO  21:14:10,330 - #13 (
INFO  21:14:10,330 - #28 niz
INFO  21:14:10,331 - #15 [
INFO  21:14:10,331 - #28 Broj
INFO  21:14:10,331 - #19 .
INFO  21:14:10,331 - #28 JEDAN
INFO  21:14:10,331 - #16 ]
INFO  21:14:10,331 - #14 )
INFO  21:14:10,331 - #10 ;
INFO  21:14:10,332 - #28 nizch
INFO  21:14:10,332 - #11 =
INFO  21:14:10,332 - #5 new
INFO  21:14:10,332 - #28 char
INFO  21:14:10,332 - #15 [
INFO  21:14:10,332 - #27 3
INFO  21:14:10,332 - #16 ]
INFO  21:14:10,332 - #10 ;
INFO  21:14:10,333 - #28 nizch
INFO  21:14:10,333 - #15 [
INFO  21:14:10,333 - #27 0
INFO  21:14:10,333 - #16 ]
INFO  21:14:10,333 - #11 =
INFO  21:14:10,333 - #29 a
INFO  21:14:10,333 - #10 ;
INFO  21:14:10,334 - #28 nizch
INFO  21:14:10,334 - #15 [
INFO  21:14:10,334 - #28 jedan
INFO  21:14:10,334 - #16 ]
INFO  21:14:10,334 - #11 =
INFO  21:14:10,334 - #29 b
INFO  21:14:10,334 - #10 ;
INFO  21:14:10,334 - #28 nizch
INFO  21:14:10,334 - #15 [
INFO  21:14:10,334 - #28 pet
INFO  21:14:10,335 - #22 -
INFO  21:14:10,335 - #27 3
INFO  21:14:10,336 - #16 ]
INFO  21:14:10,336 - #11 =
INFO  21:14:10,336 - #29 c
INFO  21:14:10,336 - #10 ;
INFO  21:14:10,337 - #4 print
INFO  21:14:10,337 - #13 (
INFO  21:14:10,337 - #28 nizch
INFO  21:14:10,337 - #15 [
INFO  21:14:10,337 - #27 2
INFO  21:14:10,337 - #22 -
INFO  21:14:10,337 - #27 1
INFO  21:14:10,337 - #16 ]
INFO  21:14:10,337 - #14 )
INFO  21:14:10,337 - #10 ;
INFO  21:14:10,338 - #4 print
INFO  21:14:10,338 - #13 (
INFO  21:14:10,338 - #28 nizch
INFO  21:14:10,338 - #15 [
INFO  21:14:10,338 - #28 jedan
INFO  21:14:10,338 - #24 *
INFO  21:14:10,338 - #27 2
INFO  21:14:10,338 - #16 ]
INFO  21:14:10,338 - #14 )
INFO  21:14:10,338 - #10 ;
INFO  21:14:10,338 - #28 bodovi
INFO  21:14:10,339 - #11 =
INFO  21:14:10,339 - #28 bodovi
INFO  21:14:10,339 - #23 +
INFO  21:14:10,339 - #13 (
INFO  21:14:10,339 - #13 (
INFO  21:14:10,339 - #28 pet
INFO  21:14:10,339 - #24 *
INFO  21:14:10,339 - #28 jedan
INFO  21:14:10,339 - #22 -
INFO  21:14:10,339 - #27 1
INFO  21:14:10,339 - #14 )
INFO  21:14:10,340 - #24 *
INFO  21:14:10,340 - #27 2
INFO  21:14:10,340 - #22 -
INFO  21:14:10,340 - #13 (
INFO  21:14:10,340 - #27 3
INFO  21:14:10,340 - #26 %
INFO  21:14:10,340 - #27 2
INFO  21:14:10,341 - #23 +
INFO  21:14:10,341 - #27 3
INFO  21:14:10,342 - #24 *
INFO  21:14:10,342 - #27 2
INFO  21:14:10,342 - #22 -
INFO  21:14:10,342 - #27 3
INFO  21:14:10,342 - #14 )
INFO  21:14:10,342 - #22 -
INFO  21:14:10,342 - #28 Broj
INFO  21:14:10,342 - #19 .
INFO  21:14:10,342 - #28 JEDAN
INFO  21:14:10,342 - #24 *
INFO  21:14:10,342 - #27 0
INFO  21:14:10,343 - #14 )
INFO  21:14:10,343 - #10 ;
INFO  21:14:10,343 - #4 print
INFO  21:14:10,343 - #13 (
INFO  21:14:10,343 - #28 bodovi
INFO  21:14:10,343 - #14 )
INFO  21:14:10,343 - #10 ;
INFO  21:14:10,343 - #3 read
INFO  21:14:10,343 - #13 (
INFO  21:14:10,344 - #28 bodovi
INFO  21:14:10,344 - #14 )
INFO  21:14:10,344 - #10 ;
INFO  21:14:10,344 - #28 bodovi
INFO  21:14:10,344 - #11 =
INFO  21:14:10,344 - #28 bodovi
INFO  21:14:10,345 - #23 +
INFO  21:14:10,345 - #27 1
INFO  21:14:10,345 - #10 ;
INFO  21:14:10,345 - #4 print
INFO  21:14:10,345 - #13 (
INFO  21:14:10,345 - #28 bodovi
INFO  21:14:10,345 - #14 )
INFO  21:14:10,345 - #10 ;
INFO  21:14:10,345 - #18 }
INFO  21:14:10,345 - #18 }
INFO  21:14:10,376 - Program(
  ProgName(
   test301
  ) [ProgName]
  GlobalDeclListL(
    GlobalDeclListL(
      GlobalDeclListL(
        GlobalDeclListL(
          GlobalDeclListL(
            GlobalDeclListEps(
            ) [GlobalDeclListEps]
            GlobalDeclEnum(
              EnumDecl(
                EnumName(
                 Broj
                ) [EnumName]
                EnumDeclListL(
                  EnumDeclListL(
                    EnumDeclListL(
                      EnumDeclItem(
                        EnumDeclDefNoVal(
                         NULA
                        ) [EnumDeclDefNoVal]
                      ) [EnumDeclItem]
                      EnumDeclDefNoVal(
                       JEDAN
                      ) [EnumDeclDefNoVal]
                    ) [EnumDeclListL]
                    EnumDeclDefVal(
                     PET
                     5
                    ) [EnumDeclDefVal]
                  ) [EnumDeclListL]
                  EnumDeclDefVal(
                   DESET
                   10
                  ) [EnumDeclDefVal]
                ) [EnumDeclListL]
              ) [EnumDecl]
            ) [GlobalDeclEnum]
          ) [GlobalDeclListL]
          GlobalDeclConst(
            ConstDecl(
              Type(
               int
              ) [Type]
              ConstDeclItem(
                ConstDef(
                 jedan
                  ConstNum(
                   1
                  ) [ConstNum]
                ) [ConstDef]
              ) [ConstDeclItem]
            ) [ConstDecl]
          ) [GlobalDeclConst]
        ) [GlobalDeclListL]
        GlobalDeclConst(
          ConstDecl(
            Type(
             int
            ) [Type]
            ConstDeclItem(
              ConstDef(
               pet
                ConstNum(
                 5
                ) [ConstNum]
              ) [ConstDef]
            ) [ConstDeclItem]
          ) [ConstDecl]
        ) [GlobalDeclConst]
      ) [GlobalDeclListL]
      GlobalDeclVar(
        GlobalVarDecl(
          Type(
           int
          ) [Type]
          GlobalVarDeclItem(
            GlobalVarDeclDefOk(
              VarDeclDefineArray(
               niz
              ) [VarDeclDefineArray]
            ) [GlobalVarDeclDefOk]
          ) [GlobalVarDeclItem]
        ) [GlobalVarDecl]
      ) [GlobalDeclVar]
    ) [GlobalDeclListL]
    GlobalDeclVar(
      GlobalVarDecl(
        Type(
         char
        ) [Type]
        GlobalVarDeclItem(
          GlobalVarDeclDefOk(
            VarDeclDefineArray(
             nizch
            ) [VarDeclDefineArray]
          ) [GlobalVarDeclDefOk]
        ) [GlobalVarDeclItem]
      ) [GlobalVarDecl]
    ) [GlobalDeclVar]
  ) [GlobalDeclListL]
  MethodDecl(
    MethodSignature(
      VoidableType(
      ) [VoidableType]
     main
    ) [MethodSignature]
    VarMethodDeclList_NoEps(
      VarMethodDeclList_NoEps(
        VarMethodDeclList_Eps(
        ) [VarMethodDeclList_Eps]
        VarDecl(
          Type(
           int
          ) [Type]
          VarDeclItem(
            VarDeclDefineSingle(
             bodovi
            ) [VarDeclDefineSingle]
          ) [VarDeclItem]
        ) [VarDecl]
      ) [VarMethodDeclList_NoEps]
      VarDecl(
        Type(
         Broj
        ) [Type]
        VarDeclListL(
          VarDeclItem(
            VarDeclDefineSingle(
             nula
            ) [VarDeclDefineSingle]
          ) [VarDeclItem]
          VarDeclDefineSingle(
           jedan
          ) [VarDeclDefineSingle]
        ) [VarDeclListL]
      ) [VarDecl]
    ) [VarMethodDeclList_NoEps]
    StatementList_NoEps(
      StatementList_NoEps(
        StatementList_NoEps(
          StatementList_NoEps(
            StatementList_NoEps(
              StatementList_NoEps(
                StatementList_NoEps(
                  StatementList_NoEps(
                    StatementList_NoEps(
                      StatementList_NoEps(
                        StatementList_NoEps(
                          StatementList_NoEps(
                            StatementList_NoEps(
                              StatementList_NoEps(
                                StatementList_NoEps(
                                  StatementList_NoEps(
                                    StatementList_NoEps(
                                      StatementList_NoEps(
                                        StatementList_NoEps(
                                          StatementList_NoEps(
                                            StatementList_NoEps(
                                              StatementList_NoEps(
                                                StatementList_NoEps(
                                                  StatementList_NoEps(
                                                    StatementList_NoEps(
                                                      StatementList_Eps(
                                                      ) [StatementList_Eps]
                                                      StatementDes(
                                                        DesignStatAssignment(
                                                          DesIdent(
                                                           nula
                                                          ) [DesIdent]
                                                          AssignementExpr(
                                                            TermExpr(
                                                              TermFact(
                                                                FactorDesign(
                                                                  DesEnum(
                                                                   Broj
                                                                   NULA
                                                                  ) [DesEnum]
                                                                ) [FactorDesign]
                                                              ) [TermFact]
                                                            ) [TermExpr]
                                                          ) [AssignementExpr]
                                                        ) [DesignStatAssignment]
                                                      ) [StatementDes]
                                                    ) [StatementList_NoEps]
                                                    StatementDes(
                                                      DesignStatAssignment(
                                                        DesIdent(
                                                         jedan
                                                        ) [DesIdent]
                                                        AssignementExpr(
                                                          TermExpr(
                                                            TermFact(
                                                              FactorDesign(
                                                                DesEnum(
                                                                 Broj
                                                                 JEDAN
                                                                ) [DesEnum]
                                                              ) [FactorDesign]
                                                            ) [TermFact]
                                                          ) [TermExpr]
                                                        ) [AssignementExpr]
                                                      ) [DesignStatAssignment]
                                                    ) [StatementDes]
                                                  ) [StatementList_NoEps]
                                                  StatementDes(
                                                    DesignStatAssignment(
                                                      DesIdent(
                                                       bodovi
                                                      ) [DesIdent]
                                                      AssignementExpr(
                                                        TermExpr(
                                                          TermFact(
                                                            FactorConst(
                                                              ConstNum(
                                                               0
                                                              ) [ConstNum]
                                                            ) [FactorConst]
                                                          ) [TermFact]
                                                        ) [TermExpr]
                                                      ) [AssignementExpr]
                                                    ) [DesignStatAssignment]
                                                  ) [StatementDes]
                                                ) [StatementList_NoEps]
                                                StatementDes(
                                                  DesignStatInc(
                                                    DesIdent(
                                                     bodovi
                                                    ) [DesIdent]
                                                  ) [DesignStatInc]
                                                ) [StatementDes]
                                              ) [StatementList_NoEps]
                                              StatementDes(
                                                DesignStatAssignment(
                                                  DesIdent(
                                                   bodovi
                                                  ) [DesIdent]
                                                  AssignementExpr(
                                                    AddopExp(
                                                      TermExpr(
                                                        TermFact(
                                                          FactorDesign(
                                                            DesIdent(
                                                             bodovi
                                                            ) [DesIdent]
                                                          ) [FactorDesign]
                                                        ) [TermFact]
                                                      ) [TermExpr]
                                                      Addop_Plus(
                                                      ) [Addop_Plus]
                                                      TermFact(
                                                        FactorDesign(
                                                          DesIdent(
                                                           jedan
                                                          ) [DesIdent]
                                                        ) [FactorDesign]
                                                      ) [TermFact]
                                                    ) [AddopExp]
                                                  ) [AssignementExpr]
                                                ) [DesignStatAssignment]
                                              ) [StatementDes]
                                            ) [StatementList_NoEps]
                                            StatementDes(
                                              DesignStatAssignment(
                                                DesIdent(
                                                 bodovi
                                                ) [DesIdent]
                                                AssignementExpr(
                                                  TermExpr(
                                                    TermMulop(
                                                      TermFact(
                                                        FactorDesign(
                                                          DesIdent(
                                                           bodovi
                                                          ) [DesIdent]
                                                        ) [FactorDesign]
                                                      ) [TermFact]
                                                      Mulop_Mul(
                                                      ) [Mulop_Mul]
                                                      FactorDesign(
                                                        DesIdent(
                                                         pet
                                                        ) [DesIdent]
                                                      ) [FactorDesign]
                                                    ) [TermMulop]
                                                  ) [TermExpr]
                                                ) [AssignementExpr]
                                              ) [DesignStatAssignment]
                                            ) [StatementDes]
                                          ) [StatementList_NoEps]
                                          StatementDes(
                                            DesignStatDec(
                                              DesIdent(
                                               bodovi
                                              ) [DesIdent]
                                            ) [DesignStatDec]
                                          ) [StatementDes]
                                        ) [StatementList_NoEps]
                                        StatPrint(
                                          TermExpr(
                                            TermFact(
                                              FactorDesign(
                                                DesIdent(
                                                 bodovi
                                                ) [DesIdent]
                                              ) [FactorDesign]
                                            ) [TermFact]
                                          ) [TermExpr]
                                        ) [StatPrint]
                                      ) [StatementList_NoEps]
                                      StatementDes(
                                        DesignStatAssignment(
                                          DesIdent(
                                           niz
                                          ) [DesIdent]
                                          AssignementExpr(
                                            TermExpr(
                                              TermFact(
                                                FactorNewArr(
                                                  Type(
                                                   int
                                                  ) [Type]
                                                  TermExpr(
                                                    TermFact(
                                                      FactorConst(
                                                        ConstNum(
                                                         2
                                                        ) [ConstNum]
                                                      ) [FactorConst]
                                                    ) [TermFact]
                                                  ) [TermExpr]
                                                ) [FactorNewArr]
                                              ) [TermFact]
                                            ) [TermExpr]
                                          ) [AssignementExpr]
                                        ) [DesignStatAssignment]
                                      ) [StatementDes]
                                    ) [StatementList_NoEps]
                                    StatementDes(
                                      DesignStatAssignment(
                                        DesArr(
                                          ArrayName(
                                           niz
                                          ) [ArrayName]
                                          TermExpr(
                                            TermFact(
                                              FactorDesign(
                                                DesIdent(
                                                 nula
                                                ) [DesIdent]
                                              ) [FactorDesign]
                                            ) [TermFact]
                                          ) [TermExpr]
                                        ) [DesArr]
                                        AssignementExpr(
                                          TermExpr(
                                            TermFact(
                                              FactorDesign(
                                                DesIdent(
                                                 pet
                                                ) [DesIdent]
                                              ) [FactorDesign]
                                            ) [TermFact]
                                          ) [TermExpr]
                                        ) [AssignementExpr]
                                      ) [DesignStatAssignment]
                                    ) [StatementDes]
                                  ) [StatementList_NoEps]
                                  StatementDes(
                                    DesignStatAssignment(
                                      DesArr(
                                        ArrayName(
                                         niz
                                        ) [ArrayName]
                                        TermExpr(
                                          TermFact(
                                            FactorConst(
                                              ConstNum(
                                               1
                                              ) [ConstNum]
                                            ) [FactorConst]
                                          ) [TermFact]
                                        ) [TermExpr]
                                      ) [DesArr]
                                      AssignementExpr(
                                        TermExpr(
                                          TermFact(
                                            FactorDesign(
                                              DesEnum(
                                               Broj
                                               DESET
                                              ) [DesEnum]
                                            ) [FactorDesign]
                                          ) [TermFact]
                                        ) [TermExpr]
                                      ) [AssignementExpr]
                                    ) [DesignStatAssignment]
                                  ) [StatementDes]
                                ) [StatementList_NoEps]
                                StatementDes(
                                  DesignStatAssignment(
                                    DesIdent(
                                     bodovi
                                    ) [DesIdent]
                                    AssignementExpr(
                                      TermExpr(
                                        TermMulop(
                                          TermFact(
                                            FactorDesign(
                                              DesArr(
                                                ArrayName(
                                                 niz
                                                ) [ArrayName]
                                                TermExpr(
                                                  TermFact(
                                                    FactorConst(
                                                      ConstNum(
                                                       1
                                                      ) [ConstNum]
                                                    ) [FactorConst]
                                                  ) [TermFact]
                                                ) [TermExpr]
                                              ) [DesArr]
                                            ) [FactorDesign]
                                          ) [TermFact]
                                          Mulop_Div(
                                          ) [Mulop_Div]
                                          FactorDesign(
                                            DesArr(
                                              ArrayName(
                                               niz
                                              ) [ArrayName]
                                              TermExpr(
                                                TermFact(
                                                  FactorConst(
                                                    ConstNum(
                                                     0
                                                    ) [ConstNum]
                                                  ) [FactorConst]
                                                ) [TermFact]
                                              ) [TermExpr]
                                            ) [DesArr]
                                          ) [FactorDesign]
                                        ) [TermMulop]
                                      ) [TermExpr]
                                    ) [AssignementExpr]
                                  ) [DesignStatAssignment]
                                ) [StatementDes]
                              ) [StatementList_NoEps]
                              StatPrint(
                                TermExpr(
                                  TermFact(
                                    FactorDesign(
                                      DesIdent(
                                       bodovi
                                      ) [DesIdent]
                                    ) [FactorDesign]
                                  ) [TermFact]
                                ) [TermExpr]
                              ) [StatPrint]
                            ) [StatementList_NoEps]
                            StatPrint(
                              TermExpr(
                                TermFact(
                                  FactorDesign(
                                    DesArr(
                                      ArrayName(
                                       niz
                                      ) [ArrayName]
                                      TermExpr(
                                        TermFact(
                                          FactorDesign(
                                            DesEnum(
                                             Broj
                                             JEDAN
                                            ) [DesEnum]
                                          ) [FactorDesign]
                                        ) [TermFact]
                                      ) [TermExpr]
                                    ) [DesArr]
                                  ) [FactorDesign]
                                ) [TermFact]
                              ) [TermExpr]
                            ) [StatPrint]
                          ) [StatementList_NoEps]
                          StatementDes(
                            DesignStatAssignment(
                              DesIdent(
                               nizch
                              ) [DesIdent]
                              AssignementExpr(
                                TermExpr(
                                  TermFact(
                                    FactorNewArr(
                                      Type(
                                       char
                                      ) [Type]
                                      TermExpr(
                                        TermFact(
                                          FactorConst(
                                            ConstNum(
                                             3
                                            ) [ConstNum]
                                          ) [FactorConst]
                                        ) [TermFact]
                                      ) [TermExpr]
                                    ) [FactorNewArr]
                                  ) [TermFact]
                                ) [TermExpr]
                              ) [AssignementExpr]
                            ) [DesignStatAssignment]
                          ) [StatementDes]
                        ) [StatementList_NoEps]
                        StatementDes(
                          DesignStatAssignment(
                            DesArr(
                              ArrayName(
                               nizch
                              ) [ArrayName]
                              TermExpr(
                                TermFact(
                                  FactorConst(
                                    ConstNum(
                                     0
                                    ) [ConstNum]
                                  ) [FactorConst]
                                ) [TermFact]
                              ) [TermExpr]
                            ) [DesArr]
                            AssignementExpr(
                              TermExpr(
                                TermFact(
                                  FactorConst(
                                    ConstChar(
                                     a
                                    ) [ConstChar]
                                  ) [FactorConst]
                                ) [TermFact]
                              ) [TermExpr]
                            ) [AssignementExpr]
                          ) [DesignStatAssignment]
                        ) [StatementDes]
                      ) [StatementList_NoEps]
                      StatementDes(
                        DesignStatAssignment(
                          DesArr(
                            ArrayName(
                             nizch
                            ) [ArrayName]
                            TermExpr(
                              TermFact(
                                FactorDesign(
                                  DesIdent(
                                   jedan
                                  ) [DesIdent]
                                ) [FactorDesign]
                              ) [TermFact]
                            ) [TermExpr]
                          ) [DesArr]
                          AssignementExpr(
                            TermExpr(
                              TermFact(
                                FactorConst(
                                  ConstChar(
                                   b
                                  ) [ConstChar]
                                ) [FactorConst]
                              ) [TermFact]
                            ) [TermExpr]
                          ) [AssignementExpr]
                        ) [DesignStatAssignment]
                      ) [StatementDes]
                    ) [StatementList_NoEps]
                    StatementDes(
                      DesignStatAssignment(
                        DesArr(
                          ArrayName(
                           nizch
                          ) [ArrayName]
                          AddopExp(
                            TermExpr(
                              TermFact(
                                FactorDesign(
                                  DesIdent(
                                   pet
                                  ) [DesIdent]
                                ) [FactorDesign]
                              ) [TermFact]
                            ) [TermExpr]
                            Addop_Minus(
                            ) [Addop_Minus]
                            TermFact(
                              FactorConst(
                                ConstNum(
                                 3
                                ) [ConstNum]
                              ) [FactorConst]
                            ) [TermFact]
                          ) [AddopExp]
                        ) [DesArr]
                        AssignementExpr(
                          TermExpr(
                            TermFact(
                              FactorConst(
                                ConstChar(
                                 c
                                ) [ConstChar]
                              ) [FactorConst]
                            ) [TermFact]
                          ) [TermExpr]
                        ) [AssignementExpr]
                      ) [DesignStatAssignment]
                    ) [StatementDes]
                  ) [StatementList_NoEps]
                  StatPrint(
                    TermExpr(
                      TermFact(
                        FactorDesign(
                          DesArr(
                            ArrayName(
                             nizch
                            ) [ArrayName]
                            AddopExp(
                              TermExpr(
                                TermFact(
                                  FactorConst(
                                    ConstNum(
                                     2
                                    ) [ConstNum]
                                  ) [FactorConst]
                                ) [TermFact]
                              ) [TermExpr]
                              Addop_Minus(
                              ) [Addop_Minus]
                              TermFact(
                                FactorConst(
                                  ConstNum(
                                   1
                                  ) [ConstNum]
                                ) [FactorConst]
                              ) [TermFact]
                            ) [AddopExp]
                          ) [DesArr]
                        ) [FactorDesign]
                      ) [TermFact]
                    ) [TermExpr]
                  ) [StatPrint]
                ) [StatementList_NoEps]
                StatPrint(
                  TermExpr(
                    TermFact(
                      FactorDesign(
                        DesArr(
                          ArrayName(
                           nizch
                          ) [ArrayName]
                          TermExpr(
                            TermMulop(
                              TermFact(
                                FactorDesign(
                                  DesIdent(
                                   jedan
                                  ) [DesIdent]
                                ) [FactorDesign]
                              ) [TermFact]
                              Mulop_Mul(
                              ) [Mulop_Mul]
                              FactorConst(
                                ConstNum(
                                 2
                                ) [ConstNum]
                              ) [FactorConst]
                            ) [TermMulop]
                          ) [TermExpr]
                        ) [DesArr]
                      ) [FactorDesign]
                    ) [TermFact]
                  ) [TermExpr]
                ) [StatPrint]
              ) [StatementList_NoEps]
              StatementDes(
                DesignStatAssignment(
                  DesIdent(
                   bodovi
                  ) [DesIdent]
                  AssignementExpr(
                    AddopExp(
                      TermExpr(
                        TermFact(
                          FactorDesign(
                            DesIdent(
                             bodovi
                            ) [DesIdent]
                          ) [FactorDesign]
                        ) [TermFact]
                      ) [TermExpr]
                      Addop_Plus(
                      ) [Addop_Plus]
                      TermFact(
                        FactorExpr(
                          AddopExp(
                            AddopExp(
                              TermExpr(
                                TermMulop(
                                  TermFact(
                                    FactorExpr(
                                      AddopExp(
                                        TermExpr(
                                          TermMulop(
                                            TermFact(
                                              FactorDesign(
                                                DesIdent(
                                                 pet
                                                ) [DesIdent]
                                              ) [FactorDesign]
                                            ) [TermFact]
                                            Mulop_Mul(
                                            ) [Mulop_Mul]
                                            FactorDesign(
                                              DesIdent(
                                               jedan
                                              ) [DesIdent]
                                            ) [FactorDesign]
                                          ) [TermMulop]
                                        ) [TermExpr]
                                        Addop_Minus(
                                        ) [Addop_Minus]
                                        TermFact(
                                          FactorConst(
                                            ConstNum(
                                             1
                                            ) [ConstNum]
                                          ) [FactorConst]
                                        ) [TermFact]
                                      ) [AddopExp]
                                    ) [FactorExpr]
                                  ) [TermFact]
                                  Mulop_Mul(
                                  ) [Mulop_Mul]
                                  FactorConst(
                                    ConstNum(
                                     2
                                    ) [ConstNum]
                                  ) [FactorConst]
                                ) [TermMulop]
                              ) [TermExpr]
                              Addop_Minus(
                              ) [Addop_Minus]
                              TermFact(
                                FactorExpr(
                                  AddopExp(
                                    AddopExp(
                                      TermExpr(
                                        TermMulop(
                                          TermFact(
                                            FactorConst(
                                              ConstNum(
                                               3
                                              ) [ConstNum]
                                            ) [FactorConst]
                                          ) [TermFact]
                                          Mulop_Mod(
                                          ) [Mulop_Mod]
                                          FactorConst(
                                            ConstNum(
                                             2
                                            ) [ConstNum]
                                          ) [FactorConst]
                                        ) [TermMulop]
                                      ) [TermExpr]
                                      Addop_Plus(
                                      ) [Addop_Plus]
                                      TermMulop(
                                        TermFact(
                                          FactorConst(
                                            ConstNum(
                                             3
                                            ) [ConstNum]
                                          ) [FactorConst]
                                        ) [TermFact]
                                        Mulop_Mul(
                                        ) [Mulop_Mul]
                                        FactorConst(
                                          ConstNum(
                                           2
                                          ) [ConstNum]
                                        ) [FactorConst]
                                      ) [TermMulop]
                                    ) [AddopExp]
                                    Addop_Minus(
                                    ) [Addop_Minus]
                                    TermFact(
                                      FactorConst(
                                        ConstNum(
                                         3
                                        ) [ConstNum]
                                      ) [FactorConst]
                                    ) [TermFact]
                                  ) [AddopExp]
                                ) [FactorExpr]
                              ) [TermFact]
                            ) [AddopExp]
                            Addop_Minus(
                            ) [Addop_Minus]
                            TermMulop(
                              TermFact(
                                FactorDesign(
                                  DesEnum(
                                   Broj
                                   JEDAN
                                  ) [DesEnum]
                                ) [FactorDesign]
                              ) [TermFact]
                              Mulop_Mul(
                              ) [Mulop_Mul]
                              FactorConst(
                                ConstNum(
                                 0
                                ) [ConstNum]
                              ) [FactorConst]
                            ) [TermMulop]
                          ) [AddopExp]
                        ) [FactorExpr]
                      ) [TermFact]
                    ) [AddopExp]
                  ) [AssignementExpr]
                ) [DesignStatAssignment]
              ) [StatementDes]
            ) [StatementList_NoEps]
            StatPrint(
              TermExpr(
                TermFact(
                  FactorDesign(
                    DesIdent(
                     bodovi
                    ) [DesIdent]
                  ) [FactorDesign]
                ) [TermFact]
              ) [TermExpr]
            ) [StatPrint]
          ) [StatementList_NoEps]
          StatRead(
            DesIdent(
             bodovi
            ) [DesIdent]
          ) [StatRead]
        ) [StatementList_NoEps]
        StatementDes(
          DesignStatAssignment(
            DesIdent(
             bodovi
            ) [DesIdent]
            AssignementExpr(
              AddopExp(
                TermExpr(
                  TermFact(
                    FactorDesign(
                      DesIdent(
                       bodovi
                      ) [DesIdent]
                    ) [FactorDesign]
                  ) [TermFact]
                ) [TermExpr]
                Addop_Plus(
                ) [Addop_Plus]
                TermFact(
                  FactorConst(
                    ConstNum(
                     1
                    ) [ConstNum]
                  ) [FactorConst]
                ) [TermFact]
              ) [AddopExp]
            ) [AssignementExpr]
          ) [DesignStatAssignment]
        ) [StatementDes]
      ) [StatementList_NoEps]
      StatPrint(
        TermExpr(
          TermFact(
            FactorDesign(
              DesIdent(
               bodovi
              ) [DesIdent]
            ) [FactorDesign]
          ) [TermFact]
        ) [TermExpr]
      ) [StatPrint]
    ) [StatementList_NoEps]
  ) [MethodDecl]
) [Program]
INFO  21:14:10,391 - ===================================
INFO  21:14:10,398 - Deklarisan novi enum tip Broj na liniji 5
INFO  21:14:10,398 - Deklarisana konstanta NULA unutar enuma Broj na liniji 5
INFO  21:14:10,399 - Deklarisana konstanta JEDAN unutar enuma Broj na liniji 5
INFO  21:14:10,399 - Deklarisana konstanta PET unutar enuma Broj na liniji 5
INFO  21:14:10,399 - Deklarisana konstanta DESET unutar enuma Broj na liniji 5
INFO  21:14:10,399 - Deklarisana konstanta 'jedan' na liniji 7
INFO  21:14:10,399 - Deklarisana konstanta 'pet' na liniji 8
INFO  21:14:10,399 - Deklarisana promenljiva niza niz tipa 1 na liniji 10
INFO  21:14:10,400 - Deklarisana promenljiva niza nizch tipa 2 na liniji 11
INFO  21:14:10,400 - Obradjuje se funkcija main na liniji 14
INFO  21:14:10,400 - Deklarisana promenljiva bodovi tipa 1 na liniji 15
INFO  21:14:10,400 - Deklarisana promenljiva nula tipa 6 na liniji 16
INFO  21:14:10,401 - Deklarisana promenljiva jedan tipa 6 na liniji 16
INFO  21:14:10,401 - kind enum konst  unutra je 0
INFO  21:14:10,402 - Dodeljenja vrednost enuma promenljivoj enuma
INFO  21:14:10,402 - kind enum konst  unutra je 0
INFO  21:14:10,402 - Dodeljenja vrednost enuma promenljivoj enuma
INFO  21:14:10,402 - Dodeljenja vrednost: 1 je design,1 je assign
INFO  21:14:10,402 - Inkrementirana vrednost
INFO  21:14:10,402 - Dodeljenja vrednost: 1 je design,1 je assign
INFO  21:14:10,402 - Dodeljenja vrednost: 1 je design,1 je assign
INFO  21:14:10,402 - Dekrementirana vrednost
INFO  21:14:10,402 - Print funkcija na liniji 26
INFO  21:14:10,402 - kind enum konst  unutra je 0
INFO  21:14:10,402 - Dodeljenja vrednost: 1 je design,1 je assign
INFO  21:14:10,402 - Print funkcija na liniji 33
INFO  21:14:10,402 - kind enum konst  unutra je 0
INFO  21:14:10,402 - Print funkcija na liniji 34
INFO  21:14:10,403 - Print funkcija na liniji 41
INFO  21:14:10,403 - Print funkcija na liniji 42
INFO  21:14:10,403 - kind enum konst  unutra je 0
INFO  21:14:10,403 - Dodeljenja vrednost: 1 je design,1 je assign
INFO  21:14:10,403 - Print funkcija na liniji 46
INFO  21:14:10,403 - Read funkcija na liniji 49
INFO  21:14:10,403 - Dodeljenja vrednost: 1 je design,1 je assign
INFO  21:14:10,403 - Print funkcija na liniji 51
INFO  21:14:10,403 -  Print count calls = 7
INFO  21:14:10,403 -  Deklarisanih promenljivih ima = 5
INFO  21:14:10,415 - 
INFO  21:14:10,416 - Parsiranje uspesno zavrseno!
