INFO  11:55:48,538 - Compiling source file: C:\Users\ikadr\Desktop\PP\Projekat\Rad\workspace\MJCompiler\test\program.mj
INFO  11:55:48,654 - #2 program
INFO  11:55:48,655 - #28 test301
INFO  11:55:48,655 - #9 enum
INFO  11:55:48,658 - #28 Broj
INFO  11:55:48,658 - #17 {
INFO  11:55:48,659 - #28 NULA
INFO  11:55:48,659 - #12 ,
INFO  11:55:48,660 - #28 JEDAN
INFO  11:55:48,660 - #12 ,
INFO  11:55:48,660 - #28 PET
INFO  11:55:48,660 - #11 =
INFO  11:55:48,660 - #27 5
INFO  11:55:48,660 - #12 ,
INFO  11:55:48,660 - #28 DESET
INFO  11:55:48,660 - #11 =
INFO  11:55:48,661 - #27 10
INFO  11:55:48,661 - #18 }
INFO  11:55:48,661 - #8 const
INFO  11:55:48,662 - #28 int
INFO  11:55:48,662 - #28 jedan
INFO  11:55:48,663 - #11 =
INFO  11:55:48,687 - #27 1
INFO  11:55:48,687 - #10 ;
INFO  11:55:48,688 - #8 const
INFO  11:55:48,689 - #28 int
INFO  11:55:48,690 - #28 pet
INFO  11:55:48,690 - #11 =
INFO  11:55:48,690 - #27 5
INFO  11:55:48,690 - #10 ;
INFO  11:55:48,690 - #28 int
INFO  11:55:48,690 - #28 niz
INFO  11:55:48,690 - #15 [
INFO  11:55:48,690 - #16 ]
INFO  11:55:48,690 - #10 ;
INFO  11:55:48,691 - #28 char
INFO  11:55:48,692 - #28 nizch
INFO  11:55:48,692 - #15 [
INFO  11:55:48,692 - #16 ]
INFO  11:55:48,692 - #10 ;
INFO  11:55:48,692 - #17 {
INFO  11:55:48,692 - #6 void
INFO  11:55:48,692 - #28 main
INFO  11:55:48,693 - #13 (
INFO  11:55:48,693 - #14 )
INFO  11:55:48,693 - #28 int
INFO  11:55:48,695 - #28 bodovi
INFO  11:55:48,695 - #12 ,
INFO  11:55:48,696 - #28 x
INFO  11:55:48,696 - #10 ;
INFO  11:55:48,696 - #28 Broj
INFO  11:55:48,697 - #28 nula
INFO  11:55:48,697 - #12 ,
INFO  11:55:48,697 - #28 jedan
INFO  11:55:48,698 - #10 ;
INFO  11:55:48,698 - #17 {
INFO  11:55:48,698 - #28 nula
INFO  11:55:48,699 - #11 =
INFO  11:55:48,699 - #28 Broj
INFO  11:55:48,699 - #19 .
INFO  11:55:48,699 - #28 NULA
INFO  11:55:48,699 - #10 ;
INFO  11:55:48,700 - #28 jedan
INFO  11:55:48,701 - #11 =
INFO  11:55:48,701 - #28 Broj
INFO  11:55:48,701 - #19 .
INFO  11:55:48,701 - #28 JEDAN
INFO  11:55:48,701 - #10 ;
INFO  11:55:48,701 - #28 x
INFO  11:55:48,706 - #11 =
INFO  11:55:48,706 - #22 -
INFO  11:55:48,706 - #27 15
INFO  11:55:48,706 - #10 ;
INFO  11:55:48,706 - #4 print
INFO  11:55:48,706 - #13 (
INFO  11:55:48,706 - #28 x
INFO  11:55:48,706 - #12 ,
INFO  11:55:48,706 - #27 2
INFO  11:55:48,707 - #14 )
INFO  11:55:48,707 - #10 ;
INFO  11:55:48,707 - #28 bodovi
INFO  11:55:48,707 - #11 =
INFO  11:55:48,707 - #27 0
INFO  11:55:48,707 - #10 ;
INFO  11:55:48,707 - #28 bodovi
INFO  11:55:48,707 - #20 ++
INFO  11:55:48,707 - #10 ;
INFO  11:55:48,708 - #28 bodovi
INFO  11:55:48,708 - #11 =
INFO  11:55:48,708 - #28 bodovi
INFO  11:55:48,708 - #23 +
INFO  11:55:48,708 - #28 jedan
INFO  11:55:48,710 - #10 ;
INFO  11:55:48,711 - #28 bodovi
INFO  11:55:48,711 - #11 =
INFO  11:55:48,711 - #28 bodovi
INFO  11:55:48,711 - #24 *
INFO  11:55:48,712 - #28 pet
INFO  11:55:48,713 - #10 ;
INFO  11:55:48,714 - #28 bodovi
INFO  11:55:48,714 - #21 --
INFO  11:55:48,714 - #10 ;
INFO  11:55:48,714 - #4 print
INFO  11:55:48,714 - #13 (
INFO  11:55:48,714 - #28 bodovi
INFO  11:55:48,714 - #14 )
INFO  11:55:48,715 - #10 ;
INFO  11:55:48,715 - #28 niz
INFO  11:55:48,715 - #11 =
INFO  11:55:48,715 - #5 new
INFO  11:55:48,715 - #28 int
INFO  11:55:48,715 - #15 [
INFO  11:55:48,715 - #27 2
INFO  11:55:48,716 - #16 ]
INFO  11:55:48,716 - #10 ;
INFO  11:55:48,716 - #28 niz
INFO  11:55:48,716 - #15 [
INFO  11:55:48,717 - #28 nula
INFO  11:55:48,718 - #16 ]
INFO  11:55:48,718 - #11 =
INFO  11:55:48,718 - #28 pet
INFO  11:55:48,718 - #10 ;
INFO  11:55:48,718 - #28 niz
INFO  11:55:48,718 - #15 [
INFO  11:55:48,718 - #27 1
INFO  11:55:48,719 - #16 ]
INFO  11:55:48,719 - #11 =
INFO  11:55:48,719 - #28 Broj
INFO  11:55:48,719 - #19 .
INFO  11:55:48,719 - #28 DESET
INFO  11:55:48,719 - #10 ;
INFO  11:55:48,719 - #28 bodovi
INFO  11:55:48,719 - #11 =
INFO  11:55:48,719 - #28 niz
INFO  11:55:48,719 - #15 [
INFO  11:55:48,719 - #27 1
INFO  11:55:48,719 - #16 ]
INFO  11:55:48,720 - #25 /
INFO  11:55:48,720 - #28 niz
INFO  11:55:48,721 - #15 [
INFO  11:55:48,721 - #27 0
INFO  11:55:48,721 - #16 ]
INFO  11:55:48,721 - #10 ;
INFO  11:55:48,721 - #4 print
INFO  11:55:48,721 - #13 (
INFO  11:55:48,721 - #28 bodovi
INFO  11:55:48,721 - #14 )
INFO  11:55:48,721 - #10 ;
INFO  11:55:48,721 - #4 print
INFO  11:55:48,721 - #13 (
INFO  11:55:48,721 - #28 niz
INFO  11:55:48,721 - #15 [
INFO  11:55:48,721 - #28 Broj
INFO  11:55:48,721 - #19 .
INFO  11:55:48,721 - #28 JEDAN
INFO  11:55:48,722 - #16 ]
INFO  11:55:48,722 - #14 )
INFO  11:55:48,722 - #10 ;
INFO  11:55:48,722 - #28 nizch
INFO  11:55:48,722 - #11 =
INFO  11:55:48,722 - #5 new
INFO  11:55:48,722 - #28 char
INFO  11:55:48,722 - #15 [
INFO  11:55:48,722 - #27 3
INFO  11:55:48,722 - #16 ]
INFO  11:55:48,722 - #10 ;
INFO  11:55:48,722 - #28 nizch
INFO  11:55:48,722 - #15 [
INFO  11:55:48,722 - #27 0
INFO  11:55:48,722 - #16 ]
INFO  11:55:48,722 - #11 =
INFO  11:55:48,722 - #29 a
INFO  11:55:48,723 - #10 ;
INFO  11:55:48,723 - #28 nizch
INFO  11:55:48,723 - #15 [
INFO  11:55:48,723 - #28 jedan
INFO  11:55:48,723 - #16 ]
INFO  11:55:48,723 - #11 =
INFO  11:55:48,723 - #29 b
INFO  11:55:48,723 - #10 ;
INFO  11:55:48,723 - #28 nizch
INFO  11:55:48,723 - #15 [
INFO  11:55:48,723 - #28 pet
INFO  11:55:48,724 - #22 -
INFO  11:55:48,724 - #27 3
INFO  11:55:48,725 - #16 ]
INFO  11:55:48,725 - #11 =
INFO  11:55:48,725 - #29 c
INFO  11:55:48,725 - #10 ;
INFO  11:55:48,725 - #4 print
INFO  11:55:48,726 - #13 (
INFO  11:55:48,726 - #28 nizch
INFO  11:55:48,726 - #15 [
INFO  11:55:48,726 - #27 2
INFO  11:55:48,726 - #22 -
INFO  11:55:48,726 - #27 1
INFO  11:55:48,726 - #16 ]
INFO  11:55:48,726 - #14 )
INFO  11:55:48,726 - #10 ;
INFO  11:55:48,726 - #4 print
INFO  11:55:48,727 - #13 (
INFO  11:55:48,727 - #28 nizch
INFO  11:55:48,727 - #15 [
INFO  11:55:48,727 - #28 jedan
INFO  11:55:48,727 - #24 *
INFO  11:55:48,727 - #27 2
INFO  11:55:48,727 - #16 ]
INFO  11:55:48,727 - #14 )
INFO  11:55:48,727 - #10 ;
INFO  11:55:48,727 - #28 bodovi
INFO  11:55:48,727 - #11 =
INFO  11:55:48,727 - #28 bodovi
INFO  11:55:48,728 - #23 +
INFO  11:55:48,728 - #13 (
INFO  11:55:48,728 - #13 (
INFO  11:55:48,728 - #28 pet
INFO  11:55:48,728 - #24 *
INFO  11:55:48,728 - #28 jedan
INFO  11:55:48,728 - #22 -
INFO  11:55:48,728 - #27 1
INFO  11:55:48,728 - #14 )
INFO  11:55:48,728 - #24 *
INFO  11:55:48,728 - #27 2
INFO  11:55:48,728 - #22 -
INFO  11:55:48,728 - #13 (
INFO  11:55:48,728 - #27 3
INFO  11:55:48,728 - #26 %
INFO  11:55:48,728 - #27 2
INFO  11:55:48,729 - #23 +
INFO  11:55:48,730 - #27 3
INFO  11:55:48,730 - #24 *
INFO  11:55:48,730 - #27 2
INFO  11:55:48,730 - #22 -
INFO  11:55:48,730 - #27 3
INFO  11:55:48,730 - #14 )
INFO  11:55:48,730 - #22 -
INFO  11:55:48,730 - #28 Broj
INFO  11:55:48,730 - #19 .
INFO  11:55:48,730 - #28 JEDAN
INFO  11:55:48,730 - #24 *
INFO  11:55:48,730 - #27 0
INFO  11:55:48,730 - #14 )
INFO  11:55:48,730 - #10 ;
INFO  11:55:48,730 - #4 print
INFO  11:55:48,730 - #13 (
INFO  11:55:48,730 - #28 bodovi
INFO  11:55:48,730 - #14 )
INFO  11:55:48,730 - #10 ;
INFO  11:55:48,730 - #28 bodovi
INFO  11:55:48,731 - #11 =
INFO  11:55:48,731 - #28 bodovi
INFO  11:55:48,731 - #23 +
INFO  11:55:48,731 - #27 1
INFO  11:55:48,731 - #10 ;
INFO  11:55:48,731 - #4 print
INFO  11:55:48,731 - #13 (
INFO  11:55:48,731 - #28 bodovi
INFO  11:55:48,731 - #14 )
INFO  11:55:48,731 - #10 ;
INFO  11:55:48,732 - #18 }
INFO  11:55:48,732 - #18 }
INFO  11:55:48,757 - Program(
  ProgName(
   test301
  ) [ProgName]
  GlobalDeclListL(
    GlobalDeclListL(
      GlobalDeclListL(
        GlobalDeclListL(
          GlobalDeclListL(
            GlobalDeclListEps(
            ) [GlobalDeclListEps]
            GlobalDeclEnum(
              EnumDecl(
                EnumName(
                 Broj
                ) [EnumName]
                EnumDeclListL(
                  EnumDeclListL(
                    EnumDeclListL(
                      EnumDeclItem(
                        EnumDeclDefNoVal(
                         NULA
                        ) [EnumDeclDefNoVal]
                      ) [EnumDeclItem]
                      EnumDeclDefNoVal(
                       JEDAN
                      ) [EnumDeclDefNoVal]
                    ) [EnumDeclListL]
                    EnumDeclDefVal(
                     PET
                     5
                    ) [EnumDeclDefVal]
                  ) [EnumDeclListL]
                  EnumDeclDefVal(
                   DESET
                   10
                  ) [EnumDeclDefVal]
                ) [EnumDeclListL]
              ) [EnumDecl]
            ) [GlobalDeclEnum]
          ) [GlobalDeclListL]
          GlobalDeclConst(
            ConstDecl(
              Type(
               int
              ) [Type]
              ConstDeclItem(
                ConstDef(
                 jedan
                  ConstNum(
                   1
                  ) [ConstNum]
                ) [ConstDef]
              ) [ConstDeclItem]
            ) [ConstDecl]
          ) [GlobalDeclConst]
        ) [GlobalDeclListL]
        GlobalDeclConst(
          ConstDecl(
            Type(
             int
            ) [Type]
            ConstDeclItem(
              ConstDef(
               pet
                ConstNum(
                 5
                ) [ConstNum]
              ) [ConstDef]
            ) [ConstDeclItem]
          ) [ConstDecl]
        ) [GlobalDeclConst]
      ) [GlobalDeclListL]
      GlobalDeclVar(
        GlobalVarDecl(
          Type(
           int
          ) [Type]
          GlobalVarDeclItem(
            GlobalVarDeclDefOk(
              VarDeclDefineArray(
               niz
              ) [VarDeclDefineArray]
            ) [GlobalVarDeclDefOk]
          ) [GlobalVarDeclItem]
        ) [GlobalVarDecl]
      ) [GlobalDeclVar]
    ) [GlobalDeclListL]
    GlobalDeclVar(
      GlobalVarDecl(
        Type(
         char
        ) [Type]
        GlobalVarDeclItem(
          GlobalVarDeclDefOk(
            VarDeclDefineArray(
             nizch
            ) [VarDeclDefineArray]
          ) [GlobalVarDeclDefOk]
        ) [GlobalVarDeclItem]
      ) [GlobalVarDecl]
    ) [GlobalDeclVar]
  ) [GlobalDeclListL]
  MethodDecl(
    MethodSignature(
      VoidableType(
      ) [VoidableType]
     main
    ) [MethodSignature]
    VarMethodDeclList_NoEps(
      VarMethodDeclList_NoEps(
        VarMethodDeclList_Eps(
        ) [VarMethodDeclList_Eps]
        VarDecl(
          Type(
           int
          ) [Type]
          VarDeclListL(
            VarDeclItem(
              VarDeclDefineSingle(
               bodovi
              ) [VarDeclDefineSingle]
            ) [VarDeclItem]
            VarDeclDefineSingle(
             x
            ) [VarDeclDefineSingle]
          ) [VarDeclListL]
        ) [VarDecl]
      ) [VarMethodDeclList_NoEps]
      VarDecl(
        Type(
         Broj
        ) [Type]
        VarDeclListL(
          VarDeclItem(
            VarDeclDefineSingle(
             nula
            ) [VarDeclDefineSingle]
          ) [VarDeclItem]
          VarDeclDefineSingle(
           jedan
          ) [VarDeclDefineSingle]
        ) [VarDeclListL]
      ) [VarDecl]
    ) [VarMethodDeclList_NoEps]
    StatementList_NoEps(
      StatementList_NoEps(
        StatementList_NoEps(
          StatementList_NoEps(
            StatementList_NoEps(
              StatementList_NoEps(
                StatementList_NoEps(
                  StatementList_NoEps(
                    StatementList_NoEps(
                      StatementList_NoEps(
                        StatementList_NoEps(
                          StatementList_NoEps(
                            StatementList_NoEps(
                              StatementList_NoEps(
                                StatementList_NoEps(
                                  StatementList_NoEps(
                                    StatementList_NoEps(
                                      StatementList_NoEps(
                                        StatementList_NoEps(
                                          StatementList_NoEps(
                                            StatementList_NoEps(
                                              StatementList_NoEps(
                                                StatementList_NoEps(
                                                  StatementList_NoEps(
                                                    StatementList_NoEps(
                                                      StatementList_NoEps(
                                                        StatementList_Eps(
                                                        ) [StatementList_Eps]
                                                        StatementDes(
                                                          DesignStatAssignment(
                                                            DesIdent(
                                                             nula
                                                            ) [DesIdent]
                                                            AssignementExpr(
                                                              TermExpr(
                                                                TermFact(
                                                                  FactorDesign(
                                                                    DesEnum(
                                                                     Broj
                                                                     NULA
                                                                    ) [DesEnum]
                                                                  ) [FactorDesign]
                                                                ) [TermFact]
                                                              ) [TermExpr]
                                                            ) [AssignementExpr]
                                                          ) [DesignStatAssignment]
                                                        ) [StatementDes]
                                                      ) [StatementList_NoEps]
                                                      StatementDes(
                                                        DesignStatAssignment(
                                                          DesIdent(
                                                           jedan
                                                          ) [DesIdent]
                                                          AssignementExpr(
                                                            TermExpr(
                                                              TermFact(
                                                                FactorDesign(
                                                                  DesEnum(
                                                                   Broj
                                                                   JEDAN
                                                                  ) [DesEnum]
                                                                ) [FactorDesign]
                                                              ) [TermFact]
                                                            ) [TermExpr]
                                                          ) [AssignementExpr]
                                                        ) [DesignStatAssignment]
                                                      ) [StatementDes]
                                                    ) [StatementList_NoEps]
                                                    StatementDes(
                                                      DesignStatAssignment(
                                                        DesIdent(
                                                         x
                                                        ) [DesIdent]
                                                        AssignementExpr(
                                                          NegTermExpr(
                                                            TermFact(
                                                              FactorConst(
                                                                ConstNum(
                                                                 15
                                                                ) [ConstNum]
                                                              ) [FactorConst]
                                                            ) [TermFact]
                                                          ) [NegTermExpr]
                                                        ) [AssignementExpr]
                                                      ) [DesignStatAssignment]
                                                    ) [StatementDes]
                                                  ) [StatementList_NoEps]
                                                  StatPrintParam(
                                                    TermExpr(
                                                      TermFact(
                                                        FactorDesign(
                                                          DesIdent(
                                                           x
                                                          ) [DesIdent]
                                                        ) [FactorDesign]
                                                      ) [TermFact]
                                                    ) [TermExpr]
                                                   2
                                                  ) [StatPrintParam]
                                                ) [StatementList_NoEps]
                                                StatementDes(
                                                  DesignStatAssignment(
                                                    DesIdent(
                                                     bodovi
                                                    ) [DesIdent]
                                                    AssignementExpr(
                                                      TermExpr(
                                                        TermFact(
                                                          FactorConst(
                                                            ConstNum(
                                                             0
                                                            ) [ConstNum]
                                                          ) [FactorConst]
                                                        ) [TermFact]
                                                      ) [TermExpr]
                                                    ) [AssignementExpr]
                                                  ) [DesignStatAssignment]
                                                ) [StatementDes]
                                              ) [StatementList_NoEps]
                                              StatementDes(
                                                DesignStatInc(
                                                  DesIdent(
                                                   bodovi
                                                  ) [DesIdent]
                                                ) [DesignStatInc]
                                              ) [StatementDes]
                                            ) [StatementList_NoEps]
                                            StatementDes(
                                              DesignStatAssignment(
                                                DesIdent(
                                                 bodovi
                                                ) [DesIdent]
                                                AssignementExpr(
                                                  AddopExp(
                                                    TermExpr(
                                                      TermFact(
                                                        FactorDesign(
                                                          DesIdent(
                                                           bodovi
                                                          ) [DesIdent]
                                                        ) [FactorDesign]
                                                      ) [TermFact]
                                                    ) [TermExpr]
                                                    Addop_Plus(
                                                    ) [Addop_Plus]
                                                    TermFact(
                                                      FactorDesign(
                                                        DesIdent(
                                                         jedan
                                                        ) [DesIdent]
                                                      ) [FactorDesign]
                                                    ) [TermFact]
                                                  ) [AddopExp]
                                                ) [AssignementExpr]
                                              ) [DesignStatAssignment]
                                            ) [StatementDes]
                                          ) [StatementList_NoEps]
                                          StatementDes(
                                            DesignStatAssignment(
                                              DesIdent(
                                               bodovi
                                              ) [DesIdent]
                                              AssignementExpr(
                                                TermExpr(
                                                  TermMulop(
                                                    TermFact(
                                                      FactorDesign(
                                                        DesIdent(
                                                         bodovi
                                                        ) [DesIdent]
                                                      ) [FactorDesign]
                                                    ) [TermFact]
                                                    Mulop_Mul(
                                                    ) [Mulop_Mul]
                                                    FactorDesign(
                                                      DesIdent(
                                                       pet
                                                      ) [DesIdent]
                                                    ) [FactorDesign]
                                                  ) [TermMulop]
                                                ) [TermExpr]
                                              ) [AssignementExpr]
                                            ) [DesignStatAssignment]
                                          ) [StatementDes]
                                        ) [StatementList_NoEps]
                                        StatementDes(
                                          DesignStatDec(
                                            DesIdent(
                                             bodovi
                                            ) [DesIdent]
                                          ) [DesignStatDec]
                                        ) [StatementDes]
                                      ) [StatementList_NoEps]
                                      StatPrint(
                                        TermExpr(
                                          TermFact(
                                            FactorDesign(
                                              DesIdent(
                                               bodovi
                                              ) [DesIdent]
                                            ) [FactorDesign]
                                          ) [TermFact]
                                        ) [TermExpr]
                                      ) [StatPrint]
                                    ) [StatementList_NoEps]
                                    StatementDes(
                                      DesignStatAssignment(
                                        DesIdent(
                                         niz
                                        ) [DesIdent]
                                        AssignementExpr(
                                          TermExpr(
                                            TermFact(
                                              FactorNewArr(
                                                Type(
                                                 int
                                                ) [Type]
                                                TermExpr(
                                                  TermFact(
                                                    FactorConst(
                                                      ConstNum(
                                                       2
                                                      ) [ConstNum]
                                                    ) [FactorConst]
                                                  ) [TermFact]
                                                ) [TermExpr]
                                              ) [FactorNewArr]
                                            ) [TermFact]
                                          ) [TermExpr]
                                        ) [AssignementExpr]
                                      ) [DesignStatAssignment]
                                    ) [StatementDes]
                                  ) [StatementList_NoEps]
                                  StatementDes(
                                    DesignStatAssignment(
                                      DesArr(
                                        ArrayName(
                                         niz
                                        ) [ArrayName]
                                        TermExpr(
                                          TermFact(
                                            FactorDesign(
                                              DesIdent(
                                               nula
                                              ) [DesIdent]
                                            ) [FactorDesign]
                                          ) [TermFact]
                                        ) [TermExpr]
                                      ) [DesArr]
                                      AssignementExpr(
                                        TermExpr(
                                          TermFact(
                                            FactorDesign(
                                              DesIdent(
                                               pet
                                              ) [DesIdent]
                                            ) [FactorDesign]
                                          ) [TermFact]
                                        ) [TermExpr]
                                      ) [AssignementExpr]
                                    ) [DesignStatAssignment]
                                  ) [StatementDes]
                                ) [StatementList_NoEps]
                                StatementDes(
                                  DesignStatAssignment(
                                    DesArr(
                                      ArrayName(
                                       niz
                                      ) [ArrayName]
                                      TermExpr(
                                        TermFact(
                                          FactorConst(
                                            ConstNum(
                                             1
                                            ) [ConstNum]
                                          ) [FactorConst]
                                        ) [TermFact]
                                      ) [TermExpr]
                                    ) [DesArr]
                                    AssignementExpr(
                                      TermExpr(
                                        TermFact(
                                          FactorDesign(
                                            DesEnum(
                                             Broj
                                             DESET
                                            ) [DesEnum]
                                          ) [FactorDesign]
                                        ) [TermFact]
                                      ) [TermExpr]
                                    ) [AssignementExpr]
                                  ) [DesignStatAssignment]
                                ) [StatementDes]
                              ) [StatementList_NoEps]
                              StatementDes(
                                DesignStatAssignment(
                                  DesIdent(
                                   bodovi
                                  ) [DesIdent]
                                  AssignementExpr(
                                    TermExpr(
                                      TermMulop(
                                        TermFact(
                                          FactorDesign(
                                            DesArr(
                                              ArrayName(
                                               niz
                                              ) [ArrayName]
                                              TermExpr(
                                                TermFact(
                                                  FactorConst(
                                                    ConstNum(
                                                     1
                                                    ) [ConstNum]
                                                  ) [FactorConst]
                                                ) [TermFact]
                                              ) [TermExpr]
                                            ) [DesArr]
                                          ) [FactorDesign]
                                        ) [TermFact]
                                        Mulop_Div(
                                        ) [Mulop_Div]
                                        FactorDesign(
                                          DesArr(
                                            ArrayName(
                                             niz
                                            ) [ArrayName]
                                            TermExpr(
                                              TermFact(
                                                FactorConst(
                                                  ConstNum(
                                                   0
                                                  ) [ConstNum]
                                                ) [FactorConst]
                                              ) [TermFact]
                                            ) [TermExpr]
                                          ) [DesArr]
                                        ) [FactorDesign]
                                      ) [TermMulop]
                                    ) [TermExpr]
                                  ) [AssignementExpr]
                                ) [DesignStatAssignment]
                              ) [StatementDes]
                            ) [StatementList_NoEps]
                            StatPrint(
                              TermExpr(
                                TermFact(
                                  FactorDesign(
                                    DesIdent(
                                     bodovi
                                    ) [DesIdent]
                                  ) [FactorDesign]
                                ) [TermFact]
                              ) [TermExpr]
                            ) [StatPrint]
                          ) [StatementList_NoEps]
                          StatPrint(
                            TermExpr(
                              TermFact(
                                FactorDesign(
                                  DesArr(
                                    ArrayName(
                                     niz
                                    ) [ArrayName]
                                    TermExpr(
                                      TermFact(
                                        FactorDesign(
                                          DesEnum(
                                           Broj
                                           JEDAN
                                          ) [DesEnum]
                                        ) [FactorDesign]
                                      ) [TermFact]
                                    ) [TermExpr]
                                  ) [DesArr]
                                ) [FactorDesign]
                              ) [TermFact]
                            ) [TermExpr]
                          ) [StatPrint]
                        ) [StatementList_NoEps]
                        StatementDes(
                          DesignStatAssignment(
                            DesIdent(
                             nizch
                            ) [DesIdent]
                            AssignementExpr(
                              TermExpr(
                                TermFact(
                                  FactorNewArr(
                                    Type(
                                     char
                                    ) [Type]
                                    TermExpr(
                                      TermFact(
                                        FactorConst(
                                          ConstNum(
                                           3
                                          ) [ConstNum]
                                        ) [FactorConst]
                                      ) [TermFact]
                                    ) [TermExpr]
                                  ) [FactorNewArr]
                                ) [TermFact]
                              ) [TermExpr]
                            ) [AssignementExpr]
                          ) [DesignStatAssignment]
                        ) [StatementDes]
                      ) [StatementList_NoEps]
                      StatementDes(
                        DesignStatAssignment(
                          DesArr(
                            ArrayName(
                             nizch
                            ) [ArrayName]
                            TermExpr(
                              TermFact(
                                FactorConst(
                                  ConstNum(
                                   0
                                  ) [ConstNum]
                                ) [FactorConst]
                              ) [TermFact]
                            ) [TermExpr]
                          ) [DesArr]
                          AssignementExpr(
                            TermExpr(
                              TermFact(
                                FactorConst(
                                  ConstChar(
                                   a
                                  ) [ConstChar]
                                ) [FactorConst]
                              ) [TermFact]
                            ) [TermExpr]
                          ) [AssignementExpr]
                        ) [DesignStatAssignment]
                      ) [StatementDes]
                    ) [StatementList_NoEps]
                    StatementDes(
                      DesignStatAssignment(
                        DesArr(
                          ArrayName(
                           nizch
                          ) [ArrayName]
                          TermExpr(
                            TermFact(
                              FactorDesign(
                                DesIdent(
                                 jedan
                                ) [DesIdent]
                              ) [FactorDesign]
                            ) [TermFact]
                          ) [TermExpr]
                        ) [DesArr]
                        AssignementExpr(
                          TermExpr(
                            TermFact(
                              FactorConst(
                                ConstChar(
                                 b
                                ) [ConstChar]
                              ) [FactorConst]
                            ) [TermFact]
                          ) [TermExpr]
                        ) [AssignementExpr]
                      ) [DesignStatAssignment]
                    ) [StatementDes]
                  ) [StatementList_NoEps]
                  StatementDes(
                    DesignStatAssignment(
                      DesArr(
                        ArrayName(
                         nizch
                        ) [ArrayName]
                        AddopExp(
                          TermExpr(
                            TermFact(
                              FactorDesign(
                                DesIdent(
                                 pet
                                ) [DesIdent]
                              ) [FactorDesign]
                            ) [TermFact]
                          ) [TermExpr]
                          Addop_Minus(
                          ) [Addop_Minus]
                          TermFact(
                            FactorConst(
                              ConstNum(
                               3
                              ) [ConstNum]
                            ) [FactorConst]
                          ) [TermFact]
                        ) [AddopExp]
                      ) [DesArr]
                      AssignementExpr(
                        TermExpr(
                          TermFact(
                            FactorConst(
                              ConstChar(
                               c
                              ) [ConstChar]
                            ) [FactorConst]
                          ) [TermFact]
                        ) [TermExpr]
                      ) [AssignementExpr]
                    ) [DesignStatAssignment]
                  ) [StatementDes]
                ) [StatementList_NoEps]
                StatPrint(
                  TermExpr(
                    TermFact(
                      FactorDesign(
                        DesArr(
                          ArrayName(
                           nizch
                          ) [ArrayName]
                          AddopExp(
                            TermExpr(
                              TermFact(
                                FactorConst(
                                  ConstNum(
                                   2
                                  ) [ConstNum]
                                ) [FactorConst]
                              ) [TermFact]
                            ) [TermExpr]
                            Addop_Minus(
                            ) [Addop_Minus]
                            TermFact(
                              FactorConst(
                                ConstNum(
                                 1
                                ) [ConstNum]
                              ) [FactorConst]
                            ) [TermFact]
                          ) [AddopExp]
                        ) [DesArr]
                      ) [FactorDesign]
                    ) [TermFact]
                  ) [TermExpr]
                ) [StatPrint]
              ) [StatementList_NoEps]
              StatPrint(
                TermExpr(
                  TermFact(
                    FactorDesign(
                      DesArr(
                        ArrayName(
                         nizch
                        ) [ArrayName]
                        TermExpr(
                          TermMulop(
                            TermFact(
                              FactorDesign(
                                DesIdent(
                                 jedan
                                ) [DesIdent]
                              ) [FactorDesign]
                            ) [TermFact]
                            Mulop_Mul(
                            ) [Mulop_Mul]
                            FactorConst(
                              ConstNum(
                               2
                              ) [ConstNum]
                            ) [FactorConst]
                          ) [TermMulop]
                        ) [TermExpr]
                      ) [DesArr]
                    ) [FactorDesign]
                  ) [TermFact]
                ) [TermExpr]
              ) [StatPrint]
            ) [StatementList_NoEps]
            StatementDes(
              DesignStatAssignment(
                DesIdent(
                 bodovi
                ) [DesIdent]
                AssignementExpr(
                  AddopExp(
                    TermExpr(
                      TermFact(
                        FactorDesign(
                          DesIdent(
                           bodovi
                          ) [DesIdent]
                        ) [FactorDesign]
                      ) [TermFact]
                    ) [TermExpr]
                    Addop_Plus(
                    ) [Addop_Plus]
                    TermFact(
                      FactorExpr(
                        AddopExp(
                          AddopExp(
                            TermExpr(
                              TermMulop(
                                TermFact(
                                  FactorExpr(
                                    AddopExp(
                                      TermExpr(
                                        TermMulop(
                                          TermFact(
                                            FactorDesign(
                                              DesIdent(
                                               pet
                                              ) [DesIdent]
                                            ) [FactorDesign]
                                          ) [TermFact]
                                          Mulop_Mul(
                                          ) [Mulop_Mul]
                                          FactorDesign(
                                            DesIdent(
                                             jedan
                                            ) [DesIdent]
                                          ) [FactorDesign]
                                        ) [TermMulop]
                                      ) [TermExpr]
                                      Addop_Minus(
                                      ) [Addop_Minus]
                                      TermFact(
                                        FactorConst(
                                          ConstNum(
                                           1
                                          ) [ConstNum]
                                        ) [FactorConst]
                                      ) [TermFact]
                                    ) [AddopExp]
                                  ) [FactorExpr]
                                ) [TermFact]
                                Mulop_Mul(
                                ) [Mulop_Mul]
                                FactorConst(
                                  ConstNum(
                                   2
                                  ) [ConstNum]
                                ) [FactorConst]
                              ) [TermMulop]
                            ) [TermExpr]
                            Addop_Minus(
                            ) [Addop_Minus]
                            TermFact(
                              FactorExpr(
                                AddopExp(
                                  AddopExp(
                                    TermExpr(
                                      TermMulop(
                                        TermFact(
                                          FactorConst(
                                            ConstNum(
                                             3
                                            ) [ConstNum]
                                          ) [FactorConst]
                                        ) [TermFact]
                                        Mulop_Mod(
                                        ) [Mulop_Mod]
                                        FactorConst(
                                          ConstNum(
                                           2
                                          ) [ConstNum]
                                        ) [FactorConst]
                                      ) [TermMulop]
                                    ) [TermExpr]
                                    Addop_Plus(
                                    ) [Addop_Plus]
                                    TermMulop(
                                      TermFact(
                                        FactorConst(
                                          ConstNum(
                                           3
                                          ) [ConstNum]
                                        ) [FactorConst]
                                      ) [TermFact]
                                      Mulop_Mul(
                                      ) [Mulop_Mul]
                                      FactorConst(
                                        ConstNum(
                                         2
                                        ) [ConstNum]
                                      ) [FactorConst]
                                    ) [TermMulop]
                                  ) [AddopExp]
                                  Addop_Minus(
                                  ) [Addop_Minus]
                                  TermFact(
                                    FactorConst(
                                      ConstNum(
                                       3
                                      ) [ConstNum]
                                    ) [FactorConst]
                                  ) [TermFact]
                                ) [AddopExp]
                              ) [FactorExpr]
                            ) [TermFact]
                          ) [AddopExp]
                          Addop_Minus(
                          ) [Addop_Minus]
                          TermMulop(
                            TermFact(
                              FactorDesign(
                                DesEnum(
                                 Broj
                                 JEDAN
                                ) [DesEnum]
                              ) [FactorDesign]
                            ) [TermFact]
                            Mulop_Mul(
                            ) [Mulop_Mul]
                            FactorConst(
                              ConstNum(
                               0
                              ) [ConstNum]
                            ) [FactorConst]
                          ) [TermMulop]
                        ) [AddopExp]
                      ) [FactorExpr]
                    ) [TermFact]
                  ) [AddopExp]
                ) [AssignementExpr]
              ) [DesignStatAssignment]
            ) [StatementDes]
          ) [StatementList_NoEps]
          StatPrint(
            TermExpr(
              TermFact(
                FactorDesign(
                  DesIdent(
                   bodovi
                  ) [DesIdent]
                ) [FactorDesign]
              ) [TermFact]
            ) [TermExpr]
          ) [StatPrint]
        ) [StatementList_NoEps]
        StatementDes(
          DesignStatAssignment(
            DesIdent(
             bodovi
            ) [DesIdent]
            AssignementExpr(
              AddopExp(
                TermExpr(
                  TermFact(
                    FactorDesign(
                      DesIdent(
                       bodovi
                      ) [DesIdent]
                    ) [FactorDesign]
                  ) [TermFact]
                ) [TermExpr]
                Addop_Plus(
                ) [Addop_Plus]
                TermFact(
                  FactorConst(
                    ConstNum(
                     1
                    ) [ConstNum]
                  ) [FactorConst]
                ) [TermFact]
              ) [AddopExp]
            ) [AssignementExpr]
          ) [DesignStatAssignment]
        ) [StatementDes]
      ) [StatementList_NoEps]
      StatPrint(
        TermExpr(
          TermFact(
            FactorDesign(
              DesIdent(
               bodovi
              ) [DesIdent]
            ) [FactorDesign]
          ) [TermFact]
        ) [TermExpr]
      ) [StatPrint]
    ) [StatementList_NoEps]
  ) [MethodDecl]
) [Program]
INFO  11:55:48,765 - ===================================
INFO  11:55:48,771 - Deklarisan novi enum tip Broj na liniji 5
INFO  11:55:48,771 - Deklarisana konstanta Broj.NULA unutar enuma Broj na liniji 5
INFO  11:55:48,771 - Deklarisana konstanta Broj.JEDAN unutar enuma Broj na liniji 5
INFO  11:55:48,772 - Deklarisana konstanta Broj.PET unutar enuma Broj na liniji 5
INFO  11:55:48,772 - Deklarisana konstanta Broj.DESET unutar enuma Broj na liniji 5
INFO  11:55:48,772 - Deklarisana konstanta 'jedan' na liniji 7
INFO  11:55:48,772 - Deklarisana konstanta 'pet' na liniji 8
INFO  11:55:48,772 - Deklarisana promenljiva niza niz tipa 1 na liniji 10
INFO  11:55:48,772 - Deklarisana promenljiva niza nizch tipa 2 na liniji 11
INFO  11:55:48,772 - Obradjuje se funkcija main na liniji 14
INFO  11:55:48,772 - Deklarisana promenljiva bodovi tipa 1 na liniji 15
INFO  11:55:48,773 - Deklarisana promenljiva x tipa 1 na liniji 15
INFO  11:55:48,773 - Deklarisana promenljiva nula tipa 6 na liniji 16
INFO  11:55:48,773 - Deklarisana promenljiva jedan tipa 6 na liniji 16
INFO  11:55:48,774 - Dodeljenja vrednost: 1 je design,1 je assign
INFO  11:55:48,774 - Print funkcija na liniji 21
INFO  11:55:48,774 - Dodeljenja vrednost: 1 je design,1 je assign
INFO  11:55:48,774 - Inkrementirana vrednost
INFO  11:55:48,774 - Dodeljenja vrednost: 1 je design,1 je assign
INFO  11:55:48,774 - Dodeljenja vrednost: 1 je design,1 je assign
INFO  11:55:48,774 - Dekrementirana vrednost
INFO  11:55:48,774 - Print funkcija na liniji 27
INFO  11:55:48,774 - Dodeljenja vrednost: 1 je design,1 je assign
INFO  11:55:48,774 - Print funkcija na liniji 34
INFO  11:55:48,774 - Print funkcija na liniji 35
INFO  11:55:48,775 - Print funkcija na liniji 42
INFO  11:55:48,775 - Print funkcija na liniji 43
INFO  11:55:48,775 - Dodeljenja vrednost: 1 je design,1 je assign
INFO  11:55:48,775 - Print funkcija na liniji 47
INFO  11:55:48,775 - Dodeljenja vrednost: 1 je design,1 je assign
INFO  11:55:48,775 - Print funkcija na liniji 52
INFO  11:55:48,775 -  Print count calls = 8
INFO  11:55:48,775 -  Deklarisanih promenljivih ima = 6
INFO  11:55:48,785 - 2
INFO  11:55:48,785 - Parsiranje uspesno zavrseno!
