INFO  16:30:51,544 - Compiling source file: C:\Users\ikadr\Desktop\PP\Projekat\Rad\workspace\MJCompiler\test\program.mj
INFO  16:30:51,545 - ===============SINTAKSNA OBRADA====================
INFO  16:30:51,612 - #2 program
INFO  16:30:51,613 - #28 test301
INFO  16:30:51,613 - #9 enum
INFO  16:30:51,615 - #28 Broj
INFO  16:30:51,615 - #17 {
INFO  16:30:51,616 - #28 NULA
INFO  16:30:51,617 - #12 ,
INFO  16:30:51,617 - #28 JEDAN
INFO  16:30:51,617 - #12 ,
INFO  16:30:51,617 - #28 PET
INFO  16:30:51,617 - #11 =
INFO  16:30:51,617 - #27 5
INFO  16:30:51,618 - #12 ,
INFO  16:30:51,618 - #28 DESET
INFO  16:30:51,618 - #11 =
INFO  16:30:51,618 - #27 10
INFO  16:30:51,618 - #18 }
INFO  16:30:51,618 - #8 const
INFO  16:30:51,651 - #28 int
INFO  16:30:51,651 - #28 jedan
INFO  16:30:51,652 - #11 =
INFO  16:30:51,652 - #27 1
INFO  16:30:51,652 - #10 ;
INFO  16:30:51,654 - #8 const
INFO  16:30:51,655 - #28 int
INFO  16:30:51,655 - #28 pet
INFO  16:30:51,655 - #11 =
INFO  16:30:51,655 - #27 5
INFO  16:30:51,655 - #10 ;
INFO  16:30:51,655 - #28 int
INFO  16:30:51,655 - #28 niz
INFO  16:30:51,655 - #15 [
INFO  16:30:51,655 - #16 ]
INFO  16:30:51,655 - #10 ;
INFO  16:30:51,656 - #28 char
INFO  16:30:51,657 - #28 nizch
INFO  16:30:51,657 - #15 [
INFO  16:30:51,657 - #16 ]
INFO  16:30:51,657 - #10 ;
INFO  16:30:51,657 - #17 {
INFO  16:30:51,657 - #6 void
INFO  16:30:51,658 - #28 main
INFO  16:30:51,659 - #13 (
INFO  16:30:51,659 - #14 )
INFO  16:30:51,659 - #28 int
INFO  16:30:51,661 - #28 bodovi
INFO  16:30:51,661 - #10 ;
INFO  16:30:51,661 - #28 Broj
INFO  16:30:51,662 - #28 nula
INFO  16:30:51,662 - #12 ,
INFO  16:30:51,662 - #28 jedan
INFO  16:30:51,662 - #10 ;
INFO  16:30:51,663 - #17 {
INFO  16:30:51,663 - #28 nula
INFO  16:30:51,664 - #11 =
INFO  16:30:51,665 - #28 Broj
INFO  16:30:51,665 - #19 .
INFO  16:30:51,665 - #28 NULA
INFO  16:30:51,665 - #10 ;
INFO  16:30:51,667 - #28 jedan
INFO  16:30:51,669 - #11 =
INFO  16:30:51,669 - #28 Broj
INFO  16:30:51,669 - #19 .
INFO  16:30:51,669 - #28 JEDAN
INFO  16:30:51,669 - #10 ;
INFO  16:30:51,669 - #28 bodovi
INFO  16:30:51,670 - #11 =
INFO  16:30:51,670 - #27 0
INFO  16:30:51,670 - #10 ;
INFO  16:30:51,670 - #28 bodovi
INFO  16:30:51,670 - #20 ++
INFO  16:30:51,670 - #10 ;
INFO  16:30:51,670 - #28 bodovi
INFO  16:30:51,671 - #11 =
INFO  16:30:51,671 - #28 bodovi
INFO  16:30:51,671 - #23 +
INFO  16:30:51,671 - #28 jedan
INFO  16:30:51,673 - #10 ;
INFO  16:30:51,674 - #28 bodovi
INFO  16:30:51,674 - #11 =
INFO  16:30:51,674 - #28 bodovi
INFO  16:30:51,674 - #24 *
INFO  16:30:51,674 - #28 pet
INFO  16:30:51,676 - #10 ;
INFO  16:30:51,676 - #28 bodovi
INFO  16:30:51,677 - #21 --
INFO  16:30:51,677 - #10 ;
INFO  16:30:51,677 - #4 print
INFO  16:30:51,677 - #13 (
INFO  16:30:51,677 - #28 bodovi
INFO  16:30:51,677 - #14 )
INFO  16:30:51,677 - #10 ;
INFO  16:30:51,677 - #28 niz
INFO  16:30:51,678 - #11 =
INFO  16:30:51,678 - #5 new
INFO  16:30:51,678 - #28 int
INFO  16:30:51,678 - #15 [
INFO  16:30:51,678 - #27 2
INFO  16:30:51,678 - #16 ]
INFO  16:30:51,678 - #10 ;
INFO  16:30:51,679 - #28 niz
INFO  16:30:51,679 - #15 [
INFO  16:30:51,680 - #28 nula
INFO  16:30:51,680 - #16 ]
INFO  16:30:51,680 - #11 =
INFO  16:30:51,681 - #28 pet
INFO  16:30:51,681 - #10 ;
INFO  16:30:51,681 - #28 niz
INFO  16:30:51,681 - #15 [
INFO  16:30:51,681 - #27 1
INFO  16:30:51,682 - #16 ]
INFO  16:30:51,682 - #11 =
INFO  16:30:51,682 - #28 Broj
INFO  16:30:51,682 - #19 .
INFO  16:30:51,682 - #28 DESET
INFO  16:30:51,682 - #10 ;
INFO  16:30:51,682 - #28 bodovi
INFO  16:30:51,682 - #11 =
INFO  16:30:51,683 - #28 niz
INFO  16:30:51,683 - #15 [
INFO  16:30:51,683 - #27 1
INFO  16:30:51,684 - #16 ]
INFO  16:30:51,684 - #25 /
INFO  16:30:51,684 - #28 niz
INFO  16:30:51,685 - #15 [
INFO  16:30:51,685 - #27 0
INFO  16:30:51,686 - #16 ]
INFO  16:30:51,686 - #10 ;
INFO  16:30:51,686 - #4 print
INFO  16:30:51,686 - #13 (
INFO  16:30:51,686 - #28 bodovi
INFO  16:30:51,691 - #14 )
INFO  16:30:51,691 - #10 ;
INFO  16:30:51,691 - #4 print
INFO  16:30:51,691 - #13 (
INFO  16:30:51,691 - #28 niz
INFO  16:30:51,691 - #15 [
INFO  16:30:51,691 - #28 Broj
INFO  16:30:51,691 - #19 .
INFO  16:30:51,691 - #28 JEDAN
INFO  16:30:51,691 - #16 ]
INFO  16:30:51,692 - #14 )
INFO  16:30:51,692 - #10 ;
INFO  16:30:51,692 - #28 nizch
INFO  16:30:51,692 - #11 =
INFO  16:30:51,692 - #5 new
INFO  16:30:51,692 - #28 char
INFO  16:30:51,692 - #15 [
INFO  16:30:51,692 - #27 3
INFO  16:30:51,692 - #16 ]
INFO  16:30:51,692 - #10 ;
INFO  16:30:51,692 - #28 nizch
INFO  16:30:51,692 - #15 [
INFO  16:30:51,692 - #27 0
INFO  16:30:51,693 - #16 ]
INFO  16:30:51,693 - #11 =
INFO  16:30:51,693 - #29 a
INFO  16:30:51,693 - #10 ;
INFO  16:30:51,693 - #28 nizch
INFO  16:30:51,693 - #15 [
INFO  16:30:51,693 - #28 jedan
INFO  16:30:51,693 - #16 ]
INFO  16:30:51,693 - #11 =
INFO  16:30:51,694 - #29 b
INFO  16:30:51,694 - #10 ;
INFO  16:30:51,694 - #28 nizch
INFO  16:30:51,694 - #15 [
INFO  16:30:51,694 - #28 pet
INFO  16:30:51,694 - #22 -
INFO  16:30:51,694 - #27 3
INFO  16:30:51,696 - #16 ]
INFO  16:30:51,696 - #11 =
INFO  16:30:51,696 - #29 c
INFO  16:30:51,696 - #10 ;
INFO  16:30:51,696 - #4 print
INFO  16:30:51,696 - #13 (
INFO  16:30:51,696 - #28 nizch
INFO  16:30:51,696 - #15 [
INFO  16:30:51,696 - #27 2
INFO  16:30:51,696 - #22 -
INFO  16:30:51,697 - #27 1
INFO  16:30:51,697 - #16 ]
INFO  16:30:51,697 - #14 )
INFO  16:30:51,697 - #10 ;
INFO  16:30:51,697 - #4 print
INFO  16:30:51,697 - #13 (
INFO  16:30:51,697 - #28 nizch
INFO  16:30:51,697 - #15 [
INFO  16:30:51,697 - #28 jedan
INFO  16:30:51,697 - #24 *
INFO  16:30:51,698 - #27 2
INFO  16:30:51,698 - #16 ]
INFO  16:30:51,698 - #14 )
INFO  16:30:51,698 - #10 ;
INFO  16:30:51,698 - #28 bodovi
INFO  16:30:51,698 - #11 =
INFO  16:30:51,698 - #28 bodovi
INFO  16:30:51,698 - #23 +
INFO  16:30:51,698 - #13 (
INFO  16:30:51,698 - #13 (
INFO  16:30:51,698 - #28 pet
INFO  16:30:51,698 - #24 *
INFO  16:30:51,698 - #28 jedan
INFO  16:30:51,698 - #22 -
INFO  16:30:51,698 - #27 1
INFO  16:30:51,698 - #14 )
INFO  16:30:51,698 - #24 *
INFO  16:30:51,699 - #27 2
INFO  16:30:51,699 - #22 -
INFO  16:30:51,699 - #13 (
INFO  16:30:51,699 - #27 3
INFO  16:30:51,699 - #26 %
INFO  16:30:51,699 - #27 2
INFO  16:30:51,701 - #23 +
INFO  16:30:51,701 - #27 3
INFO  16:30:51,701 - #24 *
INFO  16:30:51,701 - #27 2
INFO  16:30:51,702 - #22 -
INFO  16:30:51,702 - #27 3
INFO  16:30:51,702 - #14 )
INFO  16:30:51,702 - #22 -
INFO  16:30:51,702 - #28 Broj
INFO  16:30:51,702 - #19 .
INFO  16:30:51,702 - #28 JEDAN
INFO  16:30:51,702 - #24 *
INFO  16:30:51,702 - #27 0
INFO  16:30:51,702 - #14 )
INFO  16:30:51,702 - #10 ;
INFO  16:30:51,702 - #4 print
INFO  16:30:51,702 - #13 (
INFO  16:30:51,702 - #28 bodovi
INFO  16:30:51,702 - #14 )
INFO  16:30:51,703 - #10 ;
INFO  16:30:51,703 - #3 read
INFO  16:30:51,703 - #13 (
INFO  16:30:51,703 - #28 bodovi
INFO  16:30:51,703 - #14 )
INFO  16:30:51,703 - #10 ;
INFO  16:30:51,703 - #28 bodovi
INFO  16:30:51,703 - #11 =
INFO  16:30:51,703 - #28 bodovi
INFO  16:30:51,703 - #23 +
INFO  16:30:51,703 - #27 1
INFO  16:30:51,703 - #10 ;
INFO  16:30:51,703 - #4 print
INFO  16:30:51,703 - #13 (
INFO  16:30:51,703 - #28 bodovi
INFO  16:30:51,703 - #14 )
INFO  16:30:51,703 - #10 ;
INFO  16:30:51,703 - #18 }
INFO  16:30:51,703 - #18 }
INFO  16:30:51,731 - Program(
  ProgName(
   test301
  ) [ProgName]
  GlobalDeclListL(
    GlobalDeclListL(
      GlobalDeclListL(
        GlobalDeclListL(
          GlobalDeclListL(
            GlobalDeclListEps(
            ) [GlobalDeclListEps]
            GlobalDeclEnum(
              EnumDecl(
                EnumName(
                 Broj
                ) [EnumName]
                EnumDeclListL(
                  EnumDeclListL(
                    EnumDeclListL(
                      EnumDeclItem(
                        EnumDeclDefNoVal(
                         NULA
                        ) [EnumDeclDefNoVal]
                      ) [EnumDeclItem]
                      EnumDeclDefNoVal(
                       JEDAN
                      ) [EnumDeclDefNoVal]
                    ) [EnumDeclListL]
                    EnumDeclDefVal(
                     PET
                     5
                    ) [EnumDeclDefVal]
                  ) [EnumDeclListL]
                  EnumDeclDefVal(
                   DESET
                   10
                  ) [EnumDeclDefVal]
                ) [EnumDeclListL]
              ) [EnumDecl]
            ) [GlobalDeclEnum]
          ) [GlobalDeclListL]
          GlobalDeclConst(
            ConstDecl(
              Type(
               int
              ) [Type]
              ConstDeclItem(
                ConstDef(
                 jedan
                  ConstNum(
                   1
                  ) [ConstNum]
                ) [ConstDef]
              ) [ConstDeclItem]
            ) [ConstDecl]
          ) [GlobalDeclConst]
        ) [GlobalDeclListL]
        GlobalDeclConst(
          ConstDecl(
            Type(
             int
            ) [Type]
            ConstDeclItem(
              ConstDef(
               pet
                ConstNum(
                 5
                ) [ConstNum]
              ) [ConstDef]
            ) [ConstDeclItem]
          ) [ConstDecl]
        ) [GlobalDeclConst]
      ) [GlobalDeclListL]
      GlobalDeclVar(
        GlobalVarDecl(
          Type(
           int
          ) [Type]
          GlobalVarDeclItem(
            GlobalVarDeclDefOk(
              VarDeclDefineArray(
               niz
              ) [VarDeclDefineArray]
            ) [GlobalVarDeclDefOk]
          ) [GlobalVarDeclItem]
        ) [GlobalVarDecl]
      ) [GlobalDeclVar]
    ) [GlobalDeclListL]
    GlobalDeclVar(
      GlobalVarDecl(
        Type(
         char
        ) [Type]
        GlobalVarDeclItem(
          GlobalVarDeclDefOk(
            VarDeclDefineArray(
             nizch
            ) [VarDeclDefineArray]
          ) [GlobalVarDeclDefOk]
        ) [GlobalVarDeclItem]
      ) [GlobalVarDecl]
    ) [GlobalDeclVar]
  ) [GlobalDeclListL]
  MethodDecl(
    MethodSignature(
      VoidableType(
      ) [VoidableType]
     main
    ) [MethodSignature]
    VarMethodDeclList_NoEps(
      VarMethodDeclList_NoEps(
        VarMethodDeclList_Eps(
        ) [VarMethodDeclList_Eps]
        VarDecl(
          Type(
           int
          ) [Type]
          VarDeclItem(
            VarDeclDefineSingle(
             bodovi
            ) [VarDeclDefineSingle]
          ) [VarDeclItem]
        ) [VarDecl]
      ) [VarMethodDeclList_NoEps]
      VarDecl(
        Type(
         Broj
        ) [Type]
        VarDeclListL(
          VarDeclItem(
            VarDeclDefineSingle(
             nula
            ) [VarDeclDefineSingle]
          ) [VarDeclItem]
          VarDeclDefineSingle(
           jedan
          ) [VarDeclDefineSingle]
        ) [VarDeclListL]
      ) [VarDecl]
    ) [VarMethodDeclList_NoEps]
    StatementList_NoEps(
      StatementList_NoEps(
        StatementList_NoEps(
          StatementList_NoEps(
            StatementList_NoEps(
              StatementList_NoEps(
                StatementList_NoEps(
                  StatementList_NoEps(
                    StatementList_NoEps(
                      StatementList_NoEps(
                        StatementList_NoEps(
                          StatementList_NoEps(
                            StatementList_NoEps(
                              StatementList_NoEps(
                                StatementList_NoEps(
                                  StatementList_NoEps(
                                    StatementList_NoEps(
                                      StatementList_NoEps(
                                        StatementList_NoEps(
                                          StatementList_NoEps(
                                            StatementList_NoEps(
                                              StatementList_NoEps(
                                                StatementList_NoEps(
                                                  StatementList_NoEps(
                                                    StatementList_NoEps(
                                                      StatementList_Eps(
                                                      ) [StatementList_Eps]
                                                      StatementDes(
                                                        DesignStatAssignment(
                                                          DesIdent(
                                                           nula
                                                          ) [DesIdent]
                                                          AssignementExpr(
                                                            TermExpr(
                                                              TermFact(
                                                                FactorDesign(
                                                                  DesEnum(
                                                                   Broj
                                                                   NULA
                                                                  ) [DesEnum]
                                                                ) [FactorDesign]
                                                              ) [TermFact]
                                                            ) [TermExpr]
                                                          ) [AssignementExpr]
                                                        ) [DesignStatAssignment]
                                                      ) [StatementDes]
                                                    ) [StatementList_NoEps]
                                                    StatementDes(
                                                      DesignStatAssignment(
                                                        DesIdent(
                                                         jedan
                                                        ) [DesIdent]
                                                        AssignementExpr(
                                                          TermExpr(
                                                            TermFact(
                                                              FactorDesign(
                                                                DesEnum(
                                                                 Broj
                                                                 JEDAN
                                                                ) [DesEnum]
                                                              ) [FactorDesign]
                                                            ) [TermFact]
                                                          ) [TermExpr]
                                                        ) [AssignementExpr]
                                                      ) [DesignStatAssignment]
                                                    ) [StatementDes]
                                                  ) [StatementList_NoEps]
                                                  StatementDes(
                                                    DesignStatAssignment(
                                                      DesIdent(
                                                       bodovi
                                                      ) [DesIdent]
                                                      AssignementExpr(
                                                        TermExpr(
                                                          TermFact(
                                                            FactorConst(
                                                              ConstNum(
                                                               0
                                                              ) [ConstNum]
                                                            ) [FactorConst]
                                                          ) [TermFact]
                                                        ) [TermExpr]
                                                      ) [AssignementExpr]
                                                    ) [DesignStatAssignment]
                                                  ) [StatementDes]
                                                ) [StatementList_NoEps]
                                                StatementDes(
                                                  DesignStatInc(
                                                    DesIdent(
                                                     bodovi
                                                    ) [DesIdent]
                                                  ) [DesignStatInc]
                                                ) [StatementDes]
                                              ) [StatementList_NoEps]
                                              StatementDes(
                                                DesignStatAssignment(
                                                  DesIdent(
                                                   bodovi
                                                  ) [DesIdent]
                                                  AssignementExpr(
                                                    AddopExp(
                                                      TermExpr(
                                                        TermFact(
                                                          FactorDesign(
                                                            DesIdent(
                                                             bodovi
                                                            ) [DesIdent]
                                                          ) [FactorDesign]
                                                        ) [TermFact]
                                                      ) [TermExpr]
                                                      Addop_Plus(
                                                      ) [Addop_Plus]
                                                      TermFact(
                                                        FactorDesign(
                                                          DesIdent(
                                                           jedan
                                                          ) [DesIdent]
                                                        ) [FactorDesign]
                                                      ) [TermFact]
                                                    ) [AddopExp]
                                                  ) [AssignementExpr]
                                                ) [DesignStatAssignment]
                                              ) [StatementDes]
                                            ) [StatementList_NoEps]
                                            StatementDes(
                                              DesignStatAssignment(
                                                DesIdent(
                                                 bodovi
                                                ) [DesIdent]
                                                AssignementExpr(
                                                  TermExpr(
                                                    TermMulop(
                                                      TermFact(
                                                        FactorDesign(
                                                          DesIdent(
                                                           bodovi
                                                          ) [DesIdent]
                                                        ) [FactorDesign]
                                                      ) [TermFact]
                                                      Mulop_Mul(
                                                      ) [Mulop_Mul]
                                                      FactorDesign(
                                                        DesIdent(
                                                         pet
                                                        ) [DesIdent]
                                                      ) [FactorDesign]
                                                    ) [TermMulop]
                                                  ) [TermExpr]
                                                ) [AssignementExpr]
                                              ) [DesignStatAssignment]
                                            ) [StatementDes]
                                          ) [StatementList_NoEps]
                                          StatementDes(
                                            DesignStatDec(
                                              DesIdent(
                                               bodovi
                                              ) [DesIdent]
                                            ) [DesignStatDec]
                                          ) [StatementDes]
                                        ) [StatementList_NoEps]
                                        StatPrint(
                                          TermExpr(
                                            TermFact(
                                              FactorDesign(
                                                DesIdent(
                                                 bodovi
                                                ) [DesIdent]
                                              ) [FactorDesign]
                                            ) [TermFact]
                                          ) [TermExpr]
                                        ) [StatPrint]
                                      ) [StatementList_NoEps]
                                      StatementDes(
                                        DesignStatAssignment(
                                          DesIdent(
                                           niz
                                          ) [DesIdent]
                                          AssignementExpr(
                                            TermExpr(
                                              TermFact(
                                                FactorNewArr(
                                                  Type(
                                                   int
                                                  ) [Type]
                                                  TermExpr(
                                                    TermFact(
                                                      FactorConst(
                                                        ConstNum(
                                                         2
                                                        ) [ConstNum]
                                                      ) [FactorConst]
                                                    ) [TermFact]
                                                  ) [TermExpr]
                                                ) [FactorNewArr]
                                              ) [TermFact]
                                            ) [TermExpr]
                                          ) [AssignementExpr]
                                        ) [DesignStatAssignment]
                                      ) [StatementDes]
                                    ) [StatementList_NoEps]
                                    StatementDes(
                                      DesignStatAssignment(
                                        DesArr(
                                          ArrayName(
                                           niz
                                          ) [ArrayName]
                                          TermExpr(
                                            TermFact(
                                              FactorDesign(
                                                DesIdent(
                                                 nula
                                                ) [DesIdent]
                                              ) [FactorDesign]
                                            ) [TermFact]
                                          ) [TermExpr]
                                        ) [DesArr]
                                        AssignementExpr(
                                          TermExpr(
                                            TermFact(
                                              FactorDesign(
                                                DesIdent(
                                                 pet
                                                ) [DesIdent]
                                              ) [FactorDesign]
                                            ) [TermFact]
                                          ) [TermExpr]
                                        ) [AssignementExpr]
                                      ) [DesignStatAssignment]
                                    ) [StatementDes]
                                  ) [StatementList_NoEps]
                                  StatementDes(
                                    DesignStatAssignment(
                                      DesArr(
                                        ArrayName(
                                         niz
                                        ) [ArrayName]
                                        TermExpr(
                                          TermFact(
                                            FactorConst(
                                              ConstNum(
                                               1
                                              ) [ConstNum]
                                            ) [FactorConst]
                                          ) [TermFact]
                                        ) [TermExpr]
                                      ) [DesArr]
                                      AssignementExpr(
                                        TermExpr(
                                          TermFact(
                                            FactorDesign(
                                              DesEnum(
                                               Broj
                                               DESET
                                              ) [DesEnum]
                                            ) [FactorDesign]
                                          ) [TermFact]
                                        ) [TermExpr]
                                      ) [AssignementExpr]
                                    ) [DesignStatAssignment]
                                  ) [StatementDes]
                                ) [StatementList_NoEps]
                                StatementDes(
                                  DesignStatAssignment(
                                    DesIdent(
                                     bodovi
                                    ) [DesIdent]
                                    AssignementExpr(
                                      TermExpr(
                                        TermMulop(
                                          TermFact(
                                            FactorDesign(
                                              DesArr(
                                                ArrayName(
                                                 niz
                                                ) [ArrayName]
                                                TermExpr(
                                                  TermFact(
                                                    FactorConst(
                                                      ConstNum(
                                                       1
                                                      ) [ConstNum]
                                                    ) [FactorConst]
                                                  ) [TermFact]
                                                ) [TermExpr]
                                              ) [DesArr]
                                            ) [FactorDesign]
                                          ) [TermFact]
                                          Mulop_Div(
                                          ) [Mulop_Div]
                                          FactorDesign(
                                            DesArr(
                                              ArrayName(
                                               niz
                                              ) [ArrayName]
                                              TermExpr(
                                                TermFact(
                                                  FactorConst(
                                                    ConstNum(
                                                     0
                                                    ) [ConstNum]
                                                  ) [FactorConst]
                                                ) [TermFact]
                                              ) [TermExpr]
                                            ) [DesArr]
                                          ) [FactorDesign]
                                        ) [TermMulop]
                                      ) [TermExpr]
                                    ) [AssignementExpr]
                                  ) [DesignStatAssignment]
                                ) [StatementDes]
                              ) [StatementList_NoEps]
                              StatPrint(
                                TermExpr(
                                  TermFact(
                                    FactorDesign(
                                      DesIdent(
                                       bodovi
                                      ) [DesIdent]
                                    ) [FactorDesign]
                                  ) [TermFact]
                                ) [TermExpr]
                              ) [StatPrint]
                            ) [StatementList_NoEps]
                            StatPrint(
                              TermExpr(
                                TermFact(
                                  FactorDesign(
                                    DesArr(
                                      ArrayName(
                                       niz
                                      ) [ArrayName]
                                      TermExpr(
                                        TermFact(
                                          FactorDesign(
                                            DesEnum(
                                             Broj
                                             JEDAN
                                            ) [DesEnum]
                                          ) [FactorDesign]
                                        ) [TermFact]
                                      ) [TermExpr]
                                    ) [DesArr]
                                  ) [FactorDesign]
                                ) [TermFact]
                              ) [TermExpr]
                            ) [StatPrint]
                          ) [StatementList_NoEps]
                          StatementDes(
                            DesignStatAssignment(
                              DesIdent(
                               nizch
                              ) [DesIdent]
                              AssignementExpr(
                                TermExpr(
                                  TermFact(
                                    FactorNewArr(
                                      Type(
                                       char
                                      ) [Type]
                                      TermExpr(
                                        TermFact(
                                          FactorConst(
                                            ConstNum(
                                             3
                                            ) [ConstNum]
                                          ) [FactorConst]
                                        ) [TermFact]
                                      ) [TermExpr]
                                    ) [FactorNewArr]
                                  ) [TermFact]
                                ) [TermExpr]
                              ) [AssignementExpr]
                            ) [DesignStatAssignment]
                          ) [StatementDes]
                        ) [StatementList_NoEps]
                        StatementDes(
                          DesignStatAssignment(
                            DesArr(
                              ArrayName(
                               nizch
                              ) [ArrayName]
                              TermExpr(
                                TermFact(
                                  FactorConst(
                                    ConstNum(
                                     0
                                    ) [ConstNum]
                                  ) [FactorConst]
                                ) [TermFact]
                              ) [TermExpr]
                            ) [DesArr]
                            AssignementExpr(
                              TermExpr(
                                TermFact(
                                  FactorConst(
                                    ConstChar(
                                     a
                                    ) [ConstChar]
                                  ) [FactorConst]
                                ) [TermFact]
                              ) [TermExpr]
                            ) [AssignementExpr]
                          ) [DesignStatAssignment]
                        ) [StatementDes]
                      ) [StatementList_NoEps]
                      StatementDes(
                        DesignStatAssignment(
                          DesArr(
                            ArrayName(
                             nizch
                            ) [ArrayName]
                            TermExpr(
                              TermFact(
                                FactorDesign(
                                  DesIdent(
                                   jedan
                                  ) [DesIdent]
                                ) [FactorDesign]
                              ) [TermFact]
                            ) [TermExpr]
                          ) [DesArr]
                          AssignementExpr(
                            TermExpr(
                              TermFact(
                                FactorConst(
                                  ConstChar(
                                   b
                                  ) [ConstChar]
                                ) [FactorConst]
                              ) [TermFact]
                            ) [TermExpr]
                          ) [AssignementExpr]
                        ) [DesignStatAssignment]
                      ) [StatementDes]
                    ) [StatementList_NoEps]
                    StatementDes(
                      DesignStatAssignment(
                        DesArr(
                          ArrayName(
                           nizch
                          ) [ArrayName]
                          AddopExp(
                            TermExpr(
                              TermFact(
                                FactorDesign(
                                  DesIdent(
                                   pet
                                  ) [DesIdent]
                                ) [FactorDesign]
                              ) [TermFact]
                            ) [TermExpr]
                            Addop_Minus(
                            ) [Addop_Minus]
                            TermFact(
                              FactorConst(
                                ConstNum(
                                 3
                                ) [ConstNum]
                              ) [FactorConst]
                            ) [TermFact]
                          ) [AddopExp]
                        ) [DesArr]
                        AssignementExpr(
                          TermExpr(
                            TermFact(
                              FactorConst(
                                ConstChar(
                                 c
                                ) [ConstChar]
                              ) [FactorConst]
                            ) [TermFact]
                          ) [TermExpr]
                        ) [AssignementExpr]
                      ) [DesignStatAssignment]
                    ) [StatementDes]
                  ) [StatementList_NoEps]
                  StatPrint(
                    TermExpr(
                      TermFact(
                        FactorDesign(
                          DesArr(
                            ArrayName(
                             nizch
                            ) [ArrayName]
                            AddopExp(
                              TermExpr(
                                TermFact(
                                  FactorConst(
                                    ConstNum(
                                     2
                                    ) [ConstNum]
                                  ) [FactorConst]
                                ) [TermFact]
                              ) [TermExpr]
                              Addop_Minus(
                              ) [Addop_Minus]
                              TermFact(
                                FactorConst(
                                  ConstNum(
                                   1
                                  ) [ConstNum]
                                ) [FactorConst]
                              ) [TermFact]
                            ) [AddopExp]
                          ) [DesArr]
                        ) [FactorDesign]
                      ) [TermFact]
                    ) [TermExpr]
                  ) [StatPrint]
                ) [StatementList_NoEps]
                StatPrint(
                  TermExpr(
                    TermFact(
                      FactorDesign(
                        DesArr(
                          ArrayName(
                           nizch
                          ) [ArrayName]
                          TermExpr(
                            TermMulop(
                              TermFact(
                                FactorDesign(
                                  DesIdent(
                                   jedan
                                  ) [DesIdent]
                                ) [FactorDesign]
                              ) [TermFact]
                              Mulop_Mul(
                              ) [Mulop_Mul]
                              FactorConst(
                                ConstNum(
                                 2
                                ) [ConstNum]
                              ) [FactorConst]
                            ) [TermMulop]
                          ) [TermExpr]
                        ) [DesArr]
                      ) [FactorDesign]
                    ) [TermFact]
                  ) [TermExpr]
                ) [StatPrint]
              ) [StatementList_NoEps]
              StatementDes(
                DesignStatAssignment(
                  DesIdent(
                   bodovi
                  ) [DesIdent]
                  AssignementExpr(
                    AddopExp(
                      TermExpr(
                        TermFact(
                          FactorDesign(
                            DesIdent(
                             bodovi
                            ) [DesIdent]
                          ) [FactorDesign]
                        ) [TermFact]
                      ) [TermExpr]
                      Addop_Plus(
                      ) [Addop_Plus]
                      TermFact(
                        FactorExpr(
                          AddopExp(
                            AddopExp(
                              TermExpr(
                                TermMulop(
                                  TermFact(
                                    FactorExpr(
                                      AddopExp(
                                        TermExpr(
                                          TermMulop(
                                            TermFact(
                                              FactorDesign(
                                                DesIdent(
                                                 pet
                                                ) [DesIdent]
                                              ) [FactorDesign]
                                            ) [TermFact]
                                            Mulop_Mul(
                                            ) [Mulop_Mul]
                                            FactorDesign(
                                              DesIdent(
                                               jedan
                                              ) [DesIdent]
                                            ) [FactorDesign]
                                          ) [TermMulop]
                                        ) [TermExpr]
                                        Addop_Minus(
                                        ) [Addop_Minus]
                                        TermFact(
                                          FactorConst(
                                            ConstNum(
                                             1
                                            ) [ConstNum]
                                          ) [FactorConst]
                                        ) [TermFact]
                                      ) [AddopExp]
                                    ) [FactorExpr]
                                  ) [TermFact]
                                  Mulop_Mul(
                                  ) [Mulop_Mul]
                                  FactorConst(
                                    ConstNum(
                                     2
                                    ) [ConstNum]
                                  ) [FactorConst]
                                ) [TermMulop]
                              ) [TermExpr]
                              Addop_Minus(
                              ) [Addop_Minus]
                              TermFact(
                                FactorExpr(
                                  AddopExp(
                                    AddopExp(
                                      TermExpr(
                                        TermMulop(
                                          TermFact(
                                            FactorConst(
                                              ConstNum(
                                               3
                                              ) [ConstNum]
                                            ) [FactorConst]
                                          ) [TermFact]
                                          Mulop_Mod(
                                          ) [Mulop_Mod]
                                          FactorConst(
                                            ConstNum(
                                             2
                                            ) [ConstNum]
                                          ) [FactorConst]
                                        ) [TermMulop]
                                      ) [TermExpr]
                                      Addop_Plus(
                                      ) [Addop_Plus]
                                      TermMulop(
                                        TermFact(
                                          FactorConst(
                                            ConstNum(
                                             3
                                            ) [ConstNum]
                                          ) [FactorConst]
                                        ) [TermFact]
                                        Mulop_Mul(
                                        ) [Mulop_Mul]
                                        FactorConst(
                                          ConstNum(
                                           2
                                          ) [ConstNum]
                                        ) [FactorConst]
                                      ) [TermMulop]
                                    ) [AddopExp]
                                    Addop_Minus(
                                    ) [Addop_Minus]
                                    TermFact(
                                      FactorConst(
                                        ConstNum(
                                         3
                                        ) [ConstNum]
                                      ) [FactorConst]
                                    ) [TermFact]
                                  ) [AddopExp]
                                ) [FactorExpr]
                              ) [TermFact]
                            ) [AddopExp]
                            Addop_Minus(
                            ) [Addop_Minus]
                            TermMulop(
                              TermFact(
                                FactorDesign(
                                  DesEnum(
                                   Broj
                                   JEDAN
                                  ) [DesEnum]
                                ) [FactorDesign]
                              ) [TermFact]
                              Mulop_Mul(
                              ) [Mulop_Mul]
                              FactorConst(
                                ConstNum(
                                 0
                                ) [ConstNum]
                              ) [FactorConst]
                            ) [TermMulop]
                          ) [AddopExp]
                        ) [FactorExpr]
                      ) [TermFact]
                    ) [AddopExp]
                  ) [AssignementExpr]
                ) [DesignStatAssignment]
              ) [StatementDes]
            ) [StatementList_NoEps]
            StatPrint(
              TermExpr(
                TermFact(
                  FactorDesign(
                    DesIdent(
                     bodovi
                    ) [DesIdent]
                  ) [FactorDesign]
                ) [TermFact]
              ) [TermExpr]
            ) [StatPrint]
          ) [StatementList_NoEps]
          StatRead(
            DesIdent(
             bodovi
            ) [DesIdent]
          ) [StatRead]
        ) [StatementList_NoEps]
        StatementDes(
          DesignStatAssignment(
            DesIdent(
             bodovi
            ) [DesIdent]
            AssignementExpr(
              AddopExp(
                TermExpr(
                  TermFact(
                    FactorDesign(
                      DesIdent(
                       bodovi
                      ) [DesIdent]
                    ) [FactorDesign]
                  ) [TermFact]
                ) [TermExpr]
                Addop_Plus(
                ) [Addop_Plus]
                TermFact(
                  FactorConst(
                    ConstNum(
                     1
                    ) [ConstNum]
                  ) [FactorConst]
                ) [TermFact]
              ) [AddopExp]
            ) [AssignementExpr]
          ) [DesignStatAssignment]
        ) [StatementDes]
      ) [StatementList_NoEps]
      StatPrint(
        TermExpr(
          TermFact(
            FactorDesign(
              DesIdent(
               bodovi
              ) [DesIdent]
            ) [FactorDesign]
          ) [TermFact]
        ) [TermExpr]
      ) [StatPrint]
    ) [StatementList_NoEps]
  ) [MethodDecl]
) [Program]
INFO  16:30:51,738 - ===============SEMANTICKA OBRADA====================
INFO  16:30:51,747 - Deklarisan novi enum tip Broj na liniji 5
INFO  16:30:51,748 - Deklarisana konstanta Broj.NULA unutar enuma Broj na liniji 5
INFO  16:30:51,748 - Deklarisana konstanta Broj.JEDAN unutar enuma Broj na liniji 5
INFO  16:30:51,749 - Deklarisana konstanta Broj.PET unutar enuma Broj na liniji 5
INFO  16:30:51,749 - Deklarisana konstanta Broj.DESET unutar enuma Broj na liniji 5
INFO  16:30:51,750 - Deklarisana konstanta 'jedan' na liniji 7
INFO  16:30:51,751 - Deklarisana konstanta 'pet' na liniji 8
INFO  16:30:51,751 - Deklarisana promenljiva niza 'niz' tipa 1 na liniji 10
INFO  16:30:51,751 - Deklarisana promenljiva niza 'nizch' tipa 2 na liniji 11
INFO  16:30:51,752 - Obradjuje se funkcija main na liniji 14
INFO  16:30:51,752 - Deklarisana promenljiva 'bodovi' tipa int na liniji 15
INFO  16:30:51,752 - Deklarisana promenljiva 'nula' tipa Broj na liniji 16
INFO  16:30:51,752 - Deklarisana promenljiva 'jedan' tipa Broj na liniji 16
INFO  16:30:51,753 - Izvresna dodela vrednosti na liniji 18
INFO  16:30:51,753 - Izvresna dodela vrednosti na liniji 19
INFO  16:30:51,754 - Izvresna dodela vrednosti na liniji 21
INFO  16:30:51,754 - Inkrementirana vrednost
INFO  16:30:51,754 - Izvresna dodela vrednosti na liniji 23
INFO  16:30:51,754 - Izvresna dodela vrednosti na liniji 24
INFO  16:30:51,754 - Dekrementirana vrednost
INFO  16:30:51,754 - Print funkcija na liniji 26
INFO  16:30:51,755 - Izvresna dodela vrednosti na liniji 29
INFO  16:30:51,755 - Izvresna dodela vrednosti na liniji 30
INFO  16:30:51,755 - Izvresna dodela vrednosti na liniji 31
INFO  16:30:51,755 - Izvresna dodela vrednosti na liniji 32
INFO  16:30:51,755 - Print funkcija na liniji 33
INFO  16:30:51,755 - Print funkcija na liniji 34
INFO  16:30:51,755 - Izvresna dodela vrednosti na liniji 37
INFO  16:30:51,756 - Izvresna dodela vrednosti na liniji 38
INFO  16:30:51,756 - Izvresna dodela vrednosti na liniji 39
INFO  16:30:51,756 - Izvresna dodela vrednosti na liniji 40
INFO  16:30:51,756 - Print funkcija na liniji 41
INFO  16:30:51,756 - Print funkcija na liniji 42
INFO  16:30:51,756 - Izvresna dodela vrednosti na liniji 45
INFO  16:30:51,756 - Print funkcija na liniji 46
INFO  16:30:51,756 - Read funkcija na liniji 49
INFO  16:30:51,757 - Izvresna dodela vrednosti na liniji 50
INFO  16:30:51,757 - Print funkcija na liniji 51
INFO  16:30:51,757 -  Print poziva ima = 7
INFO  16:30:51,757 -  Deklarisanih promenljivih ima = 5
INFO  16:30:51,772 - bodovi
INFO  16:30:51,773 - Parsiranje uspesno zavrseno!
