INFO  16:56:40,723 - Compiling source file: C:\Users\ikadr\Desktop\PP\Projekat\Rad\workspace\MJCompiler\test\program.mj
INFO  16:56:40,724 - ===============SINTAKSNA OBRADA====================
INFO  16:56:40,870 - #2 program
INFO  16:56:40,871 - #28 test301
INFO  16:56:40,872 - #9 enum
INFO  16:56:40,875 - #28 Broj
INFO  16:56:40,875 - #17 {
INFO  16:56:40,877 - #28 NULA
INFO  16:56:40,877 - #12 ,
INFO  16:56:40,877 - #28 JEDAN
INFO  16:56:40,878 - #12 ,
INFO  16:56:40,878 - #28 PET
INFO  16:56:40,878 - #11 =
INFO  16:56:40,879 - #27 5
INFO  16:56:40,879 - #12 ,
INFO  16:56:40,879 - #28 DESET
INFO  16:56:40,879 - #11 =
INFO  16:56:40,879 - #27 10
INFO  16:56:40,879 - #18 }
INFO  16:56:40,880 - #17 {
INFO  16:56:40,883 - #6 void
INFO  16:56:40,883 - #28 main
INFO  16:56:40,885 - #13 (
INFO  16:56:40,885 - #14 )
INFO  16:56:40,885 - #28 int
INFO  16:56:40,888 - #28 niz
INFO  16:56:40,889 - #15 [
INFO  16:56:40,890 - #16 ]
INFO  16:56:40,890 - #10 ;
INFO  16:56:40,890 - #28 Broj
INFO  16:56:40,892 - #28 jedan
INFO  16:56:40,892 - #10 ;
INFO  16:56:40,892 - #17 {
INFO  16:56:40,892 - #28 jedan
INFO  16:56:40,894 - #11 =
INFO  16:56:40,894 - #28 Broj
INFO  16:56:40,894 - #19 .
INFO  16:56:40,894 - #28 JEDAN
INFO  16:56:40,894 - #10 ;
INFO  16:56:40,895 - #28 niz
INFO  16:56:40,895 - #11 =
INFO  16:56:40,895 - #5 new
INFO  16:56:40,895 - #28 int
INFO  16:56:40,896 - #15 [
INFO  16:56:40,896 - #27 2
INFO  16:56:40,896 - #16 ]
INFO  16:56:40,897 - #10 ;
INFO  16:56:40,897 - #28 niz
INFO  16:56:40,897 - #15 [
INFO  16:56:40,899 - #28 Broj
INFO  16:56:40,899 - #19 .
INFO  16:56:40,899 - #28 JEDAN
INFO  16:56:40,899 - #16 ]
INFO  16:56:40,900 - #11 =
INFO  16:56:40,900 - #27 5
INFO  16:56:40,902 - #10 ;
INFO  16:56:40,903 - #4 print
INFO  16:56:40,903 - #13 (
INFO  16:56:40,903 - #28 niz
INFO  16:56:40,903 - #15 [
INFO  16:56:40,903 - #27 1
INFO  16:56:40,904 - #16 ]
INFO  16:56:40,904 - #14 )
INFO  16:56:40,904 - #10 ;
INFO  16:56:40,904 - #18 }
INFO  16:56:40,905 - #18 }
INFO  16:56:40,936 - Program(
  ProgName(
   test301
  ) [ProgName]
  GlobalDeclListL(
    GlobalDeclListEps(
    ) [GlobalDeclListEps]
    GlobalDeclEnum(
      EnumDecl(
        EnumName(
         Broj
        ) [EnumName]
        EnumDeclListL(
          EnumDeclListL(
            EnumDeclListL(
              EnumDeclItem(
                EnumDeclDefNoVal(
                 NULA
                ) [EnumDeclDefNoVal]
              ) [EnumDeclItem]
              EnumDeclDefNoVal(
               JEDAN
              ) [EnumDeclDefNoVal]
            ) [EnumDeclListL]
            EnumDeclDefVal(
             PET
             5
            ) [EnumDeclDefVal]
          ) [EnumDeclListL]
          EnumDeclDefVal(
           DESET
           10
          ) [EnumDeclDefVal]
        ) [EnumDeclListL]
      ) [EnumDecl]
    ) [GlobalDeclEnum]
  ) [GlobalDeclListL]
  MethodDecl(
    MethodSignature(
      VoidableType(
      ) [VoidableType]
     main
    ) [MethodSignature]
    VarMethodDeclList_NoEps(
      VarMethodDeclList_NoEps(
        VarMethodDeclList_Eps(
        ) [VarMethodDeclList_Eps]
        VarDecl(
          Type(
           int
          ) [Type]
          VarDeclItem(
            VarDeclDefineArray(
             niz
            ) [VarDeclDefineArray]
          ) [VarDeclItem]
        ) [VarDecl]
      ) [VarMethodDeclList_NoEps]
      VarDecl(
        Type(
         Broj
        ) [Type]
        VarDeclItem(
          VarDeclDefineSingle(
           jedan
          ) [VarDeclDefineSingle]
        ) [VarDeclItem]
      ) [VarDecl]
    ) [VarMethodDeclList_NoEps]
    StatementList_NoEps(
      StatementList_NoEps(
        StatementList_NoEps(
          StatementList_NoEps(
            StatementList_Eps(
            ) [StatementList_Eps]
            StatementDes(
              DesignStatAssignment(
                DesIdent(
                 jedan
                ) [DesIdent]
                AssignementExpr(
                  TermExpr(
                    TermFact(
                      FactorDesign(
                        DesEnum(
                         Broj
                         JEDAN
                        ) [DesEnum]
                      ) [FactorDesign]
                    ) [TermFact]
                  ) [TermExpr]
                ) [AssignementExpr]
              ) [DesignStatAssignment]
            ) [StatementDes]
          ) [StatementList_NoEps]
          StatementDes(
            DesignStatAssignment(
              DesIdent(
               niz
              ) [DesIdent]
              AssignementExpr(
                TermExpr(
                  TermFact(
                    FactorNewArr(
                      Type(
                       int
                      ) [Type]
                      TermExpr(
                        TermFact(
                          FactorConst(
                            ConstNum(
                             2
                            ) [ConstNum]
                          ) [FactorConst]
                        ) [TermFact]
                      ) [TermExpr]
                    ) [FactorNewArr]
                  ) [TermFact]
                ) [TermExpr]
              ) [AssignementExpr]
            ) [DesignStatAssignment]
          ) [StatementDes]
        ) [StatementList_NoEps]
        StatementDes(
          DesignStatAssignment(
            DesArr(
              ArrayName(
               niz
              ) [ArrayName]
              TermExpr(
                TermFact(
                  FactorDesign(
                    DesEnum(
                     Broj
                     JEDAN
                    ) [DesEnum]
                  ) [FactorDesign]
                ) [TermFact]
              ) [TermExpr]
            ) [DesArr]
            AssignementExpr(
              TermExpr(
                TermFact(
                  FactorConst(
                    ConstNum(
                     5
                    ) [ConstNum]
                  ) [FactorConst]
                ) [TermFact]
              ) [TermExpr]
            ) [AssignementExpr]
          ) [DesignStatAssignment]
        ) [StatementDes]
      ) [StatementList_NoEps]
      StatPrint(
        TermExpr(
          TermFact(
            FactorDesign(
              DesArr(
                ArrayName(
                 niz
                ) [ArrayName]
                TermExpr(
                  TermFact(
                    FactorConst(
                      ConstNum(
                       1
                      ) [ConstNum]
                    ) [FactorConst]
                  ) [TermFact]
                ) [TermExpr]
              ) [DesArr]
            ) [FactorDesign]
          ) [TermFact]
        ) [TermExpr]
      ) [StatPrint]
    ) [StatementList_NoEps]
  ) [MethodDecl]
) [Program]
INFO  16:56:40,940 - ===============SEMANTICKA OBRADA====================
INFO  16:56:40,946 - Deklarisan novi enum tip Broj na liniji 5
INFO  16:56:40,952 - Deklarisana konstanta Broj.NULA unutar enuma Broj na liniji 5
INFO  16:56:40,952 - Deklarisana konstanta Broj.JEDAN unutar enuma Broj na liniji 5
INFO  16:56:40,952 - Deklarisana konstanta Broj.PET unutar enuma Broj na liniji 5
INFO  16:56:40,952 - Deklarisana konstanta Broj.DESET unutar enuma Broj na liniji 5
INFO  16:56:40,953 - Obradjuje se funkcija main na liniji 10
INFO  16:56:40,953 - Deklarisana promenljiva niza 'niz' tipa 1 na liniji 11
INFO  16:56:40,953 - Deklarisana promenljiva 'jedan' tipa Broj na liniji 12
INFO  16:56:40,954 - Izvresna dodela vrednosti na liniji 15
INFO  16:56:40,954 - Izvresna dodela vrednosti na liniji 18
INFO  16:56:40,954 - Izvresna dodela vrednosti na liniji 19
INFO  16:56:40,954 - Print funkcija na liniji 20
INFO  16:56:40,954 -  Print poziva ima = 1
INFO  16:56:40,954 -  Deklarisanih promenljivih ima = 1
INFO  16:56:40,967 - rs.etf.pp1.symboltable.concepts.Obj@c4437c4
INFO  16:56:40,968 - Parsiranje uspesno zavrseno!
