INFO  17:08:31,790 - Compiling source file: C:\Users\ikadr\Desktop\PP\Projekat\Rad\workspace\MJCompiler\test\program.mj
INFO  17:08:31,867 - #2 program
INFO  17:08:31,867 - #28 test301
INFO  17:08:31,867 - #9 enum
INFO  17:08:31,869 - #28 Broj
INFO  17:08:31,869 - #17 {
INFO  17:08:31,869 - #28 NULA
INFO  17:08:31,870 - #12 ,
INFO  17:08:31,870 - #28 JEDAN
INFO  17:08:31,870 - #12 ,
INFO  17:08:31,870 - #28 PET
INFO  17:08:31,870 - #11 =
INFO  17:08:31,871 - #27 5
INFO  17:08:31,871 - #12 ,
INFO  17:08:31,871 - #28 DESET
INFO  17:08:31,871 - #11 =
INFO  17:08:31,871 - #27 10
INFO  17:08:31,871 - #18 }
INFO  17:08:31,871 - #17 {
INFO  17:08:31,873 - #6 void
INFO  17:08:31,873 - #28 main
INFO  17:08:31,874 - #13 (
INFO  17:08:31,874 - #14 )
INFO  17:08:31,874 - #28 int
INFO  17:08:31,876 - #28 x
INFO  17:08:31,879 - #12 ,
INFO  17:08:31,879 - #28 y
INFO  17:08:31,879 - #12 ,
INFO  17:08:31,879 - #28 z
INFO  17:08:31,879 - #10 ;
INFO  17:08:31,879 - #28 Broj
INFO  17:08:31,881 - #28 pet
INFO  17:08:31,881 - #10 ;
INFO  17:08:31,881 - #17 {
INFO  17:08:31,881 - #4 print
INFO  17:08:31,882 - #13 (
INFO  17:08:31,882 - #29 a
INFO  17:08:31,882 - #14 )
INFO  17:08:31,883 - #10 ;
INFO  17:08:31,883 - #18 }
INFO  17:08:31,883 - #18 }
INFO  17:08:31,897 - Program(
  ProgName(
   test301
  ) [ProgName]
  GlobalDeclListL(
    GlobalDeclListEps(
    ) [GlobalDeclListEps]
    GlobalDeclEnum(
      EnumDecl(
       Broj
        EnumDeclListL(
          EnumDeclListL(
            EnumDeclListL(
              EnumDeclItem(
                EnumDeclDefNoVal(
                 NULA
                ) [EnumDeclDefNoVal]
              ) [EnumDeclItem]
              EnumDeclDefNoVal(
               JEDAN
              ) [EnumDeclDefNoVal]
            ) [EnumDeclListL]
            EnumDeclDefVal(
             PET
             5
            ) [EnumDeclDefVal]
          ) [EnumDeclListL]
          EnumDeclDefVal(
           DESET
           10
          ) [EnumDeclDefVal]
        ) [EnumDeclListL]
      ) [EnumDecl]
    ) [GlobalDeclEnum]
  ) [GlobalDeclListL]
  MethodDecl(
    MethodSignature(
      VoidableType(
      ) [VoidableType]
     main
    ) [MethodSignature]
    VarMethodDeclList_NoEps(
      VarMethodDeclList_NoEps(
        VarMethodDeclList_Eps(
        ) [VarMethodDeclList_Eps]
        VarDecl(
          Type(
           int
          ) [Type]
          VarDeclListL(
            VarDeclListL(
              VarDeclItem(
                VarDeclDefineSingle(
                 x
                ) [VarDeclDefineSingle]
              ) [VarDeclItem]
              VarDeclDefineSingle(
               y
              ) [VarDeclDefineSingle]
            ) [VarDeclListL]
            VarDeclDefineSingle(
             z
            ) [VarDeclDefineSingle]
          ) [VarDeclListL]
        ) [VarDecl]
      ) [VarMethodDeclList_NoEps]
      VarDecl(
        Type(
         Broj
        ) [Type]
        VarDeclItem(
          VarDeclDefineSingle(
           pet
          ) [VarDeclDefineSingle]
        ) [VarDeclItem]
      ) [VarDecl]
    ) [VarMethodDeclList_NoEps]
    StatementList_NoEps(
      StatementList_Eps(
      ) [StatementList_Eps]
      StatPrint(
        TermExpr(
          TermFact(
            FactorConst(
              ConstChar(
               a
              ) [ConstChar]
            ) [FactorConst]
          ) [TermFact]
        ) [TermExpr]
      ) [StatPrint]
    ) [StatementList_NoEps]
  ) [MethodDecl]
) [Program]
INFO  17:08:31,897 - ===================================
INFO  17:08:31,902 - Deklarisan novi enum tip Broj na liniji 5
INFO  17:08:31,903 - Obradjuje se funkcija main na liniji 8
INFO  17:08:31,903 - Deklarisana promenljiva x tipa 1 na liniji 9
INFO  17:08:31,903 - Deklarisana promenljiva y tipa 1 na liniji 9
INFO  17:08:31,903 - Deklarisana promenljiva z tipa 1 na liniji 9
INFO  17:08:31,903 - Deklarisana promenljiva pet tipa 6 na liniji 10
INFO  17:08:31,903 -  Print count calls = 1
INFO  17:08:31,903 -  Deklarisanih promenljivih ima = 4
INFO  17:08:31,914 - GENERATOR:
INFO  17:08:31,914 - Parsiranje uspesno zavrseno!
