INFO  19:31:30,819 - Compiling source file: C:\Users\ikadr\Desktop\PP\Projekat\Rad\workspace\MJCompiler\test\program.mj
INFO  19:31:30,881 - #2 program
INFO  19:31:30,881 - #28 test301
INFO  19:31:30,881 - #17 {
INFO  19:31:30,883 - #6 void
INFO  19:31:30,883 - #28 main
INFO  19:31:30,885 - #13 (
INFO  19:31:30,885 - #14 )
INFO  19:31:30,885 - #17 {
INFO  19:31:30,887 - #18 }
INFO  19:31:30,888 - #18 }
INFO  19:31:30,902 - Program(
  ProgName(
   test301
  ) [ProgName]
  GlobalDeclListEps(
  ) [GlobalDeclListEps]
  MethodDecl(
    MethodSignature(
      VoidableType(
      ) [VoidableType]
     main
    ) [MethodSignature]
    VarMethodDeclList_Eps(
    ) [VarMethodDeclList_Eps]
    StatementList_Eps(
    ) [StatementList_Eps]
  ) [MethodDecl]
) [Program]
INFO  19:31:30,902 - ===================================
INFO  19:31:30,907 - Obradjuje se funkcija main na liniji 8
INFO  19:31:30,907 -  Print count calls = 0
INFO  19:31:30,907 -  Deklarisanih promenljivih ima = 0
INFO  19:31:30,908 - Parsiranje uspesno zavrseno!
