INFO  20:03:48,001 - Compiling source file: C:\Users\ikadr\Desktop\PP\Projekat\Rad\workspace\MJCompiler\test\program.mj
INFO  20:03:48,070 - #2 program
INFO  20:03:48,070 - #28 test301
INFO  20:03:48,070 - #9 enum
INFO  20:03:48,070 - #28 Broj
INFO  20:03:48,070 - #17 {
INFO  20:03:48,070 - #28 NULA
INFO  20:03:48,070 - #12 ,
INFO  20:03:48,070 - #28 JEDAN
INFO  20:03:48,070 - #12 ,
INFO  20:03:48,070 - #28 PET
INFO  20:03:48,070 - #11 =
INFO  20:03:48,070 - #27 5
INFO  20:03:48,070 - #12 ,
INFO  20:03:48,070 - #28 DESET
INFO  20:03:48,070 - #11 =
INFO  20:03:48,070 - #27 10
INFO  20:03:48,070 - #18 }
INFO  20:03:48,070 - #8 const
INFO  20:03:48,070 - #28 int
INFO  20:03:48,070 - #28 jedan
INFO  20:03:48,070 - #11 =
INFO  20:03:48,070 - #27 1
INFO  20:03:48,070 - #10 ;
INFO  20:03:48,070 - #8 const
INFO  20:03:48,070 - #28 int
INFO  20:03:48,070 - #28 pet
INFO  20:03:48,070 - #11 =
INFO  20:03:48,070 - #27 5
INFO  20:03:48,070 - #10 ;
INFO  20:03:48,070 - #28 int
INFO  20:03:48,070 - #28 niz
INFO  20:03:48,070 - #15 [
INFO  20:03:48,070 - #16 ]
INFO  20:03:48,070 - #10 ;
INFO  20:03:48,070 - #28 char
INFO  20:03:48,086 - #28 nizch
INFO  20:03:48,086 - #15 [
INFO  20:03:48,086 - #16 ]
INFO  20:03:48,086 - #10 ;
INFO  20:03:48,086 - #17 {
INFO  20:03:48,086 - #6 void
INFO  20:03:48,086 - #28 main
INFO  20:03:48,086 - #13 (
INFO  20:03:48,086 - #14 )
INFO  20:03:48,086 - #28 int
INFO  20:03:48,086 - #28 bodovi
INFO  20:03:48,086 - #10 ;
INFO  20:03:48,086 - #28 Broj
INFO  20:03:48,086 - #28 nula
INFO  20:03:48,086 - #12 ,
INFO  20:03:48,086 - #28 jedan
INFO  20:03:48,086 - #10 ;
INFO  20:03:48,086 - #17 {
INFO  20:03:48,086 - #28 nula
INFO  20:03:48,086 - #11 =
INFO  20:03:48,086 - #28 Broj
INFO  20:03:48,086 - #19 .
INFO  20:03:48,086 - #28 NULA
INFO  20:03:48,086 - #10 ;
INFO  20:03:48,086 - #28 jedan
INFO  20:03:48,086 - #11 =
INFO  20:03:48,086 - #28 Broj
INFO  20:03:48,086 - #19 .
INFO  20:03:48,086 - #28 JEDAN
INFO  20:03:48,086 - #10 ;
INFO  20:03:48,086 - #28 nula
INFO  20:03:48,086 - #11 =
INFO  20:03:48,086 - #23 +
ERROR 20:03:48,086 - 
Sintaksna greska na liniji 19
INFO  20:03:48,086 - #10 ;
INFO  20:03:48,086 - #28 bodovi
INFO  20:03:48,086 - #11 =
INFO  20:03:48,086 - #27 0
INFO  20:03:48,086 - Oporavak od greske u konstrukciji iskaza dodele na liniji 19
INFO  20:03:48,086 - #10 ;
INFO  20:03:48,086 - #28 bodovi
INFO  20:03:48,086 - #20 ++
INFO  20:03:48,086 - #10 ;
INFO  20:03:48,086 - #28 bodovi
INFO  20:03:48,086 - #11 =
INFO  20:03:48,086 - #28 bodovi
INFO  20:03:48,086 - #23 +
INFO  20:03:48,101 - #28 jedan
INFO  20:03:48,101 - #10 ;
INFO  20:03:48,101 - #28 bodovi
INFO  20:03:48,101 - #11 =
INFO  20:03:48,101 - #28 bodovi
INFO  20:03:48,101 - #24 *
INFO  20:03:48,101 - #28 pet
INFO  20:03:48,101 - #10 ;
INFO  20:03:48,101 - #28 bodovi
INFO  20:03:48,101 - #21 --
INFO  20:03:48,101 - #10 ;
INFO  20:03:48,101 - #4 print
INFO  20:03:48,101 - #13 (
INFO  20:03:48,101 - #28 bodovi
INFO  20:03:48,101 - #14 )
INFO  20:03:48,101 - #10 ;
INFO  20:03:48,101 - #28 niz
INFO  20:03:48,101 - #11 =
INFO  20:03:48,101 - #5 new
INFO  20:03:48,101 - #28 int
INFO  20:03:48,101 - #15 [
INFO  20:03:48,101 - #27 2
INFO  20:03:48,101 - #16 ]
INFO  20:03:48,101 - #10 ;
INFO  20:03:48,101 - #28 niz
INFO  20:03:48,101 - #15 [
INFO  20:03:48,101 - #28 nula
INFO  20:03:48,101 - #16 ]
INFO  20:03:48,101 - #11 =
INFO  20:03:48,101 - #28 pet
INFO  20:03:48,101 - #10 ;
INFO  20:03:48,101 - #28 niz
INFO  20:03:48,101 - #15 [
INFO  20:03:48,101 - #27 1
INFO  20:03:48,101 - #16 ]
INFO  20:03:48,101 - #11 =
INFO  20:03:48,101 - #28 Broj
INFO  20:03:48,101 - #19 .
INFO  20:03:48,101 - #28 DESET
INFO  20:03:48,101 - #10 ;
INFO  20:03:48,101 - #28 bodovi
INFO  20:03:48,101 - #11 =
INFO  20:03:48,101 - #28 niz
INFO  20:03:48,101 - #15 [
INFO  20:03:48,101 - #27 1
INFO  20:03:48,101 - #16 ]
INFO  20:03:48,101 - #25 /
INFO  20:03:48,101 - #28 niz
INFO  20:03:48,101 - #15 [
INFO  20:03:48,101 - #27 0
INFO  20:03:48,101 - #16 ]
INFO  20:03:48,101 - #10 ;
INFO  20:03:48,101 - #4 print
INFO  20:03:48,101 - #13 (
INFO  20:03:48,101 - #28 bodovi
INFO  20:03:48,101 - #14 )
INFO  20:03:48,101 - #10 ;
INFO  20:03:48,101 - #4 print
INFO  20:03:48,101 - #13 (
INFO  20:03:48,101 - #28 niz
INFO  20:03:48,101 - #15 [
INFO  20:03:48,101 - #28 Broj
INFO  20:03:48,101 - #19 .
INFO  20:03:48,101 - #28 JEDAN
INFO  20:03:48,101 - #16 ]
INFO  20:03:48,101 - #14 )
INFO  20:03:48,101 - #10 ;
INFO  20:03:48,101 - #28 nizch
INFO  20:03:48,101 - #11 =
INFO  20:03:48,101 - #5 new
INFO  20:03:48,101 - #28 char
INFO  20:03:48,101 - #15 [
INFO  20:03:48,101 - #27 3
INFO  20:03:48,101 - #16 ]
INFO  20:03:48,101 - #10 ;
INFO  20:03:48,101 - #28 nizch
INFO  20:03:48,101 - #15 [
INFO  20:03:48,101 - #27 0
INFO  20:03:48,101 - #16 ]
INFO  20:03:48,101 - #11 =
INFO  20:03:48,101 - #29 a
INFO  20:03:48,101 - #10 ;
INFO  20:03:48,101 - #28 nizch
INFO  20:03:48,101 - #15 [
INFO  20:03:48,117 - #28 jedan
INFO  20:03:48,117 - #16 ]
INFO  20:03:48,117 - #11 =
INFO  20:03:48,117 - #29 b
INFO  20:03:48,117 - #10 ;
INFO  20:03:48,117 - #28 nizch
INFO  20:03:48,117 - #15 [
INFO  20:03:48,117 - #28 pet
INFO  20:03:48,117 - #22 -
INFO  20:03:48,117 - #27 3
INFO  20:03:48,117 - #16 ]
INFO  20:03:48,117 - #11 =
INFO  20:03:48,117 - #29 c
INFO  20:03:48,117 - #10 ;
INFO  20:03:48,117 - #4 print
INFO  20:03:48,117 - #13 (
INFO  20:03:48,117 - #28 nizch
INFO  20:03:48,117 - #15 [
INFO  20:03:48,117 - #27 2
INFO  20:03:48,117 - #22 -
INFO  20:03:48,117 - #27 1
INFO  20:03:48,117 - #16 ]
INFO  20:03:48,117 - #14 )
INFO  20:03:48,117 - #10 ;
INFO  20:03:48,117 - #4 print
INFO  20:03:48,117 - #13 (
INFO  20:03:48,117 - #28 nizch
INFO  20:03:48,117 - #15 [
INFO  20:03:48,117 - #28 jedan
INFO  20:03:48,117 - #24 *
INFO  20:03:48,117 - #27 2
INFO  20:03:48,117 - #16 ]
INFO  20:03:48,117 - #14 )
INFO  20:03:48,117 - #10 ;
INFO  20:03:48,117 - #28 bodovi
INFO  20:03:48,117 - #11 =
INFO  20:03:48,117 - #28 bodovi
INFO  20:03:48,117 - #23 +
INFO  20:03:48,117 - #13 (
INFO  20:03:48,117 - #13 (
INFO  20:03:48,117 - #28 pet
INFO  20:03:48,117 - #24 *
INFO  20:03:48,117 - #28 jedan
INFO  20:03:48,117 - #22 -
INFO  20:03:48,117 - #27 1
INFO  20:03:48,117 - #14 )
INFO  20:03:48,117 - #24 *
INFO  20:03:48,117 - #27 2
INFO  20:03:48,117 - #22 -
INFO  20:03:48,117 - #13 (
INFO  20:03:48,117 - #27 3
INFO  20:03:48,117 - #26 %
INFO  20:03:48,117 - #27 2
INFO  20:03:48,117 - #23 +
INFO  20:03:48,117 - #27 3
INFO  20:03:48,117 - #24 *
INFO  20:03:48,117 - #27 2
INFO  20:03:48,117 - #22 -
INFO  20:03:48,117 - #27 3
INFO  20:03:48,117 - #14 )
INFO  20:03:48,117 - #22 -
INFO  20:03:48,117 - #28 Broj
INFO  20:03:48,117 - #19 .
INFO  20:03:48,117 - #28 JEDAN
INFO  20:03:48,117 - #24 *
INFO  20:03:48,117 - #27 0
INFO  20:03:48,117 - #14 )
INFO  20:03:48,117 - #10 ;
INFO  20:03:48,117 - #4 print
INFO  20:03:48,117 - #13 (
INFO  20:03:48,117 - #28 bodovi
INFO  20:03:48,117 - #14 )
INFO  20:03:48,117 - #10 ;
INFO  20:03:48,117 - #3 read
INFO  20:03:48,117 - #13 (
INFO  20:03:48,117 - #28 bodovi
INFO  20:03:48,117 - #14 )
INFO  20:03:48,117 - #10 ;
INFO  20:03:48,117 - #28 bodovi
INFO  20:03:48,117 - #11 =
INFO  20:03:48,117 - #28 bodovi
INFO  20:03:48,117 - #23 +
INFO  20:03:48,117 - #27 1
INFO  20:03:48,117 - #10 ;
INFO  20:03:48,117 - #4 print
INFO  20:03:48,117 - #13 (
INFO  20:03:48,117 - #28 bodovi
INFO  20:03:48,117 - #14 )
INFO  20:03:48,117 - #10 ;
INFO  20:03:48,117 - #18 }
INFO  20:03:48,117 - #18 }
INFO  20:03:48,148 - Program(
  ProgName(
   test301
  ) [ProgName]
  GlobalDeclListL(
    GlobalDeclListL(
      GlobalDeclListL(
        GlobalDeclListL(
          GlobalDeclListL(
            GlobalDeclListEps(
            ) [GlobalDeclListEps]
            GlobalDeclEnum(
              EnumDecl(
               Broj
                EnumDeclListL(
                  EnumDeclListL(
                    EnumDeclListL(
                      EnumDeclItem(
                        EnumDeclDefNoVal(
                         NULA
                        ) [EnumDeclDefNoVal]
                      ) [EnumDeclItem]
                      EnumDeclDefNoVal(
                       JEDAN
                      ) [EnumDeclDefNoVal]
                    ) [EnumDeclListL]
                    EnumDeclDefVal(
                     PET
                     5
                    ) [EnumDeclDefVal]
                  ) [EnumDeclListL]
                  EnumDeclDefVal(
                   DESET
                   10
                  ) [EnumDeclDefVal]
                ) [EnumDeclListL]
              ) [EnumDecl]
            ) [GlobalDeclEnum]
          ) [GlobalDeclListL]
          GlobalDeclConst(
            ConstDecl(
              TypeConst(
                Type(
                 int
                ) [Type]
              ) [TypeConst]
              ConstDeclItem(
                ConstDef(
                 jedan
                  ConstNum(
                   1
                  ) [ConstNum]
                ) [ConstDef]
              ) [ConstDeclItem]
            ) [ConstDecl]
          ) [GlobalDeclConst]
        ) [GlobalDeclListL]
        GlobalDeclConst(
          ConstDecl(
            TypeConst(
              Type(
               int
              ) [Type]
            ) [TypeConst]
            ConstDeclItem(
              ConstDef(
               pet
                ConstNum(
                 5
                ) [ConstNum]
              ) [ConstDef]
            ) [ConstDeclItem]
          ) [ConstDecl]
        ) [GlobalDeclConst]
      ) [GlobalDeclListL]
      GlobalDeclVar(
        GlobalVarDecl(
          Type(
           int
          ) [Type]
          GlobalVarDeclItem(
            GlobalVarDeclDefOk(
              VarDeclDefineArray(
               niz
              ) [VarDeclDefineArray]
            ) [GlobalVarDeclDefOk]
          ) [GlobalVarDeclItem]
        ) [GlobalVarDecl]
      ) [GlobalDeclVar]
    ) [GlobalDeclListL]
    GlobalDeclVar(
      GlobalVarDecl(
        Type(
         char
        ) [Type]
        GlobalVarDeclItem(
          GlobalVarDeclDefOk(
            VarDeclDefineArray(
             nizch
            ) [VarDeclDefineArray]
          ) [GlobalVarDeclDefOk]
        ) [GlobalVarDeclItem]
      ) [GlobalVarDecl]
    ) [GlobalDeclVar]
  ) [GlobalDeclListL]
  MethodDecl(
    MethodSignature(
      VoidableType(
      ) [VoidableType]
     main
    ) [MethodSignature]
    VarMethodDeclList_NoEps(
      VarMethodDeclList_NoEps(
        VarMethodDeclList_Eps(
        ) [VarMethodDeclList_Eps]
        VarDecl(
          Type(
           int
          ) [Type]
          VarDeclItem(
            VarDeclDefineSingle(
             bodovi
            ) [VarDeclDefineSingle]
          ) [VarDeclItem]
        ) [VarDecl]
      ) [VarMethodDeclList_NoEps]
      VarDecl(
        Type(
         Broj
        ) [Type]
        VarDeclListL(
          VarDeclItem(
            VarDeclDefineSingle(
             nula
            ) [VarDeclDefineSingle]
          ) [VarDeclItem]
          VarDeclDefineSingle(
           jedan
          ) [VarDeclDefineSingle]
        ) [VarDeclListL]
      ) [VarDecl]
    ) [VarMethodDeclList_NoEps]
    StatementList_NoEps(
      StatementList_NoEps(
        StatementList_NoEps(
          StatementList_NoEps(
            StatementList_NoEps(
              StatementList_NoEps(
                StatementList_NoEps(
                  StatementList_NoEps(
                    StatementList_NoEps(
                      StatementList_NoEps(
                        StatementList_NoEps(
                          StatementList_NoEps(
                            StatementList_NoEps(
                              StatementList_NoEps(
                                StatementList_NoEps(
                                  StatementList_NoEps(
                                    StatementList_NoEps(
                                      StatementList_NoEps(
                                        StatementList_NoEps(
                                          StatementList_NoEps(
                                            StatementList_NoEps(
                                              StatementList_NoEps(
                                                StatementList_NoEps(
                                                  StatementList_NoEps(
                                                    StatementList_NoEps(
                                                      StatementList_NoEps(
                                                        StatementList_Eps(
                                                        ) [StatementList_Eps]
                                                        StatementDes(
                                                          DesignStatAssignment(
                                                            Designator(
                                                             nula
                                                              DesDerived1(
                                                              ) [DesDerived1]
                                                            ) [Designator]
                                                            AssignementExpr(
                                                              TermExpr(
                                                                TermFact(
                                                                  FactorDesign(
                                                                    Designator(
                                                                     Broj
                                                                      DesEnum(
                                                                       NULA
                                                                      ) [DesEnum]
                                                                    ) [Designator]
                                                                  ) [FactorDesign]
                                                                ) [TermFact]
                                                              ) [TermExpr]
                                                            ) [AssignementExpr]
                                                          ) [DesignStatAssignment]
                                                        ) [StatementDes]
                                                      ) [StatementList_NoEps]
                                                      StatementDes(
                                                        DesignStatAssignment(
                                                          Designator(
                                                           jedan
                                                            DesDerived1(
                                                            ) [DesDerived1]
                                                          ) [Designator]
                                                          AssignementExpr(
                                                            TermExpr(
                                                              TermFact(
                                                                FactorDesign(
                                                                  Designator(
                                                                   Broj
                                                                    DesEnum(
                                                                     JEDAN
                                                                    ) [DesEnum]
                                                                  ) [Designator]
                                                                ) [FactorDesign]
                                                              ) [TermFact]
                                                            ) [TermExpr]
                                                          ) [AssignementExpr]
                                                        ) [DesignStatAssignment]
                                                      ) [StatementDes]
                                                    ) [StatementList_NoEps]
                                                    StatementDes(
                                                      DesignStatAssignment(
                                                        Designator(
                                                         nula
                                                          DesDerived1(
                                                          ) [DesDerived1]
                                                        ) [Designator]
                                                        AssignementExprError(
                                                        ) [AssignementExprError]
                                                      ) [DesignStatAssignment]
                                                    ) [StatementDes]
                                                  ) [StatementList_NoEps]
                                                  StatementDes(
                                                    DesignStatAssignment(
                                                      Designator(
                                                       bodovi
                                                        DesDerived1(
                                                        ) [DesDerived1]
                                                      ) [Designator]
                                                      AssignementExpr(
                                                        TermExpr(
                                                          TermFact(
                                                            FactorConst(
                                                              ConstNum(
                                                               0
                                                              ) [ConstNum]
                                                            ) [FactorConst]
                                                          ) [TermFact]
                                                        ) [TermExpr]
                                                      ) [AssignementExpr]
                                                    ) [DesignStatAssignment]
                                                  ) [StatementDes]
                                                ) [StatementList_NoEps]
                                                StatementDes(
                                                  DesignStatInc(
                                                    Designator(
                                                     bodovi
                                                      DesDerived1(
                                                      ) [DesDerived1]
                                                    ) [Designator]
                                                  ) [DesignStatInc]
                                                ) [StatementDes]
                                              ) [StatementList_NoEps]
                                              StatementDes(
                                                DesignStatAssignment(
                                                  Designator(
                                                   bodovi
                                                    DesDerived1(
                                                    ) [DesDerived1]
                                                  ) [Designator]
                                                  AssignementExpr(
                                                    AddopExp(
                                                      TermExpr(
                                                        TermFact(
                                                          FactorDesign(
                                                            Designator(
                                                             bodovi
                                                              DesDerived1(
                                                              ) [DesDerived1]
                                                            ) [Designator]
                                                          ) [FactorDesign]
                                                        ) [TermFact]
                                                      ) [TermExpr]
                                                      Addop(
                                                      ) [Addop]
                                                      TermFact(
                                                        FactorDesign(
                                                          Designator(
                                                           jedan
                                                            DesDerived1(
                                                            ) [DesDerived1]
                                                          ) [Designator]
                                                        ) [FactorDesign]
                                                      ) [TermFact]
                                                    ) [AddopExp]
                                                  ) [AssignementExpr]
                                                ) [DesignStatAssignment]
                                              ) [StatementDes]
                                            ) [StatementList_NoEps]
                                            StatementDes(
                                              DesignStatAssignment(
                                                Designator(
                                                 bodovi
                                                  DesDerived1(
                                                  ) [DesDerived1]
                                                ) [Designator]
                                                AssignementExpr(
                                                  TermExpr(
                                                    TermMulop(
                                                      TermFact(
                                                        FactorDesign(
                                                          Designator(
                                                           bodovi
                                                            DesDerived1(
                                                            ) [DesDerived1]
                                                          ) [Designator]
                                                        ) [FactorDesign]
                                                      ) [TermFact]
                                                      Mulop(
                                                      ) [Mulop]
                                                      FactorDesign(
                                                        Designator(
                                                         pet
                                                          DesDerived1(
                                                          ) [DesDerived1]
                                                        ) [Designator]
                                                      ) [FactorDesign]
                                                    ) [TermMulop]
                                                  ) [TermExpr]
                                                ) [AssignementExpr]
                                              ) [DesignStatAssignment]
                                            ) [StatementDes]
                                          ) [StatementList_NoEps]
                                          StatementDes(
                                            DesignStatDec(
                                              Designator(
                                               bodovi
                                                DesDerived1(
                                                ) [DesDerived1]
                                              ) [Designator]
                                            ) [DesignStatDec]
                                          ) [StatementDes]
                                        ) [StatementList_NoEps]
                                        StatPrint(
                                          TermExpr(
                                            TermFact(
                                              FactorDesign(
                                                Designator(
                                                 bodovi
                                                  DesDerived1(
                                                  ) [DesDerived1]
                                                ) [Designator]
                                              ) [FactorDesign]
                                            ) [TermFact]
                                          ) [TermExpr]
                                        ) [StatPrint]
                                      ) [StatementList_NoEps]
                                      StatementDes(
                                        DesignStatAssignment(
                                          Designator(
                                           niz
                                            DesDerived1(
                                            ) [DesDerived1]
                                          ) [Designator]
                                          AssignementExpr(
                                            TermExpr(
                                              TermFact(
                                                FactorNewConst(
                                                  Type(
                                                   int
                                                  ) [Type]
                                                  TermExpr(
                                                    TermFact(
                                                      FactorConst(
                                                        ConstNum(
                                                         2
                                                        ) [ConstNum]
                                                      ) [FactorConst]
                                                    ) [TermFact]
                                                  ) [TermExpr]
                                                ) [FactorNewConst]
                                              ) [TermFact]
                                            ) [TermExpr]
                                          ) [AssignementExpr]
                                        ) [DesignStatAssignment]
                                      ) [StatementDes]
                                    ) [StatementList_NoEps]
                                    StatementDes(
                                      DesignStatAssignment(
                                        Designator(
                                         niz
                                          DesExpr(
                                            TermExpr(
                                              TermFact(
                                                FactorDesign(
                                                  Designator(
                                                   nula
                                                    DesDerived1(
                                                    ) [DesDerived1]
                                                  ) [Designator]
                                                ) [FactorDesign]
                                              ) [TermFact]
                                            ) [TermExpr]
                                          ) [DesExpr]
                                        ) [Designator]
                                        AssignementExpr(
                                          TermExpr(
                                            TermFact(
                                              FactorDesign(
                                                Designator(
                                                 pet
                                                  DesDerived1(
                                                  ) [DesDerived1]
                                                ) [Designator]
                                              ) [FactorDesign]
                                            ) [TermFact]
                                          ) [TermExpr]
                                        ) [AssignementExpr]
                                      ) [DesignStatAssignment]
                                    ) [StatementDes]
                                  ) [StatementList_NoEps]
                                  StatementDes(
                                    DesignStatAssignment(
                                      Designator(
                                       niz
                                        DesExpr(
                                          TermExpr(
                                            TermFact(
                                              FactorConst(
                                                ConstNum(
                                                 1
                                                ) [ConstNum]
                                              ) [FactorConst]
                                            ) [TermFact]
                                          ) [TermExpr]
                                        ) [DesExpr]
                                      ) [Designator]
                                      AssignementExpr(
                                        TermExpr(
                                          TermFact(
                                            FactorDesign(
                                              Designator(
                                               Broj
                                                DesEnum(
                                                 DESET
                                                ) [DesEnum]
                                              ) [Designator]
                                            ) [FactorDesign]
                                          ) [TermFact]
                                        ) [TermExpr]
                                      ) [AssignementExpr]
                                    ) [DesignStatAssignment]
                                  ) [StatementDes]
                                ) [StatementList_NoEps]
                                StatementDes(
                                  DesignStatAssignment(
                                    Designator(
                                     bodovi
                                      DesDerived1(
                                      ) [DesDerived1]
                                    ) [Designator]
                                    AssignementExpr(
                                      TermExpr(
                                        TermMulop(
                                          TermFact(
                                            FactorDesign(
                                              Designator(
                                               niz
                                                DesExpr(
                                                  TermExpr(
                                                    TermFact(
                                                      FactorConst(
                                                        ConstNum(
                                                         1
                                                        ) [ConstNum]
                                                      ) [FactorConst]
                                                    ) [TermFact]
                                                  ) [TermExpr]
                                                ) [DesExpr]
                                              ) [Designator]
                                            ) [FactorDesign]
                                          ) [TermFact]
                                          Divop(
                                          ) [Divop]
                                          FactorDesign(
                                            Designator(
                                             niz
                                              DesExpr(
                                                TermExpr(
                                                  TermFact(
                                                    FactorConst(
                                                      ConstNum(
                                                       0
                                                      ) [ConstNum]
                                                    ) [FactorConst]
                                                  ) [TermFact]
                                                ) [TermExpr]
                                              ) [DesExpr]
                                            ) [Designator]
                                          ) [FactorDesign]
                                        ) [TermMulop]
                                      ) [TermExpr]
                                    ) [AssignementExpr]
                                  ) [DesignStatAssignment]
                                ) [StatementDes]
                              ) [StatementList_NoEps]
                              StatPrint(
                                TermExpr(
                                  TermFact(
                                    FactorDesign(
                                      Designator(
                                       bodovi
                                        DesDerived1(
                                        ) [DesDerived1]
                                      ) [Designator]
                                    ) [FactorDesign]
                                  ) [TermFact]
                                ) [TermExpr]
                              ) [StatPrint]
                            ) [StatementList_NoEps]
                            StatPrint(
                              TermExpr(
                                TermFact(
                                  FactorDesign(
                                    Designator(
                                     niz
                                      DesExpr(
                                        TermExpr(
                                          TermFact(
                                            FactorDesign(
                                              Designator(
                                               Broj
                                                DesEnum(
                                                 JEDAN
                                                ) [DesEnum]
                                              ) [Designator]
                                            ) [FactorDesign]
                                          ) [TermFact]
                                        ) [TermExpr]
                                      ) [DesExpr]
                                    ) [Designator]
                                  ) [FactorDesign]
                                ) [TermFact]
                              ) [TermExpr]
                            ) [StatPrint]
                          ) [StatementList_NoEps]
                          StatementDes(
                            DesignStatAssignment(
                              Designator(
                               nizch
                                DesDerived1(
                                ) [DesDerived1]
                              ) [Designator]
                              AssignementExpr(
                                TermExpr(
                                  TermFact(
                                    FactorNewConst(
                                      Type(
                                       char
                                      ) [Type]
                                      TermExpr(
                                        TermFact(
                                          FactorConst(
                                            ConstNum(
                                             3
                                            ) [ConstNum]
                                          ) [FactorConst]
                                        ) [TermFact]
                                      ) [TermExpr]
                                    ) [FactorNewConst]
                                  ) [TermFact]
                                ) [TermExpr]
                              ) [AssignementExpr]
                            ) [DesignStatAssignment]
                          ) [StatementDes]
                        ) [StatementList_NoEps]
                        StatementDes(
                          DesignStatAssignment(
                            Designator(
                             nizch
                              DesExpr(
                                TermExpr(
                                  TermFact(
                                    FactorConst(
                                      ConstNum(
                                       0
                                      ) [ConstNum]
                                    ) [FactorConst]
                                  ) [TermFact]
                                ) [TermExpr]
                              ) [DesExpr]
                            ) [Designator]
                            AssignementExpr(
                              TermExpr(
                                TermFact(
                                  FactorConst(
                                    ConstChar(
                                     a
                                    ) [ConstChar]
                                  ) [FactorConst]
                                ) [TermFact]
                              ) [TermExpr]
                            ) [AssignementExpr]
                          ) [DesignStatAssignment]
                        ) [StatementDes]
                      ) [StatementList_NoEps]
                      StatementDes(
                        DesignStatAssignment(
                          Designator(
                           nizch
                            DesExpr(
                              TermExpr(
                                TermFact(
                                  FactorDesign(
                                    Designator(
                                     jedan
                                      DesDerived1(
                                      ) [DesDerived1]
                                    ) [Designator]
                                  ) [FactorDesign]
                                ) [TermFact]
                              ) [TermExpr]
                            ) [DesExpr]
                          ) [Designator]
                          AssignementExpr(
                            TermExpr(
                              TermFact(
                                FactorConst(
                                  ConstChar(
                                   b
                                  ) [ConstChar]
                                ) [FactorConst]
                              ) [TermFact]
                            ) [TermExpr]
                          ) [AssignementExpr]
                        ) [DesignStatAssignment]
                      ) [StatementDes]
                    ) [StatementList_NoEps]
                    StatementDes(
                      DesignStatAssignment(
                        Designator(
                         nizch
                          DesExpr(
                            AddopExp(
                              TermExpr(
                                TermFact(
                                  FactorDesign(
                                    Designator(
                                     pet
                                      DesDerived1(
                                      ) [DesDerived1]
                                    ) [Designator]
                                  ) [FactorDesign]
                                ) [TermFact]
                              ) [TermExpr]
                              Subop(
                              ) [Subop]
                              TermFact(
                                FactorConst(
                                  ConstNum(
                                   3
                                  ) [ConstNum]
                                ) [FactorConst]
                              ) [TermFact]
                            ) [AddopExp]
                          ) [DesExpr]
                        ) [Designator]
                        AssignementExpr(
                          TermExpr(
                            TermFact(
                              FactorConst(
                                ConstChar(
                                 c
                                ) [ConstChar]
                              ) [FactorConst]
                            ) [TermFact]
                          ) [TermExpr]
                        ) [AssignementExpr]
                      ) [DesignStatAssignment]
                    ) [StatementDes]
                  ) [StatementList_NoEps]
                  StatPrint(
                    TermExpr(
                      TermFact(
                        FactorDesign(
                          Designator(
                           nizch
                            DesExpr(
                              AddopExp(
                                TermExpr(
                                  TermFact(
                                    FactorConst(
                                      ConstNum(
                                       2
                                      ) [ConstNum]
                                    ) [FactorConst]
                                  ) [TermFact]
                                ) [TermExpr]
                                Subop(
                                ) [Subop]
                                TermFact(
                                  FactorConst(
                                    ConstNum(
                                     1
                                    ) [ConstNum]
                                  ) [FactorConst]
                                ) [TermFact]
                              ) [AddopExp]
                            ) [DesExpr]
                          ) [Designator]
                        ) [FactorDesign]
                      ) [TermFact]
                    ) [TermExpr]
                  ) [StatPrint]
                ) [StatementList_NoEps]
                StatPrint(
                  TermExpr(
                    TermFact(
                      FactorDesign(
                        Designator(
                         nizch
                          DesExpr(
                            TermExpr(
                              TermMulop(
                                TermFact(
                                  FactorDesign(
                                    Designator(
                                     jedan
                                      DesDerived1(
                                      ) [DesDerived1]
                                    ) [Designator]
                                  ) [FactorDesign]
                                ) [TermFact]
                                Mulop(
                                ) [Mulop]
                                FactorConst(
                                  ConstNum(
                                   2
                                  ) [ConstNum]
                                ) [FactorConst]
                              ) [TermMulop]
                            ) [TermExpr]
                          ) [DesExpr]
                        ) [Designator]
                      ) [FactorDesign]
                    ) [TermFact]
                  ) [TermExpr]
                ) [StatPrint]
              ) [StatementList_NoEps]
              StatementDes(
                DesignStatAssignment(
                  Designator(
                   bodovi
                    DesDerived1(
                    ) [DesDerived1]
                  ) [Designator]
                  AssignementExpr(
                    AddopExp(
                      TermExpr(
                        TermFact(
                          FactorDesign(
                            Designator(
                             bodovi
                              DesDerived1(
                              ) [DesDerived1]
                            ) [Designator]
                          ) [FactorDesign]
                        ) [TermFact]
                      ) [TermExpr]
                      Addop(
                      ) [Addop]
                      TermFact(
                        FactorExpr(
                          AddopExp(
                            AddopExp(
                              TermExpr(
                                TermMulop(
                                  TermFact(
                                    FactorExpr(
                                      AddopExp(
                                        TermExpr(
                                          TermMulop(
                                            TermFact(
                                              FactorDesign(
                                                Designator(
                                                 pet
                                                  DesDerived1(
                                                  ) [DesDerived1]
                                                ) [Designator]
                                              ) [FactorDesign]
                                            ) [TermFact]
                                            Mulop(
                                            ) [Mulop]
                                            FactorDesign(
                                              Designator(
                                               jedan
                                                DesDerived1(
                                                ) [DesDerived1]
                                              ) [Designator]
                                            ) [FactorDesign]
                                          ) [TermMulop]
                                        ) [TermExpr]
                                        Subop(
                                        ) [Subop]
                                        TermFact(
                                          FactorConst(
                                            ConstNum(
                                             1
                                            ) [ConstNum]
                                          ) [FactorConst]
                                        ) [TermFact]
                                      ) [AddopExp]
                                    ) [FactorExpr]
                                  ) [TermFact]
                                  Mulop(
                                  ) [Mulop]
                                  FactorConst(
                                    ConstNum(
                                     2
                                    ) [ConstNum]
                                  ) [FactorConst]
                                ) [TermMulop]
                              ) [TermExpr]
                              Subop(
                              ) [Subop]
                              TermFact(
                                FactorExpr(
                                  AddopExp(
                                    AddopExp(
                                      TermExpr(
                                        TermMulop(
                                          TermFact(
                                            FactorConst(
                                              ConstNum(
                                               3
                                              ) [ConstNum]
                                            ) [FactorConst]
                                          ) [TermFact]
                                          Modop(
                                          ) [Modop]
                                          FactorConst(
                                            ConstNum(
                                             2
                                            ) [ConstNum]
                                          ) [FactorConst]
                                        ) [TermMulop]
                                      ) [TermExpr]
                                      Addop(
                                      ) [Addop]
                                      TermMulop(
                                        TermFact(
                                          FactorConst(
                                            ConstNum(
                                             3
                                            ) [ConstNum]
                                          ) [FactorConst]
                                        ) [TermFact]
                                        Mulop(
                                        ) [Mulop]
                                        FactorConst(
                                          ConstNum(
                                           2
                                          ) [ConstNum]
                                        ) [FactorConst]
                                      ) [TermMulop]
                                    ) [AddopExp]
                                    Subop(
                                    ) [Subop]
                                    TermFact(
                                      FactorConst(
                                        ConstNum(
                                         3
                                        ) [ConstNum]
                                      ) [FactorConst]
                                    ) [TermFact]
                                  ) [AddopExp]
                                ) [FactorExpr]
                              ) [TermFact]
                            ) [AddopExp]
                            Subop(
                            ) [Subop]
                            TermMulop(
                              TermFact(
                                FactorDesign(
                                  Designator(
                                   Broj
                                    DesEnum(
                                     JEDAN
                                    ) [DesEnum]
                                  ) [Designator]
                                ) [FactorDesign]
                              ) [TermFact]
                              Mulop(
                              ) [Mulop]
                              FactorConst(
                                ConstNum(
                                 0
                                ) [ConstNum]
                              ) [FactorConst]
                            ) [TermMulop]
                          ) [AddopExp]
                        ) [FactorExpr]
                      ) [TermFact]
                    ) [AddopExp]
                  ) [AssignementExpr]
                ) [DesignStatAssignment]
              ) [StatementDes]
            ) [StatementList_NoEps]
            StatPrint(
              TermExpr(
                TermFact(
                  FactorDesign(
                    Designator(
                     bodovi
                      DesDerived1(
                      ) [DesDerived1]
                    ) [Designator]
                  ) [FactorDesign]
                ) [TermFact]
              ) [TermExpr]
            ) [StatPrint]
          ) [StatementList_NoEps]
          StatRead(
            Designator(
             bodovi
              DesDerived1(
              ) [DesDerived1]
            ) [Designator]
          ) [StatRead]
        ) [StatementList_NoEps]
        StatementDes(
          DesignStatAssignment(
            Designator(
             bodovi
              DesDerived1(
              ) [DesDerived1]
            ) [Designator]
            AssignementExpr(
              AddopExp(
                TermExpr(
                  TermFact(
                    FactorDesign(
                      Designator(
                       bodovi
                        DesDerived1(
                        ) [DesDerived1]
                      ) [Designator]
                    ) [FactorDesign]
                  ) [TermFact]
                ) [TermExpr]
                Addop(
                ) [Addop]
                TermFact(
                  FactorConst(
                    ConstNum(
                     1
                    ) [ConstNum]
                  ) [FactorConst]
                ) [TermFact]
              ) [AddopExp]
            ) [AssignementExpr]
          ) [DesignStatAssignment]
        ) [StatementDes]
      ) [StatementList_NoEps]
      StatPrint(
        TermExpr(
          TermFact(
            FactorDesign(
              Designator(
               bodovi
                DesDerived1(
                ) [DesDerived1]
              ) [Designator]
            ) [FactorDesign]
          ) [TermFact]
        ) [TermExpr]
      ) [StatPrint]
    ) [StatementList_NoEps]
  ) [MethodDecl]
) [Program]
INFO  20:03:48,148 - ===================================
INFO  20:03:48,148 - Deklarisan novi enum tip Broj na liniji 5
INFO  20:03:48,148 - int je trenutni tip*******************
ERROR 20:03:48,148 - Greska na 7: nekompatibilni tipovi podatakars.etf.pp1.symboltable.concepts.Struct@7106e68e|rs.etf.pp1.symboltable.concepts.Struct@7eda2dbb
INFO  20:03:48,148 - CurrentTypeObj je 0
INFO  20:03:48,148 - int je trenutni tip*******************
ERROR 20:03:48,148 - Greska na 8: nekompatibilni tipovi podatakars.etf.pp1.symboltable.concepts.Struct@7106e68e|rs.etf.pp1.symboltable.concepts.Struct@7eda2dbb
INFO  20:03:48,148 - CurrentTypeObj je 0
INFO  20:03:48,148 - int je trenutni tip*******************
INFO  20:03:48,148 - Deklarisana promenljiva niza niz na liniji 10
INFO  20:03:48,148 - char je trenutni tip*******************
INFO  20:03:48,148 - Deklarisana promenljiva niza nizch na liniji 11
INFO  20:03:48,148 - Obradjuje se funkcija main na liniji 13
INFO  20:03:48,148 - int je trenutni tip*******************
INFO  20:03:48,148 - Deklarisana promenljiva bodovi na liniji 14
INFO  20:03:48,148 - Broj je trenutni tip*******************
INFO  20:03:48,148 - Deklarisana promenljiva nula na liniji 15
INFO  20:03:48,148 - Deklarisana promenljiva jedan na liniji 15
INFO  20:03:48,148 - int je trenutni tip*******************
INFO  20:03:48,148 - char je trenutni tip*******************
INFO  20:03:48,148 -  Print count calls = 0
INFO  20:03:48,148 -  Deklarisanih promenljivih ima = 9
ERROR 20:03:48,164 - Parsiranje NIJE uspesno zavrseno!
