INFO  21:58:32,595 - Compiling source file: C:\Users\ikadr\Desktop\PP\Projekat\Rad\workspace\MJCompiler\test\program.mj
INFO  21:58:32,664 - #2 program
INFO  21:58:32,665 - #28 test301
INFO  21:58:32,665 - #9 enum
INFO  21:58:32,667 - #28 Broj
INFO  21:58:32,668 - #17 {
INFO  21:58:32,668 - #28 NULA
INFO  21:58:32,668 - #12 ,
INFO  21:58:32,668 - #28 JEDAN
INFO  21:58:32,668 - #12 ,
INFO  21:58:32,669 - #28 PET
INFO  21:58:32,669 - #11 =
INFO  21:58:32,669 - #27 5
INFO  21:58:32,669 - #12 ,
INFO  21:58:32,669 - #28 DESET
INFO  21:58:32,669 - #11 =
INFO  21:58:32,669 - #27 10
INFO  21:58:32,669 - #18 }
INFO  21:58:32,669 - #8 const
INFO  21:58:32,671 - #28 int
INFO  21:58:32,671 - #28 jedan
INFO  21:58:32,672 - #11 =
INFO  21:58:32,672 - #27 1
INFO  21:58:32,672 - #10 ;
INFO  21:58:32,674 - #8 const
INFO  21:58:32,675 - #28 int
INFO  21:58:32,675 - #28 pet
INFO  21:58:32,675 - #11 =
INFO  21:58:32,675 - #27 5
INFO  21:58:32,675 - #10 ;
INFO  21:58:32,676 - #28 int
INFO  21:58:32,676 - #28 niz
INFO  21:58:32,676 - #15 [
INFO  21:58:32,676 - #16 ]
INFO  21:58:32,676 - #10 ;
INFO  21:58:32,676 - #28 char
INFO  21:58:32,677 - #28 nizch
INFO  21:58:32,678 - #15 [
INFO  21:58:32,678 - #16 ]
INFO  21:58:32,678 - #10 ;
INFO  21:58:32,678 - #17 {
INFO  21:58:32,678 - #6 void
INFO  21:58:32,678 - #28 main
INFO  21:58:32,679 - #13 (
INFO  21:58:32,679 - #14 )
INFO  21:58:32,679 - #28 int
INFO  21:58:32,682 - #28 bodovi
INFO  21:58:32,682 - #10 ;
INFO  21:58:32,682 - #28 Broj
INFO  21:58:32,683 - #28 nula
INFO  21:58:32,684 - #12 ,
INFO  21:58:32,684 - #28 jedan
INFO  21:58:32,684 - #10 ;
INFO  21:58:32,684 - #28 bool
INFO  21:58:32,684 - #28 proba
INFO  21:58:32,684 - #10 ;
INFO  21:58:32,684 - #17 {
INFO  21:58:32,684 - #28 nula
INFO  21:58:32,686 - #11 =
INFO  21:58:32,687 - #28 Broj
INFO  21:58:32,688 - #19 .
INFO  21:58:32,688 - #28 NULA
INFO  21:58:32,688 - #10 ;
INFO  21:58:32,690 - #28 jedan
INFO  21:58:32,690 - #11 =
INFO  21:58:32,690 - #28 Broj
INFO  21:58:32,690 - #19 .
INFO  21:58:32,690 - #28 JEDAN
INFO  21:58:32,690 - #10 ;
INFO  21:58:32,691 - #28 bodovi
INFO  21:58:32,697 - #11 =
INFO  21:58:32,697 - #27 0
INFO  21:58:32,697 - #10 ;
INFO  21:58:32,697 - #28 bodovi
INFO  21:58:32,698 - #20 ++
INFO  21:58:32,698 - #10 ;
INFO  21:58:32,698 - #28 bodovi
INFO  21:58:32,698 - #11 =
INFO  21:58:32,698 - #28 bodovi
INFO  21:58:32,698 - #23 +
INFO  21:58:32,699 - #28 jedan
INFO  21:58:32,700 - #10 ;
INFO  21:58:32,701 - #28 bodovi
INFO  21:58:32,701 - #11 =
INFO  21:58:32,701 - #28 bodovi
INFO  21:58:32,701 - #24 *
INFO  21:58:32,701 - #28 pet
INFO  21:58:32,702 - #10 ;
INFO  21:58:32,703 - #28 bodovi
INFO  21:58:32,703 - #21 --
INFO  21:58:32,703 - #10 ;
INFO  21:58:32,703 - #4 print
INFO  21:58:32,704 - #13 (
INFO  21:58:32,704 - #28 bodovi
INFO  21:58:32,704 - #14 )
INFO  21:58:32,704 - #10 ;
INFO  21:58:32,704 - #28 niz
INFO  21:58:32,704 - #11 =
INFO  21:58:32,704 - #5 new
INFO  21:58:32,704 - #28 int
INFO  21:58:32,704 - #15 [
INFO  21:58:32,704 - #27 2
INFO  21:58:32,704 - #16 ]
INFO  21:58:32,705 - #10 ;
INFO  21:58:32,705 - #28 niz
INFO  21:58:32,705 - #15 [
INFO  21:58:32,705 - #28 nula
INFO  21:58:32,705 - #16 ]
INFO  21:58:32,705 - #11 =
INFO  21:58:32,705 - #28 pet
INFO  21:58:32,705 - #10 ;
INFO  21:58:32,706 - #28 niz
INFO  21:58:32,706 - #15 [
INFO  21:58:32,706 - #27 1
INFO  21:58:32,706 - #16 ]
INFO  21:58:32,706 - #11 =
INFO  21:58:32,706 - #28 Broj
INFO  21:58:32,706 - #19 .
INFO  21:58:32,706 - #28 DESET
INFO  21:58:32,706 - #10 ;
INFO  21:58:32,706 - #28 bodovi
INFO  21:58:32,706 - #11 =
INFO  21:58:32,707 - #28 niz
INFO  21:58:32,707 - #15 [
INFO  21:58:32,707 - #27 1
INFO  21:58:32,707 - #16 ]
INFO  21:58:32,707 - #25 /
INFO  21:58:32,707 - #28 niz
INFO  21:58:32,708 - #15 [
INFO  21:58:32,709 - #27 0
INFO  21:58:32,709 - #16 ]
INFO  21:58:32,709 - #10 ;
INFO  21:58:32,709 - #4 print
INFO  21:58:32,709 - #13 (
INFO  21:58:32,709 - #28 bodovi
INFO  21:58:32,709 - #14 )
INFO  21:58:32,709 - #10 ;
INFO  21:58:32,709 - #4 print
INFO  21:58:32,710 - #13 (
INFO  21:58:32,710 - #28 niz
INFO  21:58:32,710 - #15 [
INFO  21:58:32,710 - #28 Broj
INFO  21:58:32,710 - #19 .
INFO  21:58:32,710 - #28 JEDAN
INFO  21:58:32,710 - #16 ]
INFO  21:58:32,710 - #14 )
INFO  21:58:32,710 - #10 ;
INFO  21:58:32,710 - #28 nizch
INFO  21:58:32,710 - #11 =
INFO  21:58:32,710 - #5 new
INFO  21:58:32,710 - #28 char
INFO  21:58:32,710 - #15 [
INFO  21:58:32,711 - #27 3
INFO  21:58:32,711 - #16 ]
INFO  21:58:32,711 - #10 ;
INFO  21:58:32,711 - #28 nizch
INFO  21:58:32,711 - #15 [
INFO  21:58:32,711 - #27 0
INFO  21:58:32,711 - #16 ]
INFO  21:58:32,711 - #11 =
INFO  21:58:32,711 - #29 a
INFO  21:58:32,711 - #10 ;
INFO  21:58:32,712 - #28 nizch
INFO  21:58:32,712 - #15 [
INFO  21:58:32,712 - #28 jedan
INFO  21:58:32,712 - #16 ]
INFO  21:58:32,712 - #11 =
INFO  21:58:32,712 - #29 b
INFO  21:58:32,712 - #10 ;
INFO  21:58:32,712 - #28 nizch
INFO  21:58:32,712 - #15 [
INFO  21:58:32,712 - #28 pet
INFO  21:58:32,712 - #22 -
INFO  21:58:32,713 - #27 3
INFO  21:58:32,714 - #16 ]
INFO  21:58:32,714 - #11 =
INFO  21:58:32,715 - #29 c
INFO  21:58:32,715 - #10 ;
INFO  21:58:32,715 - #4 print
INFO  21:58:32,715 - #13 (
INFO  21:58:32,715 - #28 nizch
INFO  21:58:32,716 - #15 [
INFO  21:58:32,716 - #27 2
INFO  21:58:32,716 - #22 -
INFO  21:58:32,716 - #27 1
INFO  21:58:32,716 - #16 ]
INFO  21:58:32,716 - #14 )
INFO  21:58:32,716 - #10 ;
INFO  21:58:32,716 - #4 print
INFO  21:58:32,716 - #13 (
INFO  21:58:32,716 - #28 nizch
INFO  21:58:32,716 - #15 [
INFO  21:58:32,717 - #28 jedan
INFO  21:58:32,717 - #24 *
INFO  21:58:32,717 - #27 2
INFO  21:58:32,717 - #16 ]
INFO  21:58:32,717 - #14 )
INFO  21:58:32,717 - #10 ;
INFO  21:58:32,717 - #28 bodovi
INFO  21:58:32,717 - #11 =
INFO  21:58:32,717 - #28 bodovi
INFO  21:58:32,717 - #23 +
INFO  21:58:32,717 - #13 (
INFO  21:58:32,717 - #13 (
INFO  21:58:32,718 - #28 pet
INFO  21:58:32,718 - #24 *
INFO  21:58:32,718 - #28 jedan
INFO  21:58:32,718 - #22 -
INFO  21:58:32,718 - #27 1
INFO  21:58:32,718 - #14 )
INFO  21:58:32,718 - #24 *
INFO  21:58:32,718 - #27 2
INFO  21:58:32,719 - #22 -
INFO  21:58:32,719 - #13 (
INFO  21:58:32,719 - #27 3
INFO  21:58:32,719 - #26 %
INFO  21:58:32,719 - #27 2
INFO  21:58:32,720 - #23 +
INFO  21:58:32,720 - #27 3
INFO  21:58:32,721 - #24 *
INFO  21:58:32,721 - #27 2
INFO  21:58:32,721 - #22 -
INFO  21:58:32,721 - #27 3
INFO  21:58:32,721 - #14 )
INFO  21:58:32,721 - #22 -
INFO  21:58:32,721 - #28 Broj
INFO  21:58:32,721 - #19 .
INFO  21:58:32,721 - #28 JEDAN
INFO  21:58:32,721 - #24 *
INFO  21:58:32,722 - #27 0
INFO  21:58:32,722 - #14 )
INFO  21:58:32,722 - #10 ;
INFO  21:58:32,722 - #4 print
INFO  21:58:32,722 - #13 (
INFO  21:58:32,722 - #28 bodovi
INFO  21:58:32,722 - #14 )
INFO  21:58:32,723 - #10 ;
INFO  21:58:32,723 - #3 read
INFO  21:58:32,723 - #13 (
INFO  21:58:32,723 - #28 bodovi
INFO  21:58:32,723 - #14 )
INFO  21:58:32,723 - #10 ;
INFO  21:58:32,723 - #28 bodovi
INFO  21:58:32,724 - #11 =
INFO  21:58:32,724 - #28 bodovi
INFO  21:58:32,724 - #23 +
INFO  21:58:32,724 - #27 1
INFO  21:58:32,724 - #10 ;
INFO  21:58:32,724 - #4 print
INFO  21:58:32,724 - #13 (
INFO  21:58:32,724 - #28 bodovi
INFO  21:58:32,725 - #14 )
INFO  21:58:32,725 - #10 ;
INFO  21:58:32,725 - #18 }
INFO  21:58:32,725 - #18 }
INFO  21:58:32,753 - Program(
  ProgName(
   test301
  ) [ProgName]
  GlobalDeclListL(
    GlobalDeclListL(
      GlobalDeclListL(
        GlobalDeclListL(
          GlobalDeclListL(
            GlobalDeclListEps(
            ) [GlobalDeclListEps]
            GlobalDeclEnum(
              EnumDecl(
               Broj
                EnumDeclListL(
                  EnumDeclListL(
                    EnumDeclListL(
                      EnumDeclItem(
                        EnumDeclDefNoVal(
                         NULA
                        ) [EnumDeclDefNoVal]
                      ) [EnumDeclItem]
                      EnumDeclDefNoVal(
                       JEDAN
                      ) [EnumDeclDefNoVal]
                    ) [EnumDeclListL]
                    EnumDeclDefVal(
                     PET
                     5
                    ) [EnumDeclDefVal]
                  ) [EnumDeclListL]
                  EnumDeclDefVal(
                   DESET
                   10
                  ) [EnumDeclDefVal]
                ) [EnumDeclListL]
              ) [EnumDecl]
            ) [GlobalDeclEnum]
          ) [GlobalDeclListL]
          GlobalDeclConst(
            ConstDecl(
              Type(
               int
              ) [Type]
              ConstDeclItem(
                ConstDef(
                 jedan
                  ConstNum(
                   1
                  ) [ConstNum]
                ) [ConstDef]
              ) [ConstDeclItem]
            ) [ConstDecl]
          ) [GlobalDeclConst]
        ) [GlobalDeclListL]
        GlobalDeclConst(
          ConstDecl(
            Type(
             int
            ) [Type]
            ConstDeclItem(
              ConstDef(
               pet
                ConstNum(
                 5
                ) [ConstNum]
              ) [ConstDef]
            ) [ConstDeclItem]
          ) [ConstDecl]
        ) [GlobalDeclConst]
      ) [GlobalDeclListL]
      GlobalDeclVar(
        GlobalVarDecl(
          Type(
           int
          ) [Type]
          GlobalVarDeclItem(
            GlobalVarDeclDefOk(
              VarDeclDefineArray(
               niz
              ) [VarDeclDefineArray]
            ) [GlobalVarDeclDefOk]
          ) [GlobalVarDeclItem]
        ) [GlobalVarDecl]
      ) [GlobalDeclVar]
    ) [GlobalDeclListL]
    GlobalDeclVar(
      GlobalVarDecl(
        Type(
         char
        ) [Type]
        GlobalVarDeclItem(
          GlobalVarDeclDefOk(
            VarDeclDefineArray(
             nizch
            ) [VarDeclDefineArray]
          ) [GlobalVarDeclDefOk]
        ) [GlobalVarDeclItem]
      ) [GlobalVarDecl]
    ) [GlobalDeclVar]
  ) [GlobalDeclListL]
  MethodDecl(
    MethodSignature(
      VoidableType(
      ) [VoidableType]
     main
    ) [MethodSignature]
    VarMethodDeclList_NoEps(
      VarMethodDeclList_NoEps(
        VarMethodDeclList_NoEps(
          VarMethodDeclList_Eps(
          ) [VarMethodDeclList_Eps]
          VarDecl(
            Type(
             int
            ) [Type]
            VarDeclItem(
              VarDeclDefineSingle(
               bodovi
              ) [VarDeclDefineSingle]
            ) [VarDeclItem]
          ) [VarDecl]
        ) [VarMethodDeclList_NoEps]
        VarDecl(
          Type(
           Broj
          ) [Type]
          VarDeclListL(
            VarDeclItem(
              VarDeclDefineSingle(
               nula
              ) [VarDeclDefineSingle]
            ) [VarDeclItem]
            VarDeclDefineSingle(
             jedan
            ) [VarDeclDefineSingle]
          ) [VarDeclListL]
        ) [VarDecl]
      ) [VarMethodDeclList_NoEps]
      VarDecl(
        Type(
         bool
        ) [Type]
        VarDeclItem(
          VarDeclDefineSingle(
           proba
          ) [VarDeclDefineSingle]
        ) [VarDeclItem]
      ) [VarDecl]
    ) [VarMethodDeclList_NoEps]
    StatementList_NoEps(
      StatementList_NoEps(
        StatementList_NoEps(
          StatementList_NoEps(
            StatementList_NoEps(
              StatementList_NoEps(
                StatementList_NoEps(
                  StatementList_NoEps(
                    StatementList_NoEps(
                      StatementList_NoEps(
                        StatementList_NoEps(
                          StatementList_NoEps(
                            StatementList_NoEps(
                              StatementList_NoEps(
                                StatementList_NoEps(
                                  StatementList_NoEps(
                                    StatementList_NoEps(
                                      StatementList_NoEps(
                                        StatementList_NoEps(
                                          StatementList_NoEps(
                                            StatementList_NoEps(
                                              StatementList_NoEps(
                                                StatementList_NoEps(
                                                  StatementList_NoEps(
                                                    StatementList_NoEps(
                                                      StatementList_Eps(
                                                      ) [StatementList_Eps]
                                                      StatementDes(
                                                        DesignStatAssignment(
                                                          LDesignator(
                                                           nula
                                                            LDesDerived1(
                                                            ) [LDesDerived1]
                                                          ) [LDesignator]
                                                          AssignementExpr(
                                                            TermExpr(
                                                              TermFact(
                                                                FactorDesign(
                                                                  Designator(
                                                                   Broj
                                                                    DesEnum(
                                                                     NULA
                                                                    ) [DesEnum]
                                                                  ) [Designator]
                                                                ) [FactorDesign]
                                                              ) [TermFact]
                                                            ) [TermExpr]
                                                          ) [AssignementExpr]
                                                        ) [DesignStatAssignment]
                                                      ) [StatementDes]
                                                    ) [StatementList_NoEps]
                                                    StatementDes(
                                                      DesignStatAssignment(
                                                        LDesignator(
                                                         jedan
                                                          LDesDerived1(
                                                          ) [LDesDerived1]
                                                        ) [LDesignator]
                                                        AssignementExpr(
                                                          TermExpr(
                                                            TermFact(
                                                              FactorDesign(
                                                                Designator(
                                                                 Broj
                                                                  DesEnum(
                                                                   JEDAN
                                                                  ) [DesEnum]
                                                                ) [Designator]
                                                              ) [FactorDesign]
                                                            ) [TermFact]
                                                          ) [TermExpr]
                                                        ) [AssignementExpr]
                                                      ) [DesignStatAssignment]
                                                    ) [StatementDes]
                                                  ) [StatementList_NoEps]
                                                  StatementDes(
                                                    DesignStatAssignment(
                                                      LDesignator(
                                                       bodovi
                                                        LDesDerived1(
                                                        ) [LDesDerived1]
                                                      ) [LDesignator]
                                                      AssignementExpr(
                                                        TermExpr(
                                                          TermFact(
                                                            FactorConst(
                                                              ConstNum(
                                                               0
                                                              ) [ConstNum]
                                                            ) [FactorConst]
                                                          ) [TermFact]
                                                        ) [TermExpr]
                                                      ) [AssignementExpr]
                                                    ) [DesignStatAssignment]
                                                  ) [StatementDes]
                                                ) [StatementList_NoEps]
                                                StatementDes(
                                                  DesignStatInc(
                                                    LDesignator(
                                                     bodovi
                                                      LDesDerived1(
                                                      ) [LDesDerived1]
                                                    ) [LDesignator]
                                                  ) [DesignStatInc]
                                                ) [StatementDes]
                                              ) [StatementList_NoEps]
                                              StatementDes(
                                                DesignStatAssignment(
                                                  LDesignator(
                                                   bodovi
                                                    LDesDerived1(
                                                    ) [LDesDerived1]
                                                  ) [LDesignator]
                                                  AssignementExpr(
                                                    AddopExp(
                                                      TermExpr(
                                                        TermFact(
                                                          FactorDesign(
                                                            Designator(
                                                             bodovi
                                                              DesDerived1(
                                                              ) [DesDerived1]
                                                            ) [Designator]
                                                          ) [FactorDesign]
                                                        ) [TermFact]
                                                      ) [TermExpr]
                                                      Addop(
                                                      ) [Addop]
                                                      TermFact(
                                                        FactorDesign(
                                                          Designator(
                                                           jedan
                                                            DesDerived1(
                                                            ) [DesDerived1]
                                                          ) [Designator]
                                                        ) [FactorDesign]
                                                      ) [TermFact]
                                                    ) [AddopExp]
                                                  ) [AssignementExpr]
                                                ) [DesignStatAssignment]
                                              ) [StatementDes]
                                            ) [StatementList_NoEps]
                                            StatementDes(
                                              DesignStatAssignment(
                                                LDesignator(
                                                 bodovi
                                                  LDesDerived1(
                                                  ) [LDesDerived1]
                                                ) [LDesignator]
                                                AssignementExpr(
                                                  TermExpr(
                                                    TermMulop(
                                                      TermFact(
                                                        FactorDesign(
                                                          Designator(
                                                           bodovi
                                                            DesDerived1(
                                                            ) [DesDerived1]
                                                          ) [Designator]
                                                        ) [FactorDesign]
                                                      ) [TermFact]
                                                      Mulop(
                                                      ) [Mulop]
                                                      FactorDesign(
                                                        Designator(
                                                         pet
                                                          DesDerived1(
                                                          ) [DesDerived1]
                                                        ) [Designator]
                                                      ) [FactorDesign]
                                                    ) [TermMulop]
                                                  ) [TermExpr]
                                                ) [AssignementExpr]
                                              ) [DesignStatAssignment]
                                            ) [StatementDes]
                                          ) [StatementList_NoEps]
                                          StatementDes(
                                            DesignStatDec(
                                              LDesignator(
                                               bodovi
                                                LDesDerived1(
                                                ) [LDesDerived1]
                                              ) [LDesignator]
                                            ) [DesignStatDec]
                                          ) [StatementDes]
                                        ) [StatementList_NoEps]
                                        StatPrint(
                                          TermExpr(
                                            TermFact(
                                              FactorDesign(
                                                Designator(
                                                 bodovi
                                                  DesDerived1(
                                                  ) [DesDerived1]
                                                ) [Designator]
                                              ) [FactorDesign]
                                            ) [TermFact]
                                          ) [TermExpr]
                                        ) [StatPrint]
                                      ) [StatementList_NoEps]
                                      StatementDes(
                                        DesignStatAssignment(
                                          LDesignator(
                                           niz
                                            LDesDerived1(
                                            ) [LDesDerived1]
                                          ) [LDesignator]
                                          AssignementExpr(
                                            TermExpr(
                                              TermFact(
                                                FactorNewConst(
                                                  Type(
                                                   int
                                                  ) [Type]
                                                  TermExpr(
                                                    TermFact(
                                                      FactorConst(
                                                        ConstNum(
                                                         2
                                                        ) [ConstNum]
                                                      ) [FactorConst]
                                                    ) [TermFact]
                                                  ) [TermExpr]
                                                ) [FactorNewConst]
                                              ) [TermFact]
                                            ) [TermExpr]
                                          ) [AssignementExpr]
                                        ) [DesignStatAssignment]
                                      ) [StatementDes]
                                    ) [StatementList_NoEps]
                                    StatementDes(
                                      DesignStatAssignment(
                                        LDesignator(
                                         niz
                                          LDesExpr(
                                            TermExpr(
                                              TermFact(
                                                FactorDesign(
                                                  Designator(
                                                   nula
                                                    DesDerived1(
                                                    ) [DesDerived1]
                                                  ) [Designator]
                                                ) [FactorDesign]
                                              ) [TermFact]
                                            ) [TermExpr]
                                          ) [LDesExpr]
                                        ) [LDesignator]
                                        AssignementExpr(
                                          TermExpr(
                                            TermFact(
                                              FactorDesign(
                                                Designator(
                                                 pet
                                                  DesDerived1(
                                                  ) [DesDerived1]
                                                ) [Designator]
                                              ) [FactorDesign]
                                            ) [TermFact]
                                          ) [TermExpr]
                                        ) [AssignementExpr]
                                      ) [DesignStatAssignment]
                                    ) [StatementDes]
                                  ) [StatementList_NoEps]
                                  StatementDes(
                                    DesignStatAssignment(
                                      LDesignator(
                                       niz
                                        LDesExpr(
                                          TermExpr(
                                            TermFact(
                                              FactorConst(
                                                ConstNum(
                                                 1
                                                ) [ConstNum]
                                              ) [FactorConst]
                                            ) [TermFact]
                                          ) [TermExpr]
                                        ) [LDesExpr]
                                      ) [LDesignator]
                                      AssignementExpr(
                                        TermExpr(
                                          TermFact(
                                            FactorDesign(
                                              Designator(
                                               Broj
                                                DesEnum(
                                                 DESET
                                                ) [DesEnum]
                                              ) [Designator]
                                            ) [FactorDesign]
                                          ) [TermFact]
                                        ) [TermExpr]
                                      ) [AssignementExpr]
                                    ) [DesignStatAssignment]
                                  ) [StatementDes]
                                ) [StatementList_NoEps]
                                StatementDes(
                                  DesignStatAssignment(
                                    LDesignator(
                                     bodovi
                                      LDesDerived1(
                                      ) [LDesDerived1]
                                    ) [LDesignator]
                                    AssignementExpr(
                                      TermExpr(
                                        TermMulop(
                                          TermFact(
                                            FactorDesign(
                                              Designator(
                                               niz
                                                DesExpr(
                                                  TermExpr(
                                                    TermFact(
                                                      FactorConst(
                                                        ConstNum(
                                                         1
                                                        ) [ConstNum]
                                                      ) [FactorConst]
                                                    ) [TermFact]
                                                  ) [TermExpr]
                                                ) [DesExpr]
                                              ) [Designator]
                                            ) [FactorDesign]
                                          ) [TermFact]
                                          Divop(
                                          ) [Divop]
                                          FactorDesign(
                                            Designator(
                                             niz
                                              DesExpr(
                                                TermExpr(
                                                  TermFact(
                                                    FactorConst(
                                                      ConstNum(
                                                       0
                                                      ) [ConstNum]
                                                    ) [FactorConst]
                                                  ) [TermFact]
                                                ) [TermExpr]
                                              ) [DesExpr]
                                            ) [Designator]
                                          ) [FactorDesign]
                                        ) [TermMulop]
                                      ) [TermExpr]
                                    ) [AssignementExpr]
                                  ) [DesignStatAssignment]
                                ) [StatementDes]
                              ) [StatementList_NoEps]
                              StatPrint(
                                TermExpr(
                                  TermFact(
                                    FactorDesign(
                                      Designator(
                                       bodovi
                                        DesDerived1(
                                        ) [DesDerived1]
                                      ) [Designator]
                                    ) [FactorDesign]
                                  ) [TermFact]
                                ) [TermExpr]
                              ) [StatPrint]
                            ) [StatementList_NoEps]
                            StatPrint(
                              TermExpr(
                                TermFact(
                                  FactorDesign(
                                    Designator(
                                     niz
                                      DesExpr(
                                        TermExpr(
                                          TermFact(
                                            FactorDesign(
                                              Designator(
                                               Broj
                                                DesEnum(
                                                 JEDAN
                                                ) [DesEnum]
                                              ) [Designator]
                                            ) [FactorDesign]
                                          ) [TermFact]
                                        ) [TermExpr]
                                      ) [DesExpr]
                                    ) [Designator]
                                  ) [FactorDesign]
                                ) [TermFact]
                              ) [TermExpr]
                            ) [StatPrint]
                          ) [StatementList_NoEps]
                          StatementDes(
                            DesignStatAssignment(
                              LDesignator(
                               nizch
                                LDesDerived1(
                                ) [LDesDerived1]
                              ) [LDesignator]
                              AssignementExpr(
                                TermExpr(
                                  TermFact(
                                    FactorNewConst(
                                      Type(
                                       char
                                      ) [Type]
                                      TermExpr(
                                        TermFact(
                                          FactorConst(
                                            ConstNum(
                                             3
                                            ) [ConstNum]
                                          ) [FactorConst]
                                        ) [TermFact]
                                      ) [TermExpr]
                                    ) [FactorNewConst]
                                  ) [TermFact]
                                ) [TermExpr]
                              ) [AssignementExpr]
                            ) [DesignStatAssignment]
                          ) [StatementDes]
                        ) [StatementList_NoEps]
                        StatementDes(
                          DesignStatAssignment(
                            LDesignator(
                             nizch
                              LDesExpr(
                                TermExpr(
                                  TermFact(
                                    FactorConst(
                                      ConstNum(
                                       0
                                      ) [ConstNum]
                                    ) [FactorConst]
                                  ) [TermFact]
                                ) [TermExpr]
                              ) [LDesExpr]
                            ) [LDesignator]
                            AssignementExpr(
                              TermExpr(
                                TermFact(
                                  FactorConst(
                                    ConstChar(
                                     a
                                    ) [ConstChar]
                                  ) [FactorConst]
                                ) [TermFact]
                              ) [TermExpr]
                            ) [AssignementExpr]
                          ) [DesignStatAssignment]
                        ) [StatementDes]
                      ) [StatementList_NoEps]
                      StatementDes(
                        DesignStatAssignment(
                          LDesignator(
                           nizch
                            LDesExpr(
                              TermExpr(
                                TermFact(
                                  FactorDesign(
                                    Designator(
                                     jedan
                                      DesDerived1(
                                      ) [DesDerived1]
                                    ) [Designator]
                                  ) [FactorDesign]
                                ) [TermFact]
                              ) [TermExpr]
                            ) [LDesExpr]
                          ) [LDesignator]
                          AssignementExpr(
                            TermExpr(
                              TermFact(
                                FactorConst(
                                  ConstChar(
                                   b
                                  ) [ConstChar]
                                ) [FactorConst]
                              ) [TermFact]
                            ) [TermExpr]
                          ) [AssignementExpr]
                        ) [DesignStatAssignment]
                      ) [StatementDes]
                    ) [StatementList_NoEps]
                    StatementDes(
                      DesignStatAssignment(
                        LDesignator(
                         nizch
                          LDesExpr(
                            AddopExp(
                              TermExpr(
                                TermFact(
                                  FactorDesign(
                                    Designator(
                                     pet
                                      DesDerived1(
                                      ) [DesDerived1]
                                    ) [Designator]
                                  ) [FactorDesign]
                                ) [TermFact]
                              ) [TermExpr]
                              Subop(
                              ) [Subop]
                              TermFact(
                                FactorConst(
                                  ConstNum(
                                   3
                                  ) [ConstNum]
                                ) [FactorConst]
                              ) [TermFact]
                            ) [AddopExp]
                          ) [LDesExpr]
                        ) [LDesignator]
                        AssignementExpr(
                          TermExpr(
                            TermFact(
                              FactorConst(
                                ConstChar(
                                 c
                                ) [ConstChar]
                              ) [FactorConst]
                            ) [TermFact]
                          ) [TermExpr]
                        ) [AssignementExpr]
                      ) [DesignStatAssignment]
                    ) [StatementDes]
                  ) [StatementList_NoEps]
                  StatPrint(
                    TermExpr(
                      TermFact(
                        FactorDesign(
                          Designator(
                           nizch
                            DesExpr(
                              AddopExp(
                                TermExpr(
                                  TermFact(
                                    FactorConst(
                                      ConstNum(
                                       2
                                      ) [ConstNum]
                                    ) [FactorConst]
                                  ) [TermFact]
                                ) [TermExpr]
                                Subop(
                                ) [Subop]
                                TermFact(
                                  FactorConst(
                                    ConstNum(
                                     1
                                    ) [ConstNum]
                                  ) [FactorConst]
                                ) [TermFact]
                              ) [AddopExp]
                            ) [DesExpr]
                          ) [Designator]
                        ) [FactorDesign]
                      ) [TermFact]
                    ) [TermExpr]
                  ) [StatPrint]
                ) [StatementList_NoEps]
                StatPrint(
                  TermExpr(
                    TermFact(
                      FactorDesign(
                        Designator(
                         nizch
                          DesExpr(
                            TermExpr(
                              TermMulop(
                                TermFact(
                                  FactorDesign(
                                    Designator(
                                     jedan
                                      DesDerived1(
                                      ) [DesDerived1]
                                    ) [Designator]
                                  ) [FactorDesign]
                                ) [TermFact]
                                Mulop(
                                ) [Mulop]
                                FactorConst(
                                  ConstNum(
                                   2
                                  ) [ConstNum]
                                ) [FactorConst]
                              ) [TermMulop]
                            ) [TermExpr]
                          ) [DesExpr]
                        ) [Designator]
                      ) [FactorDesign]
                    ) [TermFact]
                  ) [TermExpr]
                ) [StatPrint]
              ) [StatementList_NoEps]
              StatementDes(
                DesignStatAssignment(
                  LDesignator(
                   bodovi
                    LDesDerived1(
                    ) [LDesDerived1]
                  ) [LDesignator]
                  AssignementExpr(
                    AddopExp(
                      TermExpr(
                        TermFact(
                          FactorDesign(
                            Designator(
                             bodovi
                              DesDerived1(
                              ) [DesDerived1]
                            ) [Designator]
                          ) [FactorDesign]
                        ) [TermFact]
                      ) [TermExpr]
                      Addop(
                      ) [Addop]
                      TermFact(
                        FactorExpr(
                          AddopExp(
                            AddopExp(
                              TermExpr(
                                TermMulop(
                                  TermFact(
                                    FactorExpr(
                                      AddopExp(
                                        TermExpr(
                                          TermMulop(
                                            TermFact(
                                              FactorDesign(
                                                Designator(
                                                 pet
                                                  DesDerived1(
                                                  ) [DesDerived1]
                                                ) [Designator]
                                              ) [FactorDesign]
                                            ) [TermFact]
                                            Mulop(
                                            ) [Mulop]
                                            FactorDesign(
                                              Designator(
                                               jedan
                                                DesDerived1(
                                                ) [DesDerived1]
                                              ) [Designator]
                                            ) [FactorDesign]
                                          ) [TermMulop]
                                        ) [TermExpr]
                                        Subop(
                                        ) [Subop]
                                        TermFact(
                                          FactorConst(
                                            ConstNum(
                                             1
                                            ) [ConstNum]
                                          ) [FactorConst]
                                        ) [TermFact]
                                      ) [AddopExp]
                                    ) [FactorExpr]
                                  ) [TermFact]
                                  Mulop(
                                  ) [Mulop]
                                  FactorConst(
                                    ConstNum(
                                     2
                                    ) [ConstNum]
                                  ) [FactorConst]
                                ) [TermMulop]
                              ) [TermExpr]
                              Subop(
                              ) [Subop]
                              TermFact(
                                FactorExpr(
                                  AddopExp(
                                    AddopExp(
                                      TermExpr(
                                        TermMulop(
                                          TermFact(
                                            FactorConst(
                                              ConstNum(
                                               3
                                              ) [ConstNum]
                                            ) [FactorConst]
                                          ) [TermFact]
                                          Modop(
                                          ) [Modop]
                                          FactorConst(
                                            ConstNum(
                                             2
                                            ) [ConstNum]
                                          ) [FactorConst]
                                        ) [TermMulop]
                                      ) [TermExpr]
                                      Addop(
                                      ) [Addop]
                                      TermMulop(
                                        TermFact(
                                          FactorConst(
                                            ConstNum(
                                             3
                                            ) [ConstNum]
                                          ) [FactorConst]
                                        ) [TermFact]
                                        Mulop(
                                        ) [Mulop]
                                        FactorConst(
                                          ConstNum(
                                           2
                                          ) [ConstNum]
                                        ) [FactorConst]
                                      ) [TermMulop]
                                    ) [AddopExp]
                                    Subop(
                                    ) [Subop]
                                    TermFact(
                                      FactorConst(
                                        ConstNum(
                                         3
                                        ) [ConstNum]
                                      ) [FactorConst]
                                    ) [TermFact]
                                  ) [AddopExp]
                                ) [FactorExpr]
                              ) [TermFact]
                            ) [AddopExp]
                            Subop(
                            ) [Subop]
                            TermMulop(
                              TermFact(
                                FactorDesign(
                                  Designator(
                                   Broj
                                    DesEnum(
                                     JEDAN
                                    ) [DesEnum]
                                  ) [Designator]
                                ) [FactorDesign]
                              ) [TermFact]
                              Mulop(
                              ) [Mulop]
                              FactorConst(
                                ConstNum(
                                 0
                                ) [ConstNum]
                              ) [FactorConst]
                            ) [TermMulop]
                          ) [AddopExp]
                        ) [FactorExpr]
                      ) [TermFact]
                    ) [AddopExp]
                  ) [AssignementExpr]
                ) [DesignStatAssignment]
              ) [StatementDes]
            ) [StatementList_NoEps]
            StatPrint(
              TermExpr(
                TermFact(
                  FactorDesign(
                    Designator(
                     bodovi
                      DesDerived1(
                      ) [DesDerived1]
                    ) [Designator]
                  ) [FactorDesign]
                ) [TermFact]
              ) [TermExpr]
            ) [StatPrint]
          ) [StatementList_NoEps]
          StatRead(
            Designator(
             bodovi
              DesDerived1(
              ) [DesDerived1]
            ) [Designator]
          ) [StatRead]
        ) [StatementList_NoEps]
        StatementDes(
          DesignStatAssignment(
            LDesignator(
             bodovi
              LDesDerived1(
              ) [LDesDerived1]
            ) [LDesignator]
            AssignementExpr(
              AddopExp(
                TermExpr(
                  TermFact(
                    FactorDesign(
                      Designator(
                       bodovi
                        DesDerived1(
                        ) [DesDerived1]
                      ) [Designator]
                    ) [FactorDesign]
                  ) [TermFact]
                ) [TermExpr]
                Addop(
                ) [Addop]
                TermFact(
                  FactorConst(
                    ConstNum(
                     1
                    ) [ConstNum]
                  ) [FactorConst]
                ) [TermFact]
              ) [AddopExp]
            ) [AssignementExpr]
          ) [DesignStatAssignment]
        ) [StatementDes]
      ) [StatementList_NoEps]
      StatPrint(
        TermExpr(
          TermFact(
            FactorDesign(
              Designator(
               bodovi
                DesDerived1(
                ) [DesDerived1]
              ) [Designator]
            ) [FactorDesign]
          ) [TermFact]
        ) [TermExpr]
      ) [StatPrint]
    ) [StatementList_NoEps]
  ) [MethodDecl]
) [Program]
INFO  21:58:32,758 - ===================================
