INFO  16:39:16,087 - Compiling source file: C:\Users\ikadr\Desktop\PP\Projekat\Rad\workspace\MJCompiler\test\program.mj
INFO  16:39:16,087 - ===============SINTAKSNA OBRADA====================
INFO  16:39:16,159 - #2 program
INFO  16:39:16,159 - #28 test301
INFO  16:39:16,159 - #9 enum
INFO  16:39:16,161 - #28 Broj
INFO  16:39:16,161 - #17 {
INFO  16:39:16,163 - #28 NULA
INFO  16:39:16,163 - #12 ,
INFO  16:39:16,163 - #28 JEDAN
INFO  16:39:16,163 - #12 ,
INFO  16:39:16,163 - #28 PET
INFO  16:39:16,163 - #11 =
INFO  16:39:16,164 - #27 5
INFO  16:39:16,164 - #12 ,
INFO  16:39:16,164 - #28 DESET
INFO  16:39:16,164 - #11 =
INFO  16:39:16,164 - #27 10
INFO  16:39:16,164 - #18 }
INFO  16:39:16,164 - #9 enum
INFO  16:39:16,167 - #28 Boja
INFO  16:39:16,167 - #17 {
INFO  16:39:16,167 - #28 CRVENA
INFO  16:39:16,168 - #12 ,
INFO  16:39:16,168 - #28 PLAVA
INFO  16:39:16,168 - #12 ,
INFO  16:39:16,168 - #28 ZELENA
INFO  16:39:16,168 - #18 }
INFO  16:39:16,168 - #8 const
INFO  16:39:16,169 - #28 int
INFO  16:39:16,169 - #28 jedan
INFO  16:39:16,170 - #11 =
INFO  16:39:16,171 - #27 1
INFO  16:39:16,171 - #10 ;
INFO  16:39:16,172 - #8 const
INFO  16:39:16,174 - #28 int
INFO  16:39:16,174 - #28 pet
INFO  16:39:16,175 - #11 =
INFO  16:39:16,175 - #27 5
INFO  16:39:16,175 - #10 ;
INFO  16:39:16,175 - #28 int
INFO  16:39:16,175 - #28 niz
INFO  16:39:16,175 - #15 [
INFO  16:39:16,175 - #16 ]
INFO  16:39:16,175 - #10 ;
INFO  16:39:16,181 - #28 char
INFO  16:39:16,196 - #28 nizch
INFO  16:39:16,196 - #15 [
INFO  16:39:16,197 - #16 ]
INFO  16:39:16,197 - #10 ;
INFO  16:39:16,197 - #17 {
INFO  16:39:16,198 - #6 void
INFO  16:39:16,198 - #28 main
INFO  16:39:16,200 - #13 (
INFO  16:39:16,202 - #14 )
INFO  16:39:16,202 - #28 int
INFO  16:39:16,206 - #28 bodovi
INFO  16:39:16,206 - #10 ;
INFO  16:39:16,207 - #28 Broj
INFO  16:39:16,211 - #28 nula
INFO  16:39:16,211 - #12 ,
INFO  16:39:16,211 - #28 jedan
INFO  16:39:16,211 - #10 ;
INFO  16:39:16,213 - #28 Boja
INFO  16:39:16,213 - #28 neka
INFO  16:39:16,213 - #10 ;
INFO  16:39:16,213 - #17 {
INFO  16:39:16,217 - #28 jedan
INFO  16:39:16,219 - #11 =
INFO  16:39:16,244 - #28 Oblik
INFO  16:39:16,244 - #19 .
INFO  16:39:16,245 - #28 PET
INFO  16:39:16,245 - #10 ;
INFO  16:39:16,246 - #28 neka
INFO  16:39:16,247 - #11 =
INFO  16:39:16,247 - #28 Boja
INFO  16:39:16,247 - #19 .
INFO  16:39:16,247 - #28 BELA
INFO  16:39:16,247 - #10 ;
INFO  16:39:16,249 - #28 bodovi
INFO  16:39:16,250 - #11 =
INFO  16:39:16,250 - #27 0
INFO  16:39:16,258 - #10 ;
INFO  16:39:16,259 - #28 bodovi
INFO  16:39:16,259 - #20 ++
INFO  16:39:16,259 - #10 ;
INFO  16:39:16,260 - #28 bodovi
INFO  16:39:16,260 - #11 =
INFO  16:39:16,260 - #28 bodovi
INFO  16:39:16,261 - #23 +
INFO  16:39:16,261 - #28 jedan
INFO  16:39:16,264 - #10 ;
INFO  16:39:16,274 - #28 bodovi
INFO  16:39:16,275 - #11 =
INFO  16:39:16,275 - #28 bodovi
INFO  16:39:16,275 - #24 *
INFO  16:39:16,275 - #28 pet
INFO  16:39:16,281 - #10 ;
INFO  16:39:16,290 - #28 bodovi
INFO  16:39:16,290 - #21 --
INFO  16:39:16,290 - #10 ;
INFO  16:39:16,292 - #4 print
INFO  16:39:16,292 - #13 (
INFO  16:39:16,292 - #28 bodovi
INFO  16:39:16,293 - #14 )
INFO  16:39:16,293 - #10 ;
INFO  16:39:16,293 - #28 niz
INFO  16:39:16,294 - #11 =
INFO  16:39:16,294 - #5 new
INFO  16:39:16,295 - #28 int
INFO  16:39:16,303 - #15 [
INFO  16:39:16,303 - #27 2
INFO  16:39:16,304 - #16 ]
INFO  16:39:16,306 - #10 ;
INFO  16:39:16,309 - #28 niz
INFO  16:39:16,310 - #15 [
INFO  16:39:16,311 - #28 nula
INFO  16:39:16,312 - #16 ]
INFO  16:39:16,312 - #11 =
INFO  16:39:16,312 - #28 pet
INFO  16:39:16,312 - #10 ;
INFO  16:39:16,313 - #28 niz
INFO  16:39:16,313 - #15 [
INFO  16:39:16,313 - #27 1
INFO  16:39:16,313 - #16 ]
INFO  16:39:16,313 - #11 =
INFO  16:39:16,313 - #28 Broj
INFO  16:39:16,314 - #19 .
INFO  16:39:16,314 - #28 DESET
INFO  16:39:16,314 - #10 ;
INFO  16:39:16,314 - #28 bodovi
INFO  16:39:16,314 - #11 =
INFO  16:39:16,314 - #28 niz
INFO  16:39:16,315 - #15 [
INFO  16:39:16,317 - #27 1
INFO  16:39:16,317 - #16 ]
INFO  16:39:16,317 - #25 /
INFO  16:39:16,318 - #28 niz
INFO  16:39:16,319 - #15 [
INFO  16:39:16,319 - #27 0
INFO  16:39:16,320 - #16 ]
INFO  16:39:16,320 - #10 ;
INFO  16:39:16,320 - #4 print
INFO  16:39:16,320 - #13 (
INFO  16:39:16,320 - #28 bodovi
INFO  16:39:16,320 - #14 )
INFO  16:39:16,321 - #10 ;
INFO  16:39:16,321 - #4 print
INFO  16:39:16,321 - #13 (
INFO  16:39:16,321 - #28 niz
INFO  16:39:16,321 - #15 [
INFO  16:39:16,321 - #28 Broj
INFO  16:39:16,322 - #19 .
INFO  16:39:16,322 - #28 JEDAN
INFO  16:39:16,322 - #16 ]
INFO  16:39:16,322 - #14 )
INFO  16:39:16,322 - #10 ;
INFO  16:39:16,322 - #28 nizch
INFO  16:39:16,322 - #11 =
INFO  16:39:16,323 - #5 new
INFO  16:39:16,323 - #28 char
INFO  16:39:16,323 - #15 [
INFO  16:39:16,323 - #27 3
INFO  16:39:16,323 - #16 ]
INFO  16:39:16,323 - #10 ;
INFO  16:39:16,324 - #28 nizch
INFO  16:39:16,324 - #15 [
INFO  16:39:16,324 - #27 0
INFO  16:39:16,324 - #16 ]
INFO  16:39:16,324 - #11 =
INFO  16:39:16,324 - #29 a
INFO  16:39:16,325 - #10 ;
INFO  16:39:16,325 - #28 nizch
INFO  16:39:16,325 - #15 [
INFO  16:39:16,325 - #28 jedan
INFO  16:39:16,325 - #16 ]
INFO  16:39:16,326 - #11 =
INFO  16:39:16,326 - #29 b
INFO  16:39:16,326 - #10 ;
INFO  16:39:16,326 - #28 nizch
INFO  16:39:16,326 - #15 [
INFO  16:39:16,327 - #28 pet
INFO  16:39:16,327 - #22 -
INFO  16:39:16,327 - #27 3
INFO  16:39:16,329 - #16 ]
INFO  16:39:16,329 - #11 =
INFO  16:39:16,329 - #29 c
INFO  16:39:16,329 - #10 ;
INFO  16:39:16,330 - #4 print
INFO  16:39:16,330 - #13 (
INFO  16:39:16,330 - #28 nizch
INFO  16:39:16,330 - #15 [
INFO  16:39:16,331 - #27 2
INFO  16:39:16,331 - #22 -
INFO  16:39:16,331 - #27 1
INFO  16:39:16,331 - #16 ]
INFO  16:39:16,332 - #14 )
INFO  16:39:16,332 - #10 ;
INFO  16:39:16,332 - #4 print
INFO  16:39:16,332 - #13 (
INFO  16:39:16,332 - #28 nizch
INFO  16:39:16,332 - #15 [
INFO  16:39:16,332 - #28 jedan
INFO  16:39:16,332 - #24 *
INFO  16:39:16,332 - #27 2
INFO  16:39:16,336 - #16 ]
INFO  16:39:16,336 - #14 )
INFO  16:39:16,336 - #10 ;
INFO  16:39:16,337 - #28 bodovi
INFO  16:39:16,337 - #11 =
INFO  16:39:16,337 - #28 bodovi
INFO  16:39:16,337 - #23 +
INFO  16:39:16,337 - #13 (
INFO  16:39:16,337 - #13 (
INFO  16:39:16,337 - #28 pet
INFO  16:39:16,338 - #24 *
INFO  16:39:16,338 - #28 jedan
INFO  16:39:16,338 - #22 -
INFO  16:39:16,338 - #27 1
INFO  16:39:16,338 - #14 )
INFO  16:39:16,338 - #24 *
INFO  16:39:16,339 - #27 2
INFO  16:39:16,339 - #22 -
INFO  16:39:16,339 - #13 (
INFO  16:39:16,339 - #27 3
INFO  16:39:16,339 - #26 %
INFO  16:39:16,340 - #27 2
INFO  16:39:16,341 - #23 +
INFO  16:39:16,341 - #27 3
INFO  16:39:16,341 - #24 *
INFO  16:39:16,342 - #27 2
INFO  16:39:16,342 - #22 -
INFO  16:39:16,342 - #27 3
INFO  16:39:16,342 - #14 )
INFO  16:39:16,342 - #22 -
INFO  16:39:16,342 - #28 Broj
INFO  16:39:16,343 - #19 .
INFO  16:39:16,343 - #28 JEDAN
INFO  16:39:16,343 - #24 *
INFO  16:39:16,343 - #27 0
INFO  16:39:16,343 - #14 )
INFO  16:39:16,343 - #10 ;
INFO  16:39:16,344 - #4 print
INFO  16:39:16,344 - #13 (
INFO  16:39:16,344 - #28 bodovi
INFO  16:39:16,344 - #14 )
INFO  16:39:16,344 - #10 ;
INFO  16:39:16,345 - #3 read
INFO  16:39:16,345 - #13 (
INFO  16:39:16,345 - #28 bodovi
INFO  16:39:16,345 - #14 )
INFO  16:39:16,345 - #10 ;
INFO  16:39:16,345 - #28 bodovi
INFO  16:39:16,346 - #11 =
INFO  16:39:16,346 - #28 bodovi
INFO  16:39:16,346 - #23 +
INFO  16:39:16,349 - #27 1
INFO  16:39:16,349 - #10 ;
INFO  16:39:16,350 - #4 print
INFO  16:39:16,350 - #13 (
INFO  16:39:16,350 - #28 bodovi
INFO  16:39:16,350 - #14 )
INFO  16:39:16,351 - #10 ;
INFO  16:39:16,351 - #18 }
INFO  16:39:16,351 - #18 }
INFO  16:39:16,399 - Program(
  ProgName(
   test301
  ) [ProgName]
  GlobalDeclListL(
    GlobalDeclListL(
      GlobalDeclListL(
        GlobalDeclListL(
          GlobalDeclListL(
            GlobalDeclListL(
              GlobalDeclListEps(
              ) [GlobalDeclListEps]
              GlobalDeclEnum(
                EnumDecl(
                  EnumName(
                   Broj
                  ) [EnumName]
                  EnumDeclListL(
                    EnumDeclListL(
                      EnumDeclListL(
                        EnumDeclItem(
                          EnumDeclDefNoVal(
                           NULA
                          ) [EnumDeclDefNoVal]
                        ) [EnumDeclItem]
                        EnumDeclDefNoVal(
                         JEDAN
                        ) [EnumDeclDefNoVal]
                      ) [EnumDeclListL]
                      EnumDeclDefVal(
                       PET
                       5
                      ) [EnumDeclDefVal]
                    ) [EnumDeclListL]
                    EnumDeclDefVal(
                     DESET
                     10
                    ) [EnumDeclDefVal]
                  ) [EnumDeclListL]
                ) [EnumDecl]
              ) [GlobalDeclEnum]
            ) [GlobalDeclListL]
            GlobalDeclEnum(
              EnumDecl(
                EnumName(
                 Boja
                ) [EnumName]
                EnumDeclListL(
                  EnumDeclListL(
                    EnumDeclItem(
                      EnumDeclDefNoVal(
                       CRVENA
                      ) [EnumDeclDefNoVal]
                    ) [EnumDeclItem]
                    EnumDeclDefNoVal(
                     PLAVA
                    ) [EnumDeclDefNoVal]
                  ) [EnumDeclListL]
                  EnumDeclDefNoVal(
                   ZELENA
                  ) [EnumDeclDefNoVal]
                ) [EnumDeclListL]
              ) [EnumDecl]
            ) [GlobalDeclEnum]
          ) [GlobalDeclListL]
          GlobalDeclConst(
            ConstDecl(
              Type(
               int
              ) [Type]
              ConstDeclItem(
                ConstDef(
                 jedan
                  ConstNum(
                   1
                  ) [ConstNum]
                ) [ConstDef]
              ) [ConstDeclItem]
            ) [ConstDecl]
          ) [GlobalDeclConst]
        ) [GlobalDeclListL]
        GlobalDeclConst(
          ConstDecl(
            Type(
             int
            ) [Type]
            ConstDeclItem(
              ConstDef(
               pet
                ConstNum(
                 5
                ) [ConstNum]
              ) [ConstDef]
            ) [ConstDeclItem]
          ) [ConstDecl]
        ) [GlobalDeclConst]
      ) [GlobalDeclListL]
      GlobalDeclVar(
        GlobalVarDecl(
          Type(
           int
          ) [Type]
          GlobalVarDeclItem(
            GlobalVarDeclDefOk(
              VarDeclDefineArray(
               niz
              ) [VarDeclDefineArray]
            ) [GlobalVarDeclDefOk]
          ) [GlobalVarDeclItem]
        ) [GlobalVarDecl]
      ) [GlobalDeclVar]
    ) [GlobalDeclListL]
    GlobalDeclVar(
      GlobalVarDecl(
        Type(
         char
        ) [Type]
        GlobalVarDeclItem(
          GlobalVarDeclDefOk(
            VarDeclDefineArray(
             nizch
            ) [VarDeclDefineArray]
          ) [GlobalVarDeclDefOk]
        ) [GlobalVarDeclItem]
      ) [GlobalVarDecl]
    ) [GlobalDeclVar]
  ) [GlobalDeclListL]
  MethodDecl(
    MethodSignature(
      VoidableType(
      ) [VoidableType]
     main
    ) [MethodSignature]
    VarMethodDeclList_NoEps(
      VarMethodDeclList_NoEps(
        VarMethodDeclList_NoEps(
          VarMethodDeclList_Eps(
          ) [VarMethodDeclList_Eps]
          VarDecl(
            Type(
             int
            ) [Type]
            VarDeclItem(
              VarDeclDefineSingle(
               bodovi
              ) [VarDeclDefineSingle]
            ) [VarDeclItem]
          ) [VarDecl]
        ) [VarMethodDeclList_NoEps]
        VarDecl(
          Type(
           Broj
          ) [Type]
          VarDeclListL(
            VarDeclItem(
              VarDeclDefineSingle(
               nula
              ) [VarDeclDefineSingle]
            ) [VarDeclItem]
            VarDeclDefineSingle(
             jedan
            ) [VarDeclDefineSingle]
          ) [VarDeclListL]
        ) [VarDecl]
      ) [VarMethodDeclList_NoEps]
      VarDecl(
        Type(
         Boja
        ) [Type]
        VarDeclItem(
          VarDeclDefineSingle(
           neka
          ) [VarDeclDefineSingle]
        ) [VarDeclItem]
      ) [VarDecl]
    ) [VarMethodDeclList_NoEps]
    StatementList_NoEps(
      StatementList_NoEps(
        StatementList_NoEps(
          StatementList_NoEps(
            StatementList_NoEps(
              StatementList_NoEps(
                StatementList_NoEps(
                  StatementList_NoEps(
                    StatementList_NoEps(
                      StatementList_NoEps(
                        StatementList_NoEps(
                          StatementList_NoEps(
                            StatementList_NoEps(
                              StatementList_NoEps(
                                StatementList_NoEps(
                                  StatementList_NoEps(
                                    StatementList_NoEps(
                                      StatementList_NoEps(
                                        StatementList_NoEps(
                                          StatementList_NoEps(
                                            StatementList_NoEps(
                                              StatementList_NoEps(
                                                StatementList_NoEps(
                                                  StatementList_NoEps(
                                                    StatementList_NoEps(
                                                      StatementList_Eps(
                                                      ) [StatementList_Eps]
                                                      StatementDes(
                                                        DesignStatAssignment(
                                                          DesIdent(
                                                           jedan
                                                          ) [DesIdent]
                                                          AssignementExpr(
                                                            TermExpr(
                                                              TermFact(
                                                                FactorDesign(
                                                                  DesEnum(
                                                                   Oblik
                                                                   PET
                                                                  ) [DesEnum]
                                                                ) [FactorDesign]
                                                              ) [TermFact]
                                                            ) [TermExpr]
                                                          ) [AssignementExpr]
                                                        ) [DesignStatAssignment]
                                                      ) [StatementDes]
                                                    ) [StatementList_NoEps]
                                                    StatementDes(
                                                      DesignStatAssignment(
                                                        DesIdent(
                                                         neka
                                                        ) [DesIdent]
                                                        AssignementExpr(
                                                          TermExpr(
                                                            TermFact(
                                                              FactorDesign(
                                                                DesEnum(
                                                                 Boja
                                                                 BELA
                                                                ) [DesEnum]
                                                              ) [FactorDesign]
                                                            ) [TermFact]
                                                          ) [TermExpr]
                                                        ) [AssignementExpr]
                                                      ) [DesignStatAssignment]
                                                    ) [StatementDes]
                                                  ) [StatementList_NoEps]
                                                  StatementDes(
                                                    DesignStatAssignment(
                                                      DesIdent(
                                                       bodovi
                                                      ) [DesIdent]
                                                      AssignementExpr(
                                                        TermExpr(
                                                          TermFact(
                                                            FactorConst(
                                                              ConstNum(
                                                               0
                                                              ) [ConstNum]
                                                            ) [FactorConst]
                                                          ) [TermFact]
                                                        ) [TermExpr]
                                                      ) [AssignementExpr]
                                                    ) [DesignStatAssignment]
                                                  ) [StatementDes]
                                                ) [StatementList_NoEps]
                                                StatementDes(
                                                  DesignStatInc(
                                                    DesIdent(
                                                     bodovi
                                                    ) [DesIdent]
                                                  ) [DesignStatInc]
                                                ) [StatementDes]
                                              ) [StatementList_NoEps]
                                              StatementDes(
                                                DesignStatAssignment(
                                                  DesIdent(
                                                   bodovi
                                                  ) [DesIdent]
                                                  AssignementExpr(
                                                    AddopExp(
                                                      TermExpr(
                                                        TermFact(
                                                          FactorDesign(
                                                            DesIdent(
                                                             bodovi
                                                            ) [DesIdent]
                                                          ) [FactorDesign]
                                                        ) [TermFact]
                                                      ) [TermExpr]
                                                      Addop_Plus(
                                                      ) [Addop_Plus]
                                                      TermFact(
                                                        FactorDesign(
                                                          DesIdent(
                                                           jedan
                                                          ) [DesIdent]
                                                        ) [FactorDesign]
                                                      ) [TermFact]
                                                    ) [AddopExp]
                                                  ) [AssignementExpr]
                                                ) [DesignStatAssignment]
                                              ) [StatementDes]
                                            ) [StatementList_NoEps]
                                            StatementDes(
                                              DesignStatAssignment(
                                                DesIdent(
                                                 bodovi
                                                ) [DesIdent]
                                                AssignementExpr(
                                                  TermExpr(
                                                    TermMulop(
                                                      TermFact(
                                                        FactorDesign(
                                                          DesIdent(
                                                           bodovi
                                                          ) [DesIdent]
                                                        ) [FactorDesign]
                                                      ) [TermFact]
                                                      Mulop_Mul(
                                                      ) [Mulop_Mul]
                                                      FactorDesign(
                                                        DesIdent(
                                                         pet
                                                        ) [DesIdent]
                                                      ) [FactorDesign]
                                                    ) [TermMulop]
                                                  ) [TermExpr]
                                                ) [AssignementExpr]
                                              ) [DesignStatAssignment]
                                            ) [StatementDes]
                                          ) [StatementList_NoEps]
                                          StatementDes(
                                            DesignStatDec(
                                              DesIdent(
                                               bodovi
                                              ) [DesIdent]
                                            ) [DesignStatDec]
                                          ) [StatementDes]
                                        ) [StatementList_NoEps]
                                        StatPrint(
                                          TermExpr(
                                            TermFact(
                                              FactorDesign(
                                                DesIdent(
                                                 bodovi
                                                ) [DesIdent]
                                              ) [FactorDesign]
                                            ) [TermFact]
                                          ) [TermExpr]
                                        ) [StatPrint]
                                      ) [StatementList_NoEps]
                                      StatementDes(
                                        DesignStatAssignment(
                                          DesIdent(
                                           niz
                                          ) [DesIdent]
                                          AssignementExpr(
                                            TermExpr(
                                              TermFact(
                                                FactorNewArr(
                                                  Type(
                                                   int
                                                  ) [Type]
                                                  TermExpr(
                                                    TermFact(
                                                      FactorConst(
                                                        ConstNum(
                                                         2
                                                        ) [ConstNum]
                                                      ) [FactorConst]
                                                    ) [TermFact]
                                                  ) [TermExpr]
                                                ) [FactorNewArr]
                                              ) [TermFact]
                                            ) [TermExpr]
                                          ) [AssignementExpr]
                                        ) [DesignStatAssignment]
                                      ) [StatementDes]
                                    ) [StatementList_NoEps]
                                    StatementDes(
                                      DesignStatAssignment(
                                        DesArr(
                                          ArrayName(
                                           niz
                                          ) [ArrayName]
                                          TermExpr(
                                            TermFact(
                                              FactorDesign(
                                                DesIdent(
                                                 nula
                                                ) [DesIdent]
                                              ) [FactorDesign]
                                            ) [TermFact]
                                          ) [TermExpr]
                                        ) [DesArr]
                                        AssignementExpr(
                                          TermExpr(
                                            TermFact(
                                              FactorDesign(
                                                DesIdent(
                                                 pet
                                                ) [DesIdent]
                                              ) [FactorDesign]
                                            ) [TermFact]
                                          ) [TermExpr]
                                        ) [AssignementExpr]
                                      ) [DesignStatAssignment]
                                    ) [StatementDes]
                                  ) [StatementList_NoEps]
                                  StatementDes(
                                    DesignStatAssignment(
                                      DesArr(
                                        ArrayName(
                                         niz
                                        ) [ArrayName]
                                        TermExpr(
                                          TermFact(
                                            FactorConst(
                                              ConstNum(
                                               1
                                              ) [ConstNum]
                                            ) [FactorConst]
                                          ) [TermFact]
                                        ) [TermExpr]
                                      ) [DesArr]
                                      AssignementExpr(
                                        TermExpr(
                                          TermFact(
                                            FactorDesign(
                                              DesEnum(
                                               Broj
                                               DESET
                                              ) [DesEnum]
                                            ) [FactorDesign]
                                          ) [TermFact]
                                        ) [TermExpr]
                                      ) [AssignementExpr]
                                    ) [DesignStatAssignment]
                                  ) [StatementDes]
                                ) [StatementList_NoEps]
                                StatementDes(
                                  DesignStatAssignment(
                                    DesIdent(
                                     bodovi
                                    ) [DesIdent]
                                    AssignementExpr(
                                      TermExpr(
                                        TermMulop(
                                          TermFact(
                                            FactorDesign(
                                              DesArr(
                                                ArrayName(
                                                 niz
                                                ) [ArrayName]
                                                TermExpr(
                                                  TermFact(
                                                    FactorConst(
                                                      ConstNum(
                                                       1
                                                      ) [ConstNum]
                                                    ) [FactorConst]
                                                  ) [TermFact]
                                                ) [TermExpr]
                                              ) [DesArr]
                                            ) [FactorDesign]
                                          ) [TermFact]
                                          Mulop_Div(
                                          ) [Mulop_Div]
                                          FactorDesign(
                                            DesArr(
                                              ArrayName(
                                               niz
                                              ) [ArrayName]
                                              TermExpr(
                                                TermFact(
                                                  FactorConst(
                                                    ConstNum(
                                                     0
                                                    ) [ConstNum]
                                                  ) [FactorConst]
                                                ) [TermFact]
                                              ) [TermExpr]
                                            ) [DesArr]
                                          ) [FactorDesign]
                                        ) [TermMulop]
                                      ) [TermExpr]
                                    ) [AssignementExpr]
                                  ) [DesignStatAssignment]
                                ) [StatementDes]
                              ) [StatementList_NoEps]
                              StatPrint(
                                TermExpr(
                                  TermFact(
                                    FactorDesign(
                                      DesIdent(
                                       bodovi
                                      ) [DesIdent]
                                    ) [FactorDesign]
                                  ) [TermFact]
                                ) [TermExpr]
                              ) [StatPrint]
                            ) [StatementList_NoEps]
                            StatPrint(
                              TermExpr(
                                TermFact(
                                  FactorDesign(
                                    DesArr(
                                      ArrayName(
                                       niz
                                      ) [ArrayName]
                                      TermExpr(
                                        TermFact(
                                          FactorDesign(
                                            DesEnum(
                                             Broj
                                             JEDAN
                                            ) [DesEnum]
                                          ) [FactorDesign]
                                        ) [TermFact]
                                      ) [TermExpr]
                                    ) [DesArr]
                                  ) [FactorDesign]
                                ) [TermFact]
                              ) [TermExpr]
                            ) [StatPrint]
                          ) [StatementList_NoEps]
                          StatementDes(
                            DesignStatAssignment(
                              DesIdent(
                               nizch
                              ) [DesIdent]
                              AssignementExpr(
                                TermExpr(
                                  TermFact(
                                    FactorNewArr(
                                      Type(
                                       char
                                      ) [Type]
                                      TermExpr(
                                        TermFact(
                                          FactorConst(
                                            ConstNum(
                                             3
                                            ) [ConstNum]
                                          ) [FactorConst]
                                        ) [TermFact]
                                      ) [TermExpr]
                                    ) [FactorNewArr]
                                  ) [TermFact]
                                ) [TermExpr]
                              ) [AssignementExpr]
                            ) [DesignStatAssignment]
                          ) [StatementDes]
                        ) [StatementList_NoEps]
                        StatementDes(
                          DesignStatAssignment(
                            DesArr(
                              ArrayName(
                               nizch
                              ) [ArrayName]
                              TermExpr(
                                TermFact(
                                  FactorConst(
                                    ConstNum(
                                     0
                                    ) [ConstNum]
                                  ) [FactorConst]
                                ) [TermFact]
                              ) [TermExpr]
                            ) [DesArr]
                            AssignementExpr(
                              TermExpr(
                                TermFact(
                                  FactorConst(
                                    ConstChar(
                                     a
                                    ) [ConstChar]
                                  ) [FactorConst]
                                ) [TermFact]
                              ) [TermExpr]
                            ) [AssignementExpr]
                          ) [DesignStatAssignment]
                        ) [StatementDes]
                      ) [StatementList_NoEps]
                      StatementDes(
                        DesignStatAssignment(
                          DesArr(
                            ArrayName(
                             nizch
                            ) [ArrayName]
                            TermExpr(
                              TermFact(
                                FactorDesign(
                                  DesIdent(
                                   jedan
                                  ) [DesIdent]
                                ) [FactorDesign]
                              ) [TermFact]
                            ) [TermExpr]
                          ) [DesArr]
                          AssignementExpr(
                            TermExpr(
                              TermFact(
                                FactorConst(
                                  ConstChar(
                                   b
                                  ) [ConstChar]
                                ) [FactorConst]
                              ) [TermFact]
                            ) [TermExpr]
                          ) [AssignementExpr]
                        ) [DesignStatAssignment]
                      ) [StatementDes]
                    ) [StatementList_NoEps]
                    StatementDes(
                      DesignStatAssignment(
                        DesArr(
                          ArrayName(
                           nizch
                          ) [ArrayName]
                          AddopExp(
                            TermExpr(
                              TermFact(
                                FactorDesign(
                                  DesIdent(
                                   pet
                                  ) [DesIdent]
                                ) [FactorDesign]
                              ) [TermFact]
                            ) [TermExpr]
                            Addop_Minus(
                            ) [Addop_Minus]
                            TermFact(
                              FactorConst(
                                ConstNum(
                                 3
                                ) [ConstNum]
                              ) [FactorConst]
                            ) [TermFact]
                          ) [AddopExp]
                        ) [DesArr]
                        AssignementExpr(
                          TermExpr(
                            TermFact(
                              FactorConst(
                                ConstChar(
                                 c
                                ) [ConstChar]
                              ) [FactorConst]
                            ) [TermFact]
                          ) [TermExpr]
                        ) [AssignementExpr]
                      ) [DesignStatAssignment]
                    ) [StatementDes]
                  ) [StatementList_NoEps]
                  StatPrint(
                    TermExpr(
                      TermFact(
                        FactorDesign(
                          DesArr(
                            ArrayName(
                             nizch
                            ) [ArrayName]
                            AddopExp(
                              TermExpr(
                                TermFact(
                                  FactorConst(
                                    ConstNum(
                                     2
                                    ) [ConstNum]
                                  ) [FactorConst]
                                ) [TermFact]
                              ) [TermExpr]
                              Addop_Minus(
                              ) [Addop_Minus]
                              TermFact(
                                FactorConst(
                                  ConstNum(
                                   1
                                  ) [ConstNum]
                                ) [FactorConst]
                              ) [TermFact]
                            ) [AddopExp]
                          ) [DesArr]
                        ) [FactorDesign]
                      ) [TermFact]
                    ) [TermExpr]
                  ) [StatPrint]
                ) [StatementList_NoEps]
                StatPrint(
                  TermExpr(
                    TermFact(
                      FactorDesign(
                        DesArr(
                          ArrayName(
                           nizch
                          ) [ArrayName]
                          TermExpr(
                            TermMulop(
                              TermFact(
                                FactorDesign(
                                  DesIdent(
                                   jedan
                                  ) [DesIdent]
                                ) [FactorDesign]
                              ) [TermFact]
                              Mulop_Mul(
                              ) [Mulop_Mul]
                              FactorConst(
                                ConstNum(
                                 2
                                ) [ConstNum]
                              ) [FactorConst]
                            ) [TermMulop]
                          ) [TermExpr]
                        ) [DesArr]
                      ) [FactorDesign]
                    ) [TermFact]
                  ) [TermExpr]
                ) [StatPrint]
              ) [StatementList_NoEps]
              StatementDes(
                DesignStatAssignment(
                  DesIdent(
                   bodovi
                  ) [DesIdent]
                  AssignementExpr(
                    AddopExp(
                      TermExpr(
                        TermFact(
                          FactorDesign(
                            DesIdent(
                             bodovi
                            ) [DesIdent]
                          ) [FactorDesign]
                        ) [TermFact]
                      ) [TermExpr]
                      Addop_Plus(
                      ) [Addop_Plus]
                      TermFact(
                        FactorExpr(
                          AddopExp(
                            AddopExp(
                              TermExpr(
                                TermMulop(
                                  TermFact(
                                    FactorExpr(
                                      AddopExp(
                                        TermExpr(
                                          TermMulop(
                                            TermFact(
                                              FactorDesign(
                                                DesIdent(
                                                 pet
                                                ) [DesIdent]
                                              ) [FactorDesign]
                                            ) [TermFact]
                                            Mulop_Mul(
                                            ) [Mulop_Mul]
                                            FactorDesign(
                                              DesIdent(
                                               jedan
                                              ) [DesIdent]
                                            ) [FactorDesign]
                                          ) [TermMulop]
                                        ) [TermExpr]
                                        Addop_Minus(
                                        ) [Addop_Minus]
                                        TermFact(
                                          FactorConst(
                                            ConstNum(
                                             1
                                            ) [ConstNum]
                                          ) [FactorConst]
                                        ) [TermFact]
                                      ) [AddopExp]
                                    ) [FactorExpr]
                                  ) [TermFact]
                                  Mulop_Mul(
                                  ) [Mulop_Mul]
                                  FactorConst(
                                    ConstNum(
                                     2
                                    ) [ConstNum]
                                  ) [FactorConst]
                                ) [TermMulop]
                              ) [TermExpr]
                              Addop_Minus(
                              ) [Addop_Minus]
                              TermFact(
                                FactorExpr(
                                  AddopExp(
                                    AddopExp(
                                      TermExpr(
                                        TermMulop(
                                          TermFact(
                                            FactorConst(
                                              ConstNum(
                                               3
                                              ) [ConstNum]
                                            ) [FactorConst]
                                          ) [TermFact]
                                          Mulop_Mod(
                                          ) [Mulop_Mod]
                                          FactorConst(
                                            ConstNum(
                                             2
                                            ) [ConstNum]
                                          ) [FactorConst]
                                        ) [TermMulop]
                                      ) [TermExpr]
                                      Addop_Plus(
                                      ) [Addop_Plus]
                                      TermMulop(
                                        TermFact(
                                          FactorConst(
                                            ConstNum(
                                             3
                                            ) [ConstNum]
                                          ) [FactorConst]
                                        ) [TermFact]
                                        Mulop_Mul(
                                        ) [Mulop_Mul]
                                        FactorConst(
                                          ConstNum(
                                           2
                                          ) [ConstNum]
                                        ) [FactorConst]
                                      ) [TermMulop]
                                    ) [AddopExp]
                                    Addop_Minus(
                                    ) [Addop_Minus]
                                    TermFact(
                                      FactorConst(
                                        ConstNum(
                                         3
                                        ) [ConstNum]
                                      ) [FactorConst]
                                    ) [TermFact]
                                  ) [AddopExp]
                                ) [FactorExpr]
                              ) [TermFact]
                            ) [AddopExp]
                            Addop_Minus(
                            ) [Addop_Minus]
                            TermMulop(
                              TermFact(
                                FactorDesign(
                                  DesEnum(
                                   Broj
                                   JEDAN
                                  ) [DesEnum]
                                ) [FactorDesign]
                              ) [TermFact]
                              Mulop_Mul(
                              ) [Mulop_Mul]
                              FactorConst(
                                ConstNum(
                                 0
                                ) [ConstNum]
                              ) [FactorConst]
                            ) [TermMulop]
                          ) [AddopExp]
                        ) [FactorExpr]
                      ) [TermFact]
                    ) [AddopExp]
                  ) [AssignementExpr]
                ) [DesignStatAssignment]
              ) [StatementDes]
            ) [StatementList_NoEps]
            StatPrint(
              TermExpr(
                TermFact(
                  FactorDesign(
                    DesIdent(
                     bodovi
                    ) [DesIdent]
                  ) [FactorDesign]
                ) [TermFact]
              ) [TermExpr]
            ) [StatPrint]
          ) [StatementList_NoEps]
          StatRead(
            DesIdent(
             bodovi
            ) [DesIdent]
          ) [StatRead]
        ) [StatementList_NoEps]
        StatementDes(
          DesignStatAssignment(
            DesIdent(
             bodovi
            ) [DesIdent]
            AssignementExpr(
              AddopExp(
                TermExpr(
                  TermFact(
                    FactorDesign(
                      DesIdent(
                       bodovi
                      ) [DesIdent]
                    ) [FactorDesign]
                  ) [TermFact]
                ) [TermExpr]
                Addop_Plus(
                ) [Addop_Plus]
                TermFact(
                  FactorConst(
                    ConstNum(
                     1
                    ) [ConstNum]
                  ) [FactorConst]
                ) [TermFact]
              ) [AddopExp]
            ) [AssignementExpr]
          ) [DesignStatAssignment]
        ) [StatementDes]
      ) [StatementList_NoEps]
      StatPrint(
        TermExpr(
          TermFact(
            FactorDesign(
              DesIdent(
               bodovi
              ) [DesIdent]
            ) [FactorDesign]
          ) [TermFact]
        ) [TermExpr]
      ) [StatPrint]
    ) [StatementList_NoEps]
  ) [MethodDecl]
) [Program]
INFO  16:39:16,414 - ===============SEMANTICKA OBRADA====================
INFO  16:39:16,423 - Deklarisan novi enum tip Broj na liniji 5
INFO  16:39:16,424 - Deklarisana konstanta Broj.NULA unutar enuma Broj na liniji 5
INFO  16:39:16,426 - Deklarisana konstanta Broj.JEDAN unutar enuma Broj na liniji 5
INFO  16:39:16,426 - Deklarisana konstanta Broj.PET unutar enuma Broj na liniji 5
INFO  16:39:16,426 - Deklarisana konstanta Broj.DESET unutar enuma Broj na liniji 5
INFO  16:39:16,426 - Deklarisan novi enum tip Boja na liniji 6
INFO  16:39:16,426 - Deklarisana konstanta Boja.CRVENA unutar enuma Boja na liniji 6
INFO  16:39:16,429 - Deklarisana konstanta Boja.PLAVA unutar enuma Boja na liniji 6
INFO  16:39:16,429 - Deklarisana konstanta Boja.ZELENA unutar enuma Boja na liniji 6
INFO  16:39:16,429 - Deklarisana konstanta 'jedan' na liniji 8
INFO  16:39:16,429 - Deklarisana konstanta 'pet' na liniji 9
INFO  16:39:16,430 - Deklarisana promenljiva niza 'niz' tipa 1 na liniji 11
INFO  16:39:16,430 - Deklarisana promenljiva niza 'nizch' tipa 2 na liniji 12
INFO  16:39:16,430 - Obradjuje se funkcija main na liniji 15
INFO  16:39:16,430 - Deklarisana promenljiva 'bodovi' tipa int na liniji 16
INFO  16:39:16,431 - Deklarisana promenljiva 'nula' tipa Broj na liniji 17
INFO  16:39:16,431 - Deklarisana promenljiva 'jedan' tipa Broj na liniji 17
INFO  16:39:16,431 - Deklarisana promenljiva 'neka' tipa Boja na liniji 18
ERROR 16:39:16,431 - Ne postoji enum tip Oblik na liniji 21
ERROR 16:39:16,433 - Greska: nekompatibilni tipovi u dodeli na liniji 21
ERROR 16:39:16,433 - 6 je kind designatora, 0 je kind assignmenta
ERROR 16:39:16,434 - Greska: U enumu Boja ne postoji vrednost za BELA na liniji 22
ERROR 16:39:16,435 - Greska: nekompatibilni tipovi u dodeli na liniji 22
ERROR 16:39:16,435 - 6 je kind designatora, 0 je kind assignmenta
INFO  16:39:16,435 - Izvresna dodela vrednosti
INFO  16:39:16,435 - Inkrementirana vrednost
INFO  16:39:16,435 - Izvresna dodela vrednosti
INFO  16:39:16,435 - Izvresna dodela vrednosti
INFO  16:39:16,436 - Dekrementirana vrednost
INFO  16:39:16,436 - Print funkcija na liniji 28
INFO  16:39:16,436 - Izvresna dodela vrednosti
INFO  16:39:16,436 - Print funkcija na liniji 35
INFO  16:39:16,436 - Print funkcija na liniji 36
INFO  16:39:16,440 - Print funkcija na liniji 43
INFO  16:39:16,443 - Print funkcija na liniji 44
INFO  16:39:16,444 - Izvresna dodela vrednosti
INFO  16:39:16,444 - Print funkcija na liniji 48
INFO  16:39:16,444 - Read funkcija na liniji 51
INFO  16:39:16,444 - Izvresna dodela vrednosti
INFO  16:39:16,444 - Print funkcija na liniji 53
INFO  16:39:16,445 -  Print count calls = 7
INFO  16:39:16,445 -  Deklarisanih promenljivih ima = 6
ERROR 16:39:16,450 - Parsiranje NIJE uspesno zavrseno!
