INFO  13:50:11,709 - Compiling source file: C:\Users\ikadr\Desktop\PP\Projekat\Rad\workspace\MJCompiler\test\program.mj
INFO  13:50:11,774 - #2 program
INFO  13:50:11,774 - #28 test301
INFO  13:50:11,774 - #17 {
INFO  13:50:11,777 - #6 void
INFO  13:50:11,777 - #28 main
INFO  13:50:11,778 - #13 (
INFO  13:50:11,778 - #14 )
INFO  13:50:11,778 - #28 char
INFO  13:50:11,780 - #28 nizch
INFO  13:50:11,781 - #15 [
INFO  13:50:11,781 - #16 ]
INFO  13:50:11,781 - #10 ;
INFO  13:50:11,782 - #28 int
INFO  13:50:11,783 - #28 niz
INFO  13:50:11,783 - #15 [
INFO  13:50:11,783 - #16 ]
INFO  13:50:11,783 - #12 ,
INFO  13:50:11,783 - #28 x
INFO  13:50:11,783 - #10 ;
INFO  13:50:11,784 - #17 {
INFO  13:50:11,784 - #28 nizch
INFO  13:50:11,813 - #11 =
INFO  13:50:11,813 - #5 new
INFO  13:50:11,814 - #28 char
INFO  13:50:11,814 - #15 [
INFO  13:50:11,814 - #27 3
INFO  13:50:11,814 - #16 ]
INFO  13:50:11,816 - #10 ;
INFO  13:50:11,816 - #28 niz
INFO  13:50:11,817 - #11 =
INFO  13:50:11,817 - #5 new
INFO  13:50:11,817 - #28 int
INFO  13:50:11,818 - #15 [
INFO  13:50:11,818 - #27 2
INFO  13:50:11,818 - #16 ]
INFO  13:50:11,818 - #10 ;
INFO  13:50:11,818 - #28 nizch
INFO  13:50:11,818 - #15 [
INFO  13:50:11,820 - #27 1
INFO  13:50:11,820 - #16 ]
INFO  13:50:11,821 - #11 =
INFO  13:50:11,821 - #29 a
INFO  13:50:11,821 - #10 ;
INFO  13:50:11,822 - #28 x
INFO  13:50:11,822 - #11 =
INFO  13:50:11,822 - #27 5
INFO  13:50:11,822 - #10 ;
INFO  13:50:11,823 - #28 niz
INFO  13:50:11,823 - #15 [
INFO  13:50:11,823 - #27 1
INFO  13:50:11,823 - #16 ]
INFO  13:50:11,824 - #11 =
INFO  13:50:11,824 - #27 2
INFO  13:50:11,824 - #10 ;
INFO  13:50:11,825 - #28 niz
INFO  13:50:11,826 - #15 [
INFO  13:50:11,826 - #27 1
INFO  13:50:11,826 - #16 ]
INFO  13:50:11,827 - #11 =
INFO  13:50:11,827 - #28 niz
INFO  13:50:11,827 - #15 [
INFO  13:50:11,827 - #27 1
INFO  13:50:11,827 - #16 ]
INFO  13:50:11,828 - #23 +
INFO  13:50:11,828 - #28 x
INFO  13:50:11,831 - #10 ;
INFO  13:50:11,831 - #4 print
INFO  13:50:11,831 - #13 (
INFO  13:50:11,831 - #28 nizch
INFO  13:50:11,832 - #15 [
INFO  13:50:11,832 - #27 1
INFO  13:50:11,832 - #16 ]
INFO  13:50:11,832 - #14 )
INFO  13:50:11,832 - #10 ;
INFO  13:50:11,832 - #18 }
INFO  13:50:11,833 - #18 }
INFO  13:50:11,857 - Program(
  ProgName(
   test301
  ) [ProgName]
  GlobalDeclListEps(
  ) [GlobalDeclListEps]
  MethodDecl(
    MethodSignature(
      VoidableType(
      ) [VoidableType]
     main
    ) [MethodSignature]
    VarMethodDeclList_NoEps(
      VarMethodDeclList_NoEps(
        VarMethodDeclList_Eps(
        ) [VarMethodDeclList_Eps]
        VarDecl(
          Type(
           char
          ) [Type]
          VarDeclItem(
            VarDeclDefineArray(
             nizch
            ) [VarDeclDefineArray]
          ) [VarDeclItem]
        ) [VarDecl]
      ) [VarMethodDeclList_NoEps]
      VarDecl(
        Type(
         int
        ) [Type]
        VarDeclListL(
          VarDeclItem(
            VarDeclDefineArray(
             niz
            ) [VarDeclDefineArray]
          ) [VarDeclItem]
          VarDeclDefineSingle(
           x
          ) [VarDeclDefineSingle]
        ) [VarDeclListL]
      ) [VarDecl]
    ) [VarMethodDeclList_NoEps]
    StatementList_NoEps(
      StatementList_NoEps(
        StatementList_NoEps(
          StatementList_NoEps(
            StatementList_NoEps(
              StatementList_NoEps(
                StatementList_NoEps(
                  StatementList_Eps(
                  ) [StatementList_Eps]
                  StatementDes(
                    DesignStatAssignment(
                      DesIdent(
                       nizch
                      ) [DesIdent]
                      AssignementExpr(
                        TermExpr(
                          TermFact(
                            FactorNewArr(
                              Type(
                               char
                              ) [Type]
                              TermExpr(
                                TermFact(
                                  FactorConst(
                                    ConstNum(
                                     3
                                    ) [ConstNum]
                                  ) [FactorConst]
                                ) [TermFact]
                              ) [TermExpr]
                            ) [FactorNewArr]
                          ) [TermFact]
                        ) [TermExpr]
                      ) [AssignementExpr]
                    ) [DesignStatAssignment]
                  ) [StatementDes]
                ) [StatementList_NoEps]
                StatementDes(
                  DesignStatAssignment(
                    DesIdent(
                     niz
                    ) [DesIdent]
                    AssignementExpr(
                      TermExpr(
                        TermFact(
                          FactorNewArr(
                            Type(
                             int
                            ) [Type]
                            TermExpr(
                              TermFact(
                                FactorConst(
                                  ConstNum(
                                   2
                                  ) [ConstNum]
                                ) [FactorConst]
                              ) [TermFact]
                            ) [TermExpr]
                          ) [FactorNewArr]
                        ) [TermFact]
                      ) [TermExpr]
                    ) [AssignementExpr]
                  ) [DesignStatAssignment]
                ) [StatementDes]
              ) [StatementList_NoEps]
              StatementDes(
                DesignStatAssignment(
                  DesArr(
                    ArrayName(
                     nizch
                    ) [ArrayName]
                    TermExpr(
                      TermFact(
                        FactorConst(
                          ConstNum(
                           1
                          ) [ConstNum]
                        ) [FactorConst]
                      ) [TermFact]
                    ) [TermExpr]
                  ) [DesArr]
                  AssignementExpr(
                    TermExpr(
                      TermFact(
                        FactorConst(
                          ConstChar(
                           a
                          ) [ConstChar]
                        ) [FactorConst]
                      ) [TermFact]
                    ) [TermExpr]
                  ) [AssignementExpr]
                ) [DesignStatAssignment]
              ) [StatementDes]
            ) [StatementList_NoEps]
            StatementDes(
              DesignStatAssignment(
                DesIdent(
                 x
                ) [DesIdent]
                AssignementExpr(
                  TermExpr(
                    TermFact(
                      FactorConst(
                        ConstNum(
                         5
                        ) [ConstNum]
                      ) [FactorConst]
                    ) [TermFact]
                  ) [TermExpr]
                ) [AssignementExpr]
              ) [DesignStatAssignment]
            ) [StatementDes]
          ) [StatementList_NoEps]
          StatementDes(
            DesignStatAssignment(
              DesArr(
                ArrayName(
                 niz
                ) [ArrayName]
                TermExpr(
                  TermFact(
                    FactorConst(
                      ConstNum(
                       1
                      ) [ConstNum]
                    ) [FactorConst]
                  ) [TermFact]
                ) [TermExpr]
              ) [DesArr]
              AssignementExpr(
                TermExpr(
                  TermFact(
                    FactorConst(
                      ConstNum(
                       2
                      ) [ConstNum]
                    ) [FactorConst]
                  ) [TermFact]
                ) [TermExpr]
              ) [AssignementExpr]
            ) [DesignStatAssignment]
          ) [StatementDes]
        ) [StatementList_NoEps]
        StatementDes(
          DesignStatAssignment(
            DesArr(
              ArrayName(
               niz
              ) [ArrayName]
              TermExpr(
                TermFact(
                  FactorConst(
                    ConstNum(
                     1
                    ) [ConstNum]
                  ) [FactorConst]
                ) [TermFact]
              ) [TermExpr]
            ) [DesArr]
            AssignementExpr(
              AddopExp(
                TermExpr(
                  TermFact(
                    FactorDesign(
                      DesArr(
                        ArrayName(
                         niz
                        ) [ArrayName]
                        TermExpr(
                          TermFact(
                            FactorConst(
                              ConstNum(
                               1
                              ) [ConstNum]
                            ) [FactorConst]
                          ) [TermFact]
                        ) [TermExpr]
                      ) [DesArr]
                    ) [FactorDesign]
                  ) [TermFact]
                ) [TermExpr]
                Addop_Plus(
                ) [Addop_Plus]
                TermFact(
                  FactorDesign(
                    DesIdent(
                     x
                    ) [DesIdent]
                  ) [FactorDesign]
                ) [TermFact]
              ) [AddopExp]
            ) [AssignementExpr]
          ) [DesignStatAssignment]
        ) [StatementDes]
      ) [StatementList_NoEps]
      StatPrint(
        TermExpr(
          TermFact(
            FactorDesign(
              DesArr(
                ArrayName(
                 nizch
                ) [ArrayName]
                TermExpr(
                  TermFact(
                    FactorConst(
                      ConstNum(
                       1
                      ) [ConstNum]
                    ) [FactorConst]
                  ) [TermFact]
                ) [TermExpr]
              ) [DesArr]
            ) [FactorDesign]
          ) [TermFact]
        ) [TermExpr]
      ) [StatPrint]
    ) [StatementList_NoEps]
  ) [MethodDecl]
) [Program]
INFO  13:50:11,858 - ===================================
INFO  13:50:11,865 - Obradjuje se funkcija main na liniji 8
INFO  13:50:11,866 - Deklarisana promenljiva niza nizch tipa 2 na liniji 9
INFO  13:50:11,866 - Deklarisana promenljiva niza niz tipa 1 na liniji 10
INFO  13:50:11,866 - Deklarisana promenljiva x tipa 1 na liniji 10
INFO  13:50:11,866 - Dodeljenja vrednost: 1 je design,1 je assign
INFO  13:50:11,868 -  Print count calls = 1
INFO  13:50:11,868 -  Deklarisanih promenljivih ima = 1
INFO  13:50:11,898 - GENERATOR:noObj
INFO  13:50:11,898 - Parsiranje uspesno zavrseno!
