INFO  11:46:11,680 - Compiling source file: C:\Users\ikadr\Desktop\PP\Projekat\Rad\workspace\MJCompiler\test\program.mj
INFO  11:46:11,745 - #2 program
INFO  11:46:11,745 - #28 test301
INFO  11:46:11,745 - #9 enum
INFO  11:46:11,748 - #28 Broj
INFO  11:46:11,748 - #17 {
INFO  11:46:11,749 - #28 NULA
INFO  11:46:11,749 - #12 ,
INFO  11:46:11,750 - #28 JEDAN
INFO  11:46:11,750 - #12 ,
INFO  11:46:11,750 - #28 PET
INFO  11:46:11,750 - #11 =
INFO  11:46:11,750 - #27 5
INFO  11:46:11,750 - #12 ,
INFO  11:46:11,751 - #28 DESET
INFO  11:46:11,751 - #11 =
INFO  11:46:11,751 - #27 10
INFO  11:46:11,751 - #18 }
INFO  11:46:11,751 - #9 enum
INFO  11:46:11,752 - #28 Kocka
INFO  11:46:11,752 - #17 {
INFO  11:46:11,753 - #28 STRANA
INFO  11:46:11,753 - #12 ,
INFO  11:46:11,753 - #28 OBIM
INFO  11:46:11,753 - #18 }
INFO  11:46:11,753 - #8 const
INFO  11:46:11,753 - #28 int
INFO  11:46:11,753 - #28 jedan
INFO  11:46:11,754 - #11 =
INFO  11:46:11,755 - #27 1
INFO  11:46:11,755 - #10 ;
INFO  11:46:11,756 - #8 const
INFO  11:46:11,757 - #28 int
INFO  11:46:11,757 - #28 pet
INFO  11:46:11,757 - #11 =
INFO  11:46:11,757 - #27 5
INFO  11:46:11,757 - #10 ;
INFO  11:46:11,757 - #28 int
INFO  11:46:11,757 - #28 niz
INFO  11:46:11,758 - #15 [
INFO  11:46:11,758 - #16 ]
INFO  11:46:11,758 - #10 ;
INFO  11:46:11,758 - #28 char
INFO  11:46:11,759 - #28 nizch
INFO  11:46:11,760 - #15 [
INFO  11:46:11,760 - #16 ]
INFO  11:46:11,760 - #10 ;
INFO  11:46:11,760 - #17 {
INFO  11:46:11,760 - #6 void
INFO  11:46:11,760 - #28 main
INFO  11:46:11,761 - #13 (
INFO  11:46:11,762 - #14 )
INFO  11:46:11,762 - #28 int
INFO  11:46:11,765 - #28 bodovi
INFO  11:46:11,765 - #10 ;
INFO  11:46:11,766 - #28 Broj
INFO  11:46:11,767 - #28 nula
INFO  11:46:11,767 - #12 ,
INFO  11:46:11,767 - #28 jedan
INFO  11:46:11,767 - #10 ;
INFO  11:46:11,768 - #28 Kocka
INFO  11:46:11,768 - #28 povrsina
INFO  11:46:11,768 - #10 ;
INFO  11:46:11,768 - #17 {
INFO  11:46:11,768 - #28 nula
INFO  11:46:11,770 - #11 =
INFO  11:46:11,771 - #28 Broj
INFO  11:46:11,771 - #19 .
INFO  11:46:11,771 - #28 NULA
INFO  11:46:11,777 - #10 ;
INFO  11:46:11,778 - #28 jedan
INFO  11:46:11,778 - #11 =
INFO  11:46:11,778 - #28 Broj
INFO  11:46:11,778 - #19 .
INFO  11:46:11,778 - #28 JEDAN
INFO  11:46:11,778 - #10 ;
INFO  11:46:11,778 - #28 povrsina
INFO  11:46:11,778 - #11 =
INFO  11:46:11,778 - #28 Kocka
INFO  11:46:11,778 - #19 .
INFO  11:46:11,778 - #28 STRANA
INFO  11:46:11,779 - #10 ;
INFO  11:46:11,779 - #28 bodovi
INFO  11:46:11,779 - #11 =
INFO  11:46:11,779 - #27 0
INFO  11:46:11,779 - #10 ;
INFO  11:46:11,779 - #28 bodovi
INFO  11:46:11,779 - #20 ++
INFO  11:46:11,779 - #10 ;
INFO  11:46:11,780 - #28 bodovi
INFO  11:46:11,780 - #11 =
INFO  11:46:11,780 - #28 bodovi
INFO  11:46:11,780 - #23 +
INFO  11:46:11,780 - #28 jedan
INFO  11:46:11,783 - #10 ;
INFO  11:46:11,784 - #28 bodovi
INFO  11:46:11,784 - #11 =
INFO  11:46:11,784 - #28 bodovi
INFO  11:46:11,784 - #24 *
INFO  11:46:11,784 - #28 pet
INFO  11:46:11,786 - #10 ;
INFO  11:46:11,787 - #28 bodovi
INFO  11:46:11,787 - #21 --
INFO  11:46:11,787 - #10 ;
INFO  11:46:11,787 - #4 print
INFO  11:46:11,788 - #13 (
INFO  11:46:11,788 - #28 bodovi
INFO  11:46:11,788 - #14 )
INFO  11:46:11,788 - #10 ;
INFO  11:46:11,788 - #28 niz
INFO  11:46:11,788 - #11 =
INFO  11:46:11,788 - #5 new
INFO  11:46:11,788 - #28 int
INFO  11:46:11,788 - #15 [
INFO  11:46:11,788 - #27 2
INFO  11:46:11,788 - #16 ]
INFO  11:46:11,788 - #10 ;
INFO  11:46:11,789 - #28 niz
INFO  11:46:11,789 - #15 [
INFO  11:46:11,790 - #28 nula
INFO  11:46:11,790 - #16 ]
INFO  11:46:11,790 - #11 =
INFO  11:46:11,790 - #28 pet
INFO  11:46:11,790 - #10 ;
INFO  11:46:11,791 - #28 niz
INFO  11:46:11,791 - #15 [
INFO  11:46:11,791 - #27 1
INFO  11:46:11,791 - #16 ]
INFO  11:46:11,791 - #11 =
INFO  11:46:11,791 - #28 Broj
INFO  11:46:11,791 - #19 .
INFO  11:46:11,791 - #28 DESET
INFO  11:46:11,791 - #10 ;
INFO  11:46:11,791 - #28 bodovi
INFO  11:46:11,791 - #11 =
INFO  11:46:11,792 - #28 niz
INFO  11:46:11,792 - #15 [
INFO  11:46:11,792 - #27 1
INFO  11:46:11,792 - #16 ]
INFO  11:46:11,792 - #25 /
INFO  11:46:11,792 - #28 niz
INFO  11:46:11,793 - #15 [
INFO  11:46:11,793 - #27 0
INFO  11:46:11,793 - #16 ]
INFO  11:46:11,793 - #10 ;
INFO  11:46:11,793 - #4 print
INFO  11:46:11,793 - #13 (
INFO  11:46:11,793 - #28 bodovi
INFO  11:46:11,793 - #14 )
INFO  11:46:11,793 - #10 ;
INFO  11:46:11,794 - #4 print
INFO  11:46:11,794 - #13 (
INFO  11:46:11,794 - #28 niz
INFO  11:46:11,794 - #15 [
INFO  11:46:11,794 - #28 Broj
INFO  11:46:11,794 - #19 .
INFO  11:46:11,794 - #28 JEDAN
INFO  11:46:11,794 - #16 ]
INFO  11:46:11,794 - #14 )
INFO  11:46:11,794 - #10 ;
INFO  11:46:11,794 - #28 nizch
INFO  11:46:11,794 - #11 =
INFO  11:46:11,794 - #5 new
INFO  11:46:11,795 - #28 char
INFO  11:46:11,795 - #15 [
INFO  11:46:11,795 - #27 3
INFO  11:46:11,795 - #16 ]
INFO  11:46:11,795 - #10 ;
INFO  11:46:11,795 - #28 nizch
INFO  11:46:11,795 - #15 [
INFO  11:46:11,795 - #27 0
INFO  11:46:11,795 - #16 ]
INFO  11:46:11,795 - #11 =
INFO  11:46:11,795 - #29 a
INFO  11:46:11,796 - #10 ;
INFO  11:46:11,796 - #28 nizch
INFO  11:46:11,796 - #15 [
INFO  11:46:11,796 - #28 jedan
INFO  11:46:11,796 - #16 ]
INFO  11:46:11,796 - #11 =
INFO  11:46:11,796 - #29 b
INFO  11:46:11,796 - #10 ;
INFO  11:46:11,796 - #28 nizch
INFO  11:46:11,797 - #15 [
INFO  11:46:11,797 - #28 pet
INFO  11:46:11,797 - #22 -
INFO  11:46:11,797 - #27 3
INFO  11:46:11,798 - #16 ]
INFO  11:46:11,798 - #11 =
INFO  11:46:11,798 - #29 c
INFO  11:46:11,798 - #10 ;
INFO  11:46:11,799 - #4 print
INFO  11:46:11,799 - #13 (
INFO  11:46:11,799 - #28 nizch
INFO  11:46:11,799 - #15 [
INFO  11:46:11,799 - #27 2
INFO  11:46:11,799 - #22 -
INFO  11:46:11,799 - #27 1
INFO  11:46:11,799 - #16 ]
INFO  11:46:11,799 - #14 )
INFO  11:46:11,799 - #10 ;
INFO  11:46:11,800 - #4 print
INFO  11:46:11,800 - #13 (
INFO  11:46:11,800 - #28 nizch
INFO  11:46:11,800 - #15 [
INFO  11:46:11,800 - #28 jedan
INFO  11:46:11,800 - #24 *
INFO  11:46:11,800 - #27 2
INFO  11:46:11,800 - #16 ]
INFO  11:46:11,800 - #14 )
INFO  11:46:11,800 - #10 ;
INFO  11:46:11,800 - #28 bodovi
INFO  11:46:11,801 - #11 =
INFO  11:46:11,801 - #28 bodovi
INFO  11:46:11,801 - #23 +
INFO  11:46:11,801 - #13 (
INFO  11:46:11,801 - #13 (
INFO  11:46:11,801 - #28 pet
INFO  11:46:11,801 - #24 *
INFO  11:46:11,801 - #28 jedan
INFO  11:46:11,801 - #22 -
INFO  11:46:11,801 - #27 1
INFO  11:46:11,801 - #14 )
INFO  11:46:11,801 - #24 *
INFO  11:46:11,802 - #27 2
INFO  11:46:11,802 - #22 -
INFO  11:46:11,802 - #13 (
INFO  11:46:11,802 - #27 3
INFO  11:46:11,802 - #26 %
INFO  11:46:11,802 - #27 2
INFO  11:46:11,803 - #23 +
INFO  11:46:11,803 - #27 3
INFO  11:46:11,803 - #24 *
INFO  11:46:11,803 - #27 2
INFO  11:46:11,803 - #22 -
INFO  11:46:11,803 - #27 3
INFO  11:46:11,804 - #14 )
INFO  11:46:11,804 - #22 -
INFO  11:46:11,804 - #28 Broj
INFO  11:46:11,804 - #19 .
INFO  11:46:11,804 - #28 JEDAN
INFO  11:46:11,804 - #24 *
INFO  11:46:11,804 - #27 0
INFO  11:46:11,804 - #14 )
INFO  11:46:11,804 - #10 ;
INFO  11:46:11,804 - #4 print
INFO  11:46:11,804 - #13 (
INFO  11:46:11,804 - #28 bodovi
INFO  11:46:11,804 - #14 )
INFO  11:46:11,804 - #10 ;
INFO  11:46:11,805 - #28 bodovi
INFO  11:46:11,805 - #11 =
INFO  11:46:11,805 - #28 bodovi
INFO  11:46:11,805 - #23 +
INFO  11:46:11,805 - #27 1
INFO  11:46:11,805 - #10 ;
INFO  11:46:11,806 - #4 print
INFO  11:46:11,806 - #13 (
INFO  11:46:11,806 - #28 bodovi
INFO  11:46:11,806 - #14 )
INFO  11:46:11,806 - #10 ;
INFO  11:46:11,806 - #18 }
INFO  11:46:11,806 - #18 }
INFO  11:46:11,833 - Program(
  ProgName(
   test301
  ) [ProgName]
  GlobalDeclListL(
    GlobalDeclListL(
      GlobalDeclListL(
        GlobalDeclListL(
          GlobalDeclListL(
            GlobalDeclListL(
              GlobalDeclListEps(
              ) [GlobalDeclListEps]
              GlobalDeclEnum(
                EnumDecl(
                  EnumName(
                   Broj
                  ) [EnumName]
                  EnumDeclListL(
                    EnumDeclListL(
                      EnumDeclListL(
                        EnumDeclItem(
                          EnumDeclDefNoVal(
                           NULA
                          ) [EnumDeclDefNoVal]
                        ) [EnumDeclItem]
                        EnumDeclDefNoVal(
                         JEDAN
                        ) [EnumDeclDefNoVal]
                      ) [EnumDeclListL]
                      EnumDeclDefVal(
                       PET
                       5
                      ) [EnumDeclDefVal]
                    ) [EnumDeclListL]
                    EnumDeclDefVal(
                     DESET
                     10
                    ) [EnumDeclDefVal]
                  ) [EnumDeclListL]
                ) [EnumDecl]
              ) [GlobalDeclEnum]
            ) [GlobalDeclListL]
            GlobalDeclEnum(
              EnumDecl(
                EnumName(
                 Kocka
                ) [EnumName]
                EnumDeclListL(
                  EnumDeclItem(
                    EnumDeclDefNoVal(
                     STRANA
                    ) [EnumDeclDefNoVal]
                  ) [EnumDeclItem]
                  EnumDeclDefNoVal(
                   OBIM
                  ) [EnumDeclDefNoVal]
                ) [EnumDeclListL]
              ) [EnumDecl]
            ) [GlobalDeclEnum]
          ) [GlobalDeclListL]
          GlobalDeclConst(
            ConstDecl(
              Type(
               int
              ) [Type]
              ConstDeclItem(
                ConstDef(
                 jedan
                  ConstNum(
                   1
                  ) [ConstNum]
                ) [ConstDef]
              ) [ConstDeclItem]
            ) [ConstDecl]
          ) [GlobalDeclConst]
        ) [GlobalDeclListL]
        GlobalDeclConst(
          ConstDecl(
            Type(
             int
            ) [Type]
            ConstDeclItem(
              ConstDef(
               pet
                ConstNum(
                 5
                ) [ConstNum]
              ) [ConstDef]
            ) [ConstDeclItem]
          ) [ConstDecl]
        ) [GlobalDeclConst]
      ) [GlobalDeclListL]
      GlobalDeclVar(
        GlobalVarDecl(
          Type(
           int
          ) [Type]
          GlobalVarDeclItem(
            GlobalVarDeclDefOk(
              VarDeclDefineArray(
               niz
              ) [VarDeclDefineArray]
            ) [GlobalVarDeclDefOk]
          ) [GlobalVarDeclItem]
        ) [GlobalVarDecl]
      ) [GlobalDeclVar]
    ) [GlobalDeclListL]
    GlobalDeclVar(
      GlobalVarDecl(
        Type(
         char
        ) [Type]
        GlobalVarDeclItem(
          GlobalVarDeclDefOk(
            VarDeclDefineArray(
             nizch
            ) [VarDeclDefineArray]
          ) [GlobalVarDeclDefOk]
        ) [GlobalVarDeclItem]
      ) [GlobalVarDecl]
    ) [GlobalDeclVar]
  ) [GlobalDeclListL]
  MethodDecl(
    MethodSignature(
      VoidableType(
      ) [VoidableType]
     main
    ) [MethodSignature]
    VarMethodDeclList_NoEps(
      VarMethodDeclList_NoEps(
        VarMethodDeclList_NoEps(
          VarMethodDeclList_Eps(
          ) [VarMethodDeclList_Eps]
          VarDecl(
            Type(
             int
            ) [Type]
            VarDeclItem(
              VarDeclDefineSingle(
               bodovi
              ) [VarDeclDefineSingle]
            ) [VarDeclItem]
          ) [VarDecl]
        ) [VarMethodDeclList_NoEps]
        VarDecl(
          Type(
           Broj
          ) [Type]
          VarDeclListL(
            VarDeclItem(
              VarDeclDefineSingle(
               nula
              ) [VarDeclDefineSingle]
            ) [VarDeclItem]
            VarDeclDefineSingle(
             jedan
            ) [VarDeclDefineSingle]
          ) [VarDeclListL]
        ) [VarDecl]
      ) [VarMethodDeclList_NoEps]
      VarDecl(
        Type(
         Kocka
        ) [Type]
        VarDeclItem(
          VarDeclDefineSingle(
           povrsina
          ) [VarDeclDefineSingle]
        ) [VarDeclItem]
      ) [VarDecl]
    ) [VarMethodDeclList_NoEps]
    StatementList_NoEps(
      StatementList_NoEps(
        StatementList_NoEps(
          StatementList_NoEps(
            StatementList_NoEps(
              StatementList_NoEps(
                StatementList_NoEps(
                  StatementList_NoEps(
                    StatementList_NoEps(
                      StatementList_NoEps(
                        StatementList_NoEps(
                          StatementList_NoEps(
                            StatementList_NoEps(
                              StatementList_NoEps(
                                StatementList_NoEps(
                                  StatementList_NoEps(
                                    StatementList_NoEps(
                                      StatementList_NoEps(
                                        StatementList_NoEps(
                                          StatementList_NoEps(
                                            StatementList_NoEps(
                                              StatementList_NoEps(
                                                StatementList_NoEps(
                                                  StatementList_NoEps(
                                                    StatementList_NoEps(
                                                      StatementList_Eps(
                                                      ) [StatementList_Eps]
                                                      StatementDes(
                                                        DesignStatAssignment(
                                                          DesIdent(
                                                           nula
                                                          ) [DesIdent]
                                                          AssignementExpr(
                                                            TermExpr(
                                                              TermFact(
                                                                FactorDesign(
                                                                  DesEnum(
                                                                   Broj
                                                                   NULA
                                                                  ) [DesEnum]
                                                                ) [FactorDesign]
                                                              ) [TermFact]
                                                            ) [TermExpr]
                                                          ) [AssignementExpr]
                                                        ) [DesignStatAssignment]
                                                      ) [StatementDes]
                                                    ) [StatementList_NoEps]
                                                    StatementDes(
                                                      DesignStatAssignment(
                                                        DesIdent(
                                                         jedan
                                                        ) [DesIdent]
                                                        AssignementExpr(
                                                          TermExpr(
                                                            TermFact(
                                                              FactorDesign(
                                                                DesEnum(
                                                                 Broj
                                                                 JEDAN
                                                                ) [DesEnum]
                                                              ) [FactorDesign]
                                                            ) [TermFact]
                                                          ) [TermExpr]
                                                        ) [AssignementExpr]
                                                      ) [DesignStatAssignment]
                                                    ) [StatementDes]
                                                  ) [StatementList_NoEps]
                                                  StatementDes(
                                                    DesignStatAssignment(
                                                      DesIdent(
                                                       povrsina
                                                      ) [DesIdent]
                                                      AssignementExpr(
                                                        TermExpr(
                                                          TermFact(
                                                            FactorDesign(
                                                              DesEnum(
                                                               Kocka
                                                               STRANA
                                                              ) [DesEnum]
                                                            ) [FactorDesign]
                                                          ) [TermFact]
                                                        ) [TermExpr]
                                                      ) [AssignementExpr]
                                                    ) [DesignStatAssignment]
                                                  ) [StatementDes]
                                                ) [StatementList_NoEps]
                                                StatementDes(
                                                  DesignStatAssignment(
                                                    DesIdent(
                                                     bodovi
                                                    ) [DesIdent]
                                                    AssignementExpr(
                                                      TermExpr(
                                                        TermFact(
                                                          FactorConst(
                                                            ConstNum(
                                                             0
                                                            ) [ConstNum]
                                                          ) [FactorConst]
                                                        ) [TermFact]
                                                      ) [TermExpr]
                                                    ) [AssignementExpr]
                                                  ) [DesignStatAssignment]
                                                ) [StatementDes]
                                              ) [StatementList_NoEps]
                                              StatementDes(
                                                DesignStatInc(
                                                  DesIdent(
                                                   bodovi
                                                  ) [DesIdent]
                                                ) [DesignStatInc]
                                              ) [StatementDes]
                                            ) [StatementList_NoEps]
                                            StatementDes(
                                              DesignStatAssignment(
                                                DesIdent(
                                                 bodovi
                                                ) [DesIdent]
                                                AssignementExpr(
                                                  AddopExp(
                                                    TermExpr(
                                                      TermFact(
                                                        FactorDesign(
                                                          DesIdent(
                                                           bodovi
                                                          ) [DesIdent]
                                                        ) [FactorDesign]
                                                      ) [TermFact]
                                                    ) [TermExpr]
                                                    Addop_Plus(
                                                    ) [Addop_Plus]
                                                    TermFact(
                                                      FactorDesign(
                                                        DesIdent(
                                                         jedan
                                                        ) [DesIdent]
                                                      ) [FactorDesign]
                                                    ) [TermFact]
                                                  ) [AddopExp]
                                                ) [AssignementExpr]
                                              ) [DesignStatAssignment]
                                            ) [StatementDes]
                                          ) [StatementList_NoEps]
                                          StatementDes(
                                            DesignStatAssignment(
                                              DesIdent(
                                               bodovi
                                              ) [DesIdent]
                                              AssignementExpr(
                                                TermExpr(
                                                  TermMulop(
                                                    TermFact(
                                                      FactorDesign(
                                                        DesIdent(
                                                         bodovi
                                                        ) [DesIdent]
                                                      ) [FactorDesign]
                                                    ) [TermFact]
                                                    Mulop_Mul(
                                                    ) [Mulop_Mul]
                                                    FactorDesign(
                                                      DesIdent(
                                                       pet
                                                      ) [DesIdent]
                                                    ) [FactorDesign]
                                                  ) [TermMulop]
                                                ) [TermExpr]
                                              ) [AssignementExpr]
                                            ) [DesignStatAssignment]
                                          ) [StatementDes]
                                        ) [StatementList_NoEps]
                                        StatementDes(
                                          DesignStatDec(
                                            DesIdent(
                                             bodovi
                                            ) [DesIdent]
                                          ) [DesignStatDec]
                                        ) [StatementDes]
                                      ) [StatementList_NoEps]
                                      StatPrint(
                                        TermExpr(
                                          TermFact(
                                            FactorDesign(
                                              DesIdent(
                                               bodovi
                                              ) [DesIdent]
                                            ) [FactorDesign]
                                          ) [TermFact]
                                        ) [TermExpr]
                                      ) [StatPrint]
                                    ) [StatementList_NoEps]
                                    StatementDes(
                                      DesignStatAssignment(
                                        DesIdent(
                                         niz
                                        ) [DesIdent]
                                        AssignementExpr(
                                          TermExpr(
                                            TermFact(
                                              FactorNewArr(
                                                Type(
                                                 int
                                                ) [Type]
                                                TermExpr(
                                                  TermFact(
                                                    FactorConst(
                                                      ConstNum(
                                                       2
                                                      ) [ConstNum]
                                                    ) [FactorConst]
                                                  ) [TermFact]
                                                ) [TermExpr]
                                              ) [FactorNewArr]
                                            ) [TermFact]
                                          ) [TermExpr]
                                        ) [AssignementExpr]
                                      ) [DesignStatAssignment]
                                    ) [StatementDes]
                                  ) [StatementList_NoEps]
                                  StatementDes(
                                    DesignStatAssignment(
                                      DesArr(
                                        ArrayName(
                                         niz
                                        ) [ArrayName]
                                        TermExpr(
                                          TermFact(
                                            FactorDesign(
                                              DesIdent(
                                               nula
                                              ) [DesIdent]
                                            ) [FactorDesign]
                                          ) [TermFact]
                                        ) [TermExpr]
                                      ) [DesArr]
                                      AssignementExpr(
                                        TermExpr(
                                          TermFact(
                                            FactorDesign(
                                              DesIdent(
                                               pet
                                              ) [DesIdent]
                                            ) [FactorDesign]
                                          ) [TermFact]
                                        ) [TermExpr]
                                      ) [AssignementExpr]
                                    ) [DesignStatAssignment]
                                  ) [StatementDes]
                                ) [StatementList_NoEps]
                                StatementDes(
                                  DesignStatAssignment(
                                    DesArr(
                                      ArrayName(
                                       niz
                                      ) [ArrayName]
                                      TermExpr(
                                        TermFact(
                                          FactorConst(
                                            ConstNum(
                                             1
                                            ) [ConstNum]
                                          ) [FactorConst]
                                        ) [TermFact]
                                      ) [TermExpr]
                                    ) [DesArr]
                                    AssignementExpr(
                                      TermExpr(
                                        TermFact(
                                          FactorDesign(
                                            DesEnum(
                                             Broj
                                             DESET
                                            ) [DesEnum]
                                          ) [FactorDesign]
                                        ) [TermFact]
                                      ) [TermExpr]
                                    ) [AssignementExpr]
                                  ) [DesignStatAssignment]
                                ) [StatementDes]
                              ) [StatementList_NoEps]
                              StatementDes(
                                DesignStatAssignment(
                                  DesIdent(
                                   bodovi
                                  ) [DesIdent]
                                  AssignementExpr(
                                    TermExpr(
                                      TermMulop(
                                        TermFact(
                                          FactorDesign(
                                            DesArr(
                                              ArrayName(
                                               niz
                                              ) [ArrayName]
                                              TermExpr(
                                                TermFact(
                                                  FactorConst(
                                                    ConstNum(
                                                     1
                                                    ) [ConstNum]
                                                  ) [FactorConst]
                                                ) [TermFact]
                                              ) [TermExpr]
                                            ) [DesArr]
                                          ) [FactorDesign]
                                        ) [TermFact]
                                        Mulop_Div(
                                        ) [Mulop_Div]
                                        FactorDesign(
                                          DesArr(
                                            ArrayName(
                                             niz
                                            ) [ArrayName]
                                            TermExpr(
                                              TermFact(
                                                FactorConst(
                                                  ConstNum(
                                                   0
                                                  ) [ConstNum]
                                                ) [FactorConst]
                                              ) [TermFact]
                                            ) [TermExpr]
                                          ) [DesArr]
                                        ) [FactorDesign]
                                      ) [TermMulop]
                                    ) [TermExpr]
                                  ) [AssignementExpr]
                                ) [DesignStatAssignment]
                              ) [StatementDes]
                            ) [StatementList_NoEps]
                            StatPrint(
                              TermExpr(
                                TermFact(
                                  FactorDesign(
                                    DesIdent(
                                     bodovi
                                    ) [DesIdent]
                                  ) [FactorDesign]
                                ) [TermFact]
                              ) [TermExpr]
                            ) [StatPrint]
                          ) [StatementList_NoEps]
                          StatPrint(
                            TermExpr(
                              TermFact(
                                FactorDesign(
                                  DesArr(
                                    ArrayName(
                                     niz
                                    ) [ArrayName]
                                    TermExpr(
                                      TermFact(
                                        FactorDesign(
                                          DesEnum(
                                           Broj
                                           JEDAN
                                          ) [DesEnum]
                                        ) [FactorDesign]
                                      ) [TermFact]
                                    ) [TermExpr]
                                  ) [DesArr]
                                ) [FactorDesign]
                              ) [TermFact]
                            ) [TermExpr]
                          ) [StatPrint]
                        ) [StatementList_NoEps]
                        StatementDes(
                          DesignStatAssignment(
                            DesIdent(
                             nizch
                            ) [DesIdent]
                            AssignementExpr(
                              TermExpr(
                                TermFact(
                                  FactorNewArr(
                                    Type(
                                     char
                                    ) [Type]
                                    TermExpr(
                                      TermFact(
                                        FactorConst(
                                          ConstNum(
                                           3
                                          ) [ConstNum]
                                        ) [FactorConst]
                                      ) [TermFact]
                                    ) [TermExpr]
                                  ) [FactorNewArr]
                                ) [TermFact]
                              ) [TermExpr]
                            ) [AssignementExpr]
                          ) [DesignStatAssignment]
                        ) [StatementDes]
                      ) [StatementList_NoEps]
                      StatementDes(
                        DesignStatAssignment(
                          DesArr(
                            ArrayName(
                             nizch
                            ) [ArrayName]
                            TermExpr(
                              TermFact(
                                FactorConst(
                                  ConstNum(
                                   0
                                  ) [ConstNum]
                                ) [FactorConst]
                              ) [TermFact]
                            ) [TermExpr]
                          ) [DesArr]
                          AssignementExpr(
                            TermExpr(
                              TermFact(
                                FactorConst(
                                  ConstChar(
                                   a
                                  ) [ConstChar]
                                ) [FactorConst]
                              ) [TermFact]
                            ) [TermExpr]
                          ) [AssignementExpr]
                        ) [DesignStatAssignment]
                      ) [StatementDes]
                    ) [StatementList_NoEps]
                    StatementDes(
                      DesignStatAssignment(
                        DesArr(
                          ArrayName(
                           nizch
                          ) [ArrayName]
                          TermExpr(
                            TermFact(
                              FactorDesign(
                                DesIdent(
                                 jedan
                                ) [DesIdent]
                              ) [FactorDesign]
                            ) [TermFact]
                          ) [TermExpr]
                        ) [DesArr]
                        AssignementExpr(
                          TermExpr(
                            TermFact(
                              FactorConst(
                                ConstChar(
                                 b
                                ) [ConstChar]
                              ) [FactorConst]
                            ) [TermFact]
                          ) [TermExpr]
                        ) [AssignementExpr]
                      ) [DesignStatAssignment]
                    ) [StatementDes]
                  ) [StatementList_NoEps]
                  StatementDes(
                    DesignStatAssignment(
                      DesArr(
                        ArrayName(
                         nizch
                        ) [ArrayName]
                        AddopExp(
                          TermExpr(
                            TermFact(
                              FactorDesign(
                                DesIdent(
                                 pet
                                ) [DesIdent]
                              ) [FactorDesign]
                            ) [TermFact]
                          ) [TermExpr]
                          Addop_Minus(
                          ) [Addop_Minus]
                          TermFact(
                            FactorConst(
                              ConstNum(
                               3
                              ) [ConstNum]
                            ) [FactorConst]
                          ) [TermFact]
                        ) [AddopExp]
                      ) [DesArr]
                      AssignementExpr(
                        TermExpr(
                          TermFact(
                            FactorConst(
                              ConstChar(
                               c
                              ) [ConstChar]
                            ) [FactorConst]
                          ) [TermFact]
                        ) [TermExpr]
                      ) [AssignementExpr]
                    ) [DesignStatAssignment]
                  ) [StatementDes]
                ) [StatementList_NoEps]
                StatPrint(
                  TermExpr(
                    TermFact(
                      FactorDesign(
                        DesArr(
                          ArrayName(
                           nizch
                          ) [ArrayName]
                          AddopExp(
                            TermExpr(
                              TermFact(
                                FactorConst(
                                  ConstNum(
                                   2
                                  ) [ConstNum]
                                ) [FactorConst]
                              ) [TermFact]
                            ) [TermExpr]
                            Addop_Minus(
                            ) [Addop_Minus]
                            TermFact(
                              FactorConst(
                                ConstNum(
                                 1
                                ) [ConstNum]
                              ) [FactorConst]
                            ) [TermFact]
                          ) [AddopExp]
                        ) [DesArr]
                      ) [FactorDesign]
                    ) [TermFact]
                  ) [TermExpr]
                ) [StatPrint]
              ) [StatementList_NoEps]
              StatPrint(
                TermExpr(
                  TermFact(
                    FactorDesign(
                      DesArr(
                        ArrayName(
                         nizch
                        ) [ArrayName]
                        TermExpr(
                          TermMulop(
                            TermFact(
                              FactorDesign(
                                DesIdent(
                                 jedan
                                ) [DesIdent]
                              ) [FactorDesign]
                            ) [TermFact]
                            Mulop_Mul(
                            ) [Mulop_Mul]
                            FactorConst(
                              ConstNum(
                               2
                              ) [ConstNum]
                            ) [FactorConst]
                          ) [TermMulop]
                        ) [TermExpr]
                      ) [DesArr]
                    ) [FactorDesign]
                  ) [TermFact]
                ) [TermExpr]
              ) [StatPrint]
            ) [StatementList_NoEps]
            StatementDes(
              DesignStatAssignment(
                DesIdent(
                 bodovi
                ) [DesIdent]
                AssignementExpr(
                  AddopExp(
                    TermExpr(
                      TermFact(
                        FactorDesign(
                          DesIdent(
                           bodovi
                          ) [DesIdent]
                        ) [FactorDesign]
                      ) [TermFact]
                    ) [TermExpr]
                    Addop_Plus(
                    ) [Addop_Plus]
                    TermFact(
                      FactorExpr(
                        AddopExp(
                          AddopExp(
                            TermExpr(
                              TermMulop(
                                TermFact(
                                  FactorExpr(
                                    AddopExp(
                                      TermExpr(
                                        TermMulop(
                                          TermFact(
                                            FactorDesign(
                                              DesIdent(
                                               pet
                                              ) [DesIdent]
                                            ) [FactorDesign]
                                          ) [TermFact]
                                          Mulop_Mul(
                                          ) [Mulop_Mul]
                                          FactorDesign(
                                            DesIdent(
                                             jedan
                                            ) [DesIdent]
                                          ) [FactorDesign]
                                        ) [TermMulop]
                                      ) [TermExpr]
                                      Addop_Minus(
                                      ) [Addop_Minus]
                                      TermFact(
                                        FactorConst(
                                          ConstNum(
                                           1
                                          ) [ConstNum]
                                        ) [FactorConst]
                                      ) [TermFact]
                                    ) [AddopExp]
                                  ) [FactorExpr]
                                ) [TermFact]
                                Mulop_Mul(
                                ) [Mulop_Mul]
                                FactorConst(
                                  ConstNum(
                                   2
                                  ) [ConstNum]
                                ) [FactorConst]
                              ) [TermMulop]
                            ) [TermExpr]
                            Addop_Minus(
                            ) [Addop_Minus]
                            TermFact(
                              FactorExpr(
                                AddopExp(
                                  AddopExp(
                                    TermExpr(
                                      TermMulop(
                                        TermFact(
                                          FactorConst(
                                            ConstNum(
                                             3
                                            ) [ConstNum]
                                          ) [FactorConst]
                                        ) [TermFact]
                                        Mulop_Mod(
                                        ) [Mulop_Mod]
                                        FactorConst(
                                          ConstNum(
                                           2
                                          ) [ConstNum]
                                        ) [FactorConst]
                                      ) [TermMulop]
                                    ) [TermExpr]
                                    Addop_Plus(
                                    ) [Addop_Plus]
                                    TermMulop(
                                      TermFact(
                                        FactorConst(
                                          ConstNum(
                                           3
                                          ) [ConstNum]
                                        ) [FactorConst]
                                      ) [TermFact]
                                      Mulop_Mul(
                                      ) [Mulop_Mul]
                                      FactorConst(
                                        ConstNum(
                                         2
                                        ) [ConstNum]
                                      ) [FactorConst]
                                    ) [TermMulop]
                                  ) [AddopExp]
                                  Addop_Minus(
                                  ) [Addop_Minus]
                                  TermFact(
                                    FactorConst(
                                      ConstNum(
                                       3
                                      ) [ConstNum]
                                    ) [FactorConst]
                                  ) [TermFact]
                                ) [AddopExp]
                              ) [FactorExpr]
                            ) [TermFact]
                          ) [AddopExp]
                          Addop_Minus(
                          ) [Addop_Minus]
                          TermMulop(
                            TermFact(
                              FactorDesign(
                                DesEnum(
                                 Broj
                                 JEDAN
                                ) [DesEnum]
                              ) [FactorDesign]
                            ) [TermFact]
                            Mulop_Mul(
                            ) [Mulop_Mul]
                            FactorConst(
                              ConstNum(
                               0
                              ) [ConstNum]
                            ) [FactorConst]
                          ) [TermMulop]
                        ) [AddopExp]
                      ) [FactorExpr]
                    ) [TermFact]
                  ) [AddopExp]
                ) [AssignementExpr]
              ) [DesignStatAssignment]
            ) [StatementDes]
          ) [StatementList_NoEps]
          StatPrint(
            TermExpr(
              TermFact(
                FactorDesign(
                  DesIdent(
                   bodovi
                  ) [DesIdent]
                ) [FactorDesign]
              ) [TermFact]
            ) [TermExpr]
          ) [StatPrint]
        ) [StatementList_NoEps]
        StatementDes(
          DesignStatAssignment(
            DesIdent(
             bodovi
            ) [DesIdent]
            AssignementExpr(
              AddopExp(
                TermExpr(
                  TermFact(
                    FactorDesign(
                      DesIdent(
                       bodovi
                      ) [DesIdent]
                    ) [FactorDesign]
                  ) [TermFact]
                ) [TermExpr]
                Addop_Plus(
                ) [Addop_Plus]
                TermFact(
                  FactorConst(
                    ConstNum(
                     1
                    ) [ConstNum]
                  ) [FactorConst]
                ) [TermFact]
              ) [AddopExp]
            ) [AssignementExpr]
          ) [DesignStatAssignment]
        ) [StatementDes]
      ) [StatementList_NoEps]
      StatPrint(
        TermExpr(
          TermFact(
            FactorDesign(
              DesIdent(
               bodovi
              ) [DesIdent]
            ) [FactorDesign]
          ) [TermFact]
        ) [TermExpr]
      ) [StatPrint]
    ) [StatementList_NoEps]
  ) [MethodDecl]
) [Program]
INFO  11:46:11,838 - ===================================
INFO  11:46:11,845 - Deklarisan novi enum tip Broj na liniji 5
INFO  11:46:11,845 - Deklarisana konstanta NULA unutar enuma Broj na liniji 5
INFO  11:46:11,845 - Deklarisana konstanta JEDAN unutar enuma Broj na liniji 5
INFO  11:46:11,845 - Deklarisana konstanta PET unutar enuma Broj na liniji 5
INFO  11:46:11,846 - Deklarisana konstanta DESET unutar enuma Broj na liniji 5
INFO  11:46:11,846 - Deklarisan novi enum tip Kocka na liniji 6
INFO  11:46:11,846 - Deklarisana konstanta STRANA unutar enuma Kocka na liniji 6
INFO  11:46:11,846 - Deklarisana konstanta OBIM unutar enuma Kocka na liniji 6
INFO  11:46:11,846 - Deklarisana konstanta 'jedan' na liniji 8
INFO  11:46:11,846 - Deklarisana konstanta 'pet' na liniji 9
INFO  11:46:11,846 - Deklarisana promenljiva niza niz tipa 1 na liniji 11
INFO  11:46:11,847 - Deklarisana promenljiva niza nizch tipa 2 na liniji 12
INFO  11:46:11,847 - Obradjuje se funkcija main na liniji 15
INFO  11:46:11,847 - Deklarisana promenljiva bodovi tipa 1 na liniji 16
INFO  11:46:11,847 - Deklarisana promenljiva nula tipa 6 na liniji 17
INFO  11:46:11,847 - Deklarisana promenljiva jedan tipa 6 na liniji 17
INFO  11:46:11,847 - Deklarisana promenljiva povrsina tipa 6 na liniji 18
INFO  11:46:11,848 - USAO 2
INFO  11:46:11,848 - factor type je 1 na liniji 20
INFO  11:46:11,848 - Dodeljenja vrednost enuma promenljivoj enuma
INFO  11:46:11,848 - USAO 2
INFO  11:46:11,848 - factor type je 1 na liniji 21
INFO  11:46:11,849 - Dodeljenja vrednost enuma promenljivoj enuma
INFO  11:46:11,849 - USAO 2
INFO  11:46:11,849 - factor type je 1 na liniji 22
INFO  11:46:11,849 - Dodeljenja vrednost enuma promenljivoj enuma
INFO  11:46:11,849 - Dodeljenja vrednost: 1 je design,1 je assign
INFO  11:46:11,849 - Inkrementirana vrednost
INFO  11:46:11,849 - factor type je 1 na liniji 25
INFO  11:46:11,849 - factor type je 6 na liniji 25
INFO  11:46:11,849 - Dodeljenja vrednost: 1 je design,1 je assign
INFO  11:46:11,849 - factor type je 1 na liniji 26
INFO  11:46:11,850 - factor type je 1 na liniji 26
INFO  11:46:11,850 - Dodeljenja vrednost: 1 je design,1 je assign
INFO  11:46:11,850 - Dekrementirana vrednost
INFO  11:46:11,850 - factor type je 1 na liniji 28
INFO  11:46:11,850 - Print funkcija na liniji 28
INFO  11:46:11,850 - factor type je 6 na liniji 32
INFO  11:46:11,850 - factor type je 1 na liniji 32
INFO  11:46:11,851 - USAO 2
INFO  11:46:11,851 - factor type je 1 na liniji 33
INFO  11:46:11,851 - factor type je 1 na liniji 34
INFO  11:46:11,851 - factor type je 1 na liniji 34
INFO  11:46:11,851 - Dodeljenja vrednost: 1 je design,1 je assign
INFO  11:46:11,851 - factor type je 1 na liniji 35
INFO  11:46:11,851 - Print funkcija na liniji 35
INFO  11:46:11,851 - USAO 2
INFO  11:46:11,851 - factor type je 1 na liniji 36
INFO  11:46:11,852 - factor type je 1 na liniji 36
INFO  11:46:11,852 - Print funkcija na liniji 36
INFO  11:46:11,852 - factor type je 6 na liniji 41
INFO  11:46:11,852 - factor type je 1 na liniji 42
INFO  11:46:11,852 - factor type je 2 na liniji 43
INFO  11:46:11,852 - Print funkcija na liniji 43
INFO  11:46:11,852 - factor type je 6 na liniji 44
INFO  11:46:11,852 - factor type je 2 na liniji 44
INFO  11:46:11,852 - Print funkcija na liniji 44
INFO  11:46:11,852 - factor type je 1 na liniji 47
INFO  11:46:11,853 - factor type je 1 na liniji 47
INFO  11:46:11,853 - factor type je 6 na liniji 47
INFO  11:46:11,853 - USAO 2
INFO  11:46:11,853 - factor type je 1 na liniji 47
INFO  11:46:11,853 - Dodeljenja vrednost: 1 je design,1 je assign
INFO  11:46:11,853 - factor type je 1 na liniji 48
INFO  11:46:11,853 - Print funkcija na liniji 48
INFO  11:46:11,853 - factor type je 1 na liniji 52
INFO  11:46:11,853 - Dodeljenja vrednost: 1 je design,1 je assign
INFO  11:46:11,853 - factor type je 1 na liniji 53
INFO  11:46:11,853 - Print funkcija na liniji 53
INFO  11:46:11,853 -  Print count calls = 7
INFO  11:46:11,853 -  Deklarisanih promenljivih ima = 6
INFO  11:46:11,863 - Parsiranje uspesno zavrseno!
