INFO  15:54:31,987 - Compiling source file: C:\Users\ikadr\Desktop\PP\Projekat\Rad\workspace\MJCompiler\test\program.mj
INFO  15:54:32,054 - #2 program
INFO  15:54:32,055 - #28 test301
INFO  15:54:32,055 - #9 enum
INFO  15:54:32,057 - #28 Broj
INFO  15:54:32,057 - #17 {
INFO  15:54:32,057 - #28 NULA
INFO  15:54:32,057 - #12 ,
INFO  15:54:32,057 - #28 JEDAN
INFO  15:54:32,058 - #12 ,
INFO  15:54:32,058 - #28 PET
INFO  15:54:32,058 - #11 =
INFO  15:54:32,058 - #27 5
INFO  15:54:32,058 - #12 ,
INFO  15:54:32,058 - #28 DESET
INFO  15:54:32,058 - #11 =
INFO  15:54:32,058 - #27 10
INFO  15:54:32,059 - #18 }
INFO  15:54:32,059 - #8 const
INFO  15:54:32,060 - #28 int
INFO  15:54:32,060 - #28 jedan
INFO  15:54:32,061 - #11 =
INFO  15:54:32,068 - #27 1
INFO  15:54:32,068 - #10 ;
INFO  15:54:32,069 - #8 const
INFO  15:54:32,070 - #28 int
INFO  15:54:32,071 - #28 pet
INFO  15:54:32,071 - #11 =
INFO  15:54:32,071 - #27 5
INFO  15:54:32,071 - #10 ;
INFO  15:54:32,071 - #28 int
INFO  15:54:32,071 - #28 niz
INFO  15:54:32,071 - #15 [
INFO  15:54:32,071 - #16 ]
INFO  15:54:32,072 - #10 ;
INFO  15:54:32,072 - #28 char
INFO  15:54:32,073 - #28 nizch
INFO  15:54:32,073 - #15 [
INFO  15:54:32,073 - #16 ]
INFO  15:54:32,073 - #10 ;
INFO  15:54:32,073 - #17 {
INFO  15:54:32,074 - #6 void
INFO  15:54:32,074 - #28 main
INFO  15:54:32,075 - #13 (
INFO  15:54:32,075 - #14 )
INFO  15:54:32,075 - #28 int
INFO  15:54:32,077 - #28 bodovi
INFO  15:54:32,077 - #10 ;
INFO  15:54:32,077 - #28 Broj
INFO  15:54:32,079 - #28 nula
INFO  15:54:32,079 - #12 ,
INFO  15:54:32,079 - #28 jedan
INFO  15:54:32,079 - #10 ;
INFO  15:54:32,079 - #17 {
INFO  15:54:32,079 - #28 nula
INFO  15:54:32,080 - #11 =
INFO  15:54:32,081 - #28 Broj
INFO  15:54:32,081 - #19 .
INFO  15:54:32,081 - #28 NULA
INFO  15:54:32,081 - #10 ;
INFO  15:54:32,082 - #28 jedan
INFO  15:54:32,082 - #11 =
INFO  15:54:32,082 - #28 Broj
INFO  15:54:32,082 - #19 .
INFO  15:54:32,082 - #28 JEDAN
INFO  15:54:32,082 - #10 ;
INFO  15:54:32,082 - #28 bodovi
INFO  15:54:32,083 - #11 =
INFO  15:54:32,083 - #27 0
INFO  15:54:32,083 - #10 ;
INFO  15:54:32,083 - #28 bodovi
INFO  15:54:32,083 - #20 ++
INFO  15:54:32,083 - #10 ;
INFO  15:54:32,084 - #28 bodovi
INFO  15:54:32,084 - #11 =
INFO  15:54:32,084 - #28 bodovi
INFO  15:54:32,084 - #23 +
INFO  15:54:32,084 - #28 jedan
INFO  15:54:32,086 - #10 ;
INFO  15:54:32,086 - #28 bodovi
INFO  15:54:32,086 - #11 =
INFO  15:54:32,086 - #28 bodovi
INFO  15:54:32,086 - #24 *
INFO  15:54:32,087 - #28 pet
INFO  15:54:32,089 - #10 ;
INFO  15:54:32,089 - #28 bodovi
INFO  15:54:32,089 - #21 --
INFO  15:54:32,090 - #10 ;
INFO  15:54:32,090 - #4 print
INFO  15:54:32,090 - #13 (
INFO  15:54:32,090 - #28 bodovi
INFO  15:54:32,090 - #14 )
INFO  15:54:32,090 - #10 ;
INFO  15:54:32,090 - #28 niz
INFO  15:54:32,091 - #11 =
INFO  15:54:32,091 - #5 new
INFO  15:54:32,091 - #28 int
INFO  15:54:32,091 - #15 [
INFO  15:54:32,091 - #27 2
INFO  15:54:32,091 - #16 ]
INFO  15:54:32,091 - #10 ;
INFO  15:54:32,092 - #28 niz
INFO  15:54:32,092 - #15 [
INFO  15:54:32,093 - #28 nula
INFO  15:54:32,093 - #16 ]
INFO  15:54:32,093 - #11 =
INFO  15:54:32,094 - #28 pet
INFO  15:54:32,094 - #10 ;
INFO  15:54:32,094 - #18 }
INFO  15:54:32,094 - #18 }
INFO  15:54:32,111 - Program(
  ProgName(
   test301
  ) [ProgName]
  GlobalDeclListL(
    GlobalDeclListL(
      GlobalDeclListL(
        GlobalDeclListL(
          GlobalDeclListL(
            GlobalDeclListEps(
            ) [GlobalDeclListEps]
            GlobalDeclEnum(
              EnumDecl(
               Broj
                EnumDeclListL(
                  EnumDeclListL(
                    EnumDeclListL(
                      EnumDeclItem(
                        EnumDeclDefNoVal(
                         NULA
                        ) [EnumDeclDefNoVal]
                      ) [EnumDeclItem]
                      EnumDeclDefNoVal(
                       JEDAN
                      ) [EnumDeclDefNoVal]
                    ) [EnumDeclListL]
                    EnumDeclDefVal(
                     PET
                     5
                    ) [EnumDeclDefVal]
                  ) [EnumDeclListL]
                  EnumDeclDefVal(
                   DESET
                   10
                  ) [EnumDeclDefVal]
                ) [EnumDeclListL]
              ) [EnumDecl]
            ) [GlobalDeclEnum]
          ) [GlobalDeclListL]
          GlobalDeclConst(
            ConstDecl(
              Type(
               int
              ) [Type]
              ConstDeclItem(
                ConstDef(
                 jedan
                  ConstNum(
                   1
                  ) [ConstNum]
                ) [ConstDef]
              ) [ConstDeclItem]
            ) [ConstDecl]
          ) [GlobalDeclConst]
        ) [GlobalDeclListL]
        GlobalDeclConst(
          ConstDecl(
            Type(
             int
            ) [Type]
            ConstDeclItem(
              ConstDef(
               pet
                ConstNum(
                 5
                ) [ConstNum]
              ) [ConstDef]
            ) [ConstDeclItem]
          ) [ConstDecl]
        ) [GlobalDeclConst]
      ) [GlobalDeclListL]
      GlobalDeclVar(
        GlobalVarDecl(
          Type(
           int
          ) [Type]
          GlobalVarDeclItem(
            GlobalVarDeclDefOk(
              VarDeclDefineArray(
               niz
              ) [VarDeclDefineArray]
            ) [GlobalVarDeclDefOk]
          ) [GlobalVarDeclItem]
        ) [GlobalVarDecl]
      ) [GlobalDeclVar]
    ) [GlobalDeclListL]
    GlobalDeclVar(
      GlobalVarDecl(
        Type(
         char
        ) [Type]
        GlobalVarDeclItem(
          GlobalVarDeclDefOk(
            VarDeclDefineArray(
             nizch
            ) [VarDeclDefineArray]
          ) [GlobalVarDeclDefOk]
        ) [GlobalVarDeclItem]
      ) [GlobalVarDecl]
    ) [GlobalDeclVar]
  ) [GlobalDeclListL]
  MethodDecl(
    MethodSignature(
      VoidableType(
      ) [VoidableType]
     main
    ) [MethodSignature]
    VarMethodDeclList_NoEps(
      VarMethodDeclList_NoEps(
        VarMethodDeclList_Eps(
        ) [VarMethodDeclList_Eps]
        VarDecl(
          Type(
           int
          ) [Type]
          VarDeclItem(
            VarDeclDefineSingle(
             bodovi
            ) [VarDeclDefineSingle]
          ) [VarDeclItem]
        ) [VarDecl]
      ) [VarMethodDeclList_NoEps]
      VarDecl(
        Type(
         Broj
        ) [Type]
        VarDeclListL(
          VarDeclItem(
            VarDeclDefineSingle(
             nula
            ) [VarDeclDefineSingle]
          ) [VarDeclItem]
          VarDeclDefineSingle(
           jedan
          ) [VarDeclDefineSingle]
        ) [VarDeclListL]
      ) [VarDecl]
    ) [VarMethodDeclList_NoEps]
    StatementList_NoEps(
      StatementList_NoEps(
        StatementList_NoEps(
          StatementList_NoEps(
            StatementList_NoEps(
              StatementList_NoEps(
                StatementList_NoEps(
                  StatementList_NoEps(
                    StatementList_NoEps(
                      StatementList_NoEps(
                        StatementList_Eps(
                        ) [StatementList_Eps]
                        StatementDes(
                          DesignStatAssignment(
                            DesIdent(
                             nula
                            ) [DesIdent]
                            AssignementExpr(
                              TermExpr(
                                TermFact(
                                  FactorDesign(
                                    DesEnum(
                                     Broj
                                     NULA
                                    ) [DesEnum]
                                  ) [FactorDesign]
                                ) [TermFact]
                              ) [TermExpr]
                            ) [AssignementExpr]
                          ) [DesignStatAssignment]
                        ) [StatementDes]
                      ) [StatementList_NoEps]
                      StatementDes(
                        DesignStatAssignment(
                          DesIdent(
                           jedan
                          ) [DesIdent]
                          AssignementExpr(
                            TermExpr(
                              TermFact(
                                FactorDesign(
                                  DesEnum(
                                   Broj
                                   JEDAN
                                  ) [DesEnum]
                                ) [FactorDesign]
                              ) [TermFact]
                            ) [TermExpr]
                          ) [AssignementExpr]
                        ) [DesignStatAssignment]
                      ) [StatementDes]
                    ) [StatementList_NoEps]
                    StatementDes(
                      DesignStatAssignment(
                        DesIdent(
                         bodovi
                        ) [DesIdent]
                        AssignementExpr(
                          TermExpr(
                            TermFact(
                              FactorConst(
                                ConstNum(
                                 0
                                ) [ConstNum]
                              ) [FactorConst]
                            ) [TermFact]
                          ) [TermExpr]
                        ) [AssignementExpr]
                      ) [DesignStatAssignment]
                    ) [StatementDes]
                  ) [StatementList_NoEps]
                  StatementDes(
                    DesignStatInc(
                      DesIdent(
                       bodovi
                      ) [DesIdent]
                    ) [DesignStatInc]
                  ) [StatementDes]
                ) [StatementList_NoEps]
                StatementDes(
                  DesignStatAssignment(
                    DesIdent(
                     bodovi
                    ) [DesIdent]
                    AssignementExpr(
                      AddopExp(
                        TermExpr(
                          TermFact(
                            FactorDesign(
                              DesIdent(
                               bodovi
                              ) [DesIdent]
                            ) [FactorDesign]
                          ) [TermFact]
                        ) [TermExpr]
                        Addop_Plus(
                        ) [Addop_Plus]
                        TermFact(
                          FactorDesign(
                            DesIdent(
                             jedan
                            ) [DesIdent]
                          ) [FactorDesign]
                        ) [TermFact]
                      ) [AddopExp]
                    ) [AssignementExpr]
                  ) [DesignStatAssignment]
                ) [StatementDes]
              ) [StatementList_NoEps]
              StatementDes(
                DesignStatAssignment(
                  DesIdent(
                   bodovi
                  ) [DesIdent]
                  AssignementExpr(
                    TermExpr(
                      TermMulop(
                        TermFact(
                          FactorDesign(
                            DesIdent(
                             bodovi
                            ) [DesIdent]
                          ) [FactorDesign]
                        ) [TermFact]
                        Mulop_Mul(
                        ) [Mulop_Mul]
                        FactorDesign(
                          DesIdent(
                           pet
                          ) [DesIdent]
                        ) [FactorDesign]
                      ) [TermMulop]
                    ) [TermExpr]
                  ) [AssignementExpr]
                ) [DesignStatAssignment]
              ) [StatementDes]
            ) [StatementList_NoEps]
            StatementDes(
              DesignStatDec(
                DesIdent(
                 bodovi
                ) [DesIdent]
              ) [DesignStatDec]
            ) [StatementDes]
          ) [StatementList_NoEps]
          StatPrint(
            TermExpr(
              TermFact(
                FactorDesign(
                  DesIdent(
                   bodovi
                  ) [DesIdent]
                ) [FactorDesign]
              ) [TermFact]
            ) [TermExpr]
          ) [StatPrint]
        ) [StatementList_NoEps]
        StatementDes(
          DesignStatAssignment(
            DesIdent(
             niz
            ) [DesIdent]
            AssignementExpr(
              TermExpr(
                TermFact(
                  FactorNewArr(
                    Type(
                     int
                    ) [Type]
                    TermExpr(
                      TermFact(
                        FactorConst(
                          ConstNum(
                           2
                          ) [ConstNum]
                        ) [FactorConst]
                      ) [TermFact]
                    ) [TermExpr]
                  ) [FactorNewArr]
                ) [TermFact]
              ) [TermExpr]
            ) [AssignementExpr]
          ) [DesignStatAssignment]
        ) [StatementDes]
      ) [StatementList_NoEps]
      StatementDes(
        DesignStatAssignment(
          DesArr(
            ArrayName(
             niz
            ) [ArrayName]
            TermExpr(
              TermFact(
                FactorDesign(
                  DesIdent(
                   nula
                  ) [DesIdent]
                ) [FactorDesign]
              ) [TermFact]
            ) [TermExpr]
          ) [DesArr]
          AssignementExpr(
            TermExpr(
              TermFact(
                FactorDesign(
                  DesIdent(
                   pet
                  ) [DesIdent]
                ) [FactorDesign]
              ) [TermFact]
            ) [TermExpr]
          ) [AssignementExpr]
        ) [DesignStatAssignment]
      ) [StatementDes]
    ) [StatementList_NoEps]
  ) [MethodDecl]
) [Program]
INFO  15:54:32,112 - ===================================
INFO  15:54:32,117 - Deklarisan novi enum tip Broj na liniji 5
INFO  15:54:32,117 - Deklarisana konstanta 'jedan' na liniji 7
INFO  15:54:32,117 - Deklarisana konstanta 'pet' na liniji 8
INFO  15:54:32,117 - Deklarisana promenljiva niza niz tipa 1 na liniji 10
INFO  15:54:32,118 - Deklarisana promenljiva niza nizch tipa 2 na liniji 11
INFO  15:54:32,118 - Obradjuje se funkcija main na liniji 14
INFO  15:54:32,118 - Deklarisana promenljiva bodovi tipa 1 na liniji 15
INFO  15:54:32,118 - Deklarisana promenljiva nula tipa 6 na liniji 16
INFO  15:54:32,118 - Deklarisana promenljiva jedan tipa 6 na liniji 16
INFO  15:54:32,118 - USAO nula
INFO  15:54:32,118 - Dodeljenja vrednost enuma promenljivoj enuma
INFO  15:54:32,119 - USAO jedan
INFO  15:54:32,119 - Dodeljenja vrednost enuma promenljivoj enuma
INFO  15:54:32,119 - USAO bodovi
INFO  15:54:32,119 - Dodeljenja vrednost: 1 je design,1 je assign
INFO  15:54:32,119 - Inkrementirana vrednost
INFO  15:54:32,119 - USAO bodovi
INFO  15:54:32,119 - Dodeljenja vrednost: 1 je design,1 je assign
INFO  15:54:32,119 - termMulop je 1
INFO  15:54:32,119 - USAO bodovi
INFO  15:54:32,124 - Dodeljenja vrednost: 1 je design,1 je assign
INFO  15:54:32,124 - Dekrementirana vrednost
INFO  15:54:32,124 - kind niza u newArr je3, a elemenata 1
INFO  15:54:32,124 - USAO niz
INFO  15:54:32,124 - ime niza je niz na liniji 29
INFO  15:54:32,124 - elem niza je niz na liniji 29
INFO  15:54:32,124 - USAO niz
INFO  15:54:32,124 - USAO 6
INFO  15:54:32,124 - Indeks je enum, dodela je int
INFO  15:54:32,124 -  Print count calls = 1
INFO  15:54:32,124 -  Deklarisanih promenljivih ima = 3
INFO  15:54:32,125 - Parsiranje uspesno zavrseno!
