INFO  11:49:35,264 - Compiling source file: C:\Users\ikadr\Desktop\PP\Projekat\Rad\workspace\MJCompiler\test\program.mj
INFO  11:49:35,265 - ===============SINTAKSNA OBRADA====================
INFO  11:49:35,411 - #2 program
INFO  11:49:35,411 - #29 test301
INFO  11:49:35,411 - #9 enum
INFO  11:49:35,414 - #29 Broj
INFO  11:49:35,415 - #17 {
INFO  11:49:35,416 - #29 NULA
INFO  11:49:35,417 - #12 ,
INFO  11:49:35,417 - #29 JEDAN
INFO  11:49:35,417 - #12 ,
INFO  11:49:35,417 - #29 PET
INFO  11:49:35,418 - #11 =
INFO  11:49:35,418 - #28 5
INFO  11:49:35,418 - #12 ,
INFO  11:49:35,418 - #29 DESET
INFO  11:49:35,418 - #11 =
INFO  11:49:35,418 - #28 10
INFO  11:49:35,418 - #18 }
INFO  11:49:35,419 - #8 const
INFO  11:49:35,421 - #29 int
INFO  11:49:35,421 - #29 jedan
INFO  11:49:35,422 - #11 =
INFO  11:49:35,422 - #28 1
INFO  11:49:35,422 - #10 ;
INFO  11:49:35,424 - #8 const
INFO  11:49:35,426 - #29 int
INFO  11:49:35,426 - #29 pet
INFO  11:49:35,426 - #11 =
INFO  11:49:35,426 - #28 5
INFO  11:49:35,426 - #10 ;
INFO  11:49:35,427 - #29 int
INFO  11:49:35,427 - #29 niz
INFO  11:49:35,427 - #15 [
INFO  11:49:35,427 - #16 ]
INFO  11:49:35,427 - #10 ;
INFO  11:49:35,427 - #29 char
INFO  11:49:35,429 - #29 nizch
INFO  11:49:35,429 - #15 [
INFO  11:49:35,429 - #16 ]
INFO  11:49:35,429 - #10 ;
INFO  11:49:35,430 - #17 {
INFO  11:49:35,430 - #6 void
INFO  11:49:35,432 - #29 main
INFO  11:49:35,434 - #13 (
INFO  11:49:35,434 - #14 )
INFO  11:49:35,434 - #29 int
INFO  11:49:35,438 - #29 bodovi
INFO  11:49:35,438 - #10 ;
INFO  11:49:35,439 - #29 Broj
INFO  11:49:35,441 - #29 nula
INFO  11:49:35,442 - #12 ,
INFO  11:49:35,442 - #29 jedan
INFO  11:49:35,443 - #10 ;
INFO  11:49:35,443 - #17 {
INFO  11:49:35,444 - #29 nula
INFO  11:49:35,445 - #11 =
INFO  11:49:35,446 - #29 Broj
INFO  11:49:35,446 - #19 .
INFO  11:49:35,446 - #29 NULA
INFO  11:49:35,446 - #10 ;
INFO  11:49:35,447 - #29 jedan
INFO  11:49:35,447 - #11 =
INFO  11:49:35,447 - #29 Broj
INFO  11:49:35,448 - #19 .
INFO  11:49:35,448 - #29 JEDAN
INFO  11:49:35,448 - #10 ;
INFO  11:49:35,448 - #29 bodovi
INFO  11:49:35,448 - #11 =
INFO  11:49:35,448 - #28 0
INFO  11:49:35,450 - #10 ;
INFO  11:49:35,451 - #29 bodovi
INFO  11:49:35,451 - #20 ++
INFO  11:49:35,451 - #10 ;
INFO  11:49:35,451 - #29 bodovi
INFO  11:49:35,451 - #11 =
INFO  11:49:35,451 - #29 bodovi
INFO  11:49:35,452 - #23 +
INFO  11:49:35,452 - #29 jedan
INFO  11:49:35,456 - #10 ;
INFO  11:49:35,457 - #29 bodovi
INFO  11:49:35,457 - #11 =
INFO  11:49:35,457 - #29 bodovi
INFO  11:49:35,458 - #24 *
INFO  11:49:35,458 - #29 pet
INFO  11:49:35,464 - #10 ;
INFO  11:49:35,468 - #29 bodovi
INFO  11:49:35,469 - #21 --
INFO  11:49:35,469 - #10 ;
INFO  11:49:35,471 - #4 print
INFO  11:49:35,471 - #13 (
INFO  11:49:35,471 - #29 bodovi
INFO  11:49:35,471 - #14 )
INFO  11:49:35,472 - #10 ;
INFO  11:49:35,472 - #29 niz
INFO  11:49:35,473 - #11 =
INFO  11:49:35,475 - #5 new
INFO  11:49:35,476 - #29 int
INFO  11:49:35,476 - #15 [
INFO  11:49:35,477 - #28 2
INFO  11:49:35,477 - #16 ]
INFO  11:49:35,491 - #10 ;
INFO  11:49:35,492 - #29 niz
INFO  11:49:35,492 - #15 [
INFO  11:49:35,494 - #29 nula
INFO  11:49:35,494 - #16 ]
INFO  11:49:35,494 - #11 =
INFO  11:49:35,495 - #29 pet
INFO  11:49:35,495 - #10 ;
INFO  11:49:35,497 - #29 niz
INFO  11:49:35,500 - #15 [
INFO  11:49:35,500 - #28 1
INFO  11:49:35,500 - #16 ]
INFO  11:49:35,501 - #11 =
INFO  11:49:35,501 - #29 Broj
INFO  11:49:35,501 - #19 .
INFO  11:49:35,501 - #29 DESET
INFO  11:49:35,501 - #10 ;
INFO  11:49:35,501 - #29 bodovi
INFO  11:49:35,501 - #11 =
INFO  11:49:35,502 - #29 niz
INFO  11:49:35,502 - #15 [
INFO  11:49:35,502 - #28 1
INFO  11:49:35,502 - #16 ]
INFO  11:49:35,502 - #25 /
INFO  11:49:35,502 - #29 niz
INFO  11:49:35,505 - #15 [
INFO  11:49:35,508 - #28 0
INFO  11:49:35,514 - #16 ]
INFO  11:49:35,523 - #10 ;
INFO  11:49:35,523 - #4 print
INFO  11:49:35,523 - #13 (
INFO  11:49:35,524 - #29 bodovi
INFO  11:49:35,530 - #14 )
INFO  11:49:35,531 - #10 ;
INFO  11:49:35,531 - #4 print
INFO  11:49:35,531 - #13 (
INFO  11:49:35,531 - #29 niz
INFO  11:49:35,531 - #15 [
INFO  11:49:35,531 - #29 Broj
INFO  11:49:35,532 - #19 .
INFO  11:49:35,532 - #29 JEDAN
INFO  11:49:35,532 - #16 ]
INFO  11:49:35,532 - #14 )
INFO  11:49:35,532 - #10 ;
INFO  11:49:35,533 - #29 nizch
INFO  11:49:35,533 - #11 =
INFO  11:49:35,533 - #5 new
INFO  11:49:35,533 - #29 char
INFO  11:49:35,533 - #15 [
INFO  11:49:35,533 - #28 3
INFO  11:49:35,533 - #16 ]
INFO  11:49:35,534 - #10 ;
INFO  11:49:35,534 - #29 nizch
INFO  11:49:35,534 - #15 [
INFO  11:49:35,534 - #28 0
INFO  11:49:35,534 - #16 ]
INFO  11:49:35,534 - #11 =
INFO  11:49:35,535 - #30 a
INFO  11:49:35,535 - #10 ;
INFO  11:49:35,537 - #29 nizch
INFO  11:49:35,537 - #15 [
INFO  11:49:35,537 - #29 jedan
INFO  11:49:35,537 - #16 ]
INFO  11:49:35,538 - #11 =
INFO  11:49:35,538 - #30 b
INFO  11:49:35,538 - #10 ;
INFO  11:49:35,538 - #29 nizch
INFO  11:49:35,538 - #15 [
INFO  11:49:35,538 - #29 pet
INFO  11:49:35,538 - #22 -
INFO  11:49:35,538 - #28 3
INFO  11:49:35,540 - #16 ]
INFO  11:49:35,540 - #11 =
INFO  11:49:35,540 - #30 c
INFO  11:49:35,541 - #10 ;
INFO  11:49:35,541 - #4 print
INFO  11:49:35,541 - #13 (
INFO  11:49:35,541 - #29 nizch
INFO  11:49:35,541 - #15 [
INFO  11:49:35,541 - #28 2
INFO  11:49:35,541 - #22 -
INFO  11:49:35,541 - #28 1
INFO  11:49:35,541 - #16 ]
INFO  11:49:35,542 - #14 )
INFO  11:49:35,542 - #10 ;
INFO  11:49:35,542 - #4 print
INFO  11:49:35,542 - #13 (
INFO  11:49:35,542 - #29 nizch
INFO  11:49:35,542 - #15 [
INFO  11:49:35,542 - #29 jedan
INFO  11:49:35,542 - #24 *
INFO  11:49:35,543 - #28 2
INFO  11:49:35,543 - #16 ]
INFO  11:49:35,543 - #14 )
INFO  11:49:35,543 - #10 ;
INFO  11:49:35,543 - #29 bodovi
INFO  11:49:35,543 - #11 =
INFO  11:49:35,543 - #29 bodovi
INFO  11:49:35,543 - #23 +
INFO  11:49:35,543 - #13 (
INFO  11:49:35,544 - #13 (
INFO  11:49:35,544 - #29 pet
INFO  11:49:35,544 - #24 *
INFO  11:49:35,544 - #29 jedan
INFO  11:49:35,544 - #22 -
INFO  11:49:35,544 - #28 1
INFO  11:49:35,544 - #14 )
INFO  11:49:35,544 - #24 *
INFO  11:49:35,545 - #28 2
INFO  11:49:35,545 - #22 -
INFO  11:49:35,545 - #13 (
INFO  11:49:35,545 - #28 3
INFO  11:49:35,545 - #26 %
INFO  11:49:35,545 - #28 2
INFO  11:49:35,547 - #23 +
INFO  11:49:35,547 - #28 3
INFO  11:49:35,547 - #24 *
INFO  11:49:35,547 - #28 2
INFO  11:49:35,547 - #22 -
INFO  11:49:35,547 - #28 3
INFO  11:49:35,547 - #14 )
INFO  11:49:35,547 - #22 -
INFO  11:49:35,547 - #29 Broj
INFO  11:49:35,547 - #19 .
INFO  11:49:35,547 - #29 JEDAN
INFO  11:49:35,547 - #24 *
INFO  11:49:35,547 - #28 0
INFO  11:49:35,547 - #14 )
INFO  11:49:35,547 - #10 ;
INFO  11:49:35,547 - #4 print
INFO  11:49:35,548 - #13 (
INFO  11:49:35,548 - #29 bodovi
INFO  11:49:35,548 - #14 )
INFO  11:49:35,548 - #10 ;
INFO  11:49:35,548 - #3 read
INFO  11:49:35,548 - #13 (
INFO  11:49:35,548 - #29 bodovi
INFO  11:49:35,548 - #14 )
INFO  11:49:35,548 - #10 ;
INFO  11:49:35,548 - #29 bodovi
INFO  11:49:35,548 - #11 =
INFO  11:49:35,548 - #29 bodovi
INFO  11:49:35,548 - #23 +
INFO  11:49:35,548 - #28 1
INFO  11:49:35,548 - #10 ;
INFO  11:49:35,549 - #4 print
INFO  11:49:35,549 - #13 (
INFO  11:49:35,549 - #29 bodovi
INFO  11:49:35,549 - #14 )
INFO  11:49:35,549 - #10 ;
INFO  11:49:35,549 - #18 }
INFO  11:49:35,550 - #18 }
INFO  11:49:35,581 - Program(
  ProgName(
   test301
  ) [ProgName]
  GlobalDeclListL(
    GlobalDeclListL(
      GlobalDeclListL(
        GlobalDeclListL(
          GlobalDeclListL(
            GlobalDeclListEps(
            ) [GlobalDeclListEps]
            GlobalDeclEnum(
              EnumDecl(
                EnumName(
                 Broj
                ) [EnumName]
                EnumDeclListL(
                  EnumDeclListL(
                    EnumDeclListL(
                      EnumDeclItem(
                        EnumDeclDefNoVal(
                         NULA
                        ) [EnumDeclDefNoVal]
                      ) [EnumDeclItem]
                      EnumDeclDefNoVal(
                       JEDAN
                      ) [EnumDeclDefNoVal]
                    ) [EnumDeclListL]
                    EnumDeclDefVal(
                     PET
                     5
                    ) [EnumDeclDefVal]
                  ) [EnumDeclListL]
                  EnumDeclDefVal(
                   DESET
                   10
                  ) [EnumDeclDefVal]
                ) [EnumDeclListL]
              ) [EnumDecl]
            ) [GlobalDeclEnum]
          ) [GlobalDeclListL]
          GlobalDeclConst(
            ConstDecl(
              Type(
               int
              ) [Type]
              ConstDeclItem(
                ConstDef(
                 jedan
                  ConstNum(
                   1
                  ) [ConstNum]
                ) [ConstDef]
              ) [ConstDeclItem]
            ) [ConstDecl]
          ) [GlobalDeclConst]
        ) [GlobalDeclListL]
        GlobalDeclConst(
          ConstDecl(
            Type(
             int
            ) [Type]
            ConstDeclItem(
              ConstDef(
               pet
                ConstNum(
                 5
                ) [ConstNum]
              ) [ConstDef]
            ) [ConstDeclItem]
          ) [ConstDecl]
        ) [GlobalDeclConst]
      ) [GlobalDeclListL]
      GlobalDeclVar(
        GlobalVarDecl(
          Type(
           int
          ) [Type]
          GlobalVarDeclItem(
            GlobalVarDeclDefOk(
              VarDeclDefineArray(
               niz
              ) [VarDeclDefineArray]
            ) [GlobalVarDeclDefOk]
          ) [GlobalVarDeclItem]
        ) [GlobalVarDecl]
      ) [GlobalDeclVar]
    ) [GlobalDeclListL]
    GlobalDeclVar(
      GlobalVarDecl(
        Type(
         char
        ) [Type]
        GlobalVarDeclItem(
          GlobalVarDeclDefOk(
            VarDeclDefineArray(
             nizch
            ) [VarDeclDefineArray]
          ) [GlobalVarDeclDefOk]
        ) [GlobalVarDeclItem]
      ) [GlobalVarDecl]
    ) [GlobalDeclVar]
  ) [GlobalDeclListL]
  MethodDecl(
    MethodSignature(
      VoidableType(
      ) [VoidableType]
     main
    ) [MethodSignature]
    VarMethodDeclList_NoEps(
      VarMethodDeclList_NoEps(
        VarMethodDeclList_Eps(
        ) [VarMethodDeclList_Eps]
        VarDecl(
          Type(
           int
          ) [Type]
          VarDeclItem(
            VarDeclDefineSingle(
             bodovi
            ) [VarDeclDefineSingle]
          ) [VarDeclItem]
        ) [VarDecl]
      ) [VarMethodDeclList_NoEps]
      VarDecl(
        Type(
         Broj
        ) [Type]
        VarDeclListL(
          VarDeclItem(
            VarDeclDefineSingle(
             nula
            ) [VarDeclDefineSingle]
          ) [VarDeclItem]
          VarDeclDefineSingle(
           jedan
          ) [VarDeclDefineSingle]
        ) [VarDeclListL]
      ) [VarDecl]
    ) [VarMethodDeclList_NoEps]
    StatementList_NoEps(
      StatementList_NoEps(
        StatementList_NoEps(
          StatementList_NoEps(
            StatementList_NoEps(
              StatementList_NoEps(
                StatementList_NoEps(
                  StatementList_NoEps(
                    StatementList_NoEps(
                      StatementList_NoEps(
                        StatementList_NoEps(
                          StatementList_NoEps(
                            StatementList_NoEps(
                              StatementList_NoEps(
                                StatementList_NoEps(
                                  StatementList_NoEps(
                                    StatementList_NoEps(
                                      StatementList_NoEps(
                                        StatementList_NoEps(
                                          StatementList_NoEps(
                                            StatementList_NoEps(
                                              StatementList_NoEps(
                                                StatementList_NoEps(
                                                  StatementList_NoEps(
                                                    StatementList_NoEps(
                                                      StatementList_Eps(
                                                      ) [StatementList_Eps]
                                                      StatementDes(
                                                        DesignStatAssignment(
                                                          DesIdent(
                                                           nula
                                                          ) [DesIdent]
                                                          AssignementExpr(
                                                            TermExpr(
                                                              TermFact(
                                                                FactorDesign(
                                                                  DesEnum(
                                                                   Broj
                                                                   NULA
                                                                  ) [DesEnum]
                                                                ) [FactorDesign]
                                                              ) [TermFact]
                                                            ) [TermExpr]
                                                          ) [AssignementExpr]
                                                        ) [DesignStatAssignment]
                                                      ) [StatementDes]
                                                    ) [StatementList_NoEps]
                                                    StatementDes(
                                                      DesignStatAssignment(
                                                        DesIdent(
                                                         jedan
                                                        ) [DesIdent]
                                                        AssignementExpr(
                                                          TermExpr(
                                                            TermFact(
                                                              FactorDesign(
                                                                DesEnum(
                                                                 Broj
                                                                 JEDAN
                                                                ) [DesEnum]
                                                              ) [FactorDesign]
                                                            ) [TermFact]
                                                          ) [TermExpr]
                                                        ) [AssignementExpr]
                                                      ) [DesignStatAssignment]
                                                    ) [StatementDes]
                                                  ) [StatementList_NoEps]
                                                  StatementDes(
                                                    DesignStatAssignment(
                                                      DesIdent(
                                                       bodovi
                                                      ) [DesIdent]
                                                      AssignementExpr(
                                                        TermExpr(
                                                          TermFact(
                                                            FactorConst(
                                                              ConstNum(
                                                               0
                                                              ) [ConstNum]
                                                            ) [FactorConst]
                                                          ) [TermFact]
                                                        ) [TermExpr]
                                                      ) [AssignementExpr]
                                                    ) [DesignStatAssignment]
                                                  ) [StatementDes]
                                                ) [StatementList_NoEps]
                                                StatementDes(
                                                  DesignStatInc(
                                                    DesIdent(
                                                     bodovi
                                                    ) [DesIdent]
                                                  ) [DesignStatInc]
                                                ) [StatementDes]
                                              ) [StatementList_NoEps]
                                              StatementDes(
                                                DesignStatAssignment(
                                                  DesIdent(
                                                   bodovi
                                                  ) [DesIdent]
                                                  AssignementExpr(
                                                    AddopExp(
                                                      TermExpr(
                                                        TermFact(
                                                          FactorDesign(
                                                            DesIdent(
                                                             bodovi
                                                            ) [DesIdent]
                                                          ) [FactorDesign]
                                                        ) [TermFact]
                                                      ) [TermExpr]
                                                      Addop_Plus(
                                                      ) [Addop_Plus]
                                                      TermFact(
                                                        FactorDesign(
                                                          DesIdent(
                                                           jedan
                                                          ) [DesIdent]
                                                        ) [FactorDesign]
                                                      ) [TermFact]
                                                    ) [AddopExp]
                                                  ) [AssignementExpr]
                                                ) [DesignStatAssignment]
                                              ) [StatementDes]
                                            ) [StatementList_NoEps]
                                            StatementDes(
                                              DesignStatAssignment(
                                                DesIdent(
                                                 bodovi
                                                ) [DesIdent]
                                                AssignementExpr(
                                                  TermExpr(
                                                    TermMulop(
                                                      TermFact(
                                                        FactorDesign(
                                                          DesIdent(
                                                           bodovi
                                                          ) [DesIdent]
                                                        ) [FactorDesign]
                                                      ) [TermFact]
                                                      Mulop_Mul(
                                                      ) [Mulop_Mul]
                                                      FactorDesign(
                                                        DesIdent(
                                                         pet
                                                        ) [DesIdent]
                                                      ) [FactorDesign]
                                                    ) [TermMulop]
                                                  ) [TermExpr]
                                                ) [AssignementExpr]
                                              ) [DesignStatAssignment]
                                            ) [StatementDes]
                                          ) [StatementList_NoEps]
                                          StatementDes(
                                            DesignStatDec(
                                              DesIdent(
                                               bodovi
                                              ) [DesIdent]
                                            ) [DesignStatDec]
                                          ) [StatementDes]
                                        ) [StatementList_NoEps]
                                        StatPrint(
                                          TermExpr(
                                            TermFact(
                                              FactorDesign(
                                                DesIdent(
                                                 bodovi
                                                ) [DesIdent]
                                              ) [FactorDesign]
                                            ) [TermFact]
                                          ) [TermExpr]
                                        ) [StatPrint]
                                      ) [StatementList_NoEps]
                                      StatementDes(
                                        DesignStatAssignment(
                                          DesIdent(
                                           niz
                                          ) [DesIdent]
                                          AssignementExpr(
                                            TermExpr(
                                              TermFact(
                                                FactorNewArr(
                                                  Type(
                                                   int
                                                  ) [Type]
                                                  TermExpr(
                                                    TermFact(
                                                      FactorConst(
                                                        ConstNum(
                                                         2
                                                        ) [ConstNum]
                                                      ) [FactorConst]
                                                    ) [TermFact]
                                                  ) [TermExpr]
                                                ) [FactorNewArr]
                                              ) [TermFact]
                                            ) [TermExpr]
                                          ) [AssignementExpr]
                                        ) [DesignStatAssignment]
                                      ) [StatementDes]
                                    ) [StatementList_NoEps]
                                    StatementDes(
                                      DesignStatAssignment(
                                        DesArr(
                                          ArrayName(
                                           niz
                                          ) [ArrayName]
                                          TermExpr(
                                            TermFact(
                                              FactorDesign(
                                                DesIdent(
                                                 nula
                                                ) [DesIdent]
                                              ) [FactorDesign]
                                            ) [TermFact]
                                          ) [TermExpr]
                                        ) [DesArr]
                                        AssignementExpr(
                                          TermExpr(
                                            TermFact(
                                              FactorDesign(
                                                DesIdent(
                                                 pet
                                                ) [DesIdent]
                                              ) [FactorDesign]
                                            ) [TermFact]
                                          ) [TermExpr]
                                        ) [AssignementExpr]
                                      ) [DesignStatAssignment]
                                    ) [StatementDes]
                                  ) [StatementList_NoEps]
                                  StatementDes(
                                    DesignStatAssignment(
                                      DesArr(
                                        ArrayName(
                                         niz
                                        ) [ArrayName]
                                        TermExpr(
                                          TermFact(
                                            FactorConst(
                                              ConstNum(
                                               1
                                              ) [ConstNum]
                                            ) [FactorConst]
                                          ) [TermFact]
                                        ) [TermExpr]
                                      ) [DesArr]
                                      AssignementExpr(
                                        TermExpr(
                                          TermFact(
                                            FactorDesign(
                                              DesEnum(
                                               Broj
                                               DESET
                                              ) [DesEnum]
                                            ) [FactorDesign]
                                          ) [TermFact]
                                        ) [TermExpr]
                                      ) [AssignementExpr]
                                    ) [DesignStatAssignment]
                                  ) [StatementDes]
                                ) [StatementList_NoEps]
                                StatementDes(
                                  DesignStatAssignment(
                                    DesIdent(
                                     bodovi
                                    ) [DesIdent]
                                    AssignementExpr(
                                      TermExpr(
                                        TermMulop(
                                          TermFact(
                                            FactorDesign(
                                              DesArr(
                                                ArrayName(
                                                 niz
                                                ) [ArrayName]
                                                TermExpr(
                                                  TermFact(
                                                    FactorConst(
                                                      ConstNum(
                                                       1
                                                      ) [ConstNum]
                                                    ) [FactorConst]
                                                  ) [TermFact]
                                                ) [TermExpr]
                                              ) [DesArr]
                                            ) [FactorDesign]
                                          ) [TermFact]
                                          Mulop_Div(
                                          ) [Mulop_Div]
                                          FactorDesign(
                                            DesArr(
                                              ArrayName(
                                               niz
                                              ) [ArrayName]
                                              TermExpr(
                                                TermFact(
                                                  FactorConst(
                                                    ConstNum(
                                                     0
                                                    ) [ConstNum]
                                                  ) [FactorConst]
                                                ) [TermFact]
                                              ) [TermExpr]
                                            ) [DesArr]
                                          ) [FactorDesign]
                                        ) [TermMulop]
                                      ) [TermExpr]
                                    ) [AssignementExpr]
                                  ) [DesignStatAssignment]
                                ) [StatementDes]
                              ) [StatementList_NoEps]
                              StatPrint(
                                TermExpr(
                                  TermFact(
                                    FactorDesign(
                                      DesIdent(
                                       bodovi
                                      ) [DesIdent]
                                    ) [FactorDesign]
                                  ) [TermFact]
                                ) [TermExpr]
                              ) [StatPrint]
                            ) [StatementList_NoEps]
                            StatPrint(
                              TermExpr(
                                TermFact(
                                  FactorDesign(
                                    DesArr(
                                      ArrayName(
                                       niz
                                      ) [ArrayName]
                                      TermExpr(
                                        TermFact(
                                          FactorDesign(
                                            DesEnum(
                                             Broj
                                             JEDAN
                                            ) [DesEnum]
                                          ) [FactorDesign]
                                        ) [TermFact]
                                      ) [TermExpr]
                                    ) [DesArr]
                                  ) [FactorDesign]
                                ) [TermFact]
                              ) [TermExpr]
                            ) [StatPrint]
                          ) [StatementList_NoEps]
                          StatementDes(
                            DesignStatAssignment(
                              DesIdent(
                               nizch
                              ) [DesIdent]
                              AssignementExpr(
                                TermExpr(
                                  TermFact(
                                    FactorNewArr(
                                      Type(
                                       char
                                      ) [Type]
                                      TermExpr(
                                        TermFact(
                                          FactorConst(
                                            ConstNum(
                                             3
                                            ) [ConstNum]
                                          ) [FactorConst]
                                        ) [TermFact]
                                      ) [TermExpr]
                                    ) [FactorNewArr]
                                  ) [TermFact]
                                ) [TermExpr]
                              ) [AssignementExpr]
                            ) [DesignStatAssignment]
                          ) [StatementDes]
                        ) [StatementList_NoEps]
                        StatementDes(
                          DesignStatAssignment(
                            DesArr(
                              ArrayName(
                               nizch
                              ) [ArrayName]
                              TermExpr(
                                TermFact(
                                  FactorConst(
                                    ConstNum(
                                     0
                                    ) [ConstNum]
                                  ) [FactorConst]
                                ) [TermFact]
                              ) [TermExpr]
                            ) [DesArr]
                            AssignementExpr(
                              TermExpr(
                                TermFact(
                                  FactorConst(
                                    ConstChar(
                                     a
                                    ) [ConstChar]
                                  ) [FactorConst]
                                ) [TermFact]
                              ) [TermExpr]
                            ) [AssignementExpr]
                          ) [DesignStatAssignment]
                        ) [StatementDes]
                      ) [StatementList_NoEps]
                      StatementDes(
                        DesignStatAssignment(
                          DesArr(
                            ArrayName(
                             nizch
                            ) [ArrayName]
                            TermExpr(
                              TermFact(
                                FactorDesign(
                                  DesIdent(
                                   jedan
                                  ) [DesIdent]
                                ) [FactorDesign]
                              ) [TermFact]
                            ) [TermExpr]
                          ) [DesArr]
                          AssignementExpr(
                            TermExpr(
                              TermFact(
                                FactorConst(
                                  ConstChar(
                                   b
                                  ) [ConstChar]
                                ) [FactorConst]
                              ) [TermFact]
                            ) [TermExpr]
                          ) [AssignementExpr]
                        ) [DesignStatAssignment]
                      ) [StatementDes]
                    ) [StatementList_NoEps]
                    StatementDes(
                      DesignStatAssignment(
                        DesArr(
                          ArrayName(
                           nizch
                          ) [ArrayName]
                          AddopExp(
                            TermExpr(
                              TermFact(
                                FactorDesign(
                                  DesIdent(
                                   pet
                                  ) [DesIdent]
                                ) [FactorDesign]
                              ) [TermFact]
                            ) [TermExpr]
                            Addop_Minus(
                            ) [Addop_Minus]
                            TermFact(
                              FactorConst(
                                ConstNum(
                                 3
                                ) [ConstNum]
                              ) [FactorConst]
                            ) [TermFact]
                          ) [AddopExp]
                        ) [DesArr]
                        AssignementExpr(
                          TermExpr(
                            TermFact(
                              FactorConst(
                                ConstChar(
                                 c
                                ) [ConstChar]
                              ) [FactorConst]
                            ) [TermFact]
                          ) [TermExpr]
                        ) [AssignementExpr]
                      ) [DesignStatAssignment]
                    ) [StatementDes]
                  ) [StatementList_NoEps]
                  StatPrint(
                    TermExpr(
                      TermFact(
                        FactorDesign(
                          DesArr(
                            ArrayName(
                             nizch
                            ) [ArrayName]
                            AddopExp(
                              TermExpr(
                                TermFact(
                                  FactorConst(
                                    ConstNum(
                                     2
                                    ) [ConstNum]
                                  ) [FactorConst]
                                ) [TermFact]
                              ) [TermExpr]
                              Addop_Minus(
                              ) [Addop_Minus]
                              TermFact(
                                FactorConst(
                                  ConstNum(
                                   1
                                  ) [ConstNum]
                                ) [FactorConst]
                              ) [TermFact]
                            ) [AddopExp]
                          ) [DesArr]
                        ) [FactorDesign]
                      ) [TermFact]
                    ) [TermExpr]
                  ) [StatPrint]
                ) [StatementList_NoEps]
                StatPrint(
                  TermExpr(
                    TermFact(
                      FactorDesign(
                        DesArr(
                          ArrayName(
                           nizch
                          ) [ArrayName]
                          TermExpr(
                            TermMulop(
                              TermFact(
                                FactorDesign(
                                  DesIdent(
                                   jedan
                                  ) [DesIdent]
                                ) [FactorDesign]
                              ) [TermFact]
                              Mulop_Mul(
                              ) [Mulop_Mul]
                              FactorConst(
                                ConstNum(
                                 2
                                ) [ConstNum]
                              ) [FactorConst]
                            ) [TermMulop]
                          ) [TermExpr]
                        ) [DesArr]
                      ) [FactorDesign]
                    ) [TermFact]
                  ) [TermExpr]
                ) [StatPrint]
              ) [StatementList_NoEps]
              StatementDes(
                DesignStatAssignment(
                  DesIdent(
                   bodovi
                  ) [DesIdent]
                  AssignementExpr(
                    AddopExp(
                      TermExpr(
                        TermFact(
                          FactorDesign(
                            DesIdent(
                             bodovi
                            ) [DesIdent]
                          ) [FactorDesign]
                        ) [TermFact]
                      ) [TermExpr]
                      Addop_Plus(
                      ) [Addop_Plus]
                      TermFact(
                        FactorExpr(
                          AddopExp(
                            AddopExp(
                              TermExpr(
                                TermMulop(
                                  TermFact(
                                    FactorExpr(
                                      AddopExp(
                                        TermExpr(
                                          TermMulop(
                                            TermFact(
                                              FactorDesign(
                                                DesIdent(
                                                 pet
                                                ) [DesIdent]
                                              ) [FactorDesign]
                                            ) [TermFact]
                                            Mulop_Mul(
                                            ) [Mulop_Mul]
                                            FactorDesign(
                                              DesIdent(
                                               jedan
                                              ) [DesIdent]
                                            ) [FactorDesign]
                                          ) [TermMulop]
                                        ) [TermExpr]
                                        Addop_Minus(
                                        ) [Addop_Minus]
                                        TermFact(
                                          FactorConst(
                                            ConstNum(
                                             1
                                            ) [ConstNum]
                                          ) [FactorConst]
                                        ) [TermFact]
                                      ) [AddopExp]
                                    ) [FactorExpr]
                                  ) [TermFact]
                                  Mulop_Mul(
                                  ) [Mulop_Mul]
                                  FactorConst(
                                    ConstNum(
                                     2
                                    ) [ConstNum]
                                  ) [FactorConst]
                                ) [TermMulop]
                              ) [TermExpr]
                              Addop_Minus(
                              ) [Addop_Minus]
                              TermFact(
                                FactorExpr(
                                  AddopExp(
                                    AddopExp(
                                      TermExpr(
                                        TermMulop(
                                          TermFact(
                                            FactorConst(
                                              ConstNum(
                                               3
                                              ) [ConstNum]
                                            ) [FactorConst]
                                          ) [TermFact]
                                          Mulop_Mod(
                                          ) [Mulop_Mod]
                                          FactorConst(
                                            ConstNum(
                                             2
                                            ) [ConstNum]
                                          ) [FactorConst]
                                        ) [TermMulop]
                                      ) [TermExpr]
                                      Addop_Plus(
                                      ) [Addop_Plus]
                                      TermMulop(
                                        TermFact(
                                          FactorConst(
                                            ConstNum(
                                             3
                                            ) [ConstNum]
                                          ) [FactorConst]
                                        ) [TermFact]
                                        Mulop_Mul(
                                        ) [Mulop_Mul]
                                        FactorConst(
                                          ConstNum(
                                           2
                                          ) [ConstNum]
                                        ) [FactorConst]
                                      ) [TermMulop]
                                    ) [AddopExp]
                                    Addop_Minus(
                                    ) [Addop_Minus]
                                    TermFact(
                                      FactorConst(
                                        ConstNum(
                                         3
                                        ) [ConstNum]
                                      ) [FactorConst]
                                    ) [TermFact]
                                  ) [AddopExp]
                                ) [FactorExpr]
                              ) [TermFact]
                            ) [AddopExp]
                            Addop_Minus(
                            ) [Addop_Minus]
                            TermMulop(
                              TermFact(
                                FactorDesign(
                                  DesEnum(
                                   Broj
                                   JEDAN
                                  ) [DesEnum]
                                ) [FactorDesign]
                              ) [TermFact]
                              Mulop_Mul(
                              ) [Mulop_Mul]
                              FactorConst(
                                ConstNum(
                                 0
                                ) [ConstNum]
                              ) [FactorConst]
                            ) [TermMulop]
                          ) [AddopExp]
                        ) [FactorExpr]
                      ) [TermFact]
                    ) [AddopExp]
                  ) [AssignementExpr]
                ) [DesignStatAssignment]
              ) [StatementDes]
            ) [StatementList_NoEps]
            StatPrint(
              TermExpr(
                TermFact(
                  FactorDesign(
                    DesIdent(
                     bodovi
                    ) [DesIdent]
                  ) [FactorDesign]
                ) [TermFact]
              ) [TermExpr]
            ) [StatPrint]
          ) [StatementList_NoEps]
          StatRead(
            DesIdent(
             bodovi
            ) [DesIdent]
          ) [StatRead]
        ) [StatementList_NoEps]
        StatementDes(
          DesignStatAssignment(
            DesIdent(
             bodovi
            ) [DesIdent]
            AssignementExpr(
              AddopExp(
                TermExpr(
                  TermFact(
                    FactorDesign(
                      DesIdent(
                       bodovi
                      ) [DesIdent]
                    ) [FactorDesign]
                  ) [TermFact]
                ) [TermExpr]
                Addop_Plus(
                ) [Addop_Plus]
                TermFact(
                  FactorConst(
                    ConstNum(
                     1
                    ) [ConstNum]
                  ) [FactorConst]
                ) [TermFact]
              ) [AddopExp]
            ) [AssignementExpr]
          ) [DesignStatAssignment]
        ) [StatementDes]
      ) [StatementList_NoEps]
      StatPrint(
        TermExpr(
          TermFact(
            FactorDesign(
              DesIdent(
               bodovi
              ) [DesIdent]
            ) [FactorDesign]
          ) [TermFact]
        ) [TermExpr]
      ) [StatPrint]
    ) [StatementList_NoEps]
  ) [MethodDecl]
) [Program]
INFO  11:49:35,586 - ===============SEMANTICKA OBRADA====================
INFO  11:49:35,594 - Deklarisan novi enum tip Broj na liniji 5
INFO  11:49:35,594 - Deklarisana konstanta Broj.NULA unutar enuma Broj na liniji 5
INFO  11:49:35,634 - Deklarisana konstanta Broj.JEDAN unutar enuma Broj na liniji 5
INFO  11:49:35,637 - Deklarisana konstanta Broj.PET unutar enuma Broj na liniji 5
INFO  11:49:35,637 - Deklarisana konstanta Broj.DESET unutar enuma Broj na liniji 5
INFO  11:49:35,641 - Deklarisana konstanta 'jedan' na liniji 7
INFO  11:49:35,641 - Deklarisana konstanta 'pet' na liniji 8
INFO  11:49:35,642 - Deklarisana promenljiva niza niz tipa 1 na liniji 10
INFO  11:49:35,642 - Deklarisana promenljiva niza nizch tipa 2 na liniji 11
INFO  11:49:35,642 - Obradjuje se funkcija main na liniji 14
INFO  11:49:35,642 - Deklarisana promenljiva bodovi tipa int na liniji 15
INFO  11:49:35,642 - Deklarisana promenljiva nula tipa Broj na liniji 16
INFO  11:49:35,642 - Deklarisana promenljiva jedan tipa Broj na liniji 16
INFO  11:49:35,644 - Izvresna dodela vrednosti
INFO  11:49:35,644 - Inkrementirana vrednost
INFO  11:49:35,644 - Izvresna dodela vrednosti
INFO  11:49:35,644 - Izvresna dodela vrednosti
INFO  11:49:35,644 - Dekrementirana vrednost
INFO  11:49:35,644 - Print funkcija na liniji 26
INFO  11:49:35,644 - Izvresna dodela vrednosti
INFO  11:49:35,644 - Print funkcija na liniji 33
INFO  11:49:35,644 - Print funkcija na liniji 34
INFO  11:49:35,645 - Print funkcija na liniji 41
INFO  11:49:35,645 - Print funkcija na liniji 42
INFO  11:49:35,645 - Izvresna dodela vrednosti
INFO  11:49:35,645 - Print funkcija na liniji 46
INFO  11:49:35,645 - Read funkcija na liniji 49
INFO  11:49:35,645 - Izvresna dodela vrednosti
INFO  11:49:35,645 - Print funkcija na liniji 51
INFO  11:49:35,645 -  Print count calls = 7
INFO  11:49:35,645 -  Deklarisanih promenljivih ima = 5
INFO  11:49:35,656 - 
INFO  11:49:35,656 - Parsiranje uspesno zavrseno!
