INFO  10:25:12,491 - Compiling source file: C:\Users\ikadr\Desktop\PP\Projekat\Rad\workspace\MJCompiler\test\program.mj
INFO  10:25:12,549 - #2 program
INFO  10:25:12,550 - #27 test301
INFO  10:25:12,550 - #29 false
ERROR 10:25:12,550 - 
Sintaksna greska na liniji 5
ERROR 10:25:12,550 - Fatalna greska, parsiranje se ne moze nastaviti na liniji 5
