INFO  11:17:09,646 - Compiling source file: C:\Users\ikadr\Desktop\PP\Projekat\Rad\workspace\MJCompiler\test\program.mj
INFO  11:17:09,817 - #2 program
INFO  11:17:09,818 - #28 test301
INFO  11:17:09,819 - #9 enum
INFO  11:17:09,823 - #28 Broj
INFO  11:17:09,824 - #17 {
INFO  11:17:09,825 - #28 NULA
INFO  11:17:09,825 - #12 ,
INFO  11:17:09,826 - #28 JEDAN
INFO  11:17:09,826 - #12 ,
INFO  11:17:09,827 - #28 PET
INFO  11:17:09,827 - #11 =
INFO  11:17:09,827 - #27 5
INFO  11:17:09,827 - #12 ,
INFO  11:17:09,827 - #28 DESET
INFO  11:17:09,828 - #11 =
INFO  11:17:09,828 - #27 10
INFO  11:17:09,828 - #18 }
INFO  11:17:09,828 - #9 enum
INFO  11:17:09,832 - #28 Kocka
INFO  11:17:09,832 - #17 {
INFO  11:17:09,833 - #28 STRANA
INFO  11:17:09,833 - #12 ,
INFO  11:17:09,833 - #28 OBIM
INFO  11:17:09,833 - #18 }
INFO  11:17:09,834 - #8 const
INFO  11:17:09,834 - #28 int
INFO  11:17:09,834 - #28 jedan
INFO  11:17:09,835 - #11 =
INFO  11:17:09,836 - #27 1
INFO  11:17:09,836 - #10 ;
INFO  11:17:09,837 - #8 const
INFO  11:17:09,839 - #28 int
INFO  11:17:09,839 - #28 pet
INFO  11:17:09,839 - #11 =
INFO  11:17:09,839 - #27 5
INFO  11:17:09,839 - #10 ;
INFO  11:17:09,840 - #28 int
INFO  11:17:09,840 - #28 niz
INFO  11:17:09,840 - #15 [
INFO  11:17:09,840 - #16 ]
INFO  11:17:09,840 - #10 ;
INFO  11:17:09,841 - #28 char
INFO  11:17:09,843 - #28 nizch
INFO  11:17:09,843 - #15 [
INFO  11:17:09,843 - #16 ]
INFO  11:17:09,843 - #10 ;
INFO  11:17:09,844 - #17 {
INFO  11:17:09,844 - #6 void
INFO  11:17:09,844 - #28 main
INFO  11:17:09,845 - #13 (
INFO  11:17:09,845 - #14 )
INFO  11:17:09,845 - #28 int
INFO  11:17:09,850 - #28 bodovi
INFO  11:17:09,850 - #10 ;
INFO  11:17:09,851 - #28 Broj
INFO  11:17:09,852 - #28 nula
INFO  11:17:09,853 - #12 ,
INFO  11:17:09,853 - #28 jedan
INFO  11:17:09,853 - #10 ;
INFO  11:17:09,853 - #28 Kocka
INFO  11:17:09,853 - #28 povrsina
INFO  11:17:09,853 - #10 ;
INFO  11:17:09,853 - #17 {
INFO  11:17:09,853 - #28 nula
INFO  11:17:09,854 - #11 =
INFO  11:17:09,855 - #28 Broj
INFO  11:17:09,855 - #19 .
INFO  11:17:09,855 - #28 NULA
INFO  11:17:09,855 - #10 ;
INFO  11:17:09,856 - #28 jedan
INFO  11:17:09,857 - #11 =
INFO  11:17:09,857 - #28 Broj
INFO  11:17:09,857 - #19 .
INFO  11:17:09,857 - #28 JEDAN
INFO  11:17:09,857 - #10 ;
INFO  11:17:09,857 - #28 povrsina
INFO  11:17:09,857 - #11 =
INFO  11:17:09,857 - #28 Broj
INFO  11:17:09,857 - #19 .
INFO  11:17:09,857 - #28 STRANA
INFO  11:17:09,857 - #10 ;
INFO  11:17:09,858 - #28 bodovi
INFO  11:17:09,858 - #11 =
INFO  11:17:09,858 - #27 0
INFO  11:17:09,859 - #10 ;
INFO  11:17:09,859 - #28 bodovi
INFO  11:17:09,859 - #20 ++
INFO  11:17:09,859 - #10 ;
INFO  11:17:09,859 - #28 bodovi
INFO  11:17:09,859 - #11 =
INFO  11:17:09,860 - #28 bodovi
INFO  11:17:09,860 - #23 +
INFO  11:17:09,860 - #28 jedan
INFO  11:17:09,862 - #10 ;
INFO  11:17:09,862 - #28 bodovi
INFO  11:17:09,862 - #11 =
INFO  11:17:09,862 - #28 bodovi
INFO  11:17:09,863 - #24 *
INFO  11:17:09,863 - #28 pet
INFO  11:17:09,865 - #10 ;
INFO  11:17:09,866 - #28 bodovi
INFO  11:17:09,866 - #21 --
INFO  11:17:09,866 - #10 ;
INFO  11:17:09,866 - #4 print
INFO  11:17:09,866 - #13 (
INFO  11:17:09,866 - #28 bodovi
INFO  11:17:09,866 - #14 )
INFO  11:17:09,866 - #10 ;
INFO  11:17:09,867 - #28 niz
INFO  11:17:09,867 - #11 =
INFO  11:17:09,867 - #5 new
INFO  11:17:09,867 - #28 int
INFO  11:17:09,867 - #15 [
INFO  11:17:09,867 - #27 2
INFO  11:17:09,867 - #16 ]
INFO  11:17:09,867 - #10 ;
INFO  11:17:09,868 - #28 niz
INFO  11:17:09,868 - #15 [
INFO  11:17:09,869 - #28 nula
INFO  11:17:09,869 - #16 ]
INFO  11:17:09,869 - #11 =
INFO  11:17:09,870 - #28 pet
INFO  11:17:09,870 - #10 ;
INFO  11:17:09,870 - #28 niz
INFO  11:17:09,870 - #15 [
INFO  11:17:09,870 - #27 1
INFO  11:17:09,870 - #16 ]
INFO  11:17:09,870 - #11 =
INFO  11:17:09,870 - #28 Broj
INFO  11:17:09,871 - #19 .
INFO  11:17:09,871 - #28 DESET
INFO  11:17:09,871 - #10 ;
INFO  11:17:09,876 - #28 bodovi
INFO  11:17:09,876 - #11 =
INFO  11:17:09,876 - #28 niz
INFO  11:17:09,876 - #15 [
INFO  11:17:09,876 - #27 1
INFO  11:17:09,876 - #16 ]
INFO  11:17:09,876 - #25 /
INFO  11:17:09,876 - #28 niz
INFO  11:17:09,877 - #15 [
INFO  11:17:09,877 - #27 0
INFO  11:17:09,878 - #16 ]
INFO  11:17:09,878 - #10 ;
INFO  11:17:09,878 - #4 print
INFO  11:17:09,878 - #13 (
INFO  11:17:09,878 - #28 bodovi
INFO  11:17:09,878 - #14 )
INFO  11:17:09,878 - #10 ;
INFO  11:17:09,878 - #4 print
INFO  11:17:09,878 - #13 (
INFO  11:17:09,878 - #28 niz
INFO  11:17:09,878 - #15 [
INFO  11:17:09,878 - #28 Broj
INFO  11:17:09,878 - #19 .
INFO  11:17:09,878 - #28 JEDAN
INFO  11:17:09,878 - #16 ]
INFO  11:17:09,878 - #14 )
INFO  11:17:09,878 - #10 ;
INFO  11:17:09,878 - #28 nizch
INFO  11:17:09,878 - #11 =
INFO  11:17:09,879 - #5 new
INFO  11:17:09,879 - #28 char
INFO  11:17:09,879 - #15 [
INFO  11:17:09,879 - #27 3
INFO  11:17:09,879 - #16 ]
INFO  11:17:09,879 - #10 ;
INFO  11:17:09,879 - #28 nizch
INFO  11:17:09,879 - #15 [
INFO  11:17:09,879 - #27 0
INFO  11:17:09,879 - #16 ]
INFO  11:17:09,879 - #11 =
INFO  11:17:09,879 - #29 a
INFO  11:17:09,879 - #10 ;
INFO  11:17:09,879 - #28 nizch
INFO  11:17:09,879 - #15 [
INFO  11:17:09,880 - #28 jedan
INFO  11:17:09,880 - #16 ]
INFO  11:17:09,880 - #11 =
INFO  11:17:09,880 - #29 b
INFO  11:17:09,880 - #10 ;
INFO  11:17:09,880 - #28 nizch
INFO  11:17:09,880 - #15 [
INFO  11:17:09,880 - #28 pet
INFO  11:17:09,880 - #22 -
INFO  11:17:09,880 - #27 3
INFO  11:17:09,881 - #16 ]
INFO  11:17:09,881 - #11 =
INFO  11:17:09,881 - #29 c
INFO  11:17:09,882 - #10 ;
INFO  11:17:09,882 - #4 print
INFO  11:17:09,882 - #13 (
INFO  11:17:09,882 - #28 nizch
INFO  11:17:09,882 - #15 [
INFO  11:17:09,882 - #27 2
INFO  11:17:09,882 - #22 -
INFO  11:17:09,882 - #27 1
INFO  11:17:09,882 - #16 ]
INFO  11:17:09,882 - #14 )
INFO  11:17:09,882 - #10 ;
INFO  11:17:09,882 - #4 print
INFO  11:17:09,882 - #13 (
INFO  11:17:09,882 - #28 nizch
INFO  11:17:09,882 - #15 [
INFO  11:17:09,882 - #28 jedan
INFO  11:17:09,882 - #24 *
INFO  11:17:09,882 - #27 2
INFO  11:17:09,882 - #16 ]
INFO  11:17:09,883 - #14 )
INFO  11:17:09,883 - #10 ;
INFO  11:17:09,883 - #28 bodovi
INFO  11:17:09,883 - #11 =
INFO  11:17:09,883 - #28 bodovi
INFO  11:17:09,883 - #23 +
INFO  11:17:09,883 - #13 (
INFO  11:17:09,883 - #13 (
INFO  11:17:09,883 - #28 pet
INFO  11:17:09,883 - #24 *
INFO  11:17:09,883 - #28 jedan
INFO  11:17:09,883 - #22 -
INFO  11:17:09,883 - #27 1
INFO  11:17:09,883 - #14 )
INFO  11:17:09,883 - #24 *
INFO  11:17:09,883 - #27 2
INFO  11:17:09,883 - #22 -
INFO  11:17:09,883 - #13 (
INFO  11:17:09,883 - #27 3
INFO  11:17:09,884 - #26 %
INFO  11:17:09,884 - #27 2
INFO  11:17:09,885 - #23 +
INFO  11:17:09,885 - #27 3
INFO  11:17:09,885 - #24 *
INFO  11:17:09,885 - #27 2
INFO  11:17:09,885 - #22 -
INFO  11:17:09,885 - #27 3
INFO  11:17:09,885 - #14 )
INFO  11:17:09,885 - #22 -
INFO  11:17:09,885 - #28 Broj
INFO  11:17:09,885 - #19 .
INFO  11:17:09,885 - #28 JEDAN
INFO  11:17:09,885 - #24 *
INFO  11:17:09,885 - #27 0
INFO  11:17:09,885 - #14 )
INFO  11:17:09,885 - #10 ;
INFO  11:17:09,885 - #4 print
INFO  11:17:09,885 - #13 (
INFO  11:17:09,886 - #28 bodovi
INFO  11:17:09,886 - #14 )
INFO  11:17:09,886 - #10 ;
INFO  11:17:09,886 - #3 read
INFO  11:17:09,886 - #13 (
INFO  11:17:09,886 - #28 bodovi
INFO  11:17:09,886 - #14 )
INFO  11:17:09,886 - #10 ;
INFO  11:17:09,886 - #28 bodovi
INFO  11:17:09,887 - #11 =
INFO  11:17:09,887 - #28 bodovi
INFO  11:17:09,887 - #23 +
INFO  11:17:09,887 - #27 1
INFO  11:17:09,887 - #10 ;
INFO  11:17:09,887 - #4 print
INFO  11:17:09,887 - #13 (
INFO  11:17:09,887 - #28 bodovi
INFO  11:17:09,887 - #14 )
INFO  11:17:09,887 - #10 ;
INFO  11:17:09,887 - #18 }
INFO  11:17:09,887 - #18 }
INFO  11:17:09,913 - Program(
  ProgName(
   test301
  ) [ProgName]
  GlobalDeclListL(
    GlobalDeclListL(
      GlobalDeclListL(
        GlobalDeclListL(
          GlobalDeclListL(
            GlobalDeclListL(
              GlobalDeclListEps(
              ) [GlobalDeclListEps]
              GlobalDeclEnum(
                EnumDecl(
                  EnumName(
                   Broj
                  ) [EnumName]
                  EnumDeclListL(
                    EnumDeclListL(
                      EnumDeclListL(
                        EnumDeclItem(
                          EnumDeclDefNoVal(
                           NULA
                          ) [EnumDeclDefNoVal]
                        ) [EnumDeclItem]
                        EnumDeclDefNoVal(
                         JEDAN
                        ) [EnumDeclDefNoVal]
                      ) [EnumDeclListL]
                      EnumDeclDefVal(
                       PET
                       5
                      ) [EnumDeclDefVal]
                    ) [EnumDeclListL]
                    EnumDeclDefVal(
                     DESET
                     10
                    ) [EnumDeclDefVal]
                  ) [EnumDeclListL]
                ) [EnumDecl]
              ) [GlobalDeclEnum]
            ) [GlobalDeclListL]
            GlobalDeclEnum(
              EnumDecl(
                EnumName(
                 Kocka
                ) [EnumName]
                EnumDeclListL(
                  EnumDeclItem(
                    EnumDeclDefNoVal(
                     STRANA
                    ) [EnumDeclDefNoVal]
                  ) [EnumDeclItem]
                  EnumDeclDefNoVal(
                   OBIM
                  ) [EnumDeclDefNoVal]
                ) [EnumDeclListL]
              ) [EnumDecl]
            ) [GlobalDeclEnum]
          ) [GlobalDeclListL]
          GlobalDeclConst(
            ConstDecl(
              Type(
               int
              ) [Type]
              ConstDeclItem(
                ConstDef(
                 jedan
                  ConstNum(
                   1
                  ) [ConstNum]
                ) [ConstDef]
              ) [ConstDeclItem]
            ) [ConstDecl]
          ) [GlobalDeclConst]
        ) [GlobalDeclListL]
        GlobalDeclConst(
          ConstDecl(
            Type(
             int
            ) [Type]
            ConstDeclItem(
              ConstDef(
               pet
                ConstNum(
                 5
                ) [ConstNum]
              ) [ConstDef]
            ) [ConstDeclItem]
          ) [ConstDecl]
        ) [GlobalDeclConst]
      ) [GlobalDeclListL]
      GlobalDeclVar(
        GlobalVarDecl(
          Type(
           int
          ) [Type]
          GlobalVarDeclItem(
            GlobalVarDeclDefOk(
              VarDeclDefineArray(
               niz
              ) [VarDeclDefineArray]
            ) [GlobalVarDeclDefOk]
          ) [GlobalVarDeclItem]
        ) [GlobalVarDecl]
      ) [GlobalDeclVar]
    ) [GlobalDeclListL]
    GlobalDeclVar(
      GlobalVarDecl(
        Type(
         char
        ) [Type]
        GlobalVarDeclItem(
          GlobalVarDeclDefOk(
            VarDeclDefineArray(
             nizch
            ) [VarDeclDefineArray]
          ) [GlobalVarDeclDefOk]
        ) [GlobalVarDeclItem]
      ) [GlobalVarDecl]
    ) [GlobalDeclVar]
  ) [GlobalDeclListL]
  MethodDecl(
    MethodSignature(
      VoidableType(
      ) [VoidableType]
     main
    ) [MethodSignature]
    VarMethodDeclList_NoEps(
      VarMethodDeclList_NoEps(
        VarMethodDeclList_NoEps(
          VarMethodDeclList_Eps(
          ) [VarMethodDeclList_Eps]
          VarDecl(
            Type(
             int
            ) [Type]
            VarDeclItem(
              VarDeclDefineSingle(
               bodovi
              ) [VarDeclDefineSingle]
            ) [VarDeclItem]
          ) [VarDecl]
        ) [VarMethodDeclList_NoEps]
        VarDecl(
          Type(
           Broj
          ) [Type]
          VarDeclListL(
            VarDeclItem(
              VarDeclDefineSingle(
               nula
              ) [VarDeclDefineSingle]
            ) [VarDeclItem]
            VarDeclDefineSingle(
             jedan
            ) [VarDeclDefineSingle]
          ) [VarDeclListL]
        ) [VarDecl]
      ) [VarMethodDeclList_NoEps]
      VarDecl(
        Type(
         Kocka
        ) [Type]
        VarDeclItem(
          VarDeclDefineSingle(
           povrsina
          ) [VarDeclDefineSingle]
        ) [VarDeclItem]
      ) [VarDecl]
    ) [VarMethodDeclList_NoEps]
    StatementList_NoEps(
      StatementList_NoEps(
        StatementList_NoEps(
          StatementList_NoEps(
            StatementList_NoEps(
              StatementList_NoEps(
                StatementList_NoEps(
                  StatementList_NoEps(
                    StatementList_NoEps(
                      StatementList_NoEps(
                        StatementList_NoEps(
                          StatementList_NoEps(
                            StatementList_NoEps(
                              StatementList_NoEps(
                                StatementList_NoEps(
                                  StatementList_NoEps(
                                    StatementList_NoEps(
                                      StatementList_NoEps(
                                        StatementList_NoEps(
                                          StatementList_NoEps(
                                            StatementList_NoEps(
                                              StatementList_NoEps(
                                                StatementList_NoEps(
                                                  StatementList_NoEps(
                                                    StatementList_NoEps(
                                                      StatementList_NoEps(
                                                        StatementList_Eps(
                                                        ) [StatementList_Eps]
                                                        StatementDes(
                                                          DesignStatAssignment(
                                                            DesIdent(
                                                             nula
                                                            ) [DesIdent]
                                                            AssignementExpr(
                                                              TermExpr(
                                                                TermFact(
                                                                  FactorDesign(
                                                                    DesEnum(
                                                                     Broj
                                                                     NULA
                                                                    ) [DesEnum]
                                                                  ) [FactorDesign]
                                                                ) [TermFact]
                                                              ) [TermExpr]
                                                            ) [AssignementExpr]
                                                          ) [DesignStatAssignment]
                                                        ) [StatementDes]
                                                      ) [StatementList_NoEps]
                                                      StatementDes(
                                                        DesignStatAssignment(
                                                          DesIdent(
                                                           jedan
                                                          ) [DesIdent]
                                                          AssignementExpr(
                                                            TermExpr(
                                                              TermFact(
                                                                FactorDesign(
                                                                  DesEnum(
                                                                   Broj
                                                                   JEDAN
                                                                  ) [DesEnum]
                                                                ) [FactorDesign]
                                                              ) [TermFact]
                                                            ) [TermExpr]
                                                          ) [AssignementExpr]
                                                        ) [DesignStatAssignment]
                                                      ) [StatementDes]
                                                    ) [StatementList_NoEps]
                                                    StatementDes(
                                                      DesignStatAssignment(
                                                        DesIdent(
                                                         povrsina
                                                        ) [DesIdent]
                                                        AssignementExpr(
                                                          TermExpr(
                                                            TermFact(
                                                              FactorDesign(
                                                                DesEnum(
                                                                 Broj
                                                                 STRANA
                                                                ) [DesEnum]
                                                              ) [FactorDesign]
                                                            ) [TermFact]
                                                          ) [TermExpr]
                                                        ) [AssignementExpr]
                                                      ) [DesignStatAssignment]
                                                    ) [StatementDes]
                                                  ) [StatementList_NoEps]
                                                  StatementDes(
                                                    DesignStatAssignment(
                                                      DesIdent(
                                                       bodovi
                                                      ) [DesIdent]
                                                      AssignementExpr(
                                                        TermExpr(
                                                          TermFact(
                                                            FactorConst(
                                                              ConstNum(
                                                               0
                                                              ) [ConstNum]
                                                            ) [FactorConst]
                                                          ) [TermFact]
                                                        ) [TermExpr]
                                                      ) [AssignementExpr]
                                                    ) [DesignStatAssignment]
                                                  ) [StatementDes]
                                                ) [StatementList_NoEps]
                                                StatementDes(
                                                  DesignStatInc(
                                                    DesIdent(
                                                     bodovi
                                                    ) [DesIdent]
                                                  ) [DesignStatInc]
                                                ) [StatementDes]
                                              ) [StatementList_NoEps]
                                              StatementDes(
                                                DesignStatAssignment(
                                                  DesIdent(
                                                   bodovi
                                                  ) [DesIdent]
                                                  AssignementExpr(
                                                    AddopExp(
                                                      TermExpr(
                                                        TermFact(
                                                          FactorDesign(
                                                            DesIdent(
                                                             bodovi
                                                            ) [DesIdent]
                                                          ) [FactorDesign]
                                                        ) [TermFact]
                                                      ) [TermExpr]
                                                      Addop_Plus(
                                                      ) [Addop_Plus]
                                                      TermFact(
                                                        FactorDesign(
                                                          DesIdent(
                                                           jedan
                                                          ) [DesIdent]
                                                        ) [FactorDesign]
                                                      ) [TermFact]
                                                    ) [AddopExp]
                                                  ) [AssignementExpr]
                                                ) [DesignStatAssignment]
                                              ) [StatementDes]
                                            ) [StatementList_NoEps]
                                            StatementDes(
                                              DesignStatAssignment(
                                                DesIdent(
                                                 bodovi
                                                ) [DesIdent]
                                                AssignementExpr(
                                                  TermExpr(
                                                    TermMulop(
                                                      TermFact(
                                                        FactorDesign(
                                                          DesIdent(
                                                           bodovi
                                                          ) [DesIdent]
                                                        ) [FactorDesign]
                                                      ) [TermFact]
                                                      Mulop_Mul(
                                                      ) [Mulop_Mul]
                                                      FactorDesign(
                                                        DesIdent(
                                                         pet
                                                        ) [DesIdent]
                                                      ) [FactorDesign]
                                                    ) [TermMulop]
                                                  ) [TermExpr]
                                                ) [AssignementExpr]
                                              ) [DesignStatAssignment]
                                            ) [StatementDes]
                                          ) [StatementList_NoEps]
                                          StatementDes(
                                            DesignStatDec(
                                              DesIdent(
                                               bodovi
                                              ) [DesIdent]
                                            ) [DesignStatDec]
                                          ) [StatementDes]
                                        ) [StatementList_NoEps]
                                        StatPrint(
                                          TermExpr(
                                            TermFact(
                                              FactorDesign(
                                                DesIdent(
                                                 bodovi
                                                ) [DesIdent]
                                              ) [FactorDesign]
                                            ) [TermFact]
                                          ) [TermExpr]
                                        ) [StatPrint]
                                      ) [StatementList_NoEps]
                                      StatementDes(
                                        DesignStatAssignment(
                                          DesIdent(
                                           niz
                                          ) [DesIdent]
                                          AssignementExpr(
                                            TermExpr(
                                              TermFact(
                                                FactorNewArr(
                                                  Type(
                                                   int
                                                  ) [Type]
                                                  TermExpr(
                                                    TermFact(
                                                      FactorConst(
                                                        ConstNum(
                                                         2
                                                        ) [ConstNum]
                                                      ) [FactorConst]
                                                    ) [TermFact]
                                                  ) [TermExpr]
                                                ) [FactorNewArr]
                                              ) [TermFact]
                                            ) [TermExpr]
                                          ) [AssignementExpr]
                                        ) [DesignStatAssignment]
                                      ) [StatementDes]
                                    ) [StatementList_NoEps]
                                    StatementDes(
                                      DesignStatAssignment(
                                        DesArr(
                                          ArrayName(
                                           niz
                                          ) [ArrayName]
                                          TermExpr(
                                            TermFact(
                                              FactorDesign(
                                                DesIdent(
                                                 nula
                                                ) [DesIdent]
                                              ) [FactorDesign]
                                            ) [TermFact]
                                          ) [TermExpr]
                                        ) [DesArr]
                                        AssignementExpr(
                                          TermExpr(
                                            TermFact(
                                              FactorDesign(
                                                DesIdent(
                                                 pet
                                                ) [DesIdent]
                                              ) [FactorDesign]
                                            ) [TermFact]
                                          ) [TermExpr]
                                        ) [AssignementExpr]
                                      ) [DesignStatAssignment]
                                    ) [StatementDes]
                                  ) [StatementList_NoEps]
                                  StatementDes(
                                    DesignStatAssignment(
                                      DesArr(
                                        ArrayName(
                                         niz
                                        ) [ArrayName]
                                        TermExpr(
                                          TermFact(
                                            FactorConst(
                                              ConstNum(
                                               1
                                              ) [ConstNum]
                                            ) [FactorConst]
                                          ) [TermFact]
                                        ) [TermExpr]
                                      ) [DesArr]
                                      AssignementExpr(
                                        TermExpr(
                                          TermFact(
                                            FactorDesign(
                                              DesEnum(
                                               Broj
                                               DESET
                                              ) [DesEnum]
                                            ) [FactorDesign]
                                          ) [TermFact]
                                        ) [TermExpr]
                                      ) [AssignementExpr]
                                    ) [DesignStatAssignment]
                                  ) [StatementDes]
                                ) [StatementList_NoEps]
                                StatementDes(
                                  DesignStatAssignment(
                                    DesIdent(
                                     bodovi
                                    ) [DesIdent]
                                    AssignementExpr(
                                      TermExpr(
                                        TermMulop(
                                          TermFact(
                                            FactorDesign(
                                              DesArr(
                                                ArrayName(
                                                 niz
                                                ) [ArrayName]
                                                TermExpr(
                                                  TermFact(
                                                    FactorConst(
                                                      ConstNum(
                                                       1
                                                      ) [ConstNum]
                                                    ) [FactorConst]
                                                  ) [TermFact]
                                                ) [TermExpr]
                                              ) [DesArr]
                                            ) [FactorDesign]
                                          ) [TermFact]
                                          Mulop_Div(
                                          ) [Mulop_Div]
                                          FactorDesign(
                                            DesArr(
                                              ArrayName(
                                               niz
                                              ) [ArrayName]
                                              TermExpr(
                                                TermFact(
                                                  FactorConst(
                                                    ConstNum(
                                                     0
                                                    ) [ConstNum]
                                                  ) [FactorConst]
                                                ) [TermFact]
                                              ) [TermExpr]
                                            ) [DesArr]
                                          ) [FactorDesign]
                                        ) [TermMulop]
                                      ) [TermExpr]
                                    ) [AssignementExpr]
                                  ) [DesignStatAssignment]
                                ) [StatementDes]
                              ) [StatementList_NoEps]
                              StatPrint(
                                TermExpr(
                                  TermFact(
                                    FactorDesign(
                                      DesIdent(
                                       bodovi
                                      ) [DesIdent]
                                    ) [FactorDesign]
                                  ) [TermFact]
                                ) [TermExpr]
                              ) [StatPrint]
                            ) [StatementList_NoEps]
                            StatPrint(
                              TermExpr(
                                TermFact(
                                  FactorDesign(
                                    DesArr(
                                      ArrayName(
                                       niz
                                      ) [ArrayName]
                                      TermExpr(
                                        TermFact(
                                          FactorDesign(
                                            DesEnum(
                                             Broj
                                             JEDAN
                                            ) [DesEnum]
                                          ) [FactorDesign]
                                        ) [TermFact]
                                      ) [TermExpr]
                                    ) [DesArr]
                                  ) [FactorDesign]
                                ) [TermFact]
                              ) [TermExpr]
                            ) [StatPrint]
                          ) [StatementList_NoEps]
                          StatementDes(
                            DesignStatAssignment(
                              DesIdent(
                               nizch
                              ) [DesIdent]
                              AssignementExpr(
                                TermExpr(
                                  TermFact(
                                    FactorNewArr(
                                      Type(
                                       char
                                      ) [Type]
                                      TermExpr(
                                        TermFact(
                                          FactorConst(
                                            ConstNum(
                                             3
                                            ) [ConstNum]
                                          ) [FactorConst]
                                        ) [TermFact]
                                      ) [TermExpr]
                                    ) [FactorNewArr]
                                  ) [TermFact]
                                ) [TermExpr]
                              ) [AssignementExpr]
                            ) [DesignStatAssignment]
                          ) [StatementDes]
                        ) [StatementList_NoEps]
                        StatementDes(
                          DesignStatAssignment(
                            DesArr(
                              ArrayName(
                               nizch
                              ) [ArrayName]
                              TermExpr(
                                TermFact(
                                  FactorConst(
                                    ConstNum(
                                     0
                                    ) [ConstNum]
                                  ) [FactorConst]
                                ) [TermFact]
                              ) [TermExpr]
                            ) [DesArr]
                            AssignementExpr(
                              TermExpr(
                                TermFact(
                                  FactorConst(
                                    ConstChar(
                                     a
                                    ) [ConstChar]
                                  ) [FactorConst]
                                ) [TermFact]
                              ) [TermExpr]
                            ) [AssignementExpr]
                          ) [DesignStatAssignment]
                        ) [StatementDes]
                      ) [StatementList_NoEps]
                      StatementDes(
                        DesignStatAssignment(
                          DesArr(
                            ArrayName(
                             nizch
                            ) [ArrayName]
                            TermExpr(
                              TermFact(
                                FactorDesign(
                                  DesIdent(
                                   jedan
                                  ) [DesIdent]
                                ) [FactorDesign]
                              ) [TermFact]
                            ) [TermExpr]
                          ) [DesArr]
                          AssignementExpr(
                            TermExpr(
                              TermFact(
                                FactorConst(
                                  ConstChar(
                                   b
                                  ) [ConstChar]
                                ) [FactorConst]
                              ) [TermFact]
                            ) [TermExpr]
                          ) [AssignementExpr]
                        ) [DesignStatAssignment]
                      ) [StatementDes]
                    ) [StatementList_NoEps]
                    StatementDes(
                      DesignStatAssignment(
                        DesArr(
                          ArrayName(
                           nizch
                          ) [ArrayName]
                          AddopExp(
                            TermExpr(
                              TermFact(
                                FactorDesign(
                                  DesIdent(
                                   pet
                                  ) [DesIdent]
                                ) [FactorDesign]
                              ) [TermFact]
                            ) [TermExpr]
                            Addop_Minus(
                            ) [Addop_Minus]
                            TermFact(
                              FactorConst(
                                ConstNum(
                                 3
                                ) [ConstNum]
                              ) [FactorConst]
                            ) [TermFact]
                          ) [AddopExp]
                        ) [DesArr]
                        AssignementExpr(
                          TermExpr(
                            TermFact(
                              FactorConst(
                                ConstChar(
                                 c
                                ) [ConstChar]
                              ) [FactorConst]
                            ) [TermFact]
                          ) [TermExpr]
                        ) [AssignementExpr]
                      ) [DesignStatAssignment]
                    ) [StatementDes]
                  ) [StatementList_NoEps]
                  StatPrint(
                    TermExpr(
                      TermFact(
                        FactorDesign(
                          DesArr(
                            ArrayName(
                             nizch
                            ) [ArrayName]
                            AddopExp(
                              TermExpr(
                                TermFact(
                                  FactorConst(
                                    ConstNum(
                                     2
                                    ) [ConstNum]
                                  ) [FactorConst]
                                ) [TermFact]
                              ) [TermExpr]
                              Addop_Minus(
                              ) [Addop_Minus]
                              TermFact(
                                FactorConst(
                                  ConstNum(
                                   1
                                  ) [ConstNum]
                                ) [FactorConst]
                              ) [TermFact]
                            ) [AddopExp]
                          ) [DesArr]
                        ) [FactorDesign]
                      ) [TermFact]
                    ) [TermExpr]
                  ) [StatPrint]
                ) [StatementList_NoEps]
                StatPrint(
                  TermExpr(
                    TermFact(
                      FactorDesign(
                        DesArr(
                          ArrayName(
                           nizch
                          ) [ArrayName]
                          TermExpr(
                            TermMulop(
                              TermFact(
                                FactorDesign(
                                  DesIdent(
                                   jedan
                                  ) [DesIdent]
                                ) [FactorDesign]
                              ) [TermFact]
                              Mulop_Mul(
                              ) [Mulop_Mul]
                              FactorConst(
                                ConstNum(
                                 2
                                ) [ConstNum]
                              ) [FactorConst]
                            ) [TermMulop]
                          ) [TermExpr]
                        ) [DesArr]
                      ) [FactorDesign]
                    ) [TermFact]
                  ) [TermExpr]
                ) [StatPrint]
              ) [StatementList_NoEps]
              StatementDes(
                DesignStatAssignment(
                  DesIdent(
                   bodovi
                  ) [DesIdent]
                  AssignementExpr(
                    AddopExp(
                      TermExpr(
                        TermFact(
                          FactorDesign(
                            DesIdent(
                             bodovi
                            ) [DesIdent]
                          ) [FactorDesign]
                        ) [TermFact]
                      ) [TermExpr]
                      Addop_Plus(
                      ) [Addop_Plus]
                      TermFact(
                        FactorExpr(
                          AddopExp(
                            AddopExp(
                              TermExpr(
                                TermMulop(
                                  TermFact(
                                    FactorExpr(
                                      AddopExp(
                                        TermExpr(
                                          TermMulop(
                                            TermFact(
                                              FactorDesign(
                                                DesIdent(
                                                 pet
                                                ) [DesIdent]
                                              ) [FactorDesign]
                                            ) [TermFact]
                                            Mulop_Mul(
                                            ) [Mulop_Mul]
                                            FactorDesign(
                                              DesIdent(
                                               jedan
                                              ) [DesIdent]
                                            ) [FactorDesign]
                                          ) [TermMulop]
                                        ) [TermExpr]
                                        Addop_Minus(
                                        ) [Addop_Minus]
                                        TermFact(
                                          FactorConst(
                                            ConstNum(
                                             1
                                            ) [ConstNum]
                                          ) [FactorConst]
                                        ) [TermFact]
                                      ) [AddopExp]
                                    ) [FactorExpr]
                                  ) [TermFact]
                                  Mulop_Mul(
                                  ) [Mulop_Mul]
                                  FactorConst(
                                    ConstNum(
                                     2
                                    ) [ConstNum]
                                  ) [FactorConst]
                                ) [TermMulop]
                              ) [TermExpr]
                              Addop_Minus(
                              ) [Addop_Minus]
                              TermFact(
                                FactorExpr(
                                  AddopExp(
                                    AddopExp(
                                      TermExpr(
                                        TermMulop(
                                          TermFact(
                                            FactorConst(
                                              ConstNum(
                                               3
                                              ) [ConstNum]
                                            ) [FactorConst]
                                          ) [TermFact]
                                          Mulop_Mod(
                                          ) [Mulop_Mod]
                                          FactorConst(
                                            ConstNum(
                                             2
                                            ) [ConstNum]
                                          ) [FactorConst]
                                        ) [TermMulop]
                                      ) [TermExpr]
                                      Addop_Plus(
                                      ) [Addop_Plus]
                                      TermMulop(
                                        TermFact(
                                          FactorConst(
                                            ConstNum(
                                             3
                                            ) [ConstNum]
                                          ) [FactorConst]
                                        ) [TermFact]
                                        Mulop_Mul(
                                        ) [Mulop_Mul]
                                        FactorConst(
                                          ConstNum(
                                           2
                                          ) [ConstNum]
                                        ) [FactorConst]
                                      ) [TermMulop]
                                    ) [AddopExp]
                                    Addop_Minus(
                                    ) [Addop_Minus]
                                    TermFact(
                                      FactorConst(
                                        ConstNum(
                                         3
                                        ) [ConstNum]
                                      ) [FactorConst]
                                    ) [TermFact]
                                  ) [AddopExp]
                                ) [FactorExpr]
                              ) [TermFact]
                            ) [AddopExp]
                            Addop_Minus(
                            ) [Addop_Minus]
                            TermMulop(
                              TermFact(
                                FactorDesign(
                                  DesEnum(
                                   Broj
                                   JEDAN
                                  ) [DesEnum]
                                ) [FactorDesign]
                              ) [TermFact]
                              Mulop_Mul(
                              ) [Mulop_Mul]
                              FactorConst(
                                ConstNum(
                                 0
                                ) [ConstNum]
                              ) [FactorConst]
                            ) [TermMulop]
                          ) [AddopExp]
                        ) [FactorExpr]
                      ) [TermFact]
                    ) [AddopExp]
                  ) [AssignementExpr]
                ) [DesignStatAssignment]
              ) [StatementDes]
            ) [StatementList_NoEps]
            StatPrint(
              TermExpr(
                TermFact(
                  FactorDesign(
                    DesIdent(
                     bodovi
                    ) [DesIdent]
                  ) [FactorDesign]
                ) [TermFact]
              ) [TermExpr]
            ) [StatPrint]
          ) [StatementList_NoEps]
          StatRead(
            DesIdent(
             bodovi
            ) [DesIdent]
          ) [StatRead]
        ) [StatementList_NoEps]
        StatementDes(
          DesignStatAssignment(
            DesIdent(
             bodovi
            ) [DesIdent]
            AssignementExpr(
              AddopExp(
                TermExpr(
                  TermFact(
                    FactorDesign(
                      DesIdent(
                       bodovi
                      ) [DesIdent]
                    ) [FactorDesign]
                  ) [TermFact]
                ) [TermExpr]
                Addop_Plus(
                ) [Addop_Plus]
                TermFact(
                  FactorConst(
                    ConstNum(
                     1
                    ) [ConstNum]
                  ) [FactorConst]
                ) [TermFact]
              ) [AddopExp]
            ) [AssignementExpr]
          ) [DesignStatAssignment]
        ) [StatementDes]
      ) [StatementList_NoEps]
      StatPrint(
        TermExpr(
          TermFact(
            FactorDesign(
              DesIdent(
               bodovi
              ) [DesIdent]
            ) [FactorDesign]
          ) [TermFact]
        ) [TermExpr]
      ) [StatPrint]
    ) [StatementList_NoEps]
  ) [MethodDecl]
) [Program]
INFO  11:17:09,917 - ===================================
INFO  11:17:09,923 - Deklarisan novi enum tip Broj na liniji 5
INFO  11:17:09,923 - Deklarisana konstanta NULA unutar enuma Broj na liniji 5
INFO  11:17:09,925 - Deklarisana konstanta JEDAN unutar enuma Broj na liniji 5
INFO  11:17:09,926 - Deklarisana konstanta PET unutar enuma Broj na liniji 5
INFO  11:17:09,926 - Deklarisana konstanta DESET unutar enuma Broj na liniji 5
INFO  11:17:09,926 - Deklarisan novi enum tip Kocka na liniji 6
INFO  11:17:09,926 - Deklarisana konstanta STRANA unutar enuma Kocka na liniji 6
INFO  11:17:09,926 - Deklarisana konstanta OBIM unutar enuma Kocka na liniji 6
INFO  11:17:09,926 - Deklarisana konstanta 'jedan' na liniji 8
INFO  11:17:09,927 - Deklarisana konstanta 'pet' na liniji 9
INFO  11:17:09,927 - Deklarisana promenljiva niza niz tipa 1 na liniji 11
INFO  11:17:09,927 - Deklarisana promenljiva niza nizch tipa 2 na liniji 12
INFO  11:17:09,927 - Obradjuje se funkcija main na liniji 15
INFO  11:17:09,927 - Deklarisana promenljiva bodovi tipa 1 na liniji 16
INFO  11:17:09,928 - Deklarisana promenljiva nula tipa 6 na liniji 17
INFO  11:17:09,928 - Deklarisana promenljiva jedan tipa 6 na liniji 17
INFO  11:17:09,928 - Deklarisana promenljiva povrsina tipa 6 na liniji 18
INFO  11:17:09,928 - kind enum konst je 1
INFO  11:17:09,929 - factor type je 0 na liniji 20
ERROR 11:17:09,929 - Greska: nekompatibilni tipovi u dodeli na liniji 20
ERROR 11:17:09,929 - 6 je kind designatora, 0 je kind assignmenta
INFO  11:17:09,930 - kind enum konst je 1
INFO  11:17:09,930 - factor type je 0 na liniji 21
ERROR 11:17:09,930 - Greska: nekompatibilni tipovi u dodeli na liniji 21
ERROR 11:17:09,930 - 6 je kind designatora, 0 je kind assignmenta
INFO  11:17:09,930 - kind enum konst je 1
INFO  11:17:09,931 - factor type je 0 na liniji 22
ERROR 11:17:09,931 - Greska: nekompatibilni tipovi u dodeli na liniji 22
ERROR 11:17:09,931 - 6 je kind designatora, 0 je kind assignmenta
INFO  11:17:09,931 - Dodeljenja vrednost: 1 je design,1 je assign
INFO  11:17:09,931 - Inkrementirana vrednost
INFO  11:17:09,931 - factor type je 1 na liniji 25
INFO  11:17:09,931 - factor type je 6 na liniji 25
INFO  11:17:09,931 - Dodeljenja vrednost: 1 je design,1 je assign
INFO  11:17:09,932 - factor type je 1 na liniji 26
INFO  11:17:09,932 - factor type je 1 na liniji 26
INFO  11:17:09,932 - Dodeljenja vrednost: 1 je design,1 je assign
INFO  11:17:09,932 - Dekrementirana vrednost
INFO  11:17:09,932 - factor type je 1 na liniji 28
INFO  11:17:09,932 - Print funkcija na liniji 28
INFO  11:17:09,932 - factor type je 6 na liniji 32
INFO  11:17:09,933 - factor type je 1 na liniji 32
INFO  11:17:09,933 - kind enum konst je 1
INFO  11:17:09,933 - factor type je 0 na liniji 33
ERROR 11:17:09,933 -  OVDE Greska: nekompatibilni tipovi u dodeli na liniji 33
ERROR 11:17:09,935 - 1 je kind designatora, 0 je kind assignmenta
INFO  11:17:09,935 - factor type je 1 na liniji 34
INFO  11:17:09,936 - factor type je 1 na liniji 34
INFO  11:17:09,936 - Dodeljenja vrednost: 1 je design,1 je assign
INFO  11:17:09,937 - factor type je 1 na liniji 35
INFO  11:17:09,940 - Print funkcija na liniji 35
INFO  11:17:09,940 - kind enum konst je 1
INFO  11:17:09,940 - factor type je 0 na liniji 36
ERROR 11:17:09,940 - Greska: indeks u zagradama nije int na liniji 36
INFO  11:17:09,941 - factor type je 1 na liniji 36
INFO  11:17:09,941 - Print funkcija na liniji 36
INFO  11:17:09,941 - factor type je 6 na liniji 41
INFO  11:17:09,944 - factor type je 1 na liniji 42
INFO  11:17:09,944 - factor type je 2 na liniji 43
INFO  11:17:09,944 - Print funkcija na liniji 43
INFO  11:17:09,944 - factor type je 6 na liniji 44
INFO  11:17:09,944 - factor type je 2 na liniji 44
INFO  11:17:09,945 - Print funkcija na liniji 44
INFO  11:17:09,945 - factor type je 1 na liniji 47
INFO  11:17:09,945 - factor type je 1 na liniji 47
INFO  11:17:09,945 - factor type je 6 na liniji 47
INFO  11:17:09,945 - kind enum konst je 1
INFO  11:17:09,945 - factor type je 0 na liniji 47
INFO  11:17:09,945 - Dodeljenja vrednost: 1 je design,1 je assign
INFO  11:17:09,945 - factor type je 1 na liniji 48
INFO  11:17:09,946 - Print funkcija na liniji 48
INFO  11:17:09,946 - Read funkcija na liniji 51
INFO  11:17:09,946 - factor type je 1 na liniji 52
INFO  11:17:09,946 - Dodeljenja vrednost: 1 je design,1 je assign
INFO  11:17:09,946 - factor type je 1 na liniji 53
INFO  11:17:09,946 - Print funkcija na liniji 53
INFO  11:17:09,946 -  Print count calls = 7
INFO  11:17:09,946 -  Deklarisanih promenljivih ima = 6
ERROR 11:17:09,949 - Parsiranje NIJE uspesno zavrseno!
