INFO  11:58:00,693 - Compiling source file: C:\Users\ikadr\Desktop\PP\Projekat\Rad\workspace\MJCompiler\test\program.mj
INFO  11:58:00,845 - #2 program
INFO  11:58:00,846 - #28 test301
INFO  11:58:00,846 - #9 enum
INFO  11:58:00,852 - #28 Broj
INFO  11:58:00,852 - #17 {
INFO  11:58:00,856 - #28 NULA
INFO  11:58:00,856 - #12 ,
INFO  11:58:00,857 - #28 JEDAN
INFO  11:58:00,857 - #12 ,
INFO  11:58:00,858 - #28 PET
INFO  11:58:00,858 - #11 =
INFO  11:58:00,859 - #27 5
INFO  11:58:00,859 - #12 ,
INFO  11:58:00,859 - #28 DESET
INFO  11:58:00,859 - #11 =
INFO  11:58:00,860 - #27 10
INFO  11:58:00,860 - #18 }
INFO  11:58:00,860 - #8 const
INFO  11:58:00,863 - #28 int
INFO  11:58:00,864 - #28 jedan
INFO  11:58:00,865 - #11 =
INFO  11:58:00,867 - #27 1
INFO  11:58:00,868 - #10 ;
INFO  11:58:00,870 - #8 const
INFO  11:58:00,872 - #28 int
INFO  11:58:00,872 - #28 pet
INFO  11:58:00,873 - #11 =
INFO  11:58:00,873 - #27 5
INFO  11:58:00,873 - #10 ;
INFO  11:58:00,873 - #28 int
INFO  11:58:00,873 - #28 niz
INFO  11:58:00,873 - #15 [
INFO  11:58:00,874 - #16 ]
INFO  11:58:00,874 - #10 ;
INFO  11:58:00,875 - #28 char
INFO  11:58:00,878 - #28 nizch
INFO  11:58:00,878 - #15 [
INFO  11:58:00,878 - #16 ]
INFO  11:58:00,878 - #10 ;
INFO  11:58:00,878 - #17 {
INFO  11:58:00,878 - #6 void
INFO  11:58:00,878 - #28 main
INFO  11:58:00,880 - #13 (
INFO  11:58:00,880 - #14 )
INFO  11:58:00,880 - #28 int
INFO  11:58:00,883 - #28 bodovi
INFO  11:58:00,883 - #12 ,
INFO  11:58:00,884 - #28 x
INFO  11:58:00,884 - #10 ;
INFO  11:58:00,884 - #28 Broj
INFO  11:58:00,886 - #28 nula
INFO  11:58:00,886 - #12 ,
INFO  11:58:00,887 - #28 jedan
INFO  11:58:00,887 - #10 ;
INFO  11:58:00,887 - #17 {
INFO  11:58:00,887 - #28 nula
INFO  11:58:00,889 - #11 =
INFO  11:58:00,890 - #28 Broj
INFO  11:58:00,890 - #19 .
INFO  11:58:00,890 - #28 NULA
INFO  11:58:00,890 - #10 ;
INFO  11:58:00,892 - #28 jedan
INFO  11:58:00,893 - #11 =
INFO  11:58:00,895 - #28 Broj
INFO  11:58:00,895 - #19 .
INFO  11:58:00,898 - #28 JEDAN
INFO  11:58:00,898 - #10 ;
INFO  11:58:00,898 - #28 x
INFO  11:58:00,906 - #11 =
INFO  11:58:00,906 - #22 -
INFO  11:58:00,906 - #27 15
INFO  11:58:00,906 - #10 ;
INFO  11:58:00,907 - #4 print
INFO  11:58:00,907 - #13 (
INFO  11:58:00,907 - #28 x
INFO  11:58:00,908 - #12 ,
INFO  11:58:00,908 - #27 2
INFO  11:58:00,908 - #14 )
INFO  11:58:00,908 - #10 ;
INFO  11:58:00,908 - #18 }
INFO  11:58:00,909 - #18 }
INFO  11:58:00,936 - Program(
  ProgName(
   test301
  ) [ProgName]
  GlobalDeclListL(
    GlobalDeclListL(
      GlobalDeclListL(
        GlobalDeclListL(
          GlobalDeclListL(
            GlobalDeclListEps(
            ) [GlobalDeclListEps]
            GlobalDeclEnum(
              EnumDecl(
                EnumName(
                 Broj
                ) [EnumName]
                EnumDeclListL(
                  EnumDeclListL(
                    EnumDeclListL(
                      EnumDeclItem(
                        EnumDeclDefNoVal(
                         NULA
                        ) [EnumDeclDefNoVal]
                      ) [EnumDeclItem]
                      EnumDeclDefNoVal(
                       JEDAN
                      ) [EnumDeclDefNoVal]
                    ) [EnumDeclListL]
                    EnumDeclDefVal(
                     PET
                     5
                    ) [EnumDeclDefVal]
                  ) [EnumDeclListL]
                  EnumDeclDefVal(
                   DESET
                   10
                  ) [EnumDeclDefVal]
                ) [EnumDeclListL]
              ) [EnumDecl]
            ) [GlobalDeclEnum]
          ) [GlobalDeclListL]
          GlobalDeclConst(
            ConstDecl(
              Type(
               int
              ) [Type]
              ConstDeclItem(
                ConstDef(
                 jedan
                  ConstNum(
                   1
                  ) [ConstNum]
                ) [ConstDef]
              ) [ConstDeclItem]
            ) [ConstDecl]
          ) [GlobalDeclConst]
        ) [GlobalDeclListL]
        GlobalDeclConst(
          ConstDecl(
            Type(
             int
            ) [Type]
            ConstDeclItem(
              ConstDef(
               pet
                ConstNum(
                 5
                ) [ConstNum]
              ) [ConstDef]
            ) [ConstDeclItem]
          ) [ConstDecl]
        ) [GlobalDeclConst]
      ) [GlobalDeclListL]
      GlobalDeclVar(
        GlobalVarDecl(
          Type(
           int
          ) [Type]
          GlobalVarDeclItem(
            GlobalVarDeclDefOk(
              VarDeclDefineArray(
               niz
              ) [VarDeclDefineArray]
            ) [GlobalVarDeclDefOk]
          ) [GlobalVarDeclItem]
        ) [GlobalVarDecl]
      ) [GlobalDeclVar]
    ) [GlobalDeclListL]
    GlobalDeclVar(
      GlobalVarDecl(
        Type(
         char
        ) [Type]
        GlobalVarDeclItem(
          GlobalVarDeclDefOk(
            VarDeclDefineArray(
             nizch
            ) [VarDeclDefineArray]
          ) [GlobalVarDeclDefOk]
        ) [GlobalVarDeclItem]
      ) [GlobalVarDecl]
    ) [GlobalDeclVar]
  ) [GlobalDeclListL]
  MethodDecl(
    MethodSignature(
      VoidableType(
      ) [VoidableType]
     main
    ) [MethodSignature]
    VarMethodDeclList_NoEps(
      VarMethodDeclList_NoEps(
        VarMethodDeclList_Eps(
        ) [VarMethodDeclList_Eps]
        VarDecl(
          Type(
           int
          ) [Type]
          VarDeclListL(
            VarDeclItem(
              VarDeclDefineSingle(
               bodovi
              ) [VarDeclDefineSingle]
            ) [VarDeclItem]
            VarDeclDefineSingle(
             x
            ) [VarDeclDefineSingle]
          ) [VarDeclListL]
        ) [VarDecl]
      ) [VarMethodDeclList_NoEps]
      VarDecl(
        Type(
         Broj
        ) [Type]
        VarDeclListL(
          VarDeclItem(
            VarDeclDefineSingle(
             nula
            ) [VarDeclDefineSingle]
          ) [VarDeclItem]
          VarDeclDefineSingle(
           jedan
          ) [VarDeclDefineSingle]
        ) [VarDeclListL]
      ) [VarDecl]
    ) [VarMethodDeclList_NoEps]
    StatementList_NoEps(
      StatementList_NoEps(
        StatementList_NoEps(
          StatementList_NoEps(
            StatementList_Eps(
            ) [StatementList_Eps]
            StatementDes(
              DesignStatAssignment(
                DesIdent(
                 nula
                ) [DesIdent]
                AssignementExpr(
                  TermExpr(
                    TermFact(
                      FactorDesign(
                        DesEnum(
                         Broj
                         NULA
                        ) [DesEnum]
                      ) [FactorDesign]
                    ) [TermFact]
                  ) [TermExpr]
                ) [AssignementExpr]
              ) [DesignStatAssignment]
            ) [StatementDes]
          ) [StatementList_NoEps]
          StatementDes(
            DesignStatAssignment(
              DesIdent(
               jedan
              ) [DesIdent]
              AssignementExpr(
                TermExpr(
                  TermFact(
                    FactorDesign(
                      DesEnum(
                       Broj
                       JEDAN
                      ) [DesEnum]
                    ) [FactorDesign]
                  ) [TermFact]
                ) [TermExpr]
              ) [AssignementExpr]
            ) [DesignStatAssignment]
          ) [StatementDes]
        ) [StatementList_NoEps]
        StatementDes(
          DesignStatAssignment(
            DesIdent(
             x
            ) [DesIdent]
            AssignementExpr(
              NegTermExpr(
                TermFact(
                  FactorConst(
                    ConstNum(
                     15
                    ) [ConstNum]
                  ) [FactorConst]
                ) [TermFact]
              ) [NegTermExpr]
            ) [AssignementExpr]
          ) [DesignStatAssignment]
        ) [StatementDes]
      ) [StatementList_NoEps]
      StatPrintParam(
        TermExpr(
          TermFact(
            FactorDesign(
              DesIdent(
               x
              ) [DesIdent]
            ) [FactorDesign]
          ) [TermFact]
        ) [TermExpr]
       2
      ) [StatPrintParam]
    ) [StatementList_NoEps]
  ) [MethodDecl]
) [Program]
INFO  11:58:00,936 - ===================================
INFO  11:58:00,943 - Deklarisan novi enum tip Broj na liniji 5
INFO  11:58:00,943 - Deklarisana konstanta Broj.NULA unutar enuma Broj na liniji 5
INFO  11:58:00,944 - Deklarisana konstanta Broj.JEDAN unutar enuma Broj na liniji 5
INFO  11:58:00,944 - Deklarisana konstanta Broj.PET unutar enuma Broj na liniji 5
INFO  11:58:00,944 - Deklarisana konstanta Broj.DESET unutar enuma Broj na liniji 5
INFO  11:58:00,944 - Deklarisana konstanta 'jedan' na liniji 7
INFO  11:58:00,944 - Deklarisana konstanta 'pet' na liniji 8
INFO  11:58:00,945 - Deklarisana promenljiva niza niz tipa 1 na liniji 10
INFO  11:58:00,945 - Deklarisana promenljiva niza nizch tipa 2 na liniji 11
INFO  11:58:00,945 - Obradjuje se funkcija main na liniji 14
INFO  11:58:00,945 - Deklarisana promenljiva bodovi tipa 1 na liniji 15
INFO  11:58:00,945 - Deklarisana promenljiva x tipa 1 na liniji 15
INFO  11:58:00,946 - Deklarisana promenljiva nula tipa 6 na liniji 16
INFO  11:58:00,946 - Deklarisana promenljiva jedan tipa 6 na liniji 16
INFO  11:58:00,947 - Dodeljenja vrednost: 1 je design,1 je assign
INFO  11:58:00,947 - Print funkcija na liniji 21
INFO  11:58:00,947 -  Print count calls = 1
INFO  11:58:00,948 -  Deklarisanih promenljivih ima = 6
INFO  11:58:00,961 - 2
INFO  11:58:00,962 - Parsiranje uspesno zavrseno!
