INFO  12:52:43,078 - Compiling source file: C:\Users\ikadr\Desktop\PP\Projekat\Rad\workspace\MJCompiler\test\program.mj
INFO  12:52:43,143 - #2 program
INFO  12:52:43,144 - #28 test301
INFO  12:52:43,144 - #9 enum
INFO  12:52:43,146 - #28 Broj
INFO  12:52:43,146 - #17 {
INFO  12:52:43,147 - #28 NULA
INFO  12:52:43,147 - #12 ,
INFO  12:52:43,148 - #28 JEDAN
INFO  12:52:43,148 - #12 ,
INFO  12:52:43,148 - #28 PET
INFO  12:52:43,148 - #11 =
INFO  12:52:43,148 - #27 5
INFO  12:52:43,148 - #12 ,
INFO  12:52:43,148 - #28 DESET
INFO  12:52:43,148 - #11 =
INFO  12:52:43,149 - #27 10
INFO  12:52:43,149 - #18 }
INFO  12:52:43,149 - #8 const
INFO  12:52:43,150 - #28 int
INFO  12:52:43,150 - #28 jedan
INFO  12:52:43,151 - #11 =
INFO  12:52:43,152 - #27 1
INFO  12:52:43,152 - #10 ;
INFO  12:52:43,153 - #8 const
INFO  12:52:43,154 - #28 int
INFO  12:52:43,154 - #28 pet
INFO  12:52:43,155 - #11 =
INFO  12:52:43,155 - #27 5
INFO  12:52:43,155 - #10 ;
INFO  12:52:43,155 - #28 int
INFO  12:52:43,155 - #28 a
INFO  12:52:43,155 - #11 =
ERROR 12:52:43,155 - 
Sintaksna greska na liniji 10
INFO  12:52:43,155 - #27 5
INFO  12:52:43,155 - #28 int
INFO  12:52:43,155 - #28 niz
INFO  12:52:43,156 - #15 [
INFO  12:52:43,156 - #16 ]
INFO  12:52:43,157 - #10 ;
INFO  12:52:43,157 - #28 char
INFO  12:52:43,157 - #28 nizch
INFO  12:52:43,157 - #15 [
INFO  12:52:43,157 - Oporavak od greske u definiciji globalne promenljive na liniji 10
INFO  12:52:43,160 - #16 ]
INFO  12:52:43,160 - #10 ;
INFO  12:52:43,160 - #17 {
INFO  12:52:43,160 - #6 void
INFO  12:52:43,160 - #28 main
INFO  12:52:43,161 - #13 (
INFO  12:52:43,162 - #14 )
INFO  12:52:43,162 - #28 int
INFO  12:52:43,164 - #28 bodovi
INFO  12:52:43,164 - #10 ;
INFO  12:52:43,164 - #28 Broj
INFO  12:52:43,165 - #28 nula
INFO  12:52:43,166 - #12 ,
INFO  12:52:43,166 - #28 jedan
INFO  12:52:43,166 - #10 ;
INFO  12:52:43,166 - #17 {
INFO  12:52:43,166 - #28 nula
INFO  12:52:43,167 - #11 =
INFO  12:52:43,167 - #28 Broj
INFO  12:52:43,167 - #19 .
INFO  12:52:43,168 - #28 NULA
INFO  12:52:43,168 - #10 ;
INFO  12:52:43,169 - #28 jedan
INFO  12:52:43,169 - #11 =
INFO  12:52:43,169 - #28 Broj
INFO  12:52:43,169 - #19 .
INFO  12:52:43,170 - #28 JEDAN
INFO  12:52:43,170 - #10 ;
INFO  12:52:43,170 - #28 bodovi
INFO  12:52:43,170 - #11 =
INFO  12:52:43,170 - #27 0
INFO  12:52:43,170 - #10 ;
INFO  12:52:43,170 - #28 bodovi
INFO  12:52:43,170 - #20 ++
INFO  12:52:43,171 - #10 ;
INFO  12:52:43,171 - #28 bodovi
INFO  12:52:43,171 - #11 =
INFO  12:52:43,171 - #28 bodovi
INFO  12:52:43,171 - #23 +
INFO  12:52:43,171 - #28 jedan
INFO  12:52:43,174 - #10 ;
INFO  12:52:43,174 - #28 bodovi
INFO  12:52:43,174 - #11 =
INFO  12:52:43,174 - #28 bodovi
INFO  12:52:43,174 - #24 *
INFO  12:52:43,175 - #28 pet
INFO  12:52:43,176 - #10 ;
INFO  12:52:43,177 - #28 bodovi
INFO  12:52:43,177 - #21 --
INFO  12:52:43,177 - #10 ;
INFO  12:52:43,177 - #4 print
INFO  12:52:43,177 - #13 (
INFO  12:52:43,178 - #28 bodovi
INFO  12:52:43,178 - #14 )
INFO  12:52:43,178 - #10 ;
INFO  12:52:43,178 - #28 niz
INFO  12:52:43,178 - #11 =
INFO  12:52:43,178 - #5 new
INFO  12:52:43,178 - #28 int
INFO  12:52:43,178 - #15 [
INFO  12:52:43,178 - #27 2
INFO  12:52:43,178 - #16 ]
INFO  12:52:43,179 - #10 ;
INFO  12:52:43,179 - #28 niz
INFO  12:52:43,179 - #15 [
INFO  12:52:43,181 - #28 nula
INFO  12:52:43,181 - #16 ]
INFO  12:52:43,181 - #11 =
INFO  12:52:43,181 - #28 pet
INFO  12:52:43,181 - #10 ;
INFO  12:52:43,181 - #28 niz
INFO  12:52:43,181 - #15 [
INFO  12:52:43,182 - #27 1
INFO  12:52:43,182 - #16 ]
INFO  12:52:43,182 - #11 =
INFO  12:52:43,182 - #28 Broj
INFO  12:52:43,182 - #19 .
INFO  12:52:43,182 - #28 DESET
INFO  12:52:43,182 - #10 ;
INFO  12:52:43,182 - #28 bodovi
INFO  12:52:43,182 - #11 =
INFO  12:52:43,183 - #28 niz
INFO  12:52:43,183 - #15 [
INFO  12:52:43,183 - #27 1
INFO  12:52:43,183 - #16 ]
INFO  12:52:43,183 - #25 /
INFO  12:52:43,183 - #28 niz
INFO  12:52:43,184 - #15 [
INFO  12:52:43,184 - #27 0
INFO  12:52:43,189 - #16 ]
INFO  12:52:43,189 - #10 ;
INFO  12:52:43,189 - #4 print
INFO  12:52:43,189 - #13 (
INFO  12:52:43,189 - #28 bodovi
INFO  12:52:43,189 - #14 )
INFO  12:52:43,189 - #10 ;
INFO  12:52:43,189 - #4 print
INFO  12:52:43,189 - #13 (
INFO  12:52:43,189 - #28 niz
INFO  12:52:43,189 - #15 [
INFO  12:52:43,189 - #28 Broj
INFO  12:52:43,190 - #19 .
INFO  12:52:43,190 - #28 JEDAN
INFO  12:52:43,190 - #16 ]
INFO  12:52:43,190 - #14 )
INFO  12:52:43,190 - #10 ;
INFO  12:52:43,190 - #28 nizch
INFO  12:52:43,190 - #11 =
INFO  12:52:43,190 - #5 new
INFO  12:52:43,190 - #28 char
INFO  12:52:43,190 - #15 [
INFO  12:52:43,190 - #27 3
INFO  12:52:43,190 - #16 ]
INFO  12:52:43,190 - #10 ;
INFO  12:52:43,190 - #28 nizch
INFO  12:52:43,190 - #15 [
INFO  12:52:43,190 - #27 0
INFO  12:52:43,190 - #16 ]
INFO  12:52:43,190 - #11 =
INFO  12:52:43,191 - #29 a
INFO  12:52:43,191 - #10 ;
INFO  12:52:43,191 - #28 nizch
INFO  12:52:43,191 - #15 [
INFO  12:52:43,191 - #28 jedan
INFO  12:52:43,191 - #16 ]
INFO  12:52:43,191 - #11 =
INFO  12:52:43,191 - #29 b
INFO  12:52:43,191 - #10 ;
INFO  12:52:43,192 - #28 nizch
INFO  12:52:43,192 - #15 [
INFO  12:52:43,192 - #28 pet
INFO  12:52:43,192 - #22 -
INFO  12:52:43,192 - #27 3
INFO  12:52:43,193 - #16 ]
INFO  12:52:43,193 - #11 =
INFO  12:52:43,193 - #29 c
INFO  12:52:43,193 - #10 ;
INFO  12:52:43,193 - #4 print
INFO  12:52:43,194 - #13 (
INFO  12:52:43,194 - #28 nizch
INFO  12:52:43,194 - #15 [
INFO  12:52:43,194 - #27 2
INFO  12:52:43,194 - #22 -
INFO  12:52:43,194 - #27 1
INFO  12:52:43,194 - #16 ]
INFO  12:52:43,194 - #14 )
INFO  12:52:43,194 - #10 ;
INFO  12:52:43,194 - #4 print
INFO  12:52:43,194 - #13 (
INFO  12:52:43,194 - #28 nizch
INFO  12:52:43,194 - #15 [
INFO  12:52:43,195 - #28 jedan
INFO  12:52:43,195 - #24 *
INFO  12:52:43,195 - #27 2
INFO  12:52:43,195 - #16 ]
INFO  12:52:43,195 - #14 )
INFO  12:52:43,195 - #10 ;
INFO  12:52:43,195 - #28 bodovi
INFO  12:52:43,195 - #11 =
INFO  12:52:43,195 - #28 bodovi
INFO  12:52:43,195 - #23 +
INFO  12:52:43,196 - #13 (
INFO  12:52:43,196 - #13 (
INFO  12:52:43,196 - #28 pet
INFO  12:52:43,196 - #24 *
INFO  12:52:43,196 - #28 jedan
INFO  12:52:43,196 - #22 -
INFO  12:52:43,196 - #27 1
INFO  12:52:43,197 - #14 )
INFO  12:52:43,197 - #24 *
INFO  12:52:43,197 - #27 2
INFO  12:52:43,198 - #22 -
INFO  12:52:43,198 - #13 (
INFO  12:52:43,198 - #27 3
INFO  12:52:43,198 - #26 %
INFO  12:52:43,198 - #27 2
INFO  12:52:43,200 - #23 +
INFO  12:52:43,200 - #27 3
INFO  12:52:43,200 - #24 *
INFO  12:52:43,200 - #27 2
INFO  12:52:43,201 - #22 -
INFO  12:52:43,201 - #27 3
INFO  12:52:43,201 - #14 )
INFO  12:52:43,201 - #22 -
INFO  12:52:43,201 - #28 Broj
INFO  12:52:43,201 - #19 .
INFO  12:52:43,201 - #28 JEDAN
INFO  12:52:43,201 - #24 *
INFO  12:52:43,201 - #27 0
INFO  12:52:43,202 - #14 )
INFO  12:52:43,202 - #10 ;
INFO  12:52:43,202 - #4 print
INFO  12:52:43,202 - #13 (
INFO  12:52:43,202 - #28 bodovi
INFO  12:52:43,202 - #14 )
INFO  12:52:43,202 - #10 ;
INFO  12:52:43,203 - #3 read
INFO  12:52:43,203 - #13 (
INFO  12:52:43,204 - #28 bodovi
INFO  12:52:43,204 - #14 )
INFO  12:52:43,204 - #10 ;
INFO  12:52:43,204 - #28 bodovi
INFO  12:52:43,204 - #11 =
INFO  12:52:43,204 - #28 bodovi
INFO  12:52:43,204 - #23 +
INFO  12:52:43,205 - #27 1
INFO  12:52:43,205 - #10 ;
INFO  12:52:43,205 - #4 print
INFO  12:52:43,205 - #13 (
INFO  12:52:43,205 - #28 bodovi
INFO  12:52:43,205 - #14 )
INFO  12:52:43,207 - #10 ;
INFO  12:52:43,211 - #18 }
INFO  12:52:43,215 - #18 }
INFO  12:52:43,246 - Program(
  ProgName(
   test301
  ) [ProgName]
  GlobalDeclListL(
    GlobalDeclListL(
      GlobalDeclListL(
        GlobalDeclListL(
          GlobalDeclListL(
            GlobalDeclListEps(
            ) [GlobalDeclListEps]
            GlobalDeclEnum(
              EnumDecl(
                EnumName(
                 Broj
                ) [EnumName]
                EnumDeclListL(
                  EnumDeclListL(
                    EnumDeclListL(
                      EnumDeclItem(
                        EnumDeclDefNoVal(
                         NULA
                        ) [EnumDeclDefNoVal]
                      ) [EnumDeclItem]
                      EnumDeclDefNoVal(
                       JEDAN
                      ) [EnumDeclDefNoVal]
                    ) [EnumDeclListL]
                    EnumDeclDefVal(
                     PET
                     5
                    ) [EnumDeclDefVal]
                  ) [EnumDeclListL]
                  EnumDeclDefVal(
                   DESET
                   10
                  ) [EnumDeclDefVal]
                ) [EnumDeclListL]
              ) [EnumDecl]
            ) [GlobalDeclEnum]
          ) [GlobalDeclListL]
          GlobalDeclConst(
            ConstDecl(
              Type(
               int
              ) [Type]
              ConstDeclItem(
                ConstDef(
                 jedan
                  ConstNum(
                   1
                  ) [ConstNum]
                ) [ConstDef]
              ) [ConstDeclItem]
            ) [ConstDecl]
          ) [GlobalDeclConst]
        ) [GlobalDeclListL]
        GlobalDeclConst(
          ConstDecl(
            Type(
             int
            ) [Type]
            ConstDeclItem(
              ConstDef(
               pet
                ConstNum(
                 5
                ) [ConstNum]
              ) [ConstDef]
            ) [ConstDeclItem]
          ) [ConstDecl]
        ) [GlobalDeclConst]
      ) [GlobalDeclListL]
      GlobalDeclVar(
        GlobalVarDecl(
          Type(
           int
          ) [Type]
          GlobalVarDeclItem(
            GlobalVarDeclDefError(
            ) [GlobalVarDeclDefError]
          ) [GlobalVarDeclItem]
        ) [GlobalVarDecl]
      ) [GlobalDeclVar]
    ) [GlobalDeclListL]
    GlobalDeclVar(
      GlobalVarDecl(
        Type(
         char
        ) [Type]
        GlobalVarDeclItem(
          GlobalVarDeclDefOk(
            VarDeclDefineArray(
             nizch
            ) [VarDeclDefineArray]
          ) [GlobalVarDeclDefOk]
        ) [GlobalVarDeclItem]
      ) [GlobalVarDecl]
    ) [GlobalDeclVar]
  ) [GlobalDeclListL]
  MethodDecl(
    MethodSignature(
      VoidableType(
      ) [VoidableType]
     main
    ) [MethodSignature]
    VarMethodDeclList_NoEps(
      VarMethodDeclList_NoEps(
        VarMethodDeclList_Eps(
        ) [VarMethodDeclList_Eps]
        VarDecl(
          Type(
           int
          ) [Type]
          VarDeclItem(
            VarDeclDefineSingle(
             bodovi
            ) [VarDeclDefineSingle]
          ) [VarDeclItem]
        ) [VarDecl]
      ) [VarMethodDeclList_NoEps]
      VarDecl(
        Type(
         Broj
        ) [Type]
        VarDeclListL(
          VarDeclItem(
            VarDeclDefineSingle(
             nula
            ) [VarDeclDefineSingle]
          ) [VarDeclItem]
          VarDeclDefineSingle(
           jedan
          ) [VarDeclDefineSingle]
        ) [VarDeclListL]
      ) [VarDecl]
    ) [VarMethodDeclList_NoEps]
    StatementList_NoEps(
      StatementList_NoEps(
        StatementList_NoEps(
          StatementList_NoEps(
            StatementList_NoEps(
              StatementList_NoEps(
                StatementList_NoEps(
                  StatementList_NoEps(
                    StatementList_NoEps(
                      StatementList_NoEps(
                        StatementList_NoEps(
                          StatementList_NoEps(
                            StatementList_NoEps(
                              StatementList_NoEps(
                                StatementList_NoEps(
                                  StatementList_NoEps(
                                    StatementList_NoEps(
                                      StatementList_NoEps(
                                        StatementList_NoEps(
                                          StatementList_NoEps(
                                            StatementList_NoEps(
                                              StatementList_NoEps(
                                                StatementList_NoEps(
                                                  StatementList_NoEps(
                                                    StatementList_NoEps(
                                                      StatementList_Eps(
                                                      ) [StatementList_Eps]
                                                      StatementDes(
                                                        DesignStatAssignment(
                                                          DesIdent(
                                                           nula
                                                          ) [DesIdent]
                                                          AssignementExpr(
                                                            TermExpr(
                                                              TermFact(
                                                                FactorDesign(
                                                                  DesEnum(
                                                                   Broj
                                                                   NULA
                                                                  ) [DesEnum]
                                                                ) [FactorDesign]
                                                              ) [TermFact]
                                                            ) [TermExpr]
                                                          ) [AssignementExpr]
                                                        ) [DesignStatAssignment]
                                                      ) [StatementDes]
                                                    ) [StatementList_NoEps]
                                                    StatementDes(
                                                      DesignStatAssignment(
                                                        DesIdent(
                                                         jedan
                                                        ) [DesIdent]
                                                        AssignementExpr(
                                                          TermExpr(
                                                            TermFact(
                                                              FactorDesign(
                                                                DesEnum(
                                                                 Broj
                                                                 JEDAN
                                                                ) [DesEnum]
                                                              ) [FactorDesign]
                                                            ) [TermFact]
                                                          ) [TermExpr]
                                                        ) [AssignementExpr]
                                                      ) [DesignStatAssignment]
                                                    ) [StatementDes]
                                                  ) [StatementList_NoEps]
                                                  StatementDes(
                                                    DesignStatAssignment(
                                                      DesIdent(
                                                       bodovi
                                                      ) [DesIdent]
                                                      AssignementExpr(
                                                        TermExpr(
                                                          TermFact(
                                                            FactorConst(
                                                              ConstNum(
                                                               0
                                                              ) [ConstNum]
                                                            ) [FactorConst]
                                                          ) [TermFact]
                                                        ) [TermExpr]
                                                      ) [AssignementExpr]
                                                    ) [DesignStatAssignment]
                                                  ) [StatementDes]
                                                ) [StatementList_NoEps]
                                                StatementDes(
                                                  DesignStatInc(
                                                    DesIdent(
                                                     bodovi
                                                    ) [DesIdent]
                                                  ) [DesignStatInc]
                                                ) [StatementDes]
                                              ) [StatementList_NoEps]
                                              StatementDes(
                                                DesignStatAssignment(
                                                  DesIdent(
                                                   bodovi
                                                  ) [DesIdent]
                                                  AssignementExpr(
                                                    AddopExp(
                                                      TermExpr(
                                                        TermFact(
                                                          FactorDesign(
                                                            DesIdent(
                                                             bodovi
                                                            ) [DesIdent]
                                                          ) [FactorDesign]
                                                        ) [TermFact]
                                                      ) [TermExpr]
                                                      Addop_Plus(
                                                      ) [Addop_Plus]
                                                      TermFact(
                                                        FactorDesign(
                                                          DesIdent(
                                                           jedan
                                                          ) [DesIdent]
                                                        ) [FactorDesign]
                                                      ) [TermFact]
                                                    ) [AddopExp]
                                                  ) [AssignementExpr]
                                                ) [DesignStatAssignment]
                                              ) [StatementDes]
                                            ) [StatementList_NoEps]
                                            StatementDes(
                                              DesignStatAssignment(
                                                DesIdent(
                                                 bodovi
                                                ) [DesIdent]
                                                AssignementExpr(
                                                  TermExpr(
                                                    TermMulop(
                                                      TermFact(
                                                        FactorDesign(
                                                          DesIdent(
                                                           bodovi
                                                          ) [DesIdent]
                                                        ) [FactorDesign]
                                                      ) [TermFact]
                                                      Mulop_Mul(
                                                      ) [Mulop_Mul]
                                                      FactorDesign(
                                                        DesIdent(
                                                         pet
                                                        ) [DesIdent]
                                                      ) [FactorDesign]
                                                    ) [TermMulop]
                                                  ) [TermExpr]
                                                ) [AssignementExpr]
                                              ) [DesignStatAssignment]
                                            ) [StatementDes]
                                          ) [StatementList_NoEps]
                                          StatementDes(
                                            DesignStatDec(
                                              DesIdent(
                                               bodovi
                                              ) [DesIdent]
                                            ) [DesignStatDec]
                                          ) [StatementDes]
                                        ) [StatementList_NoEps]
                                        StatPrint(
                                          TermExpr(
                                            TermFact(
                                              FactorDesign(
                                                DesIdent(
                                                 bodovi
                                                ) [DesIdent]
                                              ) [FactorDesign]
                                            ) [TermFact]
                                          ) [TermExpr]
                                        ) [StatPrint]
                                      ) [StatementList_NoEps]
                                      StatementDes(
                                        DesignStatAssignment(
                                          DesIdent(
                                           niz
                                          ) [DesIdent]
                                          AssignementExpr(
                                            TermExpr(
                                              TermFact(
                                                FactorNewArr(
                                                  Type(
                                                   int
                                                  ) [Type]
                                                  TermExpr(
                                                    TermFact(
                                                      FactorConst(
                                                        ConstNum(
                                                         2
                                                        ) [ConstNum]
                                                      ) [FactorConst]
                                                    ) [TermFact]
                                                  ) [TermExpr]
                                                ) [FactorNewArr]
                                              ) [TermFact]
                                            ) [TermExpr]
                                          ) [AssignementExpr]
                                        ) [DesignStatAssignment]
                                      ) [StatementDes]
                                    ) [StatementList_NoEps]
                                    StatementDes(
                                      DesignStatAssignment(
                                        DesArr(
                                          ArrayName(
                                           niz
                                          ) [ArrayName]
                                          TermExpr(
                                            TermFact(
                                              FactorDesign(
                                                DesIdent(
                                                 nula
                                                ) [DesIdent]
                                              ) [FactorDesign]
                                            ) [TermFact]
                                          ) [TermExpr]
                                        ) [DesArr]
                                        AssignementExpr(
                                          TermExpr(
                                            TermFact(
                                              FactorDesign(
                                                DesIdent(
                                                 pet
                                                ) [DesIdent]
                                              ) [FactorDesign]
                                            ) [TermFact]
                                          ) [TermExpr]
                                        ) [AssignementExpr]
                                      ) [DesignStatAssignment]
                                    ) [StatementDes]
                                  ) [StatementList_NoEps]
                                  StatementDes(
                                    DesignStatAssignment(
                                      DesArr(
                                        ArrayName(
                                         niz
                                        ) [ArrayName]
                                        TermExpr(
                                          TermFact(
                                            FactorConst(
                                              ConstNum(
                                               1
                                              ) [ConstNum]
                                            ) [FactorConst]
                                          ) [TermFact]
                                        ) [TermExpr]
                                      ) [DesArr]
                                      AssignementExpr(
                                        TermExpr(
                                          TermFact(
                                            FactorDesign(
                                              DesEnum(
                                               Broj
                                               DESET
                                              ) [DesEnum]
                                            ) [FactorDesign]
                                          ) [TermFact]
                                        ) [TermExpr]
                                      ) [AssignementExpr]
                                    ) [DesignStatAssignment]
                                  ) [StatementDes]
                                ) [StatementList_NoEps]
                                StatementDes(
                                  DesignStatAssignment(
                                    DesIdent(
                                     bodovi
                                    ) [DesIdent]
                                    AssignementExpr(
                                      TermExpr(
                                        TermMulop(
                                          TermFact(
                                            FactorDesign(
                                              DesArr(
                                                ArrayName(
                                                 niz
                                                ) [ArrayName]
                                                TermExpr(
                                                  TermFact(
                                                    FactorConst(
                                                      ConstNum(
                                                       1
                                                      ) [ConstNum]
                                                    ) [FactorConst]
                                                  ) [TermFact]
                                                ) [TermExpr]
                                              ) [DesArr]
                                            ) [FactorDesign]
                                          ) [TermFact]
                                          Mulop_Div(
                                          ) [Mulop_Div]
                                          FactorDesign(
                                            DesArr(
                                              ArrayName(
                                               niz
                                              ) [ArrayName]
                                              TermExpr(
                                                TermFact(
                                                  FactorConst(
                                                    ConstNum(
                                                     0
                                                    ) [ConstNum]
                                                  ) [FactorConst]
                                                ) [TermFact]
                                              ) [TermExpr]
                                            ) [DesArr]
                                          ) [FactorDesign]
                                        ) [TermMulop]
                                      ) [TermExpr]
                                    ) [AssignementExpr]
                                  ) [DesignStatAssignment]
                                ) [StatementDes]
                              ) [StatementList_NoEps]
                              StatPrint(
                                TermExpr(
                                  TermFact(
                                    FactorDesign(
                                      DesIdent(
                                       bodovi
                                      ) [DesIdent]
                                    ) [FactorDesign]
                                  ) [TermFact]
                                ) [TermExpr]
                              ) [StatPrint]
                            ) [StatementList_NoEps]
                            StatPrint(
                              TermExpr(
                                TermFact(
                                  FactorDesign(
                                    DesArr(
                                      ArrayName(
                                       niz
                                      ) [ArrayName]
                                      TermExpr(
                                        TermFact(
                                          FactorDesign(
                                            DesEnum(
                                             Broj
                                             JEDAN
                                            ) [DesEnum]
                                          ) [FactorDesign]
                                        ) [TermFact]
                                      ) [TermExpr]
                                    ) [DesArr]
                                  ) [FactorDesign]
                                ) [TermFact]
                              ) [TermExpr]
                            ) [StatPrint]
                          ) [StatementList_NoEps]
                          StatementDes(
                            DesignStatAssignment(
                              DesIdent(
                               nizch
                              ) [DesIdent]
                              AssignementExpr(
                                TermExpr(
                                  TermFact(
                                    FactorNewArr(
                                      Type(
                                       char
                                      ) [Type]
                                      TermExpr(
                                        TermFact(
                                          FactorConst(
                                            ConstNum(
                                             3
                                            ) [ConstNum]
                                          ) [FactorConst]
                                        ) [TermFact]
                                      ) [TermExpr]
                                    ) [FactorNewArr]
                                  ) [TermFact]
                                ) [TermExpr]
                              ) [AssignementExpr]
                            ) [DesignStatAssignment]
                          ) [StatementDes]
                        ) [StatementList_NoEps]
                        StatementDes(
                          DesignStatAssignment(
                            DesArr(
                              ArrayName(
                               nizch
                              ) [ArrayName]
                              TermExpr(
                                TermFact(
                                  FactorConst(
                                    ConstNum(
                                     0
                                    ) [ConstNum]
                                  ) [FactorConst]
                                ) [TermFact]
                              ) [TermExpr]
                            ) [DesArr]
                            AssignementExpr(
                              TermExpr(
                                TermFact(
                                  FactorConst(
                                    ConstChar(
                                     a
                                    ) [ConstChar]
                                  ) [FactorConst]
                                ) [TermFact]
                              ) [TermExpr]
                            ) [AssignementExpr]
                          ) [DesignStatAssignment]
                        ) [StatementDes]
                      ) [StatementList_NoEps]
                      StatementDes(
                        DesignStatAssignment(
                          DesArr(
                            ArrayName(
                             nizch
                            ) [ArrayName]
                            TermExpr(
                              TermFact(
                                FactorDesign(
                                  DesIdent(
                                   jedan
                                  ) [DesIdent]
                                ) [FactorDesign]
                              ) [TermFact]
                            ) [TermExpr]
                          ) [DesArr]
                          AssignementExpr(
                            TermExpr(
                              TermFact(
                                FactorConst(
                                  ConstChar(
                                   b
                                  ) [ConstChar]
                                ) [FactorConst]
                              ) [TermFact]
                            ) [TermExpr]
                          ) [AssignementExpr]
                        ) [DesignStatAssignment]
                      ) [StatementDes]
                    ) [StatementList_NoEps]
                    StatementDes(
                      DesignStatAssignment(
                        DesArr(
                          ArrayName(
                           nizch
                          ) [ArrayName]
                          AddopExp(
                            TermExpr(
                              TermFact(
                                FactorDesign(
                                  DesIdent(
                                   pet
                                  ) [DesIdent]
                                ) [FactorDesign]
                              ) [TermFact]
                            ) [TermExpr]
                            Addop_Minus(
                            ) [Addop_Minus]
                            TermFact(
                              FactorConst(
                                ConstNum(
                                 3
                                ) [ConstNum]
                              ) [FactorConst]
                            ) [TermFact]
                          ) [AddopExp]
                        ) [DesArr]
                        AssignementExpr(
                          TermExpr(
                            TermFact(
                              FactorConst(
                                ConstChar(
                                 c
                                ) [ConstChar]
                              ) [FactorConst]
                            ) [TermFact]
                          ) [TermExpr]
                        ) [AssignementExpr]
                      ) [DesignStatAssignment]
                    ) [StatementDes]
                  ) [StatementList_NoEps]
                  StatPrint(
                    TermExpr(
                      TermFact(
                        FactorDesign(
                          DesArr(
                            ArrayName(
                             nizch
                            ) [ArrayName]
                            AddopExp(
                              TermExpr(
                                TermFact(
                                  FactorConst(
                                    ConstNum(
                                     2
                                    ) [ConstNum]
                                  ) [FactorConst]
                                ) [TermFact]
                              ) [TermExpr]
                              Addop_Minus(
                              ) [Addop_Minus]
                              TermFact(
                                FactorConst(
                                  ConstNum(
                                   1
                                  ) [ConstNum]
                                ) [FactorConst]
                              ) [TermFact]
                            ) [AddopExp]
                          ) [DesArr]
                        ) [FactorDesign]
                      ) [TermFact]
                    ) [TermExpr]
                  ) [StatPrint]
                ) [StatementList_NoEps]
                StatPrint(
                  TermExpr(
                    TermFact(
                      FactorDesign(
                        DesArr(
                          ArrayName(
                           nizch
                          ) [ArrayName]
                          TermExpr(
                            TermMulop(
                              TermFact(
                                FactorDesign(
                                  DesIdent(
                                   jedan
                                  ) [DesIdent]
                                ) [FactorDesign]
                              ) [TermFact]
                              Mulop_Mul(
                              ) [Mulop_Mul]
                              FactorConst(
                                ConstNum(
                                 2
                                ) [ConstNum]
                              ) [FactorConst]
                            ) [TermMulop]
                          ) [TermExpr]
                        ) [DesArr]
                      ) [FactorDesign]
                    ) [TermFact]
                  ) [TermExpr]
                ) [StatPrint]
              ) [StatementList_NoEps]
              StatementDes(
                DesignStatAssignment(
                  DesIdent(
                   bodovi
                  ) [DesIdent]
                  AssignementExpr(
                    AddopExp(
                      TermExpr(
                        TermFact(
                          FactorDesign(
                            DesIdent(
                             bodovi
                            ) [DesIdent]
                          ) [FactorDesign]
                        ) [TermFact]
                      ) [TermExpr]
                      Addop_Plus(
                      ) [Addop_Plus]
                      TermFact(
                        FactorExpr(
                          AddopExp(
                            AddopExp(
                              TermExpr(
                                TermMulop(
                                  TermFact(
                                    FactorExpr(
                                      AddopExp(
                                        TermExpr(
                                          TermMulop(
                                            TermFact(
                                              FactorDesign(
                                                DesIdent(
                                                 pet
                                                ) [DesIdent]
                                              ) [FactorDesign]
                                            ) [TermFact]
                                            Mulop_Mul(
                                            ) [Mulop_Mul]
                                            FactorDesign(
                                              DesIdent(
                                               jedan
                                              ) [DesIdent]
                                            ) [FactorDesign]
                                          ) [TermMulop]
                                        ) [TermExpr]
                                        Addop_Minus(
                                        ) [Addop_Minus]
                                        TermFact(
                                          FactorConst(
                                            ConstNum(
                                             1
                                            ) [ConstNum]
                                          ) [FactorConst]
                                        ) [TermFact]
                                      ) [AddopExp]
                                    ) [FactorExpr]
                                  ) [TermFact]
                                  Mulop_Mul(
                                  ) [Mulop_Mul]
                                  FactorConst(
                                    ConstNum(
                                     2
                                    ) [ConstNum]
                                  ) [FactorConst]
                                ) [TermMulop]
                              ) [TermExpr]
                              Addop_Minus(
                              ) [Addop_Minus]
                              TermFact(
                                FactorExpr(
                                  AddopExp(
                                    AddopExp(
                                      TermExpr(
                                        TermMulop(
                                          TermFact(
                                            FactorConst(
                                              ConstNum(
                                               3
                                              ) [ConstNum]
                                            ) [FactorConst]
                                          ) [TermFact]
                                          Mulop_Mod(
                                          ) [Mulop_Mod]
                                          FactorConst(
                                            ConstNum(
                                             2
                                            ) [ConstNum]
                                          ) [FactorConst]
                                        ) [TermMulop]
                                      ) [TermExpr]
                                      Addop_Plus(
                                      ) [Addop_Plus]
                                      TermMulop(
                                        TermFact(
                                          FactorConst(
                                            ConstNum(
                                             3
                                            ) [ConstNum]
                                          ) [FactorConst]
                                        ) [TermFact]
                                        Mulop_Mul(
                                        ) [Mulop_Mul]
                                        FactorConst(
                                          ConstNum(
                                           2
                                          ) [ConstNum]
                                        ) [FactorConst]
                                      ) [TermMulop]
                                    ) [AddopExp]
                                    Addop_Minus(
                                    ) [Addop_Minus]
                                    TermFact(
                                      FactorConst(
                                        ConstNum(
                                         3
                                        ) [ConstNum]
                                      ) [FactorConst]
                                    ) [TermFact]
                                  ) [AddopExp]
                                ) [FactorExpr]
                              ) [TermFact]
                            ) [AddopExp]
                            Addop_Minus(
                            ) [Addop_Minus]
                            TermMulop(
                              TermFact(
                                FactorDesign(
                                  DesEnum(
                                   Broj
                                   JEDAN
                                  ) [DesEnum]
                                ) [FactorDesign]
                              ) [TermFact]
                              Mulop_Mul(
                              ) [Mulop_Mul]
                              FactorConst(
                                ConstNum(
                                 0
                                ) [ConstNum]
                              ) [FactorConst]
                            ) [TermMulop]
                          ) [AddopExp]
                        ) [FactorExpr]
                      ) [TermFact]
                    ) [AddopExp]
                  ) [AssignementExpr]
                ) [DesignStatAssignment]
              ) [StatementDes]
            ) [StatementList_NoEps]
            StatPrint(
              TermExpr(
                TermFact(
                  FactorDesign(
                    DesIdent(
                     bodovi
                    ) [DesIdent]
                  ) [FactorDesign]
                ) [TermFact]
              ) [TermExpr]
            ) [StatPrint]
          ) [StatementList_NoEps]
          StatRead(
            DesIdent(
             bodovi
            ) [DesIdent]
          ) [StatRead]
        ) [StatementList_NoEps]
        StatementDes(
          DesignStatAssignment(
            DesIdent(
             bodovi
            ) [DesIdent]
            AssignementExpr(
              AddopExp(
                TermExpr(
                  TermFact(
                    FactorDesign(
                      DesIdent(
                       bodovi
                      ) [DesIdent]
                    ) [FactorDesign]
                  ) [TermFact]
                ) [TermExpr]
                Addop_Plus(
                ) [Addop_Plus]
                TermFact(
                  FactorConst(
                    ConstNum(
                     1
                    ) [ConstNum]
                  ) [FactorConst]
                ) [TermFact]
              ) [AddopExp]
            ) [AssignementExpr]
          ) [DesignStatAssignment]
        ) [StatementDes]
      ) [StatementList_NoEps]
      StatPrint(
        TermExpr(
          TermFact(
            FactorDesign(
              DesIdent(
               bodovi
              ) [DesIdent]
            ) [FactorDesign]
          ) [TermFact]
        ) [TermExpr]
      ) [StatPrint]
    ) [StatementList_NoEps]
  ) [MethodDecl]
) [Program]
INFO  12:52:43,249 - ===================================
INFO  12:52:43,255 - Deklarisan novi enum tip Broj na liniji 5
INFO  12:52:43,255 - Deklarisana konstanta Broj.NULA unutar enuma Broj na liniji 5
INFO  12:52:43,255 - Deklarisana konstanta Broj.JEDAN unutar enuma Broj na liniji 5
INFO  12:52:43,256 - Deklarisana konstanta Broj.PET unutar enuma Broj na liniji 5
INFO  12:52:43,256 - Deklarisana konstanta Broj.DESET unutar enuma Broj na liniji 5
INFO  12:52:43,256 - Deklarisana konstanta 'jedan' na liniji 7
INFO  12:52:43,256 - Deklarisana konstanta 'pet' na liniji 8
INFO  12:52:43,256 - Deklarisana promenljiva niza nizch tipa 2 na liniji 13
INFO  12:52:43,257 - Obradjuje se funkcija main na liniji 16
INFO  12:52:43,258 - Deklarisana promenljiva bodovi tipa 1 na liniji 17
INFO  12:52:43,258 - Deklarisana promenljiva nula tipa 6 na liniji 19
INFO  12:52:43,258 - Deklarisana promenljiva jedan tipa 6 na liniji 19
INFO  12:52:43,259 - Dodeljenja vrednost: 1 je design,1 je assign
INFO  12:52:43,259 - Inkrementirana vrednost
INFO  12:52:43,260 - Dodeljenja vrednost: 1 je design,1 je assign
INFO  12:52:43,260 - Dodeljenja vrednost: 1 je design,1 je assign
INFO  12:52:43,260 - Dekrementirana vrednost
INFO  12:52:43,260 - Print funkcija na liniji 29
ERROR 12:52:43,260 - Greska: niz nije pronadjen na liniji 32
ERROR 12:52:43,260 - Greska: niz nije pronadjen na liniji 33
