INFO  20:10:04,735 - Compiling source file: C:\Users\ikadr\Desktop\PP\Projekat\Rad\workspace\MJCompiler\test\program.mj
INFO  20:10:04,780 - #1 program
ERROR 20:10:04,780 - 
Sintaksna greska na liniji 1
ERROR 20:10:04,780 - Fatalna greska, parsiranje se ne moze nastaviti na liniji 1
