INFO  17:15:39,178 - Compiling source file: C:\Users\ikadr\Desktop\PP\Projekat\Rad\workspace\MJCompiler\test\program.mj
INFO  17:15:39,253 - #2 program
INFO  17:15:39,254 - #28 test301
INFO  17:15:39,254 - #9 enum
INFO  17:15:39,257 - #28 Broj
INFO  17:15:39,257 - #17 {
INFO  17:15:39,257 - #28 NULA
INFO  17:15:39,258 - #12 ,
INFO  17:15:39,258 - #28 JEDAN
INFO  17:15:39,258 - #12 ,
INFO  17:15:39,258 - #28 PET
INFO  17:15:39,258 - #11 =
INFO  17:15:39,258 - #27 5
INFO  17:15:39,259 - #12 ,
INFO  17:15:39,259 - #28 DESET
INFO  17:15:39,259 - #11 =
INFO  17:15:39,259 - #27 10
INFO  17:15:39,259 - #18 }
INFO  17:15:39,259 - #17 {
INFO  17:15:39,262 - #6 void
INFO  17:15:39,262 - #28 main
INFO  17:15:39,263 - #13 (
INFO  17:15:39,264 - #14 )
INFO  17:15:39,264 - #28 int
INFO  17:15:39,266 - #28 x
INFO  17:15:39,267 - #12 ,
INFO  17:15:39,268 - #28 y
INFO  17:15:39,268 - #12 ,
INFO  17:15:39,268 - #28 z
INFO  17:15:39,268 - #10 ;
INFO  17:15:39,269 - #28 Broj
INFO  17:15:39,270 - #28 pet
INFO  17:15:39,270 - #10 ;
INFO  17:15:39,270 - #17 {
INFO  17:15:39,270 - #28 pet
INFO  17:15:39,272 - #11 =
INFO  17:15:39,272 - #28 Broj
INFO  17:15:39,272 - #19 .
INFO  17:15:39,272 - #28 JEDAN
INFO  17:15:39,272 - #10 ;
INFO  17:15:39,273 - #28 x
INFO  17:15:39,273 - #11 =
INFO  17:15:39,273 - #27 10
INFO  17:15:39,274 - #10 ;
INFO  17:15:39,274 - #4 print
INFO  17:15:39,274 - #13 (
INFO  17:15:39,274 - #28 x
INFO  17:15:39,274 - #14 )
INFO  17:15:39,274 - #10 ;
INFO  17:15:39,274 - #18 }
INFO  17:15:39,275 - #18 }
INFO  17:15:39,291 - Program(
  ProgName(
   test301
  ) [ProgName]
  GlobalDeclListL(
    GlobalDeclListEps(
    ) [GlobalDeclListEps]
    GlobalDeclEnum(
      EnumDecl(
       Broj
        EnumDeclListL(
          EnumDeclListL(
            EnumDeclListL(
              EnumDeclItem(
                EnumDeclDefNoVal(
                 NULA
                ) [EnumDeclDefNoVal]
              ) [EnumDeclItem]
              EnumDeclDefNoVal(
               JEDAN
              ) [EnumDeclDefNoVal]
            ) [EnumDeclListL]
            EnumDeclDefVal(
             PET
             5
            ) [EnumDeclDefVal]
          ) [EnumDeclListL]
          EnumDeclDefVal(
           DESET
           10
          ) [EnumDeclDefVal]
        ) [EnumDeclListL]
      ) [EnumDecl]
    ) [GlobalDeclEnum]
  ) [GlobalDeclListL]
  MethodDecl(
    MethodSignature(
      VoidableType(
      ) [VoidableType]
     main
    ) [MethodSignature]
    VarMethodDeclList_NoEps(
      VarMethodDeclList_NoEps(
        VarMethodDeclList_Eps(
        ) [VarMethodDeclList_Eps]
        VarDecl(
          Type(
           int
          ) [Type]
          VarDeclListL(
            VarDeclListL(
              VarDeclItem(
                VarDeclDefineSingle(
                 x
                ) [VarDeclDefineSingle]
              ) [VarDeclItem]
              VarDeclDefineSingle(
               y
              ) [VarDeclDefineSingle]
            ) [VarDeclListL]
            VarDeclDefineSingle(
             z
            ) [VarDeclDefineSingle]
          ) [VarDeclListL]
        ) [VarDecl]
      ) [VarMethodDeclList_NoEps]
      VarDecl(
        Type(
         Broj
        ) [Type]
        VarDeclItem(
          VarDeclDefineSingle(
           pet
          ) [VarDeclDefineSingle]
        ) [VarDeclItem]
      ) [VarDecl]
    ) [VarMethodDeclList_NoEps]
    StatementList_NoEps(
      StatementList_NoEps(
        StatementList_NoEps(
          StatementList_Eps(
          ) [StatementList_Eps]
          StatementDes(
            DesignStatAssignment(
              DesIdent(
               pet
              ) [DesIdent]
              AssignementExpr(
                TermExpr(
                  TermFact(
                    FactorDesign(
                      DesEnum(
                       Broj
                       JEDAN
                      ) [DesEnum]
                    ) [FactorDesign]
                  ) [TermFact]
                ) [TermExpr]
              ) [AssignementExpr]
            ) [DesignStatAssignment]
          ) [StatementDes]
        ) [StatementList_NoEps]
        StatementDes(
          DesignStatAssignment(
            DesIdent(
             x
            ) [DesIdent]
            AssignementExpr(
              TermExpr(
                TermFact(
                  FactorConst(
                    ConstNum(
                     10
                    ) [ConstNum]
                  ) [FactorConst]
                ) [TermFact]
              ) [TermExpr]
            ) [AssignementExpr]
          ) [DesignStatAssignment]
        ) [StatementDes]
      ) [StatementList_NoEps]
      StatPrint(
        TermExpr(
          TermFact(
            FactorDesign(
              DesIdent(
               x
              ) [DesIdent]
            ) [FactorDesign]
          ) [TermFact]
        ) [TermExpr]
      ) [StatPrint]
    ) [StatementList_NoEps]
  ) [MethodDecl]
) [Program]
INFO  17:15:39,293 - ===================================
INFO  17:15:39,299 - Deklarisan novi enum tip Broj na liniji 5
INFO  17:15:39,299 - Obradjuje se funkcija main na liniji 8
INFO  17:15:39,299 - Deklarisana promenljiva x tipa 1 na liniji 9
INFO  17:15:39,299 - Deklarisana promenljiva y tipa 1 na liniji 9
INFO  17:15:39,299 - Deklarisana promenljiva z tipa 1 na liniji 9
INFO  17:15:39,299 - Deklarisana promenljiva pet tipa 6 na liniji 10
INFO  17:15:39,300 - Dodeljenja vrednost enuma promenljivoj enuma
INFO  17:15:39,300 - Dodeljenja vrednost: 1 je design,1 je assign
INFO  17:15:39,300 -  Print count calls = 1
INFO  17:15:39,300 -  Deklarisanih promenljivih ima = 4
INFO  17:15:39,311 - GENERATOR:design nakon store 0
INFO  17:15:39,311 - Parsiranje uspesno zavrseno!
