INFO  10:42:31,417 - Compiling source file: C:\Users\ikadr\Desktop\PP\Projekat\Rad\workspace\MJCompiler\test\program.mj
INFO  10:42:31,493 - #2 program
INFO  10:42:31,493 - #28 test301
INFO  10:42:31,494 - #9 enum
INFO  10:42:31,495 - #28 Broj
INFO  10:42:31,495 - #17 {
INFO  10:42:31,496 - #28 NULA
INFO  10:42:31,496 - #12 ,
INFO  10:42:31,496 - #28 JEDAN
INFO  10:42:31,496 - #12 ,
INFO  10:42:31,496 - #28 PET
INFO  10:42:31,496 - #11 =
INFO  10:42:31,497 - #27 5
INFO  10:42:31,497 - #12 ,
INFO  10:42:31,497 - #28 DESET
INFO  10:42:31,497 - #11 =
INFO  10:42:31,497 - #27 10
INFO  10:42:31,497 - #18 }
INFO  10:42:31,497 - #8 const
INFO  10:42:31,499 - #28 int
INFO  10:42:31,499 - #28 jedan
INFO  10:42:31,500 - #11 =
INFO  10:42:31,534 - #27 1
INFO  10:42:31,534 - #10 ;
INFO  10:42:31,536 - #8 const
INFO  10:42:31,537 - #28 int
INFO  10:42:31,537 - #28 pet
INFO  10:42:31,537 - #11 =
INFO  10:42:31,538 - #27 5
INFO  10:42:31,538 - #10 ;
INFO  10:42:31,538 - #28 int
INFO  10:42:31,538 - #28 niz
INFO  10:42:31,538 - #15 [
INFO  10:42:31,538 - #16 ]
INFO  10:42:31,539 - #10 ;
INFO  10:42:31,539 - #28 char
INFO  10:42:31,541 - #28 nizch
INFO  10:42:31,541 - #15 [
INFO  10:42:31,541 - #16 ]
INFO  10:42:31,541 - #10 ;
INFO  10:42:31,541 - #17 {
INFO  10:42:31,541 - #6 void
INFO  10:42:31,541 - #28 main
INFO  10:42:31,542 - #13 (
INFO  10:42:31,543 - #14 )
INFO  10:42:31,543 - #28 int
INFO  10:42:31,545 - #28 bodovi
INFO  10:42:31,545 - #10 ;
INFO  10:42:31,545 - #28 Broj
INFO  10:42:31,546 - #28 nula
INFO  10:42:31,546 - #12 ,
INFO  10:42:31,546 - #28 jedan
INFO  10:42:31,546 - #10 ;
INFO  10:42:31,547 - #17 {
INFO  10:42:31,547 - #28 nula
INFO  10:42:31,548 - #11 =
INFO  10:42:31,550 - #28 Broj
INFO  10:42:31,550 - #19 .
INFO  10:42:31,550 - #28 NULA
INFO  10:42:31,550 - #10 ;
INFO  10:42:31,551 - #28 jedan
INFO  10:42:31,551 - #11 =
INFO  10:42:31,551 - #28 Broj
INFO  10:42:31,551 - #19 .
INFO  10:42:31,551 - #28 JEDAN
INFO  10:42:31,551 - #10 ;
INFO  10:42:31,551 - #28 nula
INFO  10:42:31,551 - #11 =
INFO  10:42:31,552 - #23 +
ERROR 10:42:31,552 - 
Sintaksna greska na liniji 19
INFO  10:42:31,552 - #10 ;
INFO  10:42:31,552 - #28 bodovi
INFO  10:42:31,552 - #11 =
INFO  10:42:31,553 - #27 0
INFO  10:42:31,553 - Oporavak od greske u konstrukciji iskaza dodele na liniji 19
INFO  10:42:31,555 - #10 ;
INFO  10:42:31,556 - #28 bodovi
INFO  10:42:31,556 - #20 ++
INFO  10:42:31,556 - #10 ;
INFO  10:42:31,556 - #28 bodovi
INFO  10:42:31,556 - #11 =
INFO  10:42:31,556 - #28 bodovi
INFO  10:42:31,556 - #23 +
INFO  10:42:31,556 - #28 jedan
INFO  10:42:31,557 - #10 ;
INFO  10:42:31,558 - #28 bodovi
INFO  10:42:31,558 - #11 =
INFO  10:42:31,558 - #28 bodovi
INFO  10:42:31,558 - #24 *
INFO  10:42:31,558 - #28 pet
INFO  10:42:31,559 - #10 ;
INFO  10:42:31,560 - #28 bodovi
INFO  10:42:31,560 - #21 --
INFO  10:42:31,560 - #10 ;
INFO  10:42:31,560 - #4 print
INFO  10:42:31,560 - #13 (
INFO  10:42:31,560 - #28 bodovi
INFO  10:42:31,560 - #14 )
INFO  10:42:31,561 - #10 ;
INFO  10:42:31,561 - #28 niz
INFO  10:42:31,561 - #11 =
INFO  10:42:31,561 - #5 new
INFO  10:42:31,561 - #28 int
INFO  10:42:31,561 - #15 [
INFO  10:42:31,561 - #27 2
INFO  10:42:31,561 - #16 ]
INFO  10:42:31,562 - #10 ;
INFO  10:42:31,562 - #28 niz
INFO  10:42:31,562 - #15 [
INFO  10:42:31,562 - #28 nula
INFO  10:42:31,562 - #16 ]
INFO  10:42:31,563 - #11 =
INFO  10:42:31,563 - #28 pet
INFO  10:42:31,563 - #10 ;
INFO  10:42:31,563 - #28 niz
INFO  10:42:31,563 - #15 [
INFO  10:42:31,563 - #27 1
INFO  10:42:31,564 - #16 ]
INFO  10:42:31,564 - #11 =
INFO  10:42:31,564 - #28 Broj
INFO  10:42:31,564 - #19 .
INFO  10:42:31,564 - #28 DESET
INFO  10:42:31,564 - #10 ;
INFO  10:42:31,564 - #28 bodovi
INFO  10:42:31,564 - #11 =
INFO  10:42:31,565 - #28 niz
INFO  10:42:31,565 - #15 [
INFO  10:42:31,565 - #27 1
INFO  10:42:31,565 - #16 ]
INFO  10:42:31,565 - #25 /
INFO  10:42:31,565 - #28 niz
INFO  10:42:31,567 - #15 [
INFO  10:42:31,567 - #27 0
INFO  10:42:31,567 - #16 ]
INFO  10:42:31,572 - #10 ;
INFO  10:42:31,572 - #4 print
INFO  10:42:31,573 - #13 (
INFO  10:42:31,573 - #28 bodovi
INFO  10:42:31,573 - #14 )
INFO  10:42:31,573 - #10 ;
INFO  10:42:31,573 - #4 print
INFO  10:42:31,573 - #13 (
INFO  10:42:31,573 - #28 niz
INFO  10:42:31,573 - #15 [
INFO  10:42:31,573 - #28 Broj
INFO  10:42:31,573 - #19 .
INFO  10:42:31,573 - #28 JEDAN
INFO  10:42:31,573 - #16 ]
INFO  10:42:31,573 - #14 )
INFO  10:42:31,574 - #10 ;
INFO  10:42:31,574 - #28 nizch
INFO  10:42:31,575 - #11 =
INFO  10:42:31,575 - #5 new
INFO  10:42:31,575 - #28 char
INFO  10:42:31,575 - #15 [
INFO  10:42:31,575 - #27 3
INFO  10:42:31,575 - #16 ]
INFO  10:42:31,575 - #10 ;
INFO  10:42:31,575 - #28 nizch
INFO  10:42:31,575 - #15 [
INFO  10:42:31,575 - #27 0
INFO  10:42:31,575 - #16 ]
INFO  10:42:31,575 - #11 =
INFO  10:42:31,576 - #29 a
INFO  10:42:31,576 - #10 ;
INFO  10:42:31,576 - #28 nizch
INFO  10:42:31,576 - #15 [
INFO  10:42:31,576 - #28 jedan
INFO  10:42:31,576 - #16 ]
INFO  10:42:31,577 - #11 =
INFO  10:42:31,577 - #29 b
INFO  10:42:31,577 - #10 ;
INFO  10:42:31,577 - #28 nizch
INFO  10:42:31,577 - #15 [
INFO  10:42:31,577 - #28 pet
INFO  10:42:31,577 - #22 -
INFO  10:42:31,578 - #27 3
INFO  10:42:31,579 - #16 ]
INFO  10:42:31,579 - #11 =
INFO  10:42:31,579 - #29 c
INFO  10:42:31,579 - #10 ;
INFO  10:42:31,580 - #4 print
INFO  10:42:31,580 - #13 (
INFO  10:42:31,580 - #28 nizch
INFO  10:42:31,580 - #15 [
INFO  10:42:31,580 - #27 2
INFO  10:42:31,580 - #22 -
INFO  10:42:31,580 - #27 1
INFO  10:42:31,580 - #16 ]
INFO  10:42:31,580 - #14 )
INFO  10:42:31,581 - #10 ;
INFO  10:42:31,581 - #4 print
INFO  10:42:31,581 - #13 (
INFO  10:42:31,581 - #28 nizch
INFO  10:42:31,581 - #15 [
INFO  10:42:31,581 - #28 jedan
INFO  10:42:31,581 - #24 *
INFO  10:42:31,582 - #27 2
INFO  10:42:31,582 - #16 ]
INFO  10:42:31,582 - #14 )
INFO  10:42:31,582 - #10 ;
INFO  10:42:31,582 - #28 bodovi
INFO  10:42:31,582 - #11 =
INFO  10:42:31,582 - #28 bodovi
INFO  10:42:31,582 - #23 +
INFO  10:42:31,583 - #13 (
INFO  10:42:31,583 - #13 (
INFO  10:42:31,583 - #28 pet
INFO  10:42:31,583 - #24 *
INFO  10:42:31,583 - #28 jedan
INFO  10:42:31,583 - #22 -
INFO  10:42:31,583 - #27 1
INFO  10:42:31,583 - #14 )
INFO  10:42:31,583 - #24 *
INFO  10:42:31,583 - #27 2
INFO  10:42:31,583 - #22 -
INFO  10:42:31,584 - #13 (
INFO  10:42:31,584 - #27 3
INFO  10:42:31,584 - #26 %
INFO  10:42:31,584 - #27 2
INFO  10:42:31,586 - #23 +
INFO  10:42:31,586 - #27 3
INFO  10:42:31,586 - #24 *
INFO  10:42:31,586 - #27 2
INFO  10:42:31,586 - #22 -
INFO  10:42:31,586 - #27 3
INFO  10:42:31,586 - #14 )
INFO  10:42:31,586 - #22 -
INFO  10:42:31,587 - #28 Broj
INFO  10:42:31,587 - #19 .
INFO  10:42:31,587 - #28 JEDAN
INFO  10:42:31,587 - #24 *
INFO  10:42:31,587 - #27 0
INFO  10:42:31,587 - #14 )
INFO  10:42:31,587 - #10 ;
INFO  10:42:31,587 - #4 print
INFO  10:42:31,587 - #13 (
INFO  10:42:31,587 - #28 bodovi
INFO  10:42:31,587 - #14 )
INFO  10:42:31,587 - #10 ;
INFO  10:42:31,588 - #3 read
INFO  10:42:31,588 - #13 (
INFO  10:42:31,588 - #28 bodovi
INFO  10:42:31,588 - #14 )
INFO  10:42:31,588 - #10 ;
INFO  10:42:31,588 - #28 bodovi
INFO  10:42:31,589 - #11 =
INFO  10:42:31,589 - #28 bodovi
INFO  10:42:31,589 - #23 +
INFO  10:42:31,590 - #27 1
INFO  10:42:31,590 - #10 ;
INFO  10:42:31,590 - #4 print
INFO  10:42:31,590 - #13 (
INFO  10:42:31,590 - #28 bodovi
INFO  10:42:31,590 - #14 )
INFO  10:42:31,590 - #10 ;
INFO  10:42:31,590 - #18 }
INFO  10:42:31,591 - #18 }
INFO  10:42:31,610 - Program(
  ProgName(
   test301
  ) [ProgName]
  GlobalDeclListL(
    GlobalDeclListL(
      GlobalDeclListL(
        GlobalDeclListL(
          GlobalDeclListL(
            GlobalDeclListEps(
            ) [GlobalDeclListEps]
            GlobalDeclEnum(
              EnumDecl(
               Broj
                EnumDeclListL(
                  EnumDeclListL(
                    EnumDeclListL(
                      EnumDeclItem(
                        EnumDeclDefNoVal(
                         NULA
                        ) [EnumDeclDefNoVal]
                      ) [EnumDeclItem]
                      EnumDeclDefNoVal(
                       JEDAN
                      ) [EnumDeclDefNoVal]
                    ) [EnumDeclListL]
                    EnumDeclDefVal(
                     PET
                     5
                    ) [EnumDeclDefVal]
                  ) [EnumDeclListL]
                  EnumDeclDefVal(
                   DESET
                   10
                  ) [EnumDeclDefVal]
                ) [EnumDeclListL]
              ) [EnumDecl]
            ) [GlobalDeclEnum]
          ) [GlobalDeclListL]
          GlobalDeclConst(
            ConstDecl(
              Type(
               int
              ) [Type]
              ConstDeclItem(
                ConstDef(
                 jedan
                  ConstNum(
                   1
                  ) [ConstNum]
                ) [ConstDef]
              ) [ConstDeclItem]
            ) [ConstDecl]
          ) [GlobalDeclConst]
        ) [GlobalDeclListL]
        GlobalDeclConst(
          ConstDecl(
            Type(
             int
            ) [Type]
            ConstDeclItem(
              ConstDef(
               pet
                ConstNum(
                 5
                ) [ConstNum]
              ) [ConstDef]
            ) [ConstDeclItem]
          ) [ConstDecl]
        ) [GlobalDeclConst]
      ) [GlobalDeclListL]
      GlobalDeclVar(
        GlobalVarDecl(
          Type(
           int
          ) [Type]
          GlobalVarDeclItem(
            GlobalVarDeclDefOk(
              VarDeclDefineArray(
               niz
              ) [VarDeclDefineArray]
            ) [GlobalVarDeclDefOk]
          ) [GlobalVarDeclItem]
        ) [GlobalVarDecl]
      ) [GlobalDeclVar]
    ) [GlobalDeclListL]
    GlobalDeclVar(
      GlobalVarDecl(
        Type(
         char
        ) [Type]
        GlobalVarDeclItem(
          GlobalVarDeclDefOk(
            VarDeclDefineArray(
             nizch
            ) [VarDeclDefineArray]
          ) [GlobalVarDeclDefOk]
        ) [GlobalVarDeclItem]
      ) [GlobalVarDecl]
    ) [GlobalDeclVar]
  ) [GlobalDeclListL]
  MethodDecl(
    MethodSignature(
      VoidableType(
      ) [VoidableType]
     main
    ) [MethodSignature]
    VarMethodDeclList_NoEps(
      VarMethodDeclList_NoEps(
        VarMethodDeclList_Eps(
        ) [VarMethodDeclList_Eps]
        VarDecl(
          Type(
           int
          ) [Type]
          VarDeclItem(
            VarDeclDefineSingle(
             bodovi
            ) [VarDeclDefineSingle]
          ) [VarDeclItem]
        ) [VarDecl]
      ) [VarMethodDeclList_NoEps]
      VarDecl(
        Type(
         Broj
        ) [Type]
        VarDeclListL(
          VarDeclItem(
            VarDeclDefineSingle(
             nula
            ) [VarDeclDefineSingle]
          ) [VarDeclItem]
          VarDeclDefineSingle(
           jedan
          ) [VarDeclDefineSingle]
        ) [VarDeclListL]
      ) [VarDecl]
    ) [VarMethodDeclList_NoEps]
    StatementList_NoEps(
      StatementList_NoEps(
        StatementList_NoEps(
          StatementList_NoEps(
            StatementList_NoEps(
              StatementList_NoEps(
                StatementList_NoEps(
                  StatementList_NoEps(
                    StatementList_NoEps(
                      StatementList_NoEps(
                        StatementList_NoEps(
                          StatementList_NoEps(
                            StatementList_NoEps(
                              StatementList_NoEps(
                                StatementList_NoEps(
                                  StatementList_NoEps(
                                    StatementList_NoEps(
                                      StatementList_NoEps(
                                        StatementList_NoEps(
                                          StatementList_NoEps(
                                            StatementList_NoEps(
                                              StatementList_NoEps(
                                                StatementList_NoEps(
                                                  StatementList_NoEps(
                                                    StatementList_NoEps(
                                                      StatementList_NoEps(
                                                        StatementList_Eps(
                                                        ) [StatementList_Eps]
                                                        StatementDes(
                                                          DesignStatAssignment(
                                                            Designator(
                                                             nula
                                                              DesDerived1(
                                                              ) [DesDerived1]
                                                            ) [Designator]
                                                            AssignementExpr(
                                                              TermExpr(
                                                                TermFact(
                                                                  FactorDesign(
                                                                    Designator(
                                                                     Broj
                                                                      DesEnum(
                                                                       NULA
                                                                      ) [DesEnum]
                                                                    ) [Designator]
                                                                  ) [FactorDesign]
                                                                ) [TermFact]
                                                              ) [TermExpr]
                                                            ) [AssignementExpr]
                                                          ) [DesignStatAssignment]
                                                        ) [StatementDes]
                                                      ) [StatementList_NoEps]
                                                      StatementDes(
                                                        DesignStatAssignment(
                                                          Designator(
                                                           jedan
                                                            DesDerived1(
                                                            ) [DesDerived1]
                                                          ) [Designator]
                                                          AssignementExpr(
                                                            TermExpr(
                                                              TermFact(
                                                                FactorDesign(
                                                                  Designator(
                                                                   Broj
                                                                    DesEnum(
                                                                     JEDAN
                                                                    ) [DesEnum]
                                                                  ) [Designator]
                                                                ) [FactorDesign]
                                                              ) [TermFact]
                                                            ) [TermExpr]
                                                          ) [AssignementExpr]
                                                        ) [DesignStatAssignment]
                                                      ) [StatementDes]
                                                    ) [StatementList_NoEps]
                                                    StatementDes(
                                                      DesignStatAssignment(
                                                        Designator(
                                                         nula
                                                          DesDerived1(
                                                          ) [DesDerived1]
                                                        ) [Designator]
                                                        AssignementExprError(
                                                        ) [AssignementExprError]
                                                      ) [DesignStatAssignment]
                                                    ) [StatementDes]
                                                  ) [StatementList_NoEps]
                                                  StatementDes(
                                                    DesignStatAssignment(
                                                      Designator(
                                                       bodovi
                                                        DesDerived1(
                                                        ) [DesDerived1]
                                                      ) [Designator]
                                                      AssignementExpr(
                                                        TermExpr(
                                                          TermFact(
                                                            FactorConst(
                                                              ConstNum(
                                                               0
                                                              ) [ConstNum]
                                                            ) [FactorConst]
                                                          ) [TermFact]
                                                        ) [TermExpr]
                                                      ) [AssignementExpr]
                                                    ) [DesignStatAssignment]
                                                  ) [StatementDes]
                                                ) [StatementList_NoEps]
                                                StatementDes(
                                                  DesignStatInc(
                                                    Designator(
                                                     bodovi
                                                      DesDerived1(
                                                      ) [DesDerived1]
                                                    ) [Designator]
                                                  ) [DesignStatInc]
                                                ) [StatementDes]
                                              ) [StatementList_NoEps]
                                              StatementDes(
                                                DesignStatAssignment(
                                                  Designator(
                                                   bodovi
                                                    DesDerived1(
                                                    ) [DesDerived1]
                                                  ) [Designator]
                                                  AssignementExpr(
                                                    AddopExp(
                                                      TermExpr(
                                                        TermFact(
                                                          FactorDesign(
                                                            Designator(
                                                             bodovi
                                                              DesDerived1(
                                                              ) [DesDerived1]
                                                            ) [Designator]
                                                          ) [FactorDesign]
                                                        ) [TermFact]
                                                      ) [TermExpr]
                                                      Addop(
                                                      ) [Addop]
                                                      TermFact(
                                                        FactorDesign(
                                                          Designator(
                                                           jedan
                                                            DesDerived1(
                                                            ) [DesDerived1]
                                                          ) [Designator]
                                                        ) [FactorDesign]
                                                      ) [TermFact]
                                                    ) [AddopExp]
                                                  ) [AssignementExpr]
                                                ) [DesignStatAssignment]
                                              ) [StatementDes]
                                            ) [StatementList_NoEps]
                                            StatementDes(
                                              DesignStatAssignment(
                                                Designator(
                                                 bodovi
                                                  DesDerived1(
                                                  ) [DesDerived1]
                                                ) [Designator]
                                                AssignementExpr(
                                                  TermExpr(
                                                    TermMulop(
                                                      TermFact(
                                                        FactorDesign(
                                                          Designator(
                                                           bodovi
                                                            DesDerived1(
                                                            ) [DesDerived1]
                                                          ) [Designator]
                                                        ) [FactorDesign]
                                                      ) [TermFact]
                                                      Mulop(
                                                      ) [Mulop]
                                                      FactorDesign(
                                                        Designator(
                                                         pet
                                                          DesDerived1(
                                                          ) [DesDerived1]
                                                        ) [Designator]
                                                      ) [FactorDesign]
                                                    ) [TermMulop]
                                                  ) [TermExpr]
                                                ) [AssignementExpr]
                                              ) [DesignStatAssignment]
                                            ) [StatementDes]
                                          ) [StatementList_NoEps]
                                          StatementDes(
                                            DesignStatDec(
                                              Designator(
                                               bodovi
                                                DesDerived1(
                                                ) [DesDerived1]
                                              ) [Designator]
                                            ) [DesignStatDec]
                                          ) [StatementDes]
                                        ) [StatementList_NoEps]
                                        StatPrint(
                                          TermExpr(
                                            TermFact(
                                              FactorDesign(
                                                Designator(
                                                 bodovi
                                                  DesDerived1(
                                                  ) [DesDerived1]
                                                ) [Designator]
                                              ) [FactorDesign]
                                            ) [TermFact]
                                          ) [TermExpr]
                                        ) [StatPrint]
                                      ) [StatementList_NoEps]
                                      StatementDes(
                                        DesignStatAssignment(
                                          Designator(
                                           niz
                                            DesDerived1(
                                            ) [DesDerived1]
                                          ) [Designator]
                                          AssignementExpr(
                                            TermExpr(
                                              TermFact(
                                                FactorNewConst(
                                                  Type(
                                                   int
                                                  ) [Type]
                                                  TermExpr(
                                                    TermFact(
                                                      FactorConst(
                                                        ConstNum(
                                                         2
                                                        ) [ConstNum]
                                                      ) [FactorConst]
                                                    ) [TermFact]
                                                  ) [TermExpr]
                                                ) [FactorNewConst]
                                              ) [TermFact]
                                            ) [TermExpr]
                                          ) [AssignementExpr]
                                        ) [DesignStatAssignment]
                                      ) [StatementDes]
                                    ) [StatementList_NoEps]
                                    StatementDes(
                                      DesignStatAssignment(
                                        Designator(
                                         niz
                                          DesExpr(
                                            TermExpr(
                                              TermFact(
                                                FactorDesign(
                                                  Designator(
                                                   nula
                                                    DesDerived1(
                                                    ) [DesDerived1]
                                                  ) [Designator]
                                                ) [FactorDesign]
                                              ) [TermFact]
                                            ) [TermExpr]
                                          ) [DesExpr]
                                        ) [Designator]
                                        AssignementExpr(
                                          TermExpr(
                                            TermFact(
                                              FactorDesign(
                                                Designator(
                                                 pet
                                                  DesDerived1(
                                                  ) [DesDerived1]
                                                ) [Designator]
                                              ) [FactorDesign]
                                            ) [TermFact]
                                          ) [TermExpr]
                                        ) [AssignementExpr]
                                      ) [DesignStatAssignment]
                                    ) [StatementDes]
                                  ) [StatementList_NoEps]
                                  StatementDes(
                                    DesignStatAssignment(
                                      Designator(
                                       niz
                                        DesExpr(
                                          TermExpr(
                                            TermFact(
                                              FactorConst(
                                                ConstNum(
                                                 1
                                                ) [ConstNum]
                                              ) [FactorConst]
                                            ) [TermFact]
                                          ) [TermExpr]
                                        ) [DesExpr]
                                      ) [Designator]
                                      AssignementExpr(
                                        TermExpr(
                                          TermFact(
                                            FactorDesign(
                                              Designator(
                                               Broj
                                                DesEnum(
                                                 DESET
                                                ) [DesEnum]
                                              ) [Designator]
                                            ) [FactorDesign]
                                          ) [TermFact]
                                        ) [TermExpr]
                                      ) [AssignementExpr]
                                    ) [DesignStatAssignment]
                                  ) [StatementDes]
                                ) [StatementList_NoEps]
                                StatementDes(
                                  DesignStatAssignment(
                                    Designator(
                                     bodovi
                                      DesDerived1(
                                      ) [DesDerived1]
                                    ) [Designator]
                                    AssignementExpr(
                                      TermExpr(
                                        TermMulop(
                                          TermFact(
                                            FactorDesign(
                                              Designator(
                                               niz
                                                DesExpr(
                                                  TermExpr(
                                                    TermFact(
                                                      FactorConst(
                                                        ConstNum(
                                                         1
                                                        ) [ConstNum]
                                                      ) [FactorConst]
                                                    ) [TermFact]
                                                  ) [TermExpr]
                                                ) [DesExpr]
                                              ) [Designator]
                                            ) [FactorDesign]
                                          ) [TermFact]
                                          Divop(
                                          ) [Divop]
                                          FactorDesign(
                                            Designator(
                                             niz
                                              DesExpr(
                                                TermExpr(
                                                  TermFact(
                                                    FactorConst(
                                                      ConstNum(
                                                       0
                                                      ) [ConstNum]
                                                    ) [FactorConst]
                                                  ) [TermFact]
                                                ) [TermExpr]
                                              ) [DesExpr]
                                            ) [Designator]
                                          ) [FactorDesign]
                                        ) [TermMulop]
                                      ) [TermExpr]
                                    ) [AssignementExpr]
                                  ) [DesignStatAssignment]
                                ) [StatementDes]
                              ) [StatementList_NoEps]
                              StatPrint(
                                TermExpr(
                                  TermFact(
                                    FactorDesign(
                                      Designator(
                                       bodovi
                                        DesDerived1(
                                        ) [DesDerived1]
                                      ) [Designator]
                                    ) [FactorDesign]
                                  ) [TermFact]
                                ) [TermExpr]
                              ) [StatPrint]
                            ) [StatementList_NoEps]
                            StatPrint(
                              TermExpr(
                                TermFact(
                                  FactorDesign(
                                    Designator(
                                     niz
                                      DesExpr(
                                        TermExpr(
                                          TermFact(
                                            FactorDesign(
                                              Designator(
                                               Broj
                                                DesEnum(
                                                 JEDAN
                                                ) [DesEnum]
                                              ) [Designator]
                                            ) [FactorDesign]
                                          ) [TermFact]
                                        ) [TermExpr]
                                      ) [DesExpr]
                                    ) [Designator]
                                  ) [FactorDesign]
                                ) [TermFact]
                              ) [TermExpr]
                            ) [StatPrint]
                          ) [StatementList_NoEps]
                          StatementDes(
                            DesignStatAssignment(
                              Designator(
                               nizch
                                DesDerived1(
                                ) [DesDerived1]
                              ) [Designator]
                              AssignementExpr(
                                TermExpr(
                                  TermFact(
                                    FactorNewConst(
                                      Type(
                                       char
                                      ) [Type]
                                      TermExpr(
                                        TermFact(
                                          FactorConst(
                                            ConstNum(
                                             3
                                            ) [ConstNum]
                                          ) [FactorConst]
                                        ) [TermFact]
                                      ) [TermExpr]
                                    ) [FactorNewConst]
                                  ) [TermFact]
                                ) [TermExpr]
                              ) [AssignementExpr]
                            ) [DesignStatAssignment]
                          ) [StatementDes]
                        ) [StatementList_NoEps]
                        StatementDes(
                          DesignStatAssignment(
                            Designator(
                             nizch
                              DesExpr(
                                TermExpr(
                                  TermFact(
                                    FactorConst(
                                      ConstNum(
                                       0
                                      ) [ConstNum]
                                    ) [FactorConst]
                                  ) [TermFact]
                                ) [TermExpr]
                              ) [DesExpr]
                            ) [Designator]
                            AssignementExpr(
                              TermExpr(
                                TermFact(
                                  FactorConst(
                                    ConstChar(
                                     a
                                    ) [ConstChar]
                                  ) [FactorConst]
                                ) [TermFact]
                              ) [TermExpr]
                            ) [AssignementExpr]
                          ) [DesignStatAssignment]
                        ) [StatementDes]
                      ) [StatementList_NoEps]
                      StatementDes(
                        DesignStatAssignment(
                          Designator(
                           nizch
                            DesExpr(
                              TermExpr(
                                TermFact(
                                  FactorDesign(
                                    Designator(
                                     jedan
                                      DesDerived1(
                                      ) [DesDerived1]
                                    ) [Designator]
                                  ) [FactorDesign]
                                ) [TermFact]
                              ) [TermExpr]
                            ) [DesExpr]
                          ) [Designator]
                          AssignementExpr(
                            TermExpr(
                              TermFact(
                                FactorConst(
                                  ConstChar(
                                   b
                                  ) [ConstChar]
                                ) [FactorConst]
                              ) [TermFact]
                            ) [TermExpr]
                          ) [AssignementExpr]
                        ) [DesignStatAssignment]
                      ) [StatementDes]
                    ) [StatementList_NoEps]
                    StatementDes(
                      DesignStatAssignment(
                        Designator(
                         nizch
                          DesExpr(
                            AddopExp(
                              TermExpr(
                                TermFact(
                                  FactorDesign(
                                    Designator(
                                     pet
                                      DesDerived1(
                                      ) [DesDerived1]
                                    ) [Designator]
                                  ) [FactorDesign]
                                ) [TermFact]
                              ) [TermExpr]
                              Subop(
                              ) [Subop]
                              TermFact(
                                FactorConst(
                                  ConstNum(
                                   3
                                  ) [ConstNum]
                                ) [FactorConst]
                              ) [TermFact]
                            ) [AddopExp]
                          ) [DesExpr]
                        ) [Designator]
                        AssignementExpr(
                          TermExpr(
                            TermFact(
                              FactorConst(
                                ConstChar(
                                 c
                                ) [ConstChar]
                              ) [FactorConst]
                            ) [TermFact]
                          ) [TermExpr]
                        ) [AssignementExpr]
                      ) [DesignStatAssignment]
                    ) [StatementDes]
                  ) [StatementList_NoEps]
                  StatPrint(
                    TermExpr(
                      TermFact(
                        FactorDesign(
                          Designator(
                           nizch
                            DesExpr(
                              AddopExp(
                                TermExpr(
                                  TermFact(
                                    FactorConst(
                                      ConstNum(
                                       2
                                      ) [ConstNum]
                                    ) [FactorConst]
                                  ) [TermFact]
                                ) [TermExpr]
                                Subop(
                                ) [Subop]
                                TermFact(
                                  FactorConst(
                                    ConstNum(
                                     1
                                    ) [ConstNum]
                                  ) [FactorConst]
                                ) [TermFact]
                              ) [AddopExp]
                            ) [DesExpr]
                          ) [Designator]
                        ) [FactorDesign]
                      ) [TermFact]
                    ) [TermExpr]
                  ) [StatPrint]
                ) [StatementList_NoEps]
                StatPrint(
                  TermExpr(
                    TermFact(
                      FactorDesign(
                        Designator(
                         nizch
                          DesExpr(
                            TermExpr(
                              TermMulop(
                                TermFact(
                                  FactorDesign(
                                    Designator(
                                     jedan
                                      DesDerived1(
                                      ) [DesDerived1]
                                    ) [Designator]
                                  ) [FactorDesign]
                                ) [TermFact]
                                Mulop(
                                ) [Mulop]
                                FactorConst(
                                  ConstNum(
                                   2
                                  ) [ConstNum]
                                ) [FactorConst]
                              ) [TermMulop]
                            ) [TermExpr]
                          ) [DesExpr]
                        ) [Designator]
                      ) [FactorDesign]
                    ) [TermFact]
                  ) [TermExpr]
                ) [StatPrint]
              ) [StatementList_NoEps]
              StatementDes(
                DesignStatAssignment(
                  Designator(
                   bodovi
                    DesDerived1(
                    ) [DesDerived1]
                  ) [Designator]
                  AssignementExpr(
                    AddopExp(
                      TermExpr(
                        TermFact(
                          FactorDesign(
                            Designator(
                             bodovi
                              DesDerived1(
                              ) [DesDerived1]
                            ) [Designator]
                          ) [FactorDesign]
                        ) [TermFact]
                      ) [TermExpr]
                      Addop(
                      ) [Addop]
                      TermFact(
                        FactorExpr(
                          AddopExp(
                            AddopExp(
                              TermExpr(
                                TermMulop(
                                  TermFact(
                                    FactorExpr(
                                      AddopExp(
                                        TermExpr(
                                          TermMulop(
                                            TermFact(
                                              FactorDesign(
                                                Designator(
                                                 pet
                                                  DesDerived1(
                                                  ) [DesDerived1]
                                                ) [Designator]
                                              ) [FactorDesign]
                                            ) [TermFact]
                                            Mulop(
                                            ) [Mulop]
                                            FactorDesign(
                                              Designator(
                                               jedan
                                                DesDerived1(
                                                ) [DesDerived1]
                                              ) [Designator]
                                            ) [FactorDesign]
                                          ) [TermMulop]
                                        ) [TermExpr]
                                        Subop(
                                        ) [Subop]
                                        TermFact(
                                          FactorConst(
                                            ConstNum(
                                             1
                                            ) [ConstNum]
                                          ) [FactorConst]
                                        ) [TermFact]
                                      ) [AddopExp]
                                    ) [FactorExpr]
                                  ) [TermFact]
                                  Mulop(
                                  ) [Mulop]
                                  FactorConst(
                                    ConstNum(
                                     2
                                    ) [ConstNum]
                                  ) [FactorConst]
                                ) [TermMulop]
                              ) [TermExpr]
                              Subop(
                              ) [Subop]
                              TermFact(
                                FactorExpr(
                                  AddopExp(
                                    AddopExp(
                                      TermExpr(
                                        TermMulop(
                                          TermFact(
                                            FactorConst(
                                              ConstNum(
                                               3
                                              ) [ConstNum]
                                            ) [FactorConst]
                                          ) [TermFact]
                                          Modop(
                                          ) [Modop]
                                          FactorConst(
                                            ConstNum(
                                             2
                                            ) [ConstNum]
                                          ) [FactorConst]
                                        ) [TermMulop]
                                      ) [TermExpr]
                                      Addop(
                                      ) [Addop]
                                      TermMulop(
                                        TermFact(
                                          FactorConst(
                                            ConstNum(
                                             3
                                            ) [ConstNum]
                                          ) [FactorConst]
                                        ) [TermFact]
                                        Mulop(
                                        ) [Mulop]
                                        FactorConst(
                                          ConstNum(
                                           2
                                          ) [ConstNum]
                                        ) [FactorConst]
                                      ) [TermMulop]
                                    ) [AddopExp]
                                    Subop(
                                    ) [Subop]
                                    TermFact(
                                      FactorConst(
                                        ConstNum(
                                         3
                                        ) [ConstNum]
                                      ) [FactorConst]
                                    ) [TermFact]
                                  ) [AddopExp]
                                ) [FactorExpr]
                              ) [TermFact]
                            ) [AddopExp]
                            Subop(
                            ) [Subop]
                            TermMulop(
                              TermFact(
                                FactorDesign(
                                  Designator(
                                   Broj
                                    DesEnum(
                                     JEDAN
                                    ) [DesEnum]
                                  ) [Designator]
                                ) [FactorDesign]
                              ) [TermFact]
                              Mulop(
                              ) [Mulop]
                              FactorConst(
                                ConstNum(
                                 0
                                ) [ConstNum]
                              ) [FactorConst]
                            ) [TermMulop]
                          ) [AddopExp]
                        ) [FactorExpr]
                      ) [TermFact]
                    ) [AddopExp]
                  ) [AssignementExpr]
                ) [DesignStatAssignment]
              ) [StatementDes]
            ) [StatementList_NoEps]
            StatPrint(
              TermExpr(
                TermFact(
                  FactorDesign(
                    Designator(
                     bodovi
                      DesDerived1(
                      ) [DesDerived1]
                    ) [Designator]
                  ) [FactorDesign]
                ) [TermFact]
              ) [TermExpr]
            ) [StatPrint]
          ) [StatementList_NoEps]
          StatRead(
            Designator(
             bodovi
              DesDerived1(
              ) [DesDerived1]
            ) [Designator]
          ) [StatRead]
        ) [StatementList_NoEps]
        StatementDes(
          DesignStatAssignment(
            Designator(
             bodovi
              DesDerived1(
              ) [DesDerived1]
            ) [Designator]
            AssignementExpr(
              AddopExp(
                TermExpr(
                  TermFact(
                    FactorDesign(
                      Designator(
                       bodovi
                        DesDerived1(
                        ) [DesDerived1]
                      ) [Designator]
                    ) [FactorDesign]
                  ) [TermFact]
                ) [TermExpr]
                Addop(
                ) [Addop]
                TermFact(
                  FactorConst(
                    ConstNum(
                     1
                    ) [ConstNum]
                  ) [FactorConst]
                ) [TermFact]
              ) [AddopExp]
            ) [AssignementExpr]
          ) [DesignStatAssignment]
        ) [StatementDes]
      ) [StatementList_NoEps]
      StatPrint(
        TermExpr(
          TermFact(
            FactorDesign(
              Designator(
               bodovi
                DesDerived1(
                ) [DesDerived1]
              ) [Designator]
            ) [FactorDesign]
          ) [TermFact]
        ) [TermExpr]
      ) [StatPrint]
    ) [StatementList_NoEps]
  ) [MethodDecl]
) [Program]
INFO  10:42:31,614 - ===================================
INFO  10:42:31,617 - Deklarisan novi enum tip Broj na liniji 5
