INFO  20:00:01,641 - Compiling source file: C:\Users\ikadr\Desktop\PP\Projekat\Rad\workspace\MJCompiler\test\program.mj
INFO  20:00:01,738 - #2 program
INFO  20:00:01,739 - #28 test301
INFO  20:00:01,739 - #9 enum
