INFO  18:39:39,187 - Compiling source file: C:\Users\ikadr\Desktop\PP\Projekat\Rad\workspace\MJCompiler\test\program.mj
INFO  18:39:39,249 - #2 program
INFO  18:39:39,249 - #28 test301
INFO  18:39:39,249 - #28 int
INFO  18:39:39,251 - #28 niz
INFO  18:39:39,253 - #15 [
INFO  18:39:39,253 - #16 ]
INFO  18:39:39,253 - #10 ;
INFO  18:39:39,253 - #17 {
INFO  18:39:39,255 - #6 void
INFO  18:39:39,255 - #28 main
INFO  18:39:39,256 - #13 (
INFO  18:39:39,256 - #14 )
INFO  18:39:39,256 - #17 {
INFO  18:39:39,258 - #28 niz
INFO  18:39:39,259 - #11 =
INFO  18:39:39,259 - #5 new
INFO  18:39:39,259 - #28 int
INFO  18:39:39,259 - #15 [
INFO  18:39:39,260 - #27 2
INFO  18:39:39,260 - #16 ]
INFO  18:39:39,260 - #10 ;
INFO  18:39:39,274 - #28 niz
INFO  18:39:39,274 - #15 [
INFO  18:39:39,276 - #27 1
INFO  18:39:39,276 - #16 ]
INFO  18:39:39,276 - #11 =
INFO  18:39:39,276 - #27 5
INFO  18:39:39,276 - #10 ;
INFO  18:39:39,276 - #4 print
INFO  18:39:39,276 - #13 (
INFO  18:39:39,276 - #28 niz
INFO  18:39:39,276 - #15 [
INFO  18:39:39,276 - #27 1
INFO  18:39:39,277 - #16 ]
INFO  18:39:39,277 - #14 )
INFO  18:39:39,277 - #10 ;
INFO  18:39:39,277 - #18 }
INFO  18:39:39,277 - #18 }
INFO  18:39:39,292 - Program(
  ProgName(
   test301
  ) [ProgName]
  GlobalDeclListL(
    GlobalDeclListEps(
    ) [GlobalDeclListEps]
    GlobalDeclVar(
      GlobalVarDecl(
        Type(
         int
        ) [Type]
        GlobalVarDeclItem(
          GlobalVarDeclDefOk(
            VarDeclDefineArray(
             niz
            ) [VarDeclDefineArray]
          ) [GlobalVarDeclDefOk]
        ) [GlobalVarDeclItem]
      ) [GlobalVarDecl]
    ) [GlobalDeclVar]
  ) [GlobalDeclListL]
  MethodDecl(
    MethodSignature(
      VoidableType(
      ) [VoidableType]
     main
    ) [MethodSignature]
    VarMethodDeclList_Eps(
    ) [VarMethodDeclList_Eps]
    StatementList_NoEps(
      StatementList_NoEps(
        StatementList_NoEps(
          StatementList_Eps(
          ) [StatementList_Eps]
          StatementDes(
            DesignStatAssignment(
              DesIdent(
               niz
              ) [DesIdent]
              AssignementExpr(
                TermExpr(
                  TermFact(
                    FactorNewArr(
                      Type(
                       int
                      ) [Type]
                      TermExpr(
                        TermFact(
                          FactorConst(
                            ConstNum(
                             2
                            ) [ConstNum]
                          ) [FactorConst]
                        ) [TermFact]
                      ) [TermExpr]
                    ) [FactorNewArr]
                  ) [TermFact]
                ) [TermExpr]
              ) [AssignementExpr]
            ) [DesignStatAssignment]
          ) [StatementDes]
        ) [StatementList_NoEps]
        StatementDes(
          DesignStatAssignment(
            DesArr(
              ArrayName(
               niz
              ) [ArrayName]
              TermExpr(
                TermFact(
                  FactorConst(
                    ConstNum(
                     1
                    ) [ConstNum]
                  ) [FactorConst]
                ) [TermFact]
              ) [TermExpr]
            ) [DesArr]
            AssignementExpr(
              TermExpr(
                TermFact(
                  FactorConst(
                    ConstNum(
                     5
                    ) [ConstNum]
                  ) [FactorConst]
                ) [TermFact]
              ) [TermExpr]
            ) [AssignementExpr]
          ) [DesignStatAssignment]
        ) [StatementDes]
      ) [StatementList_NoEps]
      StatPrint(
        TermExpr(
          TermFact(
            FactorDesign(
              DesArr(
                ArrayName(
                 niz
                ) [ArrayName]
                TermExpr(
                  TermFact(
                    FactorConst(
                      ConstNum(
                       1
                      ) [ConstNum]
                    ) [FactorConst]
                  ) [TermFact]
                ) [TermExpr]
              ) [DesArr]
            ) [FactorDesign]
          ) [TermFact]
        ) [TermExpr]
      ) [StatPrint]
    ) [StatementList_NoEps]
  ) [MethodDecl]
) [Program]
INFO  18:39:39,292 - ===================================
INFO  18:39:39,296 - Deklarisana promenljiva niza niz tipa 1 na liniji 4
INFO  18:39:39,296 - Obradjuje se funkcija main na liniji 7
INFO  18:39:39,297 -  Print count calls = 1
INFO  18:39:39,297 -  Deklarisanih promenljivih ima = 0
INFO  18:39:39,311 - GENERATOR:niz
INFO  18:39:39,311 - Parsiranje uspesno zavrseno!
