INFO  23:58:25,757 - Compiling source file: C:\Users\ikadr\Desktop\PP\Projekat\Rad\workspace\MJCompiler\test\program.mj
INFO  23:58:25,819 - #2 program
INFO  23:58:25,819 - #28 test301
INFO  23:58:25,819 - #9 enum
INFO  23:58:25,819 - #28 Broj
INFO  23:58:25,819 - #17 {
INFO  23:58:25,819 - #28 NULA
INFO  23:58:25,819 - #12 ,
INFO  23:58:25,819 - #28 JEDAN
INFO  23:58:25,819 - #12 ,
INFO  23:58:25,819 - #28 PET
INFO  23:58:25,819 - #11 =
INFO  23:58:25,819 - #27 5
INFO  23:58:25,819 - #12 ,
INFO  23:58:25,819 - #28 DESET
INFO  23:58:25,819 - #11 =
INFO  23:58:25,819 - #27 10
INFO  23:58:25,819 - #18 }
INFO  23:58:25,819 - #8 const
INFO  23:58:25,819 - #28 int
INFO  23:58:25,819 - #28 jedan
INFO  23:58:25,819 - #11 =
INFO  23:58:25,819 - #27 1
INFO  23:58:25,819 - #10 ;
INFO  23:58:25,819 - #8 const
INFO  23:58:25,835 - #28 int
INFO  23:58:25,835 - #28 pet
INFO  23:58:25,835 - #11 =
INFO  23:58:25,835 - #27 5
INFO  23:58:25,835 - #10 ;
INFO  23:58:25,835 - #28 int
INFO  23:58:25,835 - #28 niz
INFO  23:58:25,835 - #15 [
INFO  23:58:25,835 - #16 ]
INFO  23:58:25,835 - #10 ;
INFO  23:58:25,835 - #28 char
INFO  23:58:25,835 - #28 nizch
INFO  23:58:25,835 - #15 [
INFO  23:58:25,835 - #16 ]
INFO  23:58:25,835 - #10 ;
INFO  23:58:25,835 - #17 {
INFO  23:58:25,835 - #6 void
INFO  23:58:25,835 - #28 main
INFO  23:58:25,835 - #13 (
INFO  23:58:25,835 - #14 )
INFO  23:58:25,835 - #28 int
INFO  23:58:25,835 - #28 bodovi
INFO  23:58:25,835 - #10 ;
INFO  23:58:25,835 - #28 Broj
INFO  23:58:25,835 - #28 nula
INFO  23:58:25,835 - #12 ,
INFO  23:58:25,835 - #28 jedan
INFO  23:58:25,835 - #10 ;
INFO  23:58:25,835 - #28 bool
INFO  23:58:25,835 - #28 proba
INFO  23:58:25,835 - #10 ;
INFO  23:58:25,835 - #17 {
INFO  23:58:25,835 - #28 bodovi
INFO  23:58:25,835 - #11 =
INFO  23:58:25,835 - #27 0
INFO  23:58:25,835 - #10 ;
INFO  23:58:25,835 - #28 bodovi
INFO  23:58:25,835 - #20 ++
INFO  23:58:25,835 - #10 ;
INFO  23:58:25,835 - #28 bodovi
INFO  23:58:25,835 - #11 =
INFO  23:58:25,835 - #28 bodovi
INFO  23:58:25,835 - #23 +
INFO  23:58:25,851 - #28 jedan
INFO  23:58:25,851 - #10 ;
INFO  23:58:25,851 - #28 bodovi
INFO  23:58:25,851 - #11 =
INFO  23:58:25,851 - #28 bodovi
INFO  23:58:25,851 - #24 *
INFO  23:58:25,851 - #28 pet
INFO  23:58:25,851 - #10 ;
INFO  23:58:25,851 - #28 bodovi
INFO  23:58:25,851 - #21 --
INFO  23:58:25,851 - #10 ;
INFO  23:58:25,851 - #4 print
INFO  23:58:25,851 - #13 (
INFO  23:58:25,851 - #28 bodovi
INFO  23:58:25,851 - #14 )
INFO  23:58:25,851 - #10 ;
INFO  23:58:25,851 - #28 niz
INFO  23:58:25,851 - #11 =
INFO  23:58:25,851 - #5 new
INFO  23:58:25,851 - #28 int
INFO  23:58:25,851 - #15 [
INFO  23:58:25,851 - #27 2
INFO  23:58:25,851 - #16 ]
INFO  23:58:25,851 - #10 ;
INFO  23:58:25,851 - #28 niz
INFO  23:58:25,851 - #15 [
INFO  23:58:25,851 - #28 nula
INFO  23:58:25,851 - #16 ]
INFO  23:58:25,851 - #11 =
INFO  23:58:25,851 - #28 pet
INFO  23:58:25,851 - #10 ;
INFO  23:58:25,851 - #28 niz
INFO  23:58:25,851 - #15 [
INFO  23:58:25,851 - #27 1
INFO  23:58:25,851 - #16 ]
INFO  23:58:25,851 - #11 =
INFO  23:58:25,851 - #28 Broj
INFO  23:58:25,851 - #19 .
INFO  23:58:25,851 - #28 DESET
INFO  23:58:25,851 - #10 ;
INFO  23:58:25,851 - #28 bodovi
INFO  23:58:25,851 - #11 =
INFO  23:58:25,851 - #28 niz
INFO  23:58:25,851 - #15 [
INFO  23:58:25,851 - #27 1
INFO  23:58:25,851 - #16 ]
INFO  23:58:25,851 - #25 /
INFO  23:58:25,851 - #28 niz
INFO  23:58:25,851 - #15 [
INFO  23:58:25,851 - #27 0
INFO  23:58:25,851 - #16 ]
INFO  23:58:25,851 - #10 ;
INFO  23:58:25,851 - #4 print
INFO  23:58:25,851 - #13 (
INFO  23:58:25,851 - #28 bodovi
INFO  23:58:25,851 - #14 )
INFO  23:58:25,851 - #10 ;
INFO  23:58:25,851 - #4 print
INFO  23:58:25,851 - #13 (
INFO  23:58:25,851 - #28 niz
INFO  23:58:25,851 - #15 [
INFO  23:58:25,866 - #28 Broj
INFO  23:58:25,866 - #19 .
INFO  23:58:25,866 - #28 JEDAN
INFO  23:58:25,866 - #16 ]
INFO  23:58:25,866 - #14 )
INFO  23:58:25,866 - #10 ;
INFO  23:58:25,866 - #28 bodovi
INFO  23:58:25,866 - #11 =
INFO  23:58:25,866 - #28 bodovi
INFO  23:58:25,866 - #23 +
INFO  23:58:25,866 - #27 1
INFO  23:58:25,866 - #10 ;
INFO  23:58:25,866 - #4 print
INFO  23:58:25,866 - #13 (
INFO  23:58:25,866 - #28 bodovi
INFO  23:58:25,866 - #14 )
INFO  23:58:25,866 - #10 ;
INFO  23:58:25,866 - #18 }
INFO  23:58:25,866 - #18 }
INFO  23:58:25,882 - Program(
  ProgName(
   test301
  ) [ProgName]
  GlobalDeclListL(
    GlobalDeclListL(
      GlobalDeclListL(
        GlobalDeclListL(
          GlobalDeclListL(
            GlobalDeclListEps(
            ) [GlobalDeclListEps]
            GlobalDeclEnum(
              EnumDecl(
               Broj
                EnumDeclListL(
                  EnumDeclListL(
                    EnumDeclListL(
                      EnumDeclItem(
                        EnumDeclDefNoVal(
                         NULA
                        ) [EnumDeclDefNoVal]
                      ) [EnumDeclItem]
                      EnumDeclDefNoVal(
                       JEDAN
                      ) [EnumDeclDefNoVal]
                    ) [EnumDeclListL]
                    EnumDeclDefVal(
                     PET
                     5
                    ) [EnumDeclDefVal]
                  ) [EnumDeclListL]
                  EnumDeclDefVal(
                   DESET
                   10
                  ) [EnumDeclDefVal]
                ) [EnumDeclListL]
              ) [EnumDecl]
            ) [GlobalDeclEnum]
          ) [GlobalDeclListL]
          GlobalDeclConst(
            ConstDecl(
              Type(
               int
              ) [Type]
              ConstDeclItem(
                ConstDef(
                 jedan
                  ConstNum(
                   1
                  ) [ConstNum]
                ) [ConstDef]
              ) [ConstDeclItem]
            ) [ConstDecl]
          ) [GlobalDeclConst]
        ) [GlobalDeclListL]
        GlobalDeclConst(
          ConstDecl(
            Type(
             int
            ) [Type]
            ConstDeclItem(
              ConstDef(
               pet
                ConstNum(
                 5
                ) [ConstNum]
              ) [ConstDef]
            ) [ConstDeclItem]
          ) [ConstDecl]
        ) [GlobalDeclConst]
      ) [GlobalDeclListL]
      GlobalDeclVar(
        GlobalVarDecl(
          Type(
           int
          ) [Type]
          GlobalVarDeclItem(
            GlobalVarDeclDefOk(
              VarDeclDefineArray(
               niz
              ) [VarDeclDefineArray]
            ) [GlobalVarDeclDefOk]
          ) [GlobalVarDeclItem]
        ) [GlobalVarDecl]
      ) [GlobalDeclVar]
    ) [GlobalDeclListL]
    GlobalDeclVar(
      GlobalVarDecl(
        Type(
         char
        ) [Type]
        GlobalVarDeclItem(
          GlobalVarDeclDefOk(
            VarDeclDefineArray(
             nizch
            ) [VarDeclDefineArray]
          ) [GlobalVarDeclDefOk]
        ) [GlobalVarDeclItem]
      ) [GlobalVarDecl]
    ) [GlobalDeclVar]
  ) [GlobalDeclListL]
  MethodDecl(
    MethodSignature(
      VoidableType(
      ) [VoidableType]
     main
    ) [MethodSignature]
    VarMethodDeclList_NoEps(
      VarMethodDeclList_NoEps(
        VarMethodDeclList_NoEps(
          VarMethodDeclList_Eps(
          ) [VarMethodDeclList_Eps]
          VarDecl(
            Type(
             int
            ) [Type]
            VarDeclItem(
              VarDeclDefineSingle(
               bodovi
              ) [VarDeclDefineSingle]
            ) [VarDeclItem]
          ) [VarDecl]
        ) [VarMethodDeclList_NoEps]
        VarDecl(
          Type(
           Broj
          ) [Type]
          VarDeclListL(
            VarDeclItem(
              VarDeclDefineSingle(
               nula
              ) [VarDeclDefineSingle]
            ) [VarDeclItem]
            VarDeclDefineSingle(
             jedan
            ) [VarDeclDefineSingle]
          ) [VarDeclListL]
        ) [VarDecl]
      ) [VarMethodDeclList_NoEps]
      VarDecl(
        Type(
         bool
        ) [Type]
        VarDeclItem(
          VarDeclDefineSingle(
           proba
          ) [VarDeclDefineSingle]
        ) [VarDeclItem]
      ) [VarDecl]
    ) [VarMethodDeclList_NoEps]
    StatementList_NoEps(
      StatementList_NoEps(
        StatementList_NoEps(
          StatementList_NoEps(
            StatementList_NoEps(
              StatementList_NoEps(
                StatementList_NoEps(
                  StatementList_NoEps(
                    StatementList_NoEps(
                      StatementList_NoEps(
                        StatementList_NoEps(
                          StatementList_NoEps(
                            StatementList_NoEps(
                              StatementList_NoEps(
                                StatementList_Eps(
                                ) [StatementList_Eps]
                                StatementDes(
                                  DesignStatAssignment(
                                    Designator(
                                     bodovi
                                      DesDerived1(
                                      ) [DesDerived1]
                                    ) [Designator]
                                    AssignementExpr(
                                      TermExpr(
                                        TermFact(
                                          FactorConst(
                                            ConstNum(
                                             0
                                            ) [ConstNum]
                                          ) [FactorConst]
                                        ) [TermFact]
                                      ) [TermExpr]
                                    ) [AssignementExpr]
                                  ) [DesignStatAssignment]
                                ) [StatementDes]
                              ) [StatementList_NoEps]
                              StatementDes(
                                DesignStatInc(
                                  Designator(
                                   bodovi
                                    DesDerived1(
                                    ) [DesDerived1]
                                  ) [Designator]
                                ) [DesignStatInc]
                              ) [StatementDes]
                            ) [StatementList_NoEps]
                            StatementDes(
                              DesignStatAssignment(
                                Designator(
                                 bodovi
                                  DesDerived1(
                                  ) [DesDerived1]
                                ) [Designator]
                                AssignementExpr(
                                  AddopExp(
                                    TermExpr(
                                      TermFact(
                                        FactorDesign(
                                          Designator(
                                           bodovi
                                            DesDerived1(
                                            ) [DesDerived1]
                                          ) [Designator]
                                        ) [FactorDesign]
                                      ) [TermFact]
                                    ) [TermExpr]
                                    Addop(
                                    ) [Addop]
                                    TermFact(
                                      FactorDesign(
                                        Designator(
                                         jedan
                                          DesDerived1(
                                          ) [DesDerived1]
                                        ) [Designator]
                                      ) [FactorDesign]
                                    ) [TermFact]
                                  ) [AddopExp]
                                ) [AssignementExpr]
                              ) [DesignStatAssignment]
                            ) [StatementDes]
                          ) [StatementList_NoEps]
                          StatementDes(
                            DesignStatAssignment(
                              Designator(
                               bodovi
                                DesDerived1(
                                ) [DesDerived1]
                              ) [Designator]
                              AssignementExpr(
                                TermExpr(
                                  TermMulop(
                                    TermFact(
                                      FactorDesign(
                                        Designator(
                                         bodovi
                                          DesDerived1(
                                          ) [DesDerived1]
                                        ) [Designator]
                                      ) [FactorDesign]
                                    ) [TermFact]
                                    Mulop(
                                    ) [Mulop]
                                    FactorDesign(
                                      Designator(
                                       pet
                                        DesDerived1(
                                        ) [DesDerived1]
                                      ) [Designator]
                                    ) [FactorDesign]
                                  ) [TermMulop]
                                ) [TermExpr]
                              ) [AssignementExpr]
                            ) [DesignStatAssignment]
                          ) [StatementDes]
                        ) [StatementList_NoEps]
                        StatementDes(
                          DesignStatDec(
                            Designator(
                             bodovi
                              DesDerived1(
                              ) [DesDerived1]
                            ) [Designator]
                          ) [DesignStatDec]
                        ) [StatementDes]
                      ) [StatementList_NoEps]
                      StatPrint(
                        TermExpr(
                          TermFact(
                            FactorDesign(
                              Designator(
                               bodovi
                                DesDerived1(
                                ) [DesDerived1]
                              ) [Designator]
                            ) [FactorDesign]
                          ) [TermFact]
                        ) [TermExpr]
                      ) [StatPrint]
                    ) [StatementList_NoEps]
                    StatementDes(
                      DesignStatAssignment(
                        Designator(
                         niz
                          DesDerived1(
                          ) [DesDerived1]
                        ) [Designator]
                        AssignementExpr(
                          TermExpr(
                            TermFact(
                              FactorNewArr(
                                Type(
                                 int
                                ) [Type]
                                TermExpr(
                                  TermFact(
                                    FactorConst(
                                      ConstNum(
                                       2
                                      ) [ConstNum]
                                    ) [FactorConst]
                                  ) [TermFact]
                                ) [TermExpr]
                              ) [FactorNewArr]
                            ) [TermFact]
                          ) [TermExpr]
                        ) [AssignementExpr]
                      ) [DesignStatAssignment]
                    ) [StatementDes]
                  ) [StatementList_NoEps]
                  StatementDes(
                    DesignStatAssignment(
                      Designator(
                       niz
                        DesArr(
                          TermExpr(
                            TermFact(
                              FactorDesign(
                                Designator(
                                 nula
                                  DesDerived1(
                                  ) [DesDerived1]
                                ) [Designator]
                              ) [FactorDesign]
                            ) [TermFact]
                          ) [TermExpr]
                        ) [DesArr]
                      ) [Designator]
                      AssignementExpr(
                        TermExpr(
                          TermFact(
                            FactorDesign(
                              Designator(
                               pet
                                DesDerived1(
                                ) [DesDerived1]
                              ) [Designator]
                            ) [FactorDesign]
                          ) [TermFact]
                        ) [TermExpr]
                      ) [AssignementExpr]
                    ) [DesignStatAssignment]
                  ) [StatementDes]
                ) [StatementList_NoEps]
                StatementDes(
                  DesignStatAssignment(
                    Designator(
                     niz
                      DesArr(
                        TermExpr(
                          TermFact(
                            FactorConst(
                              ConstNum(
                               1
                              ) [ConstNum]
                            ) [FactorConst]
                          ) [TermFact]
                        ) [TermExpr]
                      ) [DesArr]
                    ) [Designator]
                    AssignementExpr(
                      TermExpr(
                        TermFact(
                          FactorDesign(
                            Designator(
                             Broj
                              DesEnum(
                               DESET
                              ) [DesEnum]
                            ) [Designator]
                          ) [FactorDesign]
                        ) [TermFact]
                      ) [TermExpr]
                    ) [AssignementExpr]
                  ) [DesignStatAssignment]
                ) [StatementDes]
              ) [StatementList_NoEps]
              StatementDes(
                DesignStatAssignment(
                  Designator(
                   bodovi
                    DesDerived1(
                    ) [DesDerived1]
                  ) [Designator]
                  AssignementExpr(
                    TermExpr(
                      TermMulop(
                        TermFact(
                          FactorDesign(
                            Designator(
                             niz
                              DesArr(
                                TermExpr(
                                  TermFact(
                                    FactorConst(
                                      ConstNum(
                                       1
                                      ) [ConstNum]
                                    ) [FactorConst]
                                  ) [TermFact]
                                ) [TermExpr]
                              ) [DesArr]
                            ) [Designator]
                          ) [FactorDesign]
                        ) [TermFact]
                        Divop(
                        ) [Divop]
                        FactorDesign(
                          Designator(
                           niz
                            DesArr(
                              TermExpr(
                                TermFact(
                                  FactorConst(
                                    ConstNum(
                                     0
                                    ) [ConstNum]
                                  ) [FactorConst]
                                ) [TermFact]
                              ) [TermExpr]
                            ) [DesArr]
                          ) [Designator]
                        ) [FactorDesign]
                      ) [TermMulop]
                    ) [TermExpr]
                  ) [AssignementExpr]
                ) [DesignStatAssignment]
              ) [StatementDes]
            ) [StatementList_NoEps]
            StatPrint(
              TermExpr(
                TermFact(
                  FactorDesign(
                    Designator(
                     bodovi
                      DesDerived1(
                      ) [DesDerived1]
                    ) [Designator]
                  ) [FactorDesign]
                ) [TermFact]
              ) [TermExpr]
            ) [StatPrint]
          ) [StatementList_NoEps]
          StatPrint(
            TermExpr(
              TermFact(
                FactorDesign(
                  Designator(
                   niz
                    DesArr(
                      TermExpr(
                        TermFact(
                          FactorDesign(
                            Designator(
                             Broj
                              DesEnum(
                               JEDAN
                              ) [DesEnum]
                            ) [Designator]
                          ) [FactorDesign]
                        ) [TermFact]
                      ) [TermExpr]
                    ) [DesArr]
                  ) [Designator]
                ) [FactorDesign]
              ) [TermFact]
            ) [TermExpr]
          ) [StatPrint]
        ) [StatementList_NoEps]
        StatementDes(
          DesignStatAssignment(
            Designator(
             bodovi
              DesDerived1(
              ) [DesDerived1]
            ) [Designator]
            AssignementExpr(
              AddopExp(
                TermExpr(
                  TermFact(
                    FactorDesign(
                      Designator(
                       bodovi
                        DesDerived1(
                        ) [DesDerived1]
                      ) [Designator]
                    ) [FactorDesign]
                  ) [TermFact]
                ) [TermExpr]
                Addop(
                ) [Addop]
                TermFact(
                  FactorConst(
                    ConstNum(
                     1
                    ) [ConstNum]
                  ) [FactorConst]
                ) [TermFact]
              ) [AddopExp]
            ) [AssignementExpr]
          ) [DesignStatAssignment]
        ) [StatementDes]
      ) [StatementList_NoEps]
      StatPrint(
        TermExpr(
          TermFact(
            FactorDesign(
              Designator(
               bodovi
                DesDerived1(
                ) [DesDerived1]
              ) [Designator]
            ) [FactorDesign]
          ) [TermFact]
        ) [TermExpr]
      ) [StatPrint]
    ) [StatementList_NoEps]
  ) [MethodDecl]
) [Program]
INFO  23:58:25,882 - ===================================
INFO  23:58:25,898 - Deklarisan novi enum tip Broj na liniji 5
INFO  23:58:25,898 - Deklarisana konstanta 'jedan' na liniji 7
INFO  23:58:25,898 - Deklarisana konstanta 'pet' na liniji 8
INFO  23:58:25,898 - Deklarisana promenljiva niza niz tipa 1 na liniji 10
INFO  23:58:25,898 - Deklarisana promenljiva niza nizch tipa 2 na liniji 11
INFO  23:58:25,898 - Obradjuje se funkcija main na liniji 14
INFO  23:58:25,898 - Deklarisana promenljiva bodovi tipa 1 na liniji 15
INFO  23:58:25,898 - Deklarisana promenljiva nula tipa 6 na liniji 16
INFO  23:58:25,898 - Deklarisana promenljiva jedan tipa 6 na liniji 16
INFO  23:58:25,898 - Deklarisana promenljiva proba tipa 5 na liniji 17
INFO  23:58:25,898 - Dodeljenja vrednost 
INFO  23:58:25,898 - Inkrementirana vrednost
INFO  23:58:25,898 - Dodeljenja vrednost 
INFO  23:58:25,898 - Dodeljenja vrednost 
INFO  23:58:25,898 - Dekrementirana vrednost
INFO  23:58:25,898 - Dodeljenja vrednost 
INFO  23:58:25,898 - Dodeljenja vrednost 
ERROR 23:58:25,898 - Greska na 32: Broj nije promenljiva
ERROR 23:58:25,898 - Greska na 32: nekompatibilni tipovi u dodeli
ERROR 23:58:25,898 - 1 je kind designatora, 6 je kind assignmenta
ERROR 23:58:25,898 - rs.etf.pp1.symboltable.concepts.Struct@7e6cbb7a je type designatora, rs.etf.pp1.symboltable.concepts.Struct@7c3df479 je type assignmenta
INFO  23:58:25,898 - Dodeljenja vrednost 
ERROR 23:58:25,898 - Greska na 35: Broj nije promenljiva
INFO  23:58:25,898 - Dodeljenja vrednost 
INFO  23:58:25,898 -  Print count calls = 4
INFO  23:58:25,898 -  Deklarisanih promenljivih ima = 8
ERROR 23:58:25,898 - Parsiranje NIJE uspesno zavrseno!
