INFO  21:24:39,717 - Compiling source file: C:\Users\ikadr\Desktop\PP\Projekat\Rad\workspace\MJCompiler\test\program.mj
INFO  21:24:39,785 - #2 program
INFO  21:24:39,785 - #28 prvi
INFO  21:24:39,786 - #9 enum
INFO  21:24:39,788 - #28 Broj
INFO  21:24:39,788 - #17 {
INFO  21:24:39,789 - #28 NULA
INFO  21:24:39,790 - #12 ,
INFO  21:24:39,790 - #28 JEDAN
INFO  21:24:39,790 - #12 ,
INFO  21:24:39,790 - #28 PET
INFO  21:24:39,791 - #11 =
INFO  21:24:39,791 - #27 5
INFO  21:24:39,791 - #12 ,
INFO  21:24:39,791 - #28 DESET
INFO  21:24:39,791 - #11 =
INFO  21:24:39,791 - #27 10
INFO  21:24:39,792 - #18 }
INFO  21:24:39,792 - #9 enum
INFO  21:24:39,795 - #28 Oblik
INFO  21:24:39,795 - #17 {
INFO  21:24:39,795 - #28 KOCKA
INFO  21:24:39,796 - #12 ,
INFO  21:24:39,796 - #28 KVADAR
INFO  21:24:39,796 - #11 =
INFO  21:24:39,796 - #27 5
INFO  21:24:39,796 - #12 ,
INFO  21:24:39,796 - #28 KUPA
INFO  21:24:39,796 - #18 }
INFO  21:24:39,796 - #28 int
INFO  21:24:39,796 - #28 bodovi
INFO  21:24:39,798 - #10 ;
INFO  21:24:39,798 - #17 {
INFO  21:24:39,799 - #6 void
INFO  21:24:39,799 - #28 main
INFO  21:24:39,800 - #13 (
INFO  21:24:39,800 - #14 )
INFO  21:24:39,800 - #28 Broj
INFO  21:24:39,802 - #28 nula
INFO  21:24:39,802 - #12 ,
INFO  21:24:39,802 - #28 jedan
INFO  21:24:39,803 - #10 ;
INFO  21:24:39,803 - #28 Oblik
INFO  21:24:39,804 - #28 ob
INFO  21:24:39,804 - #10 ;
INFO  21:24:39,804 - #17 {
INFO  21:24:39,805 - #28 ob
INFO  21:24:39,806 - #11 =
INFO  21:24:39,806 - #28 Oblik
INFO  21:24:39,806 - #19 .
INFO  21:24:39,806 - #28 KUPA
INFO  21:24:39,806 - #10 ;
INFO  21:24:39,807 - #28 nula
INFO  21:24:39,807 - #11 =
INFO  21:24:39,807 - #28 Broj
INFO  21:24:39,807 - #19 .
INFO  21:24:39,807 - #28 NULA
INFO  21:24:39,807 - #10 ;
INFO  21:24:39,808 - #28 jedan
INFO  21:24:39,808 - #11 =
INFO  21:24:39,808 - #28 Broj
INFO  21:24:39,808 - #19 .
INFO  21:24:39,808 - #28 JEDAN
INFO  21:24:39,808 - #10 ;
INFO  21:24:39,808 - #28 bodovi
INFO  21:24:39,808 - #11 =
INFO  21:24:39,809 - #27 0
INFO  21:24:39,809 - #10 ;
INFO  21:24:39,809 - #28 bodovi
INFO  21:24:39,809 - #20 ++
INFO  21:24:39,809 - #10 ;
INFO  21:24:39,809 - #28 jedan
INFO  21:24:39,810 - #11 =
INFO  21:24:39,810 - #28 Broj
INFO  21:24:39,810 - #19 .
INFO  21:24:39,810 - #28 PET
INFO  21:24:39,810 - #10 ;
INFO  21:24:39,810 - #4 print
INFO  21:24:39,810 - #13 (
INFO  21:24:39,810 - #28 bodovi
INFO  21:24:39,811 - #14 )
INFO  21:24:39,811 - #10 ;
INFO  21:24:39,811 - #4 print
INFO  21:24:39,811 - #13 (
INFO  21:24:39,811 - #28 jedan
INFO  21:24:39,811 - #14 )
INFO  21:24:39,812 - #10 ;
INFO  21:24:39,812 - #28 bodovi
INFO  21:24:39,812 - #11 =
INFO  21:24:39,812 - #28 bodovi
INFO  21:24:39,812 - #23 +
INFO  21:24:39,812 - #28 jedan
INFO  21:24:39,815 - #10 ;
INFO  21:24:39,815 - #4 print
INFO  21:24:39,815 - #13 (
INFO  21:24:39,815 - #28 bodovi
INFO  21:24:39,816 - #14 )
INFO  21:24:39,816 - #10 ;
INFO  21:24:39,816 - #28 bodovi
INFO  21:24:39,816 - #11 =
INFO  21:24:39,816 - #28 bodovi
INFO  21:24:39,816 - #23 +
INFO  21:24:39,816 - #13 (
INFO  21:24:39,816 - #13 (
INFO  21:24:39,816 - #28 jedan
INFO  21:24:39,816 - #24 *
INFO  21:24:39,817 - #28 jedan
INFO  21:24:39,819 - #22 -
INFO  21:24:39,820 - #27 1
INFO  21:24:39,821 - #14 )
INFO  21:24:39,821 - #24 *
INFO  21:24:39,821 - #27 2
INFO  21:24:39,821 - #22 -
INFO  21:24:39,822 - #13 (
INFO  21:24:39,822 - #27 3
INFO  21:24:39,822 - #26 %
INFO  21:24:39,822 - #27 2
INFO  21:24:39,823 - #23 +
INFO  21:24:39,823 - #27 3
INFO  21:24:39,823 - #24 *
INFO  21:24:39,823 - #27 2
INFO  21:24:39,823 - #22 -
INFO  21:24:39,823 - #27 3
INFO  21:24:39,824 - #14 )
INFO  21:24:39,824 - #22 -
INFO  21:24:39,824 - #28 Broj
INFO  21:24:39,824 - #19 .
INFO  21:24:39,824 - #28 JEDAN
INFO  21:24:39,824 - #24 *
INFO  21:24:39,824 - #27 2
INFO  21:24:39,824 - #14 )
INFO  21:24:39,824 - #10 ;
INFO  21:24:39,824 - #4 print
INFO  21:24:39,829 - #13 (
INFO  21:24:39,829 - #28 bodovi
INFO  21:24:39,829 - #14 )
INFO  21:24:39,829 - #10 ;
INFO  21:24:39,829 - #18 }
INFO  21:24:39,830 - #18 }
INFO  21:24:39,848 - Program(
  ProgName(
   prvi
  ) [ProgName]
  GlobalDeclListL(
    GlobalDeclListL(
      GlobalDeclListL(
        GlobalDeclListEps(
        ) [GlobalDeclListEps]
        GlobalDeclEnum(
          EnumDecl(
            EnumName(
             Broj
            ) [EnumName]
            EnumDeclListL(
              EnumDeclListL(
                EnumDeclListL(
                  EnumDeclItem(
                    EnumDeclDefNoVal(
                     NULA
                    ) [EnumDeclDefNoVal]
                  ) [EnumDeclItem]
                  EnumDeclDefNoVal(
                   JEDAN
                  ) [EnumDeclDefNoVal]
                ) [EnumDeclListL]
                EnumDeclDefVal(
                 PET
                 5
                ) [EnumDeclDefVal]
              ) [EnumDeclListL]
              EnumDeclDefVal(
               DESET
               10
              ) [EnumDeclDefVal]
            ) [EnumDeclListL]
          ) [EnumDecl]
        ) [GlobalDeclEnum]
      ) [GlobalDeclListL]
      GlobalDeclEnum(
        EnumDecl(
          EnumName(
           Oblik
          ) [EnumName]
          EnumDeclListL(
            EnumDeclListL(
              EnumDeclItem(
                EnumDeclDefNoVal(
                 KOCKA
                ) [EnumDeclDefNoVal]
              ) [EnumDeclItem]
              EnumDeclDefVal(
               KVADAR
               5
              ) [EnumDeclDefVal]
            ) [EnumDeclListL]
            EnumDeclDefNoVal(
             KUPA
            ) [EnumDeclDefNoVal]
          ) [EnumDeclListL]
        ) [EnumDecl]
      ) [GlobalDeclEnum]
    ) [GlobalDeclListL]
    GlobalDeclVar(
      GlobalVarDecl(
        Type(
         int
        ) [Type]
        GlobalVarDeclItem(
          GlobalVarDeclDefOk(
            VarDeclDefineSingle(
             bodovi
            ) [VarDeclDefineSingle]
          ) [GlobalVarDeclDefOk]
        ) [GlobalVarDeclItem]
      ) [GlobalVarDecl]
    ) [GlobalDeclVar]
  ) [GlobalDeclListL]
  MethodDecl(
    MethodSignature(
      VoidableType(
      ) [VoidableType]
     main
    ) [MethodSignature]
    VarMethodDeclList_NoEps(
      VarMethodDeclList_NoEps(
        VarMethodDeclList_Eps(
        ) [VarMethodDeclList_Eps]
        VarDecl(
          Type(
           Broj
          ) [Type]
          VarDeclListL(
            VarDeclItem(
              VarDeclDefineSingle(
               nula
              ) [VarDeclDefineSingle]
            ) [VarDeclItem]
            VarDeclDefineSingle(
             jedan
            ) [VarDeclDefineSingle]
          ) [VarDeclListL]
        ) [VarDecl]
      ) [VarMethodDeclList_NoEps]
      VarDecl(
        Type(
         Oblik
        ) [Type]
        VarDeclItem(
          VarDeclDefineSingle(
           ob
          ) [VarDeclDefineSingle]
        ) [VarDeclItem]
      ) [VarDecl]
    ) [VarMethodDeclList_NoEps]
    StatementList_NoEps(
      StatementList_NoEps(
        StatementList_NoEps(
          StatementList_NoEps(
            StatementList_NoEps(
              StatementList_NoEps(
                StatementList_NoEps(
                  StatementList_NoEps(
                    StatementList_NoEps(
                      StatementList_NoEps(
                        StatementList_NoEps(
                          StatementList_NoEps(
                            StatementList_Eps(
                            ) [StatementList_Eps]
                            StatementDes(
                              DesignStatAssignment(
                                DesIdent(
                                 ob
                                ) [DesIdent]
                                AssignementExpr(
                                  TermExpr(
                                    TermFact(
                                      FactorDesign(
                                        DesEnum(
                                         Oblik
                                         KUPA
                                        ) [DesEnum]
                                      ) [FactorDesign]
                                    ) [TermFact]
                                  ) [TermExpr]
                                ) [AssignementExpr]
                              ) [DesignStatAssignment]
                            ) [StatementDes]
                          ) [StatementList_NoEps]
                          StatementDes(
                            DesignStatAssignment(
                              DesIdent(
                               nula
                              ) [DesIdent]
                              AssignementExpr(
                                TermExpr(
                                  TermFact(
                                    FactorDesign(
                                      DesEnum(
                                       Broj
                                       NULA
                                      ) [DesEnum]
                                    ) [FactorDesign]
                                  ) [TermFact]
                                ) [TermExpr]
                              ) [AssignementExpr]
                            ) [DesignStatAssignment]
                          ) [StatementDes]
                        ) [StatementList_NoEps]
                        StatementDes(
                          DesignStatAssignment(
                            DesIdent(
                             jedan
                            ) [DesIdent]
                            AssignementExpr(
                              TermExpr(
                                TermFact(
                                  FactorDesign(
                                    DesEnum(
                                     Broj
                                     JEDAN
                                    ) [DesEnum]
                                  ) [FactorDesign]
                                ) [TermFact]
                              ) [TermExpr]
                            ) [AssignementExpr]
                          ) [DesignStatAssignment]
                        ) [StatementDes]
                      ) [StatementList_NoEps]
                      StatementDes(
                        DesignStatAssignment(
                          DesIdent(
                           bodovi
                          ) [DesIdent]
                          AssignementExpr(
                            TermExpr(
                              TermFact(
                                FactorConst(
                                  ConstNum(
                                   0
                                  ) [ConstNum]
                                ) [FactorConst]
                              ) [TermFact]
                            ) [TermExpr]
                          ) [AssignementExpr]
                        ) [DesignStatAssignment]
                      ) [StatementDes]
                    ) [StatementList_NoEps]
                    StatementDes(
                      DesignStatInc(
                        DesIdent(
                         bodovi
                        ) [DesIdent]
                      ) [DesignStatInc]
                    ) [StatementDes]
                  ) [StatementList_NoEps]
                  StatementDes(
                    DesignStatAssignment(
                      DesIdent(
                       jedan
                      ) [DesIdent]
                      AssignementExpr(
                        TermExpr(
                          TermFact(
                            FactorDesign(
                              DesEnum(
                               Broj
                               PET
                              ) [DesEnum]
                            ) [FactorDesign]
                          ) [TermFact]
                        ) [TermExpr]
                      ) [AssignementExpr]
                    ) [DesignStatAssignment]
                  ) [StatementDes]
                ) [StatementList_NoEps]
                StatPrint(
                  TermExpr(
                    TermFact(
                      FactorDesign(
                        DesIdent(
                         bodovi
                        ) [DesIdent]
                      ) [FactorDesign]
                    ) [TermFact]
                  ) [TermExpr]
                ) [StatPrint]
              ) [StatementList_NoEps]
              StatPrint(
                TermExpr(
                  TermFact(
                    FactorDesign(
                      DesIdent(
                       jedan
                      ) [DesIdent]
                    ) [FactorDesign]
                  ) [TermFact]
                ) [TermExpr]
              ) [StatPrint]
            ) [StatementList_NoEps]
            StatementDes(
              DesignStatAssignment(
                DesIdent(
                 bodovi
                ) [DesIdent]
                AssignementExpr(
                  AddopExp(
                    TermExpr(
                      TermFact(
                        FactorDesign(
                          DesIdent(
                           bodovi
                          ) [DesIdent]
                        ) [FactorDesign]
                      ) [TermFact]
                    ) [TermExpr]
                    Addop_Plus(
                    ) [Addop_Plus]
                    TermFact(
                      FactorDesign(
                        DesIdent(
                         jedan
                        ) [DesIdent]
                      ) [FactorDesign]
                    ) [TermFact]
                  ) [AddopExp]
                ) [AssignementExpr]
              ) [DesignStatAssignment]
            ) [StatementDes]
          ) [StatementList_NoEps]
          StatPrint(
            TermExpr(
              TermFact(
                FactorDesign(
                  DesIdent(
                   bodovi
                  ) [DesIdent]
                ) [FactorDesign]
              ) [TermFact]
            ) [TermExpr]
          ) [StatPrint]
        ) [StatementList_NoEps]
        StatementDes(
          DesignStatAssignment(
            DesIdent(
             bodovi
            ) [DesIdent]
            AssignementExpr(
              AddopExp(
                TermExpr(
                  TermFact(
                    FactorDesign(
                      DesIdent(
                       bodovi
                      ) [DesIdent]
                    ) [FactorDesign]
                  ) [TermFact]
                ) [TermExpr]
                Addop_Plus(
                ) [Addop_Plus]
                TermFact(
                  FactorExpr(
                    AddopExp(
                      AddopExp(
                        TermExpr(
                          TermMulop(
                            TermFact(
                              FactorExpr(
                                AddopExp(
                                  TermExpr(
                                    TermMulop(
                                      TermFact(
                                        FactorDesign(
                                          DesIdent(
                                           jedan
                                          ) [DesIdent]
                                        ) [FactorDesign]
                                      ) [TermFact]
                                      Mulop_Mul(
                                      ) [Mulop_Mul]
                                      FactorDesign(
                                        DesIdent(
                                         jedan
                                        ) [DesIdent]
                                      ) [FactorDesign]
                                    ) [TermMulop]
                                  ) [TermExpr]
                                  Addop_Minus(
                                  ) [Addop_Minus]
                                  TermFact(
                                    FactorConst(
                                      ConstNum(
                                       1
                                      ) [ConstNum]
                                    ) [FactorConst]
                                  ) [TermFact]
                                ) [AddopExp]
                              ) [FactorExpr]
                            ) [TermFact]
                            Mulop_Mul(
                            ) [Mulop_Mul]
                            FactorConst(
                              ConstNum(
                               2
                              ) [ConstNum]
                            ) [FactorConst]
                          ) [TermMulop]
                        ) [TermExpr]
                        Addop_Minus(
                        ) [Addop_Minus]
                        TermFact(
                          FactorExpr(
                            AddopExp(
                              AddopExp(
                                TermExpr(
                                  TermMulop(
                                    TermFact(
                                      FactorConst(
                                        ConstNum(
                                         3
                                        ) [ConstNum]
                                      ) [FactorConst]
                                    ) [TermFact]
                                    Mulop_Mod(
                                    ) [Mulop_Mod]
                                    FactorConst(
                                      ConstNum(
                                       2
                                      ) [ConstNum]
                                    ) [FactorConst]
                                  ) [TermMulop]
                                ) [TermExpr]
                                Addop_Plus(
                                ) [Addop_Plus]
                                TermMulop(
                                  TermFact(
                                    FactorConst(
                                      ConstNum(
                                       3
                                      ) [ConstNum]
                                    ) [FactorConst]
                                  ) [TermFact]
                                  Mulop_Mul(
                                  ) [Mulop_Mul]
                                  FactorConst(
                                    ConstNum(
                                     2
                                    ) [ConstNum]
                                  ) [FactorConst]
                                ) [TermMulop]
                              ) [AddopExp]
                              Addop_Minus(
                              ) [Addop_Minus]
                              TermFact(
                                FactorConst(
                                  ConstNum(
                                   3
                                  ) [ConstNum]
                                ) [FactorConst]
                              ) [TermFact]
                            ) [AddopExp]
                          ) [FactorExpr]
                        ) [TermFact]
                      ) [AddopExp]
                      Addop_Minus(
                      ) [Addop_Minus]
                      TermMulop(
                        TermFact(
                          FactorDesign(
                            DesEnum(
                             Broj
                             JEDAN
                            ) [DesEnum]
                          ) [FactorDesign]
                        ) [TermFact]
                        Mulop_Mul(
                        ) [Mulop_Mul]
                        FactorConst(
                          ConstNum(
                           2
                          ) [ConstNum]
                        ) [FactorConst]
                      ) [TermMulop]
                    ) [AddopExp]
                  ) [FactorExpr]
                ) [TermFact]
              ) [AddopExp]
            ) [AssignementExpr]
          ) [DesignStatAssignment]
        ) [StatementDes]
      ) [StatementList_NoEps]
      StatPrint(
        TermExpr(
          TermFact(
            FactorDesign(
              DesIdent(
               bodovi
              ) [DesIdent]
            ) [FactorDesign]
          ) [TermFact]
        ) [TermExpr]
      ) [StatPrint]
    ) [StatementList_NoEps]
  ) [MethodDecl]
) [Program]
INFO  21:24:39,849 - ===================================
INFO  21:24:39,853 - Deklarisan novi enum tip Broj na liniji 3
INFO  21:24:39,854 - Deklarisana konstanta NULA unutar enuma Broj na liniji 3
INFO  21:24:39,854 - Deklarisana konstanta JEDAN unutar enuma Broj na liniji 3
INFO  21:24:39,854 - Deklarisana konstanta PET unutar enuma Broj na liniji 3
INFO  21:24:39,854 - Deklarisana konstanta DESET unutar enuma Broj na liniji 3
INFO  21:24:39,854 - Deklarisan novi enum tip Oblik na liniji 4
INFO  21:24:39,854 - Deklarisana konstanta KOCKA unutar enuma Oblik na liniji 4
INFO  21:24:39,854 - Deklarisana konstanta KVADAR unutar enuma Oblik na liniji 4
INFO  21:24:39,854 - Deklarisana konstanta KUPA unutar enuma Oblik na liniji 4
INFO  21:24:39,854 - Deklarisana promenljiva bodovi tipa 1 na liniji 5
INFO  21:24:39,854 - Obradjuje se funkcija main na liniji 8
INFO  21:24:39,854 - Deklarisana promenljiva nula tipa 6 na liniji 9
INFO  21:24:39,855 - Deklarisana promenljiva jedan tipa 6 na liniji 9
INFO  21:24:39,855 - Deklarisana promenljiva ob tipa 6 na liniji 10
INFO  21:24:39,855 - kind enum konst  unutra je 0
INFO  21:24:39,855 - KUPA
INFO  21:24:39,856 - Dodeljenja vrednost enuma promenljivoj enuma
INFO  21:24:39,856 - kind enum konst  unutra je 0
INFO  21:24:39,856 - NULA
INFO  21:24:39,856 - Dodeljenja vrednost enuma promenljivoj enuma
INFO  21:24:39,856 - kind enum konst  unutra je 0
INFO  21:24:39,856 - JEDAN
INFO  21:24:39,856 - Dodeljenja vrednost enuma promenljivoj enuma
INFO  21:24:39,856 - 
INFO  21:24:39,856 - Dodeljenja vrednost: 1 je design,1 je assign
INFO  21:24:39,856 - Inkrementirana vrednost
INFO  21:24:39,856 - kind enum konst  unutra je 0
INFO  21:24:39,856 - PET
INFO  21:24:39,856 - Dodeljenja vrednost enuma promenljivoj enuma
INFO  21:24:39,856 - Print funkcija na liniji 20
ERROR 21:24:39,857 - Greska: parametar print funkcije nije validan na liniji 21
INFO  21:24:39,857 - bodovi
INFO  21:24:39,857 - Dodeljenja vrednost: 1 je design,1 je assign
INFO  21:24:39,857 - Print funkcija na liniji 23
INFO  21:24:39,857 - kind enum konst  unutra je 0
INFO  21:24:39,857 - bodovi
INFO  21:24:39,857 - Dodeljenja vrednost: 1 je design,1 je assign
INFO  21:24:39,857 - Print funkcija na liniji 26
INFO  21:24:39,857 -  Print count calls = 3
INFO  21:24:39,857 -  Deklarisanih promenljivih ima = 5
ERROR 21:24:39,858 - Parsiranje NIJE uspesno zavrseno!
