INFO  00:55:14,692 - Compiling source file: C:\Users\ikadr\Desktop\PP\Projekat\Rad\workspace\MJCompiler\test\program.mj
INFO  00:55:14,770 - #2 program
INFO  00:55:14,770 - #28 test301
INFO  00:55:14,770 - #9 enum
INFO  00:55:14,770 - #28 Broj
INFO  00:55:14,770 - #17 {
INFO  00:55:14,770 - #28 NULA
INFO  00:55:14,770 - #12 ,
INFO  00:55:14,770 - #28 JEDAN
INFO  00:55:14,770 - #12 ,
INFO  00:55:14,770 - #28 PET
INFO  00:55:14,770 - #11 =
INFO  00:55:14,770 - #27 5
INFO  00:55:14,770 - #12 ,
INFO  00:55:14,770 - #28 DESET
INFO  00:55:14,770 - #11 =
INFO  00:55:14,770 - #27 10
INFO  00:55:14,770 - #18 }
INFO  00:55:14,770 - #8 const
INFO  00:55:14,770 - #28 int
INFO  00:55:14,770 - #28 jedan
INFO  00:55:14,770 - #11 =
INFO  00:55:14,817 - #27 1
INFO  00:55:14,817 - #10 ;
INFO  00:55:14,817 - #8 const
INFO  00:55:14,817 - #28 int
INFO  00:55:14,817 - #28 pet
INFO  00:55:14,817 - #11 =
INFO  00:55:14,817 - #27 5
INFO  00:55:14,817 - #10 ;
INFO  00:55:14,817 - #28 int
INFO  00:55:14,817 - #28 niz
INFO  00:55:14,817 - #15 [
INFO  00:55:14,817 - #16 ]
INFO  00:55:14,817 - #10 ;
INFO  00:55:14,832 - #28 char
INFO  00:55:14,832 - #28 nizch
INFO  00:55:14,832 - #15 [
INFO  00:55:14,832 - #16 ]
INFO  00:55:14,832 - #10 ;
INFO  00:55:14,832 - #17 {
INFO  00:55:14,832 - #6 void
INFO  00:55:14,832 - #28 main
INFO  00:55:14,832 - #13 (
INFO  00:55:14,832 - #14 )
INFO  00:55:14,832 - #28 int
INFO  00:55:14,848 - #28 bodovi
INFO  00:55:14,848 - #10 ;
INFO  00:55:14,848 - #28 Broj
INFO  00:55:14,848 - #28 nula
INFO  00:55:14,848 - #12 ,
INFO  00:55:14,848 - #28 jedan
INFO  00:55:14,848 - #10 ;
INFO  00:55:14,848 - #28 bool
INFO  00:55:14,848 - #28 proba
INFO  00:55:14,848 - #10 ;
INFO  00:55:14,848 - #17 {
INFO  00:55:14,848 - #28 bodovi
INFO  00:55:14,848 - #11 =
INFO  00:55:14,848 - #27 0
INFO  00:55:14,848 - #10 ;
INFO  00:55:14,864 - #28 bodovi
INFO  00:55:14,864 - #20 ++
INFO  00:55:14,864 - #10 ;
INFO  00:55:14,864 - #28 bodovi
INFO  00:55:14,864 - #11 =
INFO  00:55:14,864 - #28 bodovi
INFO  00:55:14,864 - #23 +
INFO  00:55:14,864 - #28 jedan
INFO  00:55:14,864 - #10 ;
INFO  00:55:14,864 - #28 bodovi
INFO  00:55:14,864 - #11 =
INFO  00:55:14,864 - #28 bodovi
INFO  00:55:14,864 - #24 *
INFO  00:55:14,864 - #28 pet
INFO  00:55:14,879 - #10 ;
INFO  00:55:14,879 - #28 bodovi
INFO  00:55:14,879 - #21 --
INFO  00:55:14,879 - #10 ;
INFO  00:55:14,879 - #4 print
INFO  00:55:14,879 - #13 (
INFO  00:55:14,879 - #28 bodovi
INFO  00:55:14,879 - #14 )
INFO  00:55:14,879 - #10 ;
INFO  00:55:14,879 - #28 niz
INFO  00:55:14,879 - #11 =
INFO  00:55:14,879 - #5 new
INFO  00:55:14,879 - #28 int
INFO  00:55:14,879 - #15 [
INFO  00:55:14,879 - #27 2
INFO  00:55:14,879 - #16 ]
INFO  00:55:14,879 - #10 ;
INFO  00:55:14,879 - #28 niz
INFO  00:55:14,879 - #15 [
INFO  00:55:14,879 - #28 nula
INFO  00:55:14,879 - #16 ]
INFO  00:55:14,879 - #11 =
INFO  00:55:14,879 - #28 pet
INFO  00:55:14,879 - #10 ;
INFO  00:55:14,879 - #28 niz
INFO  00:55:14,879 - #15 [
INFO  00:55:14,879 - #27 1
INFO  00:55:14,879 - #16 ]
INFO  00:55:14,879 - #11 =
INFO  00:55:14,879 - #28 Broj
INFO  00:55:14,879 - #19 .
INFO  00:55:14,879 - #28 DESET
INFO  00:55:14,879 - #10 ;
INFO  00:55:14,879 - #28 bodovi
INFO  00:55:14,879 - #11 =
INFO  00:55:14,879 - #28 niz
INFO  00:55:14,879 - #15 [
INFO  00:55:14,879 - #27 1
INFO  00:55:14,879 - #16 ]
INFO  00:55:14,879 - #25 /
INFO  00:55:14,879 - #28 niz
INFO  00:55:14,879 - #15 [
INFO  00:55:14,879 - #27 0
INFO  00:55:14,879 - #16 ]
INFO  00:55:14,879 - #10 ;
INFO  00:55:14,879 - #4 print
INFO  00:55:14,879 - #13 (
INFO  00:55:14,879 - #28 bodovi
INFO  00:55:14,879 - #14 )
INFO  00:55:14,879 - #10 ;
INFO  00:55:14,879 - #4 print
INFO  00:55:14,879 - #13 (
INFO  00:55:14,879 - #28 niz
INFO  00:55:14,879 - #15 [
INFO  00:55:14,879 - #28 Broj
INFO  00:55:14,879 - #19 .
INFO  00:55:14,879 - #28 JEDAN
INFO  00:55:14,879 - #16 ]
INFO  00:55:14,879 - #14 )
INFO  00:55:14,879 - #10 ;
INFO  00:55:14,879 - #28 nizch
INFO  00:55:14,879 - #11 =
INFO  00:55:14,879 - #5 new
INFO  00:55:14,879 - #28 char
INFO  00:55:14,879 - #15 [
INFO  00:55:14,879 - #27 3
INFO  00:55:14,879 - #16 ]
INFO  00:55:14,879 - #10 ;
INFO  00:55:14,879 - #28 bodovi
INFO  00:55:14,879 - #11 =
INFO  00:55:14,879 - #28 bodovi
INFO  00:55:14,879 - #23 +
INFO  00:55:14,879 - #27 1
INFO  00:55:14,879 - #10 ;
INFO  00:55:14,879 - #4 print
INFO  00:55:14,879 - #13 (
INFO  00:55:14,879 - #28 bodovi
INFO  00:55:14,879 - #14 )
INFO  00:55:14,879 - #10 ;
INFO  00:55:14,879 - #18 }
INFO  00:55:14,879 - #18 }
INFO  00:55:14,895 - Program(
  ProgName(
   test301
  ) [ProgName]
  GlobalDeclListL(
    GlobalDeclListL(
      GlobalDeclListL(
        GlobalDeclListL(
          GlobalDeclListL(
            GlobalDeclListEps(
            ) [GlobalDeclListEps]
            GlobalDeclEnum(
              EnumDecl(
               Broj
                EnumDeclListL(
                  EnumDeclListL(
                    EnumDeclListL(
                      EnumDeclItem(
                        EnumDeclDefNoVal(
                         NULA
                        ) [EnumDeclDefNoVal]
                      ) [EnumDeclItem]
                      EnumDeclDefNoVal(
                       JEDAN
                      ) [EnumDeclDefNoVal]
                    ) [EnumDeclListL]
                    EnumDeclDefVal(
                     PET
                     5
                    ) [EnumDeclDefVal]
                  ) [EnumDeclListL]
                  EnumDeclDefVal(
                   DESET
                   10
                  ) [EnumDeclDefVal]
                ) [EnumDeclListL]
              ) [EnumDecl]
            ) [GlobalDeclEnum]
          ) [GlobalDeclListL]
          GlobalDeclConst(
            ConstDecl(
              Type(
               int
              ) [Type]
              ConstDeclItem(
                ConstDef(
                 jedan
                  ConstNum(
                   1
                  ) [ConstNum]
                ) [ConstDef]
              ) [ConstDeclItem]
            ) [ConstDecl]
          ) [GlobalDeclConst]
        ) [GlobalDeclListL]
        GlobalDeclConst(
          ConstDecl(
            Type(
             int
            ) [Type]
            ConstDeclItem(
              ConstDef(
               pet
                ConstNum(
                 5
                ) [ConstNum]
              ) [ConstDef]
            ) [ConstDeclItem]
          ) [ConstDecl]
        ) [GlobalDeclConst]
      ) [GlobalDeclListL]
      GlobalDeclVar(
        GlobalVarDecl(
          Type(
           int
          ) [Type]
          GlobalVarDeclItem(
            GlobalVarDeclDefOk(
              VarDeclDefineArray(
               niz
              ) [VarDeclDefineArray]
            ) [GlobalVarDeclDefOk]
          ) [GlobalVarDeclItem]
        ) [GlobalVarDecl]
      ) [GlobalDeclVar]
    ) [GlobalDeclListL]
    GlobalDeclVar(
      GlobalVarDecl(
        Type(
         char
        ) [Type]
        GlobalVarDeclItem(
          GlobalVarDeclDefOk(
            VarDeclDefineArray(
             nizch
            ) [VarDeclDefineArray]
          ) [GlobalVarDeclDefOk]
        ) [GlobalVarDeclItem]
      ) [GlobalVarDecl]
    ) [GlobalDeclVar]
  ) [GlobalDeclListL]
  MethodDecl(
    MethodSignature(
      VoidableType(
      ) [VoidableType]
     main
    ) [MethodSignature]
    VarMethodDeclList_NoEps(
      VarMethodDeclList_NoEps(
        VarMethodDeclList_NoEps(
          VarMethodDeclList_Eps(
          ) [VarMethodDeclList_Eps]
          VarDecl(
            Type(
             int
            ) [Type]
            VarDeclItem(
              VarDeclDefineSingle(
               bodovi
              ) [VarDeclDefineSingle]
            ) [VarDeclItem]
          ) [VarDecl]
        ) [VarMethodDeclList_NoEps]
        VarDecl(
          Type(
           Broj
          ) [Type]
          VarDeclListL(
            VarDeclItem(
              VarDeclDefineSingle(
               nula
              ) [VarDeclDefineSingle]
            ) [VarDeclItem]
            VarDeclDefineSingle(
             jedan
            ) [VarDeclDefineSingle]
          ) [VarDeclListL]
        ) [VarDecl]
      ) [VarMethodDeclList_NoEps]
      VarDecl(
        Type(
         bool
        ) [Type]
        VarDeclItem(
          VarDeclDefineSingle(
           proba
          ) [VarDeclDefineSingle]
        ) [VarDeclItem]
      ) [VarDecl]
    ) [VarMethodDeclList_NoEps]
    StatementList_NoEps(
      StatementList_NoEps(
        StatementList_NoEps(
          StatementList_NoEps(
            StatementList_NoEps(
              StatementList_NoEps(
                StatementList_NoEps(
                  StatementList_NoEps(
                    StatementList_NoEps(
                      StatementList_NoEps(
                        StatementList_NoEps(
                          StatementList_NoEps(
                            StatementList_NoEps(
                              StatementList_NoEps(
                                StatementList_NoEps(
                                  StatementList_Eps(
                                  ) [StatementList_Eps]
                                  StatementDes(
                                    DesignStatAssignment(
                                      Designator(
                                       bodovi
                                        DesDerived1(
                                        ) [DesDerived1]
                                      ) [Designator]
                                      AssignementExpr(
                                        TermExpr(
                                          TermFact(
                                            FactorConst(
                                              ConstNum(
                                               0
                                              ) [ConstNum]
                                            ) [FactorConst]
                                          ) [TermFact]
                                        ) [TermExpr]
                                      ) [AssignementExpr]
                                    ) [DesignStatAssignment]
                                  ) [StatementDes]
                                ) [StatementList_NoEps]
                                StatementDes(
                                  DesignStatInc(
                                    Designator(
                                     bodovi
                                      DesDerived1(
                                      ) [DesDerived1]
                                    ) [Designator]
                                  ) [DesignStatInc]
                                ) [StatementDes]
                              ) [StatementList_NoEps]
                              StatementDes(
                                DesignStatAssignment(
                                  Designator(
                                   bodovi
                                    DesDerived1(
                                    ) [DesDerived1]
                                  ) [Designator]
                                  AssignementExpr(
                                    AddopExp(
                                      TermExpr(
                                        TermFact(
                                          FactorDesign(
                                            Designator(
                                             bodovi
                                              DesDerived1(
                                              ) [DesDerived1]
                                            ) [Designator]
                                          ) [FactorDesign]
                                        ) [TermFact]
                                      ) [TermExpr]
                                      Addop(
                                      ) [Addop]
                                      TermFact(
                                        FactorDesign(
                                          Designator(
                                           jedan
                                            DesDerived1(
                                            ) [DesDerived1]
                                          ) [Designator]
                                        ) [FactorDesign]
                                      ) [TermFact]
                                    ) [AddopExp]
                                  ) [AssignementExpr]
                                ) [DesignStatAssignment]
                              ) [StatementDes]
                            ) [StatementList_NoEps]
                            StatementDes(
                              DesignStatAssignment(
                                Designator(
                                 bodovi
                                  DesDerived1(
                                  ) [DesDerived1]
                                ) [Designator]
                                AssignementExpr(
                                  TermExpr(
                                    TermMulop(
                                      TermFact(
                                        FactorDesign(
                                          Designator(
                                           bodovi
                                            DesDerived1(
                                            ) [DesDerived1]
                                          ) [Designator]
                                        ) [FactorDesign]
                                      ) [TermFact]
                                      Mulop(
                                      ) [Mulop]
                                      FactorDesign(
                                        Designator(
                                         pet
                                          DesDerived1(
                                          ) [DesDerived1]
                                        ) [Designator]
                                      ) [FactorDesign]
                                    ) [TermMulop]
                                  ) [TermExpr]
                                ) [AssignementExpr]
                              ) [DesignStatAssignment]
                            ) [StatementDes]
                          ) [StatementList_NoEps]
                          StatementDes(
                            DesignStatDec(
                              Designator(
                               bodovi
                                DesDerived1(
                                ) [DesDerived1]
                              ) [Designator]
                            ) [DesignStatDec]
                          ) [StatementDes]
                        ) [StatementList_NoEps]
                        StatPrint(
                          TermExpr(
                            TermFact(
                              FactorDesign(
                                Designator(
                                 bodovi
                                  DesDerived1(
                                  ) [DesDerived1]
                                ) [Designator]
                              ) [FactorDesign]
                            ) [TermFact]
                          ) [TermExpr]
                        ) [StatPrint]
                      ) [StatementList_NoEps]
                      StatementDes(
                        DesignStatAssignment(
                          Designator(
                           niz
                            DesDerived1(
                            ) [DesDerived1]
                          ) [Designator]
                          AssignementExpr(
                            TermExpr(
                              TermFact(
                                FactorNewArr(
                                  Type(
                                   int
                                  ) [Type]
                                  TermExpr(
                                    TermFact(
                                      FactorConst(
                                        ConstNum(
                                         2
                                        ) [ConstNum]
                                      ) [FactorConst]
                                    ) [TermFact]
                                  ) [TermExpr]
                                ) [FactorNewArr]
                              ) [TermFact]
                            ) [TermExpr]
                          ) [AssignementExpr]
                        ) [DesignStatAssignment]
                      ) [StatementDes]
                    ) [StatementList_NoEps]
                    StatementDes(
                      DesignStatAssignment(
                        Designator(
                         niz
                          DesArr(
                            TermExpr(
                              TermFact(
                                FactorDesign(
                                  Designator(
                                   nula
                                    DesDerived1(
                                    ) [DesDerived1]
                                  ) [Designator]
                                ) [FactorDesign]
                              ) [TermFact]
                            ) [TermExpr]
                          ) [DesArr]
                        ) [Designator]
                        AssignementExpr(
                          TermExpr(
                            TermFact(
                              FactorDesign(
                                Designator(
                                 pet
                                  DesDerived1(
                                  ) [DesDerived1]
                                ) [Designator]
                              ) [FactorDesign]
                            ) [TermFact]
                          ) [TermExpr]
                        ) [AssignementExpr]
                      ) [DesignStatAssignment]
                    ) [StatementDes]
                  ) [StatementList_NoEps]
                  StatementDes(
                    DesignStatAssignment(
                      Designator(
                       niz
                        DesArr(
                          TermExpr(
                            TermFact(
                              FactorConst(
                                ConstNum(
                                 1
                                ) [ConstNum]
                              ) [FactorConst]
                            ) [TermFact]
                          ) [TermExpr]
                        ) [DesArr]
                      ) [Designator]
                      AssignementExpr(
                        TermExpr(
                          TermFact(
                            FactorDesign(
                              Designator(
                               Broj
                                DesEnum(
                                 DESET
                                ) [DesEnum]
                              ) [Designator]
                            ) [FactorDesign]
                          ) [TermFact]
                        ) [TermExpr]
                      ) [AssignementExpr]
                    ) [DesignStatAssignment]
                  ) [StatementDes]
                ) [StatementList_NoEps]
                StatementDes(
                  DesignStatAssignment(
                    Designator(
                     bodovi
                      DesDerived1(
                      ) [DesDerived1]
                    ) [Designator]
                    AssignementExpr(
                      TermExpr(
                        TermMulop(
                          TermFact(
                            FactorDesign(
                              Designator(
                               niz
                                DesArr(
                                  TermExpr(
                                    TermFact(
                                      FactorConst(
                                        ConstNum(
                                         1
                                        ) [ConstNum]
                                      ) [FactorConst]
                                    ) [TermFact]
                                  ) [TermExpr]
                                ) [DesArr]
                              ) [Designator]
                            ) [FactorDesign]
                          ) [TermFact]
                          Divop(
                          ) [Divop]
                          FactorDesign(
                            Designator(
                             niz
                              DesArr(
                                TermExpr(
                                  TermFact(
                                    FactorConst(
                                      ConstNum(
                                       0
                                      ) [ConstNum]
                                    ) [FactorConst]
                                  ) [TermFact]
                                ) [TermExpr]
                              ) [DesArr]
                            ) [Designator]
                          ) [FactorDesign]
                        ) [TermMulop]
                      ) [TermExpr]
                    ) [AssignementExpr]
                  ) [DesignStatAssignment]
                ) [StatementDes]
              ) [StatementList_NoEps]
              StatPrint(
                TermExpr(
                  TermFact(
                    FactorDesign(
                      Designator(
                       bodovi
                        DesDerived1(
                        ) [DesDerived1]
                      ) [Designator]
                    ) [FactorDesign]
                  ) [TermFact]
                ) [TermExpr]
              ) [StatPrint]
            ) [StatementList_NoEps]
            StatPrint(
              TermExpr(
                TermFact(
                  FactorDesign(
                    Designator(
                     niz
                      DesArr(
                        TermExpr(
                          TermFact(
                            FactorDesign(
                              Designator(
                               Broj
                                DesEnum(
                                 JEDAN
                                ) [DesEnum]
                              ) [Designator]
                            ) [FactorDesign]
                          ) [TermFact]
                        ) [TermExpr]
                      ) [DesArr]
                    ) [Designator]
                  ) [FactorDesign]
                ) [TermFact]
              ) [TermExpr]
            ) [StatPrint]
          ) [StatementList_NoEps]
          StatementDes(
            DesignStatAssignment(
              Designator(
               nizch
                DesDerived1(
                ) [DesDerived1]
              ) [Designator]
              AssignementExpr(
                TermExpr(
                  TermFact(
                    FactorNewArr(
                      Type(
                       char
                      ) [Type]
                      TermExpr(
                        TermFact(
                          FactorConst(
                            ConstNum(
                             3
                            ) [ConstNum]
                          ) [FactorConst]
                        ) [TermFact]
                      ) [TermExpr]
                    ) [FactorNewArr]
                  ) [TermFact]
                ) [TermExpr]
              ) [AssignementExpr]
            ) [DesignStatAssignment]
          ) [StatementDes]
        ) [StatementList_NoEps]
        StatementDes(
          DesignStatAssignment(
            Designator(
             bodovi
              DesDerived1(
              ) [DesDerived1]
            ) [Designator]
            AssignementExpr(
              AddopExp(
                TermExpr(
                  TermFact(
                    FactorDesign(
                      Designator(
                       bodovi
                        DesDerived1(
                        ) [DesDerived1]
                      ) [Designator]
                    ) [FactorDesign]
                  ) [TermFact]
                ) [TermExpr]
                Addop(
                ) [Addop]
                TermFact(
                  FactorConst(
                    ConstNum(
                     1
                    ) [ConstNum]
                  ) [FactorConst]
                ) [TermFact]
              ) [AddopExp]
            ) [AssignementExpr]
          ) [DesignStatAssignment]
        ) [StatementDes]
      ) [StatementList_NoEps]
      StatPrint(
        TermExpr(
          TermFact(
            FactorDesign(
              Designator(
               bodovi
                DesDerived1(
                ) [DesDerived1]
              ) [Designator]
            ) [FactorDesign]
          ) [TermFact]
        ) [TermExpr]
      ) [StatPrint]
    ) [StatementList_NoEps]
  ) [MethodDecl]
) [Program]
INFO  00:55:14,910 - ===================================
INFO  00:55:14,910 - Deklarisan novi enum tip Broj na liniji 5
INFO  00:55:14,910 - Deklarisana konstanta 'jedan' na liniji 7
INFO  00:55:14,910 - Deklarisana konstanta 'pet' na liniji 8
INFO  00:55:14,910 - Deklarisana promenljiva niza niz tipa 1 na liniji 10
INFO  00:55:14,910 - Deklarisana promenljiva niza nizch tipa 2 na liniji 11
INFO  00:55:14,910 - Obradjuje se funkcija main na liniji 14
INFO  00:55:14,910 - Deklarisana promenljiva bodovi tipa 1 na liniji 15
INFO  00:55:14,910 - Deklarisana promenljiva nula tipa 6 na liniji 16
INFO  00:55:14,910 - Deklarisana promenljiva jedan tipa 6 na liniji 16
INFO  00:55:14,910 - Deklarisana promenljiva proba tipa 5 na liniji 17
INFO  00:55:14,910 - Dodeljenja vrednost 1 je design,1 je assign
INFO  00:55:14,910 - Inkrementirana vrednost
INFO  00:55:14,910 - Dodeljenja vrednost 1 je design,1 je assign
INFO  00:55:14,910 - Dodeljenja vrednost 1 je design,1 je assign
INFO  00:55:14,910 - Dekrementirana vrednost
INFO  00:55:14,910 - Dodeljenja vrednost 1 je design,1 je assign
INFO  00:55:14,910 - Dodeljenja vrednost 1 je design,1 je assign
INFO  00:55:14,910 - Dodeljenja vrednost enum i int
INFO  00:55:14,910 - Dodeljenja vrednost 1 je design,1 je assign
INFO  00:55:14,910 - Dodeljenja vrednost 1 je design,2 je assign
INFO  00:55:14,910 - Dodeljenja vrednost 1 je design,1 je assign
INFO  00:55:14,910 -  Print count calls = 4
INFO  00:55:14,910 -  Deklarisanih promenljivih ima = 8
INFO  00:55:14,910 - Parsiranje uspesno zavrseno!
