INFO  17:19:09,681 - Compiling source file: C:\Users\ikadr\Desktop\PP\Projekat\Rad\workspace\MJCompiler\test\program.mj
INFO  17:19:09,682 - ===============SINTAKSNA OBRADA====================
INFO  17:19:09,761 - #2 program
INFO  17:19:09,762 - #29 test301
INFO  17:19:09,762 - #17 {
INFO  17:19:09,765 - #6 void
INFO  17:19:09,765 - #29 main
INFO  17:19:09,766 - #13 (
INFO  17:19:09,766 - #14 )
INFO  17:19:09,766 - #29 int
INFO  17:19:09,768 - #29 bodovi
INFO  17:19:09,769 - #12 ,
INFO  17:19:09,770 - #29 x
INFO  17:19:09,770 - #12 ,
INFO  17:19:09,770 - #29 y
INFO  17:19:09,770 - #12 ,
INFO  17:19:09,770 - #29 z
INFO  17:19:09,770 - #10 ;
INFO  17:19:09,770 - #17 {
INFO  17:19:09,772 - #29 bodovi
INFO  17:19:09,773 - #11 =
INFO  17:19:09,773 - #28 0
INFO  17:19:09,773 - #10 ;
INFO  17:19:09,774 - #29 bodovi
INFO  17:19:09,774 - #20 ++
INFO  17:19:09,774 - #10 ;
INFO  17:19:09,775 - #29 y
INFO  17:19:09,775 - #11 =
INFO  17:19:09,775 - #28 2
INFO  17:19:09,775 - #10 ;
INFO  17:19:09,775 - #29 z
INFO  17:19:09,775 - #11 =
INFO  17:19:09,775 - #28 3
INFO  17:19:09,775 - #10 ;
INFO  17:19:09,775 - #29 x
INFO  17:19:09,776 - #11 =
INFO  17:19:09,776 - #13 (
INFO  17:19:09,776 - #29 z
INFO  17:19:09,776 - #23 +
INFO  17:19:09,776 - #29 y
INFO  17:19:09,778 - #14 )
INFO  17:19:09,778 - #27 @
INFO  17:19:09,778 - #13 (
INFO  17:19:09,781 - #29 z
INFO  17:19:09,781 - #23 +
INFO  17:19:09,781 - #29 y
INFO  17:19:09,781 - #14 )
INFO  17:19:09,781 - #10 ;
INFO  17:19:09,781 - #4 print
INFO  17:19:09,781 - #13 (
INFO  17:19:09,781 - #29 x
INFO  17:19:09,781 - #14 )
INFO  17:19:09,782 - #10 ;
INFO  17:19:09,782 - #18 }
INFO  17:19:09,782 - #18 }
INFO  17:19:09,797 - Program(
  ProgName(
   test301
  ) [ProgName]
  GlobalDeclListEps(
  ) [GlobalDeclListEps]
  MethodDecl(
    MethodSignature(
      VoidableType(
      ) [VoidableType]
     main
    ) [MethodSignature]
    VarMethodDeclList_NoEps(
      VarMethodDeclList_Eps(
      ) [VarMethodDeclList_Eps]
      VarDecl(
        Type(
         int
        ) [Type]
        VarDeclListL(
          VarDeclListL(
            VarDeclListL(
              VarDeclItem(
                VarDeclDefineSingle(
                 bodovi
                ) [VarDeclDefineSingle]
              ) [VarDeclItem]
              VarDeclDefineSingle(
               x
              ) [VarDeclDefineSingle]
            ) [VarDeclListL]
            VarDeclDefineSingle(
             y
            ) [VarDeclDefineSingle]
          ) [VarDeclListL]
          VarDeclDefineSingle(
           z
          ) [VarDeclDefineSingle]
        ) [VarDeclListL]
      ) [VarDecl]
    ) [VarMethodDeclList_NoEps]
    StatementList_NoEps(
      StatementList_NoEps(
        StatementList_NoEps(
          StatementList_NoEps(
            StatementList_NoEps(
              StatementList_NoEps(
                StatementList_Eps(
                ) [StatementList_Eps]
                StatementDes(
                  DesignStatAssignment(
                    DesIdent(
                     bodovi
                    ) [DesIdent]
                    AssignementExpr(
                      TermExpr(
                        TermFact(
                          FactorConst(
                            ConstNum(
                             0
                            ) [ConstNum]
                          ) [FactorConst]
                        ) [TermFact]
                      ) [TermExpr]
                    ) [AssignementExpr]
                  ) [DesignStatAssignment]
                ) [StatementDes]
              ) [StatementList_NoEps]
              StatementDes(
                DesignStatInc(
                  DesIdent(
                   bodovi
                  ) [DesIdent]
                ) [DesignStatInc]
              ) [StatementDes]
            ) [StatementList_NoEps]
            StatementDes(
              DesignStatAssignment(
                DesIdent(
                 y
                ) [DesIdent]
                AssignementExpr(
                  TermExpr(
                    TermFact(
                      FactorConst(
                        ConstNum(
                         2
                        ) [ConstNum]
                      ) [FactorConst]
                    ) [TermFact]
                  ) [TermExpr]
                ) [AssignementExpr]
              ) [DesignStatAssignment]
            ) [StatementDes]
          ) [StatementList_NoEps]
          StatementDes(
            DesignStatAssignment(
              DesIdent(
               z
              ) [DesIdent]
              AssignementExpr(
                TermExpr(
                  TermFact(
                    FactorConst(
                      ConstNum(
                       3
                      ) [ConstNum]
                    ) [FactorConst]
                  ) [TermFact]
                ) [TermExpr]
              ) [AssignementExpr]
            ) [DesignStatAssignment]
          ) [StatementDes]
        ) [StatementList_NoEps]
        StatementDes(
          DesignStatAssignment(
            DesIdent(
             x
            ) [DesIdent]
            AssignementExpr(
              TermExpr(
                TermMulop(
                  TermFact(
                    FactorExpr(
                      AddopExp(
                        TermExpr(
                          TermFact(
                            FactorDesign(
                              DesIdent(
                               z
                              ) [DesIdent]
                            ) [FactorDesign]
                          ) [TermFact]
                        ) [TermExpr]
                        Addop_Plus(
                        ) [Addop_Plus]
                        TermFact(
                          FactorDesign(
                            DesIdent(
                             y
                            ) [DesIdent]
                          ) [FactorDesign]
                        ) [TermFact]
                      ) [AddopExp]
                    ) [FactorExpr]
                  ) [TermFact]
                  Mulop_Et(
                  ) [Mulop_Et]
                  FactorExpr(
                    AddopExp(
                      TermExpr(
                        TermFact(
                          FactorDesign(
                            DesIdent(
                             z
                            ) [DesIdent]
                          ) [FactorDesign]
                        ) [TermFact]
                      ) [TermExpr]
                      Addop_Plus(
                      ) [Addop_Plus]
                      TermFact(
                        FactorDesign(
                          DesIdent(
                           y
                          ) [DesIdent]
                        ) [FactorDesign]
                      ) [TermFact]
                    ) [AddopExp]
                  ) [FactorExpr]
                ) [TermMulop]
              ) [TermExpr]
            ) [AssignementExpr]
          ) [DesignStatAssignment]
        ) [StatementDes]
      ) [StatementList_NoEps]
      StatPrint(
        TermExpr(
          TermFact(
            FactorDesign(
              DesIdent(
               x
              ) [DesIdent]
            ) [FactorDesign]
          ) [TermFact]
        ) [TermExpr]
      ) [StatPrint]
    ) [StatementList_NoEps]
  ) [MethodDecl]
) [Program]
INFO  17:19:09,798 - ===============SEMANTICKA OBRADA====================
INFO  17:19:09,803 - Obradjuje se funkcija main na liniji 8
INFO  17:19:09,804 - Deklarisana promenljiva bodovi tipa 1 na liniji 9
INFO  17:19:09,804 - Deklarisana promenljiva x tipa 1 na liniji 9
INFO  17:19:09,804 - Deklarisana promenljiva y tipa 1 na liniji 9
INFO  17:19:09,804 - Deklarisana promenljiva z tipa 1 na liniji 9
INFO  17:19:09,804 - Dodeljenja vrednost: 1 je design,1 je assign
INFO  17:19:09,804 - Inkrementirana vrednost
INFO  17:19:09,805 - Dodeljenja vrednost: 1 je design,1 je assign
INFO  17:19:09,805 - Dodeljenja vrednost: 1 je design,1 je assign
INFO  17:19:09,805 - Dodeljenja vrednost: 1 je design,1 je assign
INFO  17:19:09,805 - Print funkcija na liniji 18
INFO  17:19:09,805 -  Print count calls = 1
INFO  17:19:09,810 -  Deklarisanih promenljivih ima = 4
INFO  17:19:09,820 - 
INFO  17:19:09,820 - Parsiranje uspesno zavrseno!
