INFO  19:51:59,399 - Compiling source file: C:\Users\ikadr\Desktop\PP\Projekat\Rad\workspace\MJCompiler\test\program.mj
INFO  19:51:59,460 - #2 program
INFO  19:51:59,460 - #28 test301
INFO  19:51:59,460 - #9 enum
INFO  19:51:59,476 - #28 Broj
INFO  19:51:59,476 - #17 {
INFO  19:51:59,476 - #28 NULA
INFO  19:51:59,476 - #12 ,
INFO  19:51:59,476 - #28 JEDAN
INFO  19:51:59,476 - #12 ,
INFO  19:51:59,476 - #28 PET
INFO  19:51:59,476 - #11 =
INFO  19:51:59,476 - #27 5
INFO  19:51:59,476 - #12 ,
INFO  19:51:59,476 - #28 DESET
INFO  19:51:59,476 - #11 =
INFO  19:51:59,476 - #27 10
INFO  19:51:59,476 - #18 }
INFO  19:51:59,476 - #8 const
INFO  19:51:59,476 - #28 int
INFO  19:51:59,476 - #28 jedan
INFO  19:51:59,476 - #11 =
INFO  19:51:59,492 - #27 1
INFO  19:51:59,492 - #10 ;
INFO  19:51:59,492 - #8 const
INFO  19:51:59,492 - #28 int
INFO  19:51:59,492 - #28 pet
INFO  19:51:59,492 - #11 =
INFO  19:51:59,492 - #27 5
INFO  19:51:59,492 - #10 ;
INFO  19:51:59,492 - #28 int
INFO  19:51:59,492 - #28 niz
INFO  19:51:59,492 - #15 [
INFO  19:51:59,492 - #16 ]
INFO  19:51:59,492 - #10 ;
INFO  19:51:59,492 - #28 char
INFO  19:51:59,492 - #28 nizch
INFO  19:51:59,492 - #15 [
INFO  19:51:59,492 - #16 ]
INFO  19:51:59,492 - #10 ;
INFO  19:51:59,492 - #17 {
INFO  19:51:59,492 - #6 void
INFO  19:51:59,492 - #28 main
INFO  19:51:59,492 - #13 (
INFO  19:51:59,492 - #14 )
INFO  19:51:59,492 - #28 int
INFO  19:51:59,507 - #28 bodovi
INFO  19:51:59,507 - #10 ;
INFO  19:51:59,507 - #28 Broj
INFO  19:51:59,507 - #28 nula
INFO  19:51:59,507 - #12 ,
INFO  19:51:59,507 - #28 jedan
INFO  19:51:59,507 - #10 ;
INFO  19:51:59,507 - #17 {
INFO  19:51:59,507 - #28 nula
INFO  19:51:59,507 - #11 =
INFO  19:51:59,507 - #28 Broj
INFO  19:51:59,507 - #19 .
INFO  19:51:59,507 - #28 NULA
INFO  19:51:59,507 - #10 ;
INFO  19:51:59,507 - #28 jedan
INFO  19:51:59,507 - #11 =
INFO  19:51:59,507 - #28 Broj
INFO  19:51:59,507 - #19 .
INFO  19:51:59,507 - #28 JEDAN
INFO  19:51:59,507 - #10 ;
INFO  19:51:59,507 - #28 niz
INFO  19:51:59,507 - #11 =
INFO  19:51:59,507 - #5 new
INFO  19:51:59,507 - #28 int
INFO  19:51:59,507 - #15 [
INFO  19:51:59,507 - #27 2
INFO  19:51:59,507 - #16 ]
INFO  19:51:59,507 - #10 ;
INFO  19:51:59,507 - #28 niz
INFO  19:51:59,507 - #15 [
INFO  19:51:59,507 - #27 1
INFO  19:51:59,507 - #16 ]
INFO  19:51:59,507 - #11 =
INFO  19:51:59,507 - #27 5
INFO  19:51:59,507 - #10 ;
INFO  19:51:59,507 - #18 }
INFO  19:51:59,507 - #18 }
INFO  19:51:59,538 - Program(
  ProgName(
   test301
  ) [ProgName]
  GlobalDeclListL(
    GlobalDeclListL(
      GlobalDeclListL(
        GlobalDeclListL(
          GlobalDeclListL(
            GlobalDeclListEps(
            ) [GlobalDeclListEps]
            GlobalDeclEnum(
              EnumDecl(
               Broj
                EnumDeclListL(
                  EnumDeclListL(
                    EnumDeclListL(
                      EnumDeclItem(
                        EnumDeclDefNoVal(
                         NULA
                        ) [EnumDeclDefNoVal]
                      ) [EnumDeclItem]
                      EnumDeclDefNoVal(
                       JEDAN
                      ) [EnumDeclDefNoVal]
                    ) [EnumDeclListL]
                    EnumDeclDefVal(
                     PET
                     5
                    ) [EnumDeclDefVal]
                  ) [EnumDeclListL]
                  EnumDeclDefVal(
                   DESET
                   10
                  ) [EnumDeclDefVal]
                ) [EnumDeclListL]
              ) [EnumDecl]
            ) [GlobalDeclEnum]
          ) [GlobalDeclListL]
          GlobalDeclConst(
            ConstDecl(
              Type(
               int
              ) [Type]
              ConstDeclItem(
                ConstDef(
                 jedan
                  ConstNum(
                   1
                  ) [ConstNum]
                ) [ConstDef]
              ) [ConstDeclItem]
            ) [ConstDecl]
          ) [GlobalDeclConst]
        ) [GlobalDeclListL]
        GlobalDeclConst(
          ConstDecl(
            Type(
             int
            ) [Type]
            ConstDeclItem(
              ConstDef(
               pet
                ConstNum(
                 5
                ) [ConstNum]
              ) [ConstDef]
            ) [ConstDeclItem]
          ) [ConstDecl]
        ) [GlobalDeclConst]
      ) [GlobalDeclListL]
      GlobalDeclVar(
        GlobalVarDecl(
          Type(
           int
          ) [Type]
          GlobalVarDeclItem(
            GlobalVarDeclDefOk(
              VarDeclDefineArray(
               niz
              ) [VarDeclDefineArray]
            ) [GlobalVarDeclDefOk]
          ) [GlobalVarDeclItem]
        ) [GlobalVarDecl]
      ) [GlobalDeclVar]
    ) [GlobalDeclListL]
    GlobalDeclVar(
      GlobalVarDecl(
        Type(
         char
        ) [Type]
        GlobalVarDeclItem(
          GlobalVarDeclDefOk(
            VarDeclDefineArray(
             nizch
            ) [VarDeclDefineArray]
          ) [GlobalVarDeclDefOk]
        ) [GlobalVarDeclItem]
      ) [GlobalVarDecl]
    ) [GlobalDeclVar]
  ) [GlobalDeclListL]
  MethodDecl(
    MethodSignature(
      VoidableType(
      ) [VoidableType]
     main
    ) [MethodSignature]
    VarMethodDeclList_NoEps(
      VarMethodDeclList_NoEps(
        VarMethodDeclList_Eps(
        ) [VarMethodDeclList_Eps]
        VarDecl(
          Type(
           int
          ) [Type]
          VarDeclItem(
            VarDeclDefineSingle(
             bodovi
            ) [VarDeclDefineSingle]
          ) [VarDeclItem]
        ) [VarDecl]
      ) [VarMethodDeclList_NoEps]
      VarDecl(
        Type(
         Broj
        ) [Type]
        VarDeclListL(
          VarDeclItem(
            VarDeclDefineSingle(
             nula
            ) [VarDeclDefineSingle]
          ) [VarDeclItem]
          VarDeclDefineSingle(
           jedan
          ) [VarDeclDefineSingle]
        ) [VarDeclListL]
      ) [VarDecl]
    ) [VarMethodDeclList_NoEps]
    StatementList_NoEps(
      StatementList_NoEps(
        StatementList_NoEps(
          StatementList_NoEps(
            StatementList_Eps(
            ) [StatementList_Eps]
            StatementDes(
              DesignStatAssignment(
                Designator(
                 nula
                  DesDerived1(
                  ) [DesDerived1]
                ) [Designator]
                AssignementExpr(
                  TermExpr(
                    TermFact(
                      FactorDesign(
                        Designator(
                         Broj
                          DesEnum(
                           NULA
                          ) [DesEnum]
                        ) [Designator]
                      ) [FactorDesign]
                    ) [TermFact]
                  ) [TermExpr]
                ) [AssignementExpr]
              ) [DesignStatAssignment]
            ) [StatementDes]
          ) [StatementList_NoEps]
          StatementDes(
            DesignStatAssignment(
              Designator(
               jedan
                DesDerived1(
                ) [DesDerived1]
              ) [Designator]
              AssignementExpr(
                TermExpr(
                  TermFact(
                    FactorDesign(
                      Designator(
                       Broj
                        DesEnum(
                         JEDAN
                        ) [DesEnum]
                      ) [Designator]
                    ) [FactorDesign]
                  ) [TermFact]
                ) [TermExpr]
              ) [AssignementExpr]
            ) [DesignStatAssignment]
          ) [StatementDes]
        ) [StatementList_NoEps]
        StatementDes(
          DesignStatAssignment(
            Designator(
             niz
              DesDerived1(
              ) [DesDerived1]
            ) [Designator]
            AssignementExpr(
              TermExpr(
                TermFact(
                  FactorNewArr(
                    Type(
                     int
                    ) [Type]
                    TermExpr(
                      TermFact(
                        FactorConst(
                          ConstNum(
                           2
                          ) [ConstNum]
                        ) [FactorConst]
                      ) [TermFact]
                    ) [TermExpr]
                  ) [FactorNewArr]
                ) [TermFact]
              ) [TermExpr]
            ) [AssignementExpr]
          ) [DesignStatAssignment]
        ) [StatementDes]
      ) [StatementList_NoEps]
      StatementDes(
        DesignStatAssignment(
          Designator(
           niz
            DesArr(
              TermExpr(
                TermFact(
                  FactorConst(
                    ConstNum(
                     1
                    ) [ConstNum]
                  ) [FactorConst]
                ) [TermFact]
              ) [TermExpr]
            ) [DesArr]
          ) [Designator]
          AssignementExpr(
            TermExpr(
              TermFact(
                FactorConst(
                  ConstNum(
                   5
                  ) [ConstNum]
                ) [FactorConst]
              ) [TermFact]
            ) [TermExpr]
          ) [AssignementExpr]
        ) [DesignStatAssignment]
      ) [StatementDes]
    ) [StatementList_NoEps]
  ) [MethodDecl]
) [Program]
INFO  19:51:59,538 - ===================================
INFO  19:51:59,570 - Deklarisan novi enum tip Broj na liniji 5
INFO  19:51:59,570 - Deklarisana konstanta 'jedan' na liniji 7
INFO  19:51:59,571 - Deklarisana konstanta 'pet' na liniji 8
INFO  19:51:59,571 - Deklarisana promenljiva niza niz tipa 1 na liniji 10
INFO  19:51:59,571 - Deklarisana promenljiva niza nizch tipa 2 na liniji 11
INFO  19:51:59,571 - Obradjuje se funkcija main na liniji 14
INFO  19:51:59,571 - Deklarisana promenljiva bodovi tipa 1 na liniji 15
INFO  19:52:13,489 - Deklarisana promenljiva nula tipa 6 na liniji 16
INFO  19:52:13,494 - Deklarisana promenljiva jedan tipa 6 na liniji 16
INFO  19:52:45,233 - Designator ident je: nula, 6
INFO  19:52:51,373 - Designator ident je: Broj, 6
INFO  19:52:56,739 - Design kind je 1
INFO  19:52:56,755 - Dodeljenja vrednost: 6 je design,6 je assign
INFO  19:53:37,814 - Designator ident je: jedan, 6
INFO  20:16:04,529 - Designator ident je: Broj, 6
INFO  20:16:11,405 - Design kind je 1
INFO  20:16:11,405 - Dodeljenja vrednost: 6 je design,6 je assign
INFO  20:16:27,964 - Designator ident je: niz, 3
INFO  20:16:38,350 - Design kind je 1
INFO  20:16:38,350 - Dodeljenja vrednost: 3 je design,3 je assign
