INFO  00:48:12,440 - Compiling source file: C:\Users\ikadr\Desktop\PP\Projekat\Rad\workspace\MJCompiler\test\program.mj
INFO  00:48:12,524 - #2 program
INFO  00:48:12,524 - #28 test301
INFO  00:48:12,524 - #9 enum
INFO  00:48:12,527 - #28 Broj
INFO  00:48:12,527 - #17 {
INFO  00:48:12,528 - #28 NULA
INFO  00:48:12,528 - #12 ,
INFO  00:48:12,529 - #28 JEDAN
INFO  00:48:12,529 - #12 ,
INFO  00:48:12,529 - #28 PET
INFO  00:48:12,529 - #11 =
INFO  00:48:12,529 - #27 5
INFO  00:48:12,529 - #12 ,
INFO  00:48:12,529 - #28 DESET
INFO  00:48:12,529 - #11 =
INFO  00:48:12,529 - #27 10
INFO  00:48:12,530 - #18 }
INFO  00:48:12,530 - #9 enum
INFO  00:48:12,531 - #28 Kocka
INFO  00:48:12,531 - #17 {
INFO  00:48:12,531 - #28 STRANA
INFO  00:48:12,532 - #12 ,
INFO  00:48:12,532 - #28 OBIM
INFO  00:48:12,532 - #18 }
INFO  00:48:12,532 - #8 const
INFO  00:48:12,532 - #28 int
INFO  00:48:12,532 - #28 jedan
INFO  00:48:12,534 - #11 =
INFO  00:48:12,534 - #27 1
INFO  00:48:12,534 - #10 ;
INFO  00:48:12,535 - #8 const
INFO  00:48:12,537 - #28 int
INFO  00:48:12,537 - #28 pet
INFO  00:48:12,537 - #11 =
INFO  00:48:12,537 - #27 5
INFO  00:48:12,537 - #10 ;
INFO  00:48:12,537 - #28 int
INFO  00:48:12,537 - #28 niz
INFO  00:48:12,537 - #15 [
INFO  00:48:12,537 - #16 ]
INFO  00:48:12,537 - #10 ;
INFO  00:48:12,538 - #28 char
INFO  00:48:12,539 - #28 nizch
INFO  00:48:12,539 - #15 [
INFO  00:48:12,539 - #16 ]
INFO  00:48:12,540 - #10 ;
INFO  00:48:12,540 - #17 {
INFO  00:48:12,540 - #6 void
INFO  00:48:12,540 - #28 main
INFO  00:48:12,541 - #13 (
INFO  00:48:12,541 - #14 )
INFO  00:48:12,541 - #28 int
INFO  00:48:12,543 - #28 bodovi
INFO  00:48:12,543 - #10 ;
INFO  00:48:12,544 - #28 Broj
INFO  00:48:12,545 - #28 nula
INFO  00:48:12,545 - #12 ,
INFO  00:48:12,545 - #28 jedan
INFO  00:48:12,545 - #10 ;
INFO  00:48:12,545 - #28 Kocka
INFO  00:48:12,546 - #28 povrsina
INFO  00:48:12,546 - #10 ;
INFO  00:48:12,546 - #17 {
INFO  00:48:12,546 - #28 nula
INFO  00:48:12,547 - #11 =
INFO  00:48:12,547 - #28 NULA
INFO  00:48:12,547 - #10 ;
INFO  00:48:12,548 - #28 jedan
INFO  00:48:12,554 - #11 =
INFO  00:48:12,554 - #28 Broj
INFO  00:48:12,554 - #19 .
INFO  00:48:12,554 - #28 JEDAN
INFO  00:48:12,554 - #10 ;
INFO  00:48:12,554 - #28 povrsina
INFO  00:48:12,554 - #11 =
INFO  00:48:12,554 - #28 Broj
INFO  00:48:12,554 - #19 .
INFO  00:48:12,554 - #28 STRANA
INFO  00:48:12,555 - #10 ;
INFO  00:48:12,555 - #28 bodovi
INFO  00:48:12,555 - #11 =
INFO  00:48:12,555 - #27 0
INFO  00:48:12,555 - #10 ;
INFO  00:48:12,555 - #28 bodovi
INFO  00:48:12,555 - #20 ++
INFO  00:48:12,555 - #10 ;
INFO  00:48:12,556 - #28 bodovi
INFO  00:48:12,556 - #11 =
INFO  00:48:12,556 - #28 bodovi
INFO  00:48:12,556 - #23 +
INFO  00:48:12,556 - #28 jedan
INFO  00:48:12,558 - #10 ;
INFO  00:48:12,558 - #28 bodovi
INFO  00:48:12,559 - #11 =
INFO  00:48:12,559 - #28 bodovi
INFO  00:48:12,559 - #24 *
INFO  00:48:12,559 - #28 pet
INFO  00:48:12,561 - #10 ;
INFO  00:48:12,561 - #28 bodovi
INFO  00:48:12,561 - #21 --
INFO  00:48:12,561 - #10 ;
INFO  00:48:12,562 - #4 print
INFO  00:48:12,562 - #13 (
INFO  00:48:12,562 - #28 bodovi
INFO  00:48:12,562 - #14 )
INFO  00:48:12,562 - #10 ;
INFO  00:48:12,562 - #28 niz
INFO  00:48:12,562 - #11 =
INFO  00:48:12,562 - #5 new
INFO  00:48:12,562 - #28 int
INFO  00:48:12,562 - #15 [
INFO  00:48:12,562 - #27 2
INFO  00:48:12,562 - #16 ]
INFO  00:48:12,563 - #10 ;
INFO  00:48:12,563 - #28 niz
INFO  00:48:12,563 - #15 [
INFO  00:48:12,564 - #28 nula
INFO  00:48:12,564 - #16 ]
INFO  00:48:12,564 - #11 =
INFO  00:48:12,564 - #28 pet
INFO  00:48:12,564 - #10 ;
INFO  00:48:12,564 - #28 niz
INFO  00:48:12,565 - #15 [
INFO  00:48:12,565 - #27 1
INFO  00:48:12,565 - #16 ]
INFO  00:48:12,565 - #11 =
INFO  00:48:12,565 - #28 Broj
INFO  00:48:12,565 - #19 .
INFO  00:48:12,565 - #28 DESET
INFO  00:48:12,565 - #10 ;
INFO  00:48:12,565 - #28 bodovi
INFO  00:48:12,566 - #11 =
INFO  00:48:12,566 - #28 niz
INFO  00:48:12,566 - #15 [
INFO  00:48:12,566 - #27 1
INFO  00:48:12,566 - #16 ]
INFO  00:48:12,566 - #25 /
INFO  00:48:12,566 - #28 niz
INFO  00:48:12,567 - #15 [
INFO  00:48:12,567 - #27 0
INFO  00:48:12,568 - #16 ]
INFO  00:48:12,568 - #10 ;
INFO  00:48:12,568 - #4 print
INFO  00:48:12,568 - #13 (
INFO  00:48:12,568 - #28 bodovi
INFO  00:48:12,568 - #14 )
INFO  00:48:12,568 - #10 ;
INFO  00:48:12,568 - #4 print
INFO  00:48:12,568 - #13 (
INFO  00:48:12,568 - #28 niz
INFO  00:48:12,568 - #15 [
INFO  00:48:12,568 - #28 Broj
INFO  00:48:12,569 - #19 .
INFO  00:48:12,569 - #28 JEDAN
INFO  00:48:12,569 - #16 ]
INFO  00:48:12,569 - #14 )
INFO  00:48:12,569 - #10 ;
INFO  00:48:12,569 - #28 nizch
INFO  00:48:12,569 - #11 =
INFO  00:48:12,569 - #5 new
INFO  00:48:12,569 - #28 char
INFO  00:48:12,569 - #15 [
INFO  00:48:12,569 - #27 3
INFO  00:48:12,569 - #16 ]
INFO  00:48:12,569 - #10 ;
INFO  00:48:12,570 - #28 nizch
INFO  00:48:12,570 - #15 [
INFO  00:48:12,570 - #27 0
INFO  00:48:12,570 - #16 ]
INFO  00:48:12,570 - #11 =
INFO  00:48:12,570 - #29 a
INFO  00:48:12,570 - #10 ;
INFO  00:48:12,570 - #28 nizch
INFO  00:48:12,570 - #15 [
INFO  00:48:12,570 - #28 jedan
INFO  00:48:12,570 - #16 ]
INFO  00:48:12,571 - #11 =
INFO  00:48:12,571 - #29 b
INFO  00:48:12,571 - #10 ;
INFO  00:48:12,571 - #28 nizch
INFO  00:48:12,571 - #15 [
INFO  00:48:12,571 - #28 pet
INFO  00:48:12,571 - #22 -
INFO  00:48:12,571 - #27 3
INFO  00:48:12,572 - #16 ]
INFO  00:48:12,572 - #11 =
INFO  00:48:12,572 - #29 c
INFO  00:48:12,572 - #10 ;
INFO  00:48:12,572 - #4 print
INFO  00:48:12,572 - #13 (
INFO  00:48:12,573 - #28 nizch
INFO  00:48:12,573 - #15 [
INFO  00:48:12,573 - #27 2
INFO  00:48:12,573 - #22 -
INFO  00:48:12,573 - #27 1
INFO  00:48:12,573 - #16 ]
INFO  00:48:12,573 - #14 )
INFO  00:48:12,573 - #10 ;
INFO  00:48:12,573 - #4 print
INFO  00:48:12,573 - #13 (
INFO  00:48:12,574 - #28 nizch
INFO  00:48:12,574 - #15 [
INFO  00:48:12,574 - #28 jedan
INFO  00:48:12,574 - #24 *
INFO  00:48:12,574 - #27 2
INFO  00:48:12,574 - #16 ]
INFO  00:48:12,574 - #14 )
INFO  00:48:12,574 - #10 ;
INFO  00:48:12,574 - #28 bodovi
INFO  00:48:12,574 - #11 =
INFO  00:48:12,574 - #28 bodovi
INFO  00:48:12,574 - #23 +
INFO  00:48:12,575 - #13 (
INFO  00:48:12,575 - #13 (
INFO  00:48:12,575 - #28 pet
INFO  00:48:12,575 - #24 *
INFO  00:48:12,575 - #28 jedan
INFO  00:48:12,575 - #22 -
INFO  00:48:12,575 - #27 1
INFO  00:48:12,575 - #14 )
INFO  00:48:12,575 - #24 *
INFO  00:48:12,575 - #27 2
INFO  00:48:12,575 - #22 -
INFO  00:48:12,576 - #13 (
INFO  00:48:12,576 - #27 3
INFO  00:48:12,576 - #26 %
INFO  00:48:12,576 - #27 2
INFO  00:48:12,577 - #23 +
INFO  00:48:12,577 - #27 3
INFO  00:48:12,577 - #24 *
INFO  00:48:12,577 - #27 2
INFO  00:48:12,578 - #22 -
INFO  00:48:12,578 - #27 3
INFO  00:48:12,578 - #14 )
INFO  00:48:12,578 - #22 -
INFO  00:48:12,578 - #28 Broj
INFO  00:48:12,578 - #19 .
INFO  00:48:12,578 - #28 JEDAN
INFO  00:48:12,578 - #24 *
INFO  00:48:12,578 - #27 0
INFO  00:48:12,578 - #14 )
INFO  00:48:12,578 - #10 ;
INFO  00:48:12,579 - #4 print
INFO  00:48:12,579 - #13 (
INFO  00:48:12,579 - #28 bodovi
INFO  00:48:12,579 - #14 )
INFO  00:48:12,579 - #10 ;
INFO  00:48:12,579 - #3 read
INFO  00:48:12,579 - #13 (
INFO  00:48:12,579 - #28 bodovi
INFO  00:48:12,579 - #14 )
INFO  00:48:12,579 - #10 ;
INFO  00:48:12,579 - #28 bodovi
INFO  00:48:12,579 - #11 =
INFO  00:48:12,580 - #28 bodovi
INFO  00:48:12,581 - #23 +
INFO  00:48:12,581 - #27 1
INFO  00:48:12,581 - #10 ;
INFO  00:48:12,581 - #4 print
INFO  00:48:12,581 - #13 (
INFO  00:48:12,581 - #28 bodovi
INFO  00:48:12,581 - #14 )
INFO  00:48:12,581 - #10 ;
INFO  00:48:12,581 - #18 }
INFO  00:48:12,581 - #18 }
INFO  00:48:12,607 - Program(
  ProgName(
   test301
  ) [ProgName]
  GlobalDeclListL(
    GlobalDeclListL(
      GlobalDeclListL(
        GlobalDeclListL(
          GlobalDeclListL(
            GlobalDeclListL(
              GlobalDeclListEps(
              ) [GlobalDeclListEps]
              GlobalDeclEnum(
                EnumDecl(
                  EnumName(
                   Broj
                  ) [EnumName]
                  EnumDeclListL(
                    EnumDeclListL(
                      EnumDeclListL(
                        EnumDeclItem(
                          EnumDeclDefNoVal(
                           NULA
                          ) [EnumDeclDefNoVal]
                        ) [EnumDeclItem]
                        EnumDeclDefNoVal(
                         JEDAN
                        ) [EnumDeclDefNoVal]
                      ) [EnumDeclListL]
                      EnumDeclDefVal(
                       PET
                       5
                      ) [EnumDeclDefVal]
                    ) [EnumDeclListL]
                    EnumDeclDefVal(
                     DESET
                     10
                    ) [EnumDeclDefVal]
                  ) [EnumDeclListL]
                ) [EnumDecl]
              ) [GlobalDeclEnum]
            ) [GlobalDeclListL]
            GlobalDeclEnum(
              EnumDecl(
                EnumName(
                 Kocka
                ) [EnumName]
                EnumDeclListL(
                  EnumDeclItem(
                    EnumDeclDefNoVal(
                     STRANA
                    ) [EnumDeclDefNoVal]
                  ) [EnumDeclItem]
                  EnumDeclDefNoVal(
                   OBIM
                  ) [EnumDeclDefNoVal]
                ) [EnumDeclListL]
              ) [EnumDecl]
            ) [GlobalDeclEnum]
          ) [GlobalDeclListL]
          GlobalDeclConst(
            ConstDecl(
              Type(
               int
              ) [Type]
              ConstDeclItem(
                ConstDef(
                 jedan
                  ConstNum(
                   1
                  ) [ConstNum]
                ) [ConstDef]
              ) [ConstDeclItem]
            ) [ConstDecl]
          ) [GlobalDeclConst]
        ) [GlobalDeclListL]
        GlobalDeclConst(
          ConstDecl(
            Type(
             int
            ) [Type]
            ConstDeclItem(
              ConstDef(
               pet
                ConstNum(
                 5
                ) [ConstNum]
              ) [ConstDef]
            ) [ConstDeclItem]
          ) [ConstDecl]
        ) [GlobalDeclConst]
      ) [GlobalDeclListL]
      GlobalDeclVar(
        GlobalVarDecl(
          Type(
           int
          ) [Type]
          GlobalVarDeclItem(
            GlobalVarDeclDefOk(
              VarDeclDefineArray(
               niz
              ) [VarDeclDefineArray]
            ) [GlobalVarDeclDefOk]
          ) [GlobalVarDeclItem]
        ) [GlobalVarDecl]
      ) [GlobalDeclVar]
    ) [GlobalDeclListL]
    GlobalDeclVar(
      GlobalVarDecl(
        Type(
         char
        ) [Type]
        GlobalVarDeclItem(
          GlobalVarDeclDefOk(
            VarDeclDefineArray(
             nizch
            ) [VarDeclDefineArray]
          ) [GlobalVarDeclDefOk]
        ) [GlobalVarDeclItem]
      ) [GlobalVarDecl]
    ) [GlobalDeclVar]
  ) [GlobalDeclListL]
  MethodDecl(
    MethodSignature(
      VoidableType(
      ) [VoidableType]
     main
    ) [MethodSignature]
    VarMethodDeclList_NoEps(
      VarMethodDeclList_NoEps(
        VarMethodDeclList_NoEps(
          VarMethodDeclList_Eps(
          ) [VarMethodDeclList_Eps]
          VarDecl(
            Type(
             int
            ) [Type]
            VarDeclItem(
              VarDeclDefineSingle(
               bodovi
              ) [VarDeclDefineSingle]
            ) [VarDeclItem]
          ) [VarDecl]
        ) [VarMethodDeclList_NoEps]
        VarDecl(
          Type(
           Broj
          ) [Type]
          VarDeclListL(
            VarDeclItem(
              VarDeclDefineSingle(
               nula
              ) [VarDeclDefineSingle]
            ) [VarDeclItem]
            VarDeclDefineSingle(
             jedan
            ) [VarDeclDefineSingle]
          ) [VarDeclListL]
        ) [VarDecl]
      ) [VarMethodDeclList_NoEps]
      VarDecl(
        Type(
         Kocka
        ) [Type]
        VarDeclItem(
          VarDeclDefineSingle(
           povrsina
          ) [VarDeclDefineSingle]
        ) [VarDeclItem]
      ) [VarDecl]
    ) [VarMethodDeclList_NoEps]
    StatementList_NoEps(
      StatementList_NoEps(
        StatementList_NoEps(
          StatementList_NoEps(
            StatementList_NoEps(
              StatementList_NoEps(
                StatementList_NoEps(
                  StatementList_NoEps(
                    StatementList_NoEps(
                      StatementList_NoEps(
                        StatementList_NoEps(
                          StatementList_NoEps(
                            StatementList_NoEps(
                              StatementList_NoEps(
                                StatementList_NoEps(
                                  StatementList_NoEps(
                                    StatementList_NoEps(
                                      StatementList_NoEps(
                                        StatementList_NoEps(
                                          StatementList_NoEps(
                                            StatementList_NoEps(
                                              StatementList_NoEps(
                                                StatementList_NoEps(
                                                  StatementList_NoEps(
                                                    StatementList_NoEps(
                                                      StatementList_NoEps(
                                                        StatementList_Eps(
                                                        ) [StatementList_Eps]
                                                        StatementDes(
                                                          DesignStatAssignment(
                                                            DesIdent(
                                                             nula
                                                            ) [DesIdent]
                                                            AssignementExpr(
                                                              TermExpr(
                                                                TermFact(
                                                                  FactorDesign(
                                                                    DesIdent(
                                                                     NULA
                                                                    ) [DesIdent]
                                                                  ) [FactorDesign]
                                                                ) [TermFact]
                                                              ) [TermExpr]
                                                            ) [AssignementExpr]
                                                          ) [DesignStatAssignment]
                                                        ) [StatementDes]
                                                      ) [StatementList_NoEps]
                                                      StatementDes(
                                                        DesignStatAssignment(
                                                          DesIdent(
                                                           jedan
                                                          ) [DesIdent]
                                                          AssignementExpr(
                                                            TermExpr(
                                                              TermFact(
                                                                FactorDesign(
                                                                  DesEnum(
                                                                   Broj
                                                                   JEDAN
                                                                  ) [DesEnum]
                                                                ) [FactorDesign]
                                                              ) [TermFact]
                                                            ) [TermExpr]
                                                          ) [AssignementExpr]
                                                        ) [DesignStatAssignment]
                                                      ) [StatementDes]
                                                    ) [StatementList_NoEps]
                                                    StatementDes(
                                                      DesignStatAssignment(
                                                        DesIdent(
                                                         povrsina
                                                        ) [DesIdent]
                                                        AssignementExpr(
                                                          TermExpr(
                                                            TermFact(
                                                              FactorDesign(
                                                                DesEnum(
                                                                 Broj
                                                                 STRANA
                                                                ) [DesEnum]
                                                              ) [FactorDesign]
                                                            ) [TermFact]
                                                          ) [TermExpr]
                                                        ) [AssignementExpr]
                                                      ) [DesignStatAssignment]
                                                    ) [StatementDes]
                                                  ) [StatementList_NoEps]
                                                  StatementDes(
                                                    DesignStatAssignment(
                                                      DesIdent(
                                                       bodovi
                                                      ) [DesIdent]
                                                      AssignementExpr(
                                                        TermExpr(
                                                          TermFact(
                                                            FactorConst(
                                                              ConstNum(
                                                               0
                                                              ) [ConstNum]
                                                            ) [FactorConst]
                                                          ) [TermFact]
                                                        ) [TermExpr]
                                                      ) [AssignementExpr]
                                                    ) [DesignStatAssignment]
                                                  ) [StatementDes]
                                                ) [StatementList_NoEps]
                                                StatementDes(
                                                  DesignStatInc(
                                                    DesIdent(
                                                     bodovi
                                                    ) [DesIdent]
                                                  ) [DesignStatInc]
                                                ) [StatementDes]
                                              ) [StatementList_NoEps]
                                              StatementDes(
                                                DesignStatAssignment(
                                                  DesIdent(
                                                   bodovi
                                                  ) [DesIdent]
                                                  AssignementExpr(
                                                    AddopExp(
                                                      TermExpr(
                                                        TermFact(
                                                          FactorDesign(
                                                            DesIdent(
                                                             bodovi
                                                            ) [DesIdent]
                                                          ) [FactorDesign]
                                                        ) [TermFact]
                                                      ) [TermExpr]
                                                      Addop_Plus(
                                                      ) [Addop_Plus]
                                                      TermFact(
                                                        FactorDesign(
                                                          DesIdent(
                                                           jedan
                                                          ) [DesIdent]
                                                        ) [FactorDesign]
                                                      ) [TermFact]
                                                    ) [AddopExp]
                                                  ) [AssignementExpr]
                                                ) [DesignStatAssignment]
                                              ) [StatementDes]
                                            ) [StatementList_NoEps]
                                            StatementDes(
                                              DesignStatAssignment(
                                                DesIdent(
                                                 bodovi
                                                ) [DesIdent]
                                                AssignementExpr(
                                                  TermExpr(
                                                    TermMulop(
                                                      TermFact(
                                                        FactorDesign(
                                                          DesIdent(
                                                           bodovi
                                                          ) [DesIdent]
                                                        ) [FactorDesign]
                                                      ) [TermFact]
                                                      Mulop_Mul(
                                                      ) [Mulop_Mul]
                                                      FactorDesign(
                                                        DesIdent(
                                                         pet
                                                        ) [DesIdent]
                                                      ) [FactorDesign]
                                                    ) [TermMulop]
                                                  ) [TermExpr]
                                                ) [AssignementExpr]
                                              ) [DesignStatAssignment]
                                            ) [StatementDes]
                                          ) [StatementList_NoEps]
                                          StatementDes(
                                            DesignStatDec(
                                              DesIdent(
                                               bodovi
                                              ) [DesIdent]
                                            ) [DesignStatDec]
                                          ) [StatementDes]
                                        ) [StatementList_NoEps]
                                        StatPrint(
                                          TermExpr(
                                            TermFact(
                                              FactorDesign(
                                                DesIdent(
                                                 bodovi
                                                ) [DesIdent]
                                              ) [FactorDesign]
                                            ) [TermFact]
                                          ) [TermExpr]
                                        ) [StatPrint]
                                      ) [StatementList_NoEps]
                                      StatementDes(
                                        DesignStatAssignment(
                                          DesIdent(
                                           niz
                                          ) [DesIdent]
                                          AssignementExpr(
                                            TermExpr(
                                              TermFact(
                                                FactorNewArr(
                                                  Type(
                                                   int
                                                  ) [Type]
                                                  TermExpr(
                                                    TermFact(
                                                      FactorConst(
                                                        ConstNum(
                                                         2
                                                        ) [ConstNum]
                                                      ) [FactorConst]
                                                    ) [TermFact]
                                                  ) [TermExpr]
                                                ) [FactorNewArr]
                                              ) [TermFact]
                                            ) [TermExpr]
                                          ) [AssignementExpr]
                                        ) [DesignStatAssignment]
                                      ) [StatementDes]
                                    ) [StatementList_NoEps]
                                    StatementDes(
                                      DesignStatAssignment(
                                        DesArr(
                                          ArrayName(
                                           niz
                                          ) [ArrayName]
                                          TermExpr(
                                            TermFact(
                                              FactorDesign(
                                                DesIdent(
                                                 nula
                                                ) [DesIdent]
                                              ) [FactorDesign]
                                            ) [TermFact]
                                          ) [TermExpr]
                                        ) [DesArr]
                                        AssignementExpr(
                                          TermExpr(
                                            TermFact(
                                              FactorDesign(
                                                DesIdent(
                                                 pet
                                                ) [DesIdent]
                                              ) [FactorDesign]
                                            ) [TermFact]
                                          ) [TermExpr]
                                        ) [AssignementExpr]
                                      ) [DesignStatAssignment]
                                    ) [StatementDes]
                                  ) [StatementList_NoEps]
                                  StatementDes(
                                    DesignStatAssignment(
                                      DesArr(
                                        ArrayName(
                                         niz
                                        ) [ArrayName]
                                        TermExpr(
                                          TermFact(
                                            FactorConst(
                                              ConstNum(
                                               1
                                              ) [ConstNum]
                                            ) [FactorConst]
                                          ) [TermFact]
                                        ) [TermExpr]
                                      ) [DesArr]
                                      AssignementExpr(
                                        TermExpr(
                                          TermFact(
                                            FactorDesign(
                                              DesEnum(
                                               Broj
                                               DESET
                                              ) [DesEnum]
                                            ) [FactorDesign]
                                          ) [TermFact]
                                        ) [TermExpr]
                                      ) [AssignementExpr]
                                    ) [DesignStatAssignment]
                                  ) [StatementDes]
                                ) [StatementList_NoEps]
                                StatementDes(
                                  DesignStatAssignment(
                                    DesIdent(
                                     bodovi
                                    ) [DesIdent]
                                    AssignementExpr(
                                      TermExpr(
                                        TermMulop(
                                          TermFact(
                                            FactorDesign(
                                              DesArr(
                                                ArrayName(
                                                 niz
                                                ) [ArrayName]
                                                TermExpr(
                                                  TermFact(
                                                    FactorConst(
                                                      ConstNum(
                                                       1
                                                      ) [ConstNum]
                                                    ) [FactorConst]
                                                  ) [TermFact]
                                                ) [TermExpr]
                                              ) [DesArr]
                                            ) [FactorDesign]
                                          ) [TermFact]
                                          Mulop_Div(
                                          ) [Mulop_Div]
                                          FactorDesign(
                                            DesArr(
                                              ArrayName(
                                               niz
                                              ) [ArrayName]
                                              TermExpr(
                                                TermFact(
                                                  FactorConst(
                                                    ConstNum(
                                                     0
                                                    ) [ConstNum]
                                                  ) [FactorConst]
                                                ) [TermFact]
                                              ) [TermExpr]
                                            ) [DesArr]
                                          ) [FactorDesign]
                                        ) [TermMulop]
                                      ) [TermExpr]
                                    ) [AssignementExpr]
                                  ) [DesignStatAssignment]
                                ) [StatementDes]
                              ) [StatementList_NoEps]
                              StatPrint(
                                TermExpr(
                                  TermFact(
                                    FactorDesign(
                                      DesIdent(
                                       bodovi
                                      ) [DesIdent]
                                    ) [FactorDesign]
                                  ) [TermFact]
                                ) [TermExpr]
                              ) [StatPrint]
                            ) [StatementList_NoEps]
                            StatPrint(
                              TermExpr(
                                TermFact(
                                  FactorDesign(
                                    DesArr(
                                      ArrayName(
                                       niz
                                      ) [ArrayName]
                                      TermExpr(
                                        TermFact(
                                          FactorDesign(
                                            DesEnum(
                                             Broj
                                             JEDAN
                                            ) [DesEnum]
                                          ) [FactorDesign]
                                        ) [TermFact]
                                      ) [TermExpr]
                                    ) [DesArr]
                                  ) [FactorDesign]
                                ) [TermFact]
                              ) [TermExpr]
                            ) [StatPrint]
                          ) [StatementList_NoEps]
                          StatementDes(
                            DesignStatAssignment(
                              DesIdent(
                               nizch
                              ) [DesIdent]
                              AssignementExpr(
                                TermExpr(
                                  TermFact(
                                    FactorNewArr(
                                      Type(
                                       char
                                      ) [Type]
                                      TermExpr(
                                        TermFact(
                                          FactorConst(
                                            ConstNum(
                                             3
                                            ) [ConstNum]
                                          ) [FactorConst]
                                        ) [TermFact]
                                      ) [TermExpr]
                                    ) [FactorNewArr]
                                  ) [TermFact]
                                ) [TermExpr]
                              ) [AssignementExpr]
                            ) [DesignStatAssignment]
                          ) [StatementDes]
                        ) [StatementList_NoEps]
                        StatementDes(
                          DesignStatAssignment(
                            DesArr(
                              ArrayName(
                               nizch
                              ) [ArrayName]
                              TermExpr(
                                TermFact(
                                  FactorConst(
                                    ConstNum(
                                     0
                                    ) [ConstNum]
                                  ) [FactorConst]
                                ) [TermFact]
                              ) [TermExpr]
                            ) [DesArr]
                            AssignementExpr(
                              TermExpr(
                                TermFact(
                                  FactorConst(
                                    ConstChar(
                                     a
                                    ) [ConstChar]
                                  ) [FactorConst]
                                ) [TermFact]
                              ) [TermExpr]
                            ) [AssignementExpr]
                          ) [DesignStatAssignment]
                        ) [StatementDes]
                      ) [StatementList_NoEps]
                      StatementDes(
                        DesignStatAssignment(
                          DesArr(
                            ArrayName(
                             nizch
                            ) [ArrayName]
                            TermExpr(
                              TermFact(
                                FactorDesign(
                                  DesIdent(
                                   jedan
                                  ) [DesIdent]
                                ) [FactorDesign]
                              ) [TermFact]
                            ) [TermExpr]
                          ) [DesArr]
                          AssignementExpr(
                            TermExpr(
                              TermFact(
                                FactorConst(
                                  ConstChar(
                                   b
                                  ) [ConstChar]
                                ) [FactorConst]
                              ) [TermFact]
                            ) [TermExpr]
                          ) [AssignementExpr]
                        ) [DesignStatAssignment]
                      ) [StatementDes]
                    ) [StatementList_NoEps]
                    StatementDes(
                      DesignStatAssignment(
                        DesArr(
                          ArrayName(
                           nizch
                          ) [ArrayName]
                          AddopExp(
                            TermExpr(
                              TermFact(
                                FactorDesign(
                                  DesIdent(
                                   pet
                                  ) [DesIdent]
                                ) [FactorDesign]
                              ) [TermFact]
                            ) [TermExpr]
                            Addop_Minus(
                            ) [Addop_Minus]
                            TermFact(
                              FactorConst(
                                ConstNum(
                                 3
                                ) [ConstNum]
                              ) [FactorConst]
                            ) [TermFact]
                          ) [AddopExp]
                        ) [DesArr]
                        AssignementExpr(
                          TermExpr(
                            TermFact(
                              FactorConst(
                                ConstChar(
                                 c
                                ) [ConstChar]
                              ) [FactorConst]
                            ) [TermFact]
                          ) [TermExpr]
                        ) [AssignementExpr]
                      ) [DesignStatAssignment]
                    ) [StatementDes]
                  ) [StatementList_NoEps]
                  StatPrint(
                    TermExpr(
                      TermFact(
                        FactorDesign(
                          DesArr(
                            ArrayName(
                             nizch
                            ) [ArrayName]
                            AddopExp(
                              TermExpr(
                                TermFact(
                                  FactorConst(
                                    ConstNum(
                                     2
                                    ) [ConstNum]
                                  ) [FactorConst]
                                ) [TermFact]
                              ) [TermExpr]
                              Addop_Minus(
                              ) [Addop_Minus]
                              TermFact(
                                FactorConst(
                                  ConstNum(
                                   1
                                  ) [ConstNum]
                                ) [FactorConst]
                              ) [TermFact]
                            ) [AddopExp]
                          ) [DesArr]
                        ) [FactorDesign]
                      ) [TermFact]
                    ) [TermExpr]
                  ) [StatPrint]
                ) [StatementList_NoEps]
                StatPrint(
                  TermExpr(
                    TermFact(
                      FactorDesign(
                        DesArr(
                          ArrayName(
                           nizch
                          ) [ArrayName]
                          TermExpr(
                            TermMulop(
                              TermFact(
                                FactorDesign(
                                  DesIdent(
                                   jedan
                                  ) [DesIdent]
                                ) [FactorDesign]
                              ) [TermFact]
                              Mulop_Mul(
                              ) [Mulop_Mul]
                              FactorConst(
                                ConstNum(
                                 2
                                ) [ConstNum]
                              ) [FactorConst]
                            ) [TermMulop]
                          ) [TermExpr]
                        ) [DesArr]
                      ) [FactorDesign]
                    ) [TermFact]
                  ) [TermExpr]
                ) [StatPrint]
              ) [StatementList_NoEps]
              StatementDes(
                DesignStatAssignment(
                  DesIdent(
                   bodovi
                  ) [DesIdent]
                  AssignementExpr(
                    AddopExp(
                      TermExpr(
                        TermFact(
                          FactorDesign(
                            DesIdent(
                             bodovi
                            ) [DesIdent]
                          ) [FactorDesign]
                        ) [TermFact]
                      ) [TermExpr]
                      Addop_Plus(
                      ) [Addop_Plus]
                      TermFact(
                        FactorExpr(
                          AddopExp(
                            AddopExp(
                              TermExpr(
                                TermMulop(
                                  TermFact(
                                    FactorExpr(
                                      AddopExp(
                                        TermExpr(
                                          TermMulop(
                                            TermFact(
                                              FactorDesign(
                                                DesIdent(
                                                 pet
                                                ) [DesIdent]
                                              ) [FactorDesign]
                                            ) [TermFact]
                                            Mulop_Mul(
                                            ) [Mulop_Mul]
                                            FactorDesign(
                                              DesIdent(
                                               jedan
                                              ) [DesIdent]
                                            ) [FactorDesign]
                                          ) [TermMulop]
                                        ) [TermExpr]
                                        Addop_Minus(
                                        ) [Addop_Minus]
                                        TermFact(
                                          FactorConst(
                                            ConstNum(
                                             1
                                            ) [ConstNum]
                                          ) [FactorConst]
                                        ) [TermFact]
                                      ) [AddopExp]
                                    ) [FactorExpr]
                                  ) [TermFact]
                                  Mulop_Mul(
                                  ) [Mulop_Mul]
                                  FactorConst(
                                    ConstNum(
                                     2
                                    ) [ConstNum]
                                  ) [FactorConst]
                                ) [TermMulop]
                              ) [TermExpr]
                              Addop_Minus(
                              ) [Addop_Minus]
                              TermFact(
                                FactorExpr(
                                  AddopExp(
                                    AddopExp(
                                      TermExpr(
                                        TermMulop(
                                          TermFact(
                                            FactorConst(
                                              ConstNum(
                                               3
                                              ) [ConstNum]
                                            ) [FactorConst]
                                          ) [TermFact]
                                          Mulop_Mod(
                                          ) [Mulop_Mod]
                                          FactorConst(
                                            ConstNum(
                                             2
                                            ) [ConstNum]
                                          ) [FactorConst]
                                        ) [TermMulop]
                                      ) [TermExpr]
                                      Addop_Plus(
                                      ) [Addop_Plus]
                                      TermMulop(
                                        TermFact(
                                          FactorConst(
                                            ConstNum(
                                             3
                                            ) [ConstNum]
                                          ) [FactorConst]
                                        ) [TermFact]
                                        Mulop_Mul(
                                        ) [Mulop_Mul]
                                        FactorConst(
                                          ConstNum(
                                           2
                                          ) [ConstNum]
                                        ) [FactorConst]
                                      ) [TermMulop]
                                    ) [AddopExp]
                                    Addop_Minus(
                                    ) [Addop_Minus]
                                    TermFact(
                                      FactorConst(
                                        ConstNum(
                                         3
                                        ) [ConstNum]
                                      ) [FactorConst]
                                    ) [TermFact]
                                  ) [AddopExp]
                                ) [FactorExpr]
                              ) [TermFact]
                            ) [AddopExp]
                            Addop_Minus(
                            ) [Addop_Minus]
                            TermMulop(
                              TermFact(
                                FactorDesign(
                                  DesEnum(
                                   Broj
                                   JEDAN
                                  ) [DesEnum]
                                ) [FactorDesign]
                              ) [TermFact]
                              Mulop_Mul(
                              ) [Mulop_Mul]
                              FactorConst(
                                ConstNum(
                                 0
                                ) [ConstNum]
                              ) [FactorConst]
                            ) [TermMulop]
                          ) [AddopExp]
                        ) [FactorExpr]
                      ) [TermFact]
                    ) [AddopExp]
                  ) [AssignementExpr]
                ) [DesignStatAssignment]
              ) [StatementDes]
            ) [StatementList_NoEps]
            StatPrint(
              TermExpr(
                TermFact(
                  FactorDesign(
                    DesIdent(
                     bodovi
                    ) [DesIdent]
                  ) [FactorDesign]
                ) [TermFact]
              ) [TermExpr]
            ) [StatPrint]
          ) [StatementList_NoEps]
          StatRead(
            DesIdent(
             bodovi
            ) [DesIdent]
          ) [StatRead]
        ) [StatementList_NoEps]
        StatementDes(
          DesignStatAssignment(
            DesIdent(
             bodovi
            ) [DesIdent]
            AssignementExpr(
              AddopExp(
                TermExpr(
                  TermFact(
                    FactorDesign(
                      DesIdent(
                       bodovi
                      ) [DesIdent]
                    ) [FactorDesign]
                  ) [TermFact]
                ) [TermExpr]
                Addop_Plus(
                ) [Addop_Plus]
                TermFact(
                  FactorConst(
                    ConstNum(
                     1
                    ) [ConstNum]
                  ) [FactorConst]
                ) [TermFact]
              ) [AddopExp]
            ) [AssignementExpr]
          ) [DesignStatAssignment]
        ) [StatementDes]
      ) [StatementList_NoEps]
      StatPrint(
        TermExpr(
          TermFact(
            FactorDesign(
              DesIdent(
               bodovi
              ) [DesIdent]
            ) [FactorDesign]
          ) [TermFact]
        ) [TermExpr]
      ) [StatPrint]
    ) [StatementList_NoEps]
  ) [MethodDecl]
) [Program]
INFO  00:48:12,611 - ===================================
INFO  00:48:12,618 - Deklarisan novi enum tip Broj na liniji 5
INFO  00:48:12,619 - USAO 1 na liniji 5
INFO  00:48:12,619 - USAO 1 na liniji 5
INFO  00:48:12,619 - Deklarisan novi enum tip Kocka na liniji 6
INFO  00:48:12,619 - USAO 1 na liniji 6
INFO  00:48:12,619 - USAO 1 na liniji 6
INFO  00:48:12,619 - Deklarisana konstanta 'jedan' na liniji 8
INFO  00:48:12,619 - Deklarisana konstanta 'pet' na liniji 9
INFO  00:48:12,619 - Deklarisana promenljiva niza niz tipa 1 na liniji 11
INFO  00:48:12,619 - Deklarisana promenljiva niza nizch tipa 2 na liniji 12
INFO  00:48:12,620 - Obradjuje se funkcija main na liniji 15
INFO  00:48:12,620 - Deklarisana promenljiva bodovi tipa 1 na liniji 16
INFO  00:48:12,620 - Deklarisana promenljiva nula tipa 6 na liniji 17
INFO  00:48:12,620 - Deklarisana promenljiva jedan tipa 6 na liniji 17
INFO  00:48:12,620 - Deklarisana promenljiva povrsina tipa 6 na liniji 18
ERROR 00:48:12,620 - Greska: NULA nije pronadjen na liniji 20
INFO  00:48:12,620 - factor type je 0 na liniji 20
ERROR 00:48:12,621 - Greska: nekompatibilni tipovi u dodeli na liniji 20
ERROR 00:48:12,621 - 6 je kind designatora, 0 je kind assignmenta
ERROR 00:48:12,621 - Greska: Broj nije pronadjen na liniji 21
INFO  00:48:12,621 - factor type je 0 na liniji 21
ERROR 00:48:12,621 - Greska: nekompatibilni tipovi u dodeli na liniji 21
ERROR 00:48:12,621 - 6 je kind designatora, 0 je kind assignmenta
ERROR 00:48:12,621 - Greska: Broj nije pronadjen na liniji 22
INFO  00:48:12,621 - factor type je 0 na liniji 22
ERROR 00:48:12,621 - Greska: nekompatibilni tipovi u dodeli na liniji 22
ERROR 00:48:12,621 - 6 je kind designatora, 0 je kind assignmenta
INFO  00:48:12,621 - Dodeljenja vrednost: 1 je design,1 je assign
INFO  00:48:12,621 - Inkrementirana vrednost
INFO  00:48:12,621 - factor type je 1 na liniji 25
INFO  00:48:12,621 - factor type je 6 na liniji 25
INFO  00:48:12,622 - Dodeljenja vrednost: 1 je design,1 je assign
INFO  00:48:12,622 - factor type je 1 na liniji 26
INFO  00:48:12,622 - factor type je 1 na liniji 26
INFO  00:48:12,622 - Dodeljenja vrednost: 1 je design,1 je assign
INFO  00:48:12,622 - Dekrementirana vrednost
INFO  00:48:12,622 - factor type je 1 na liniji 28
INFO  00:48:12,622 - Print funkcija na liniji 28
INFO  00:48:12,622 - factor type je 6 na liniji 32
INFO  00:48:12,622 - factor type je 1 na liniji 32
ERROR 00:48:12,623 - Greska: Broj nije pronadjen na liniji 33
INFO  00:48:12,623 - factor type je 0 na liniji 33
ERROR 00:48:12,623 -  OVDE Greska: nekompatibilni tipovi u dodeli na liniji 33
ERROR 00:48:12,623 - 1 je kind designatora, 0 je kind assignmenta
INFO  00:48:12,623 - factor type je 1 na liniji 34
INFO  00:48:12,623 - factor type je 1 na liniji 34
INFO  00:48:12,623 - Dodeljenja vrednost: 1 je design,1 je assign
INFO  00:48:12,623 - factor type je 1 na liniji 35
INFO  00:48:12,624 - Print funkcija na liniji 35
ERROR 00:48:12,624 - Greska: Broj nije pronadjen na liniji 36
INFO  00:48:12,624 - factor type je 0 na liniji 36
ERROR 00:48:12,624 - Greska: indeks u zagradama nije int na liniji 36
INFO  00:48:12,624 - factor type je 1 na liniji 36
INFO  00:48:12,624 - Print funkcija na liniji 36
INFO  00:48:12,624 - factor type je 6 na liniji 41
INFO  00:48:12,624 - factor type je 1 na liniji 42
INFO  00:48:12,624 - factor type je 2 na liniji 43
INFO  00:48:12,624 - Print funkcija na liniji 43
INFO  00:48:12,624 - factor type je 6 na liniji 44
INFO  00:48:12,624 - factor type je 2 na liniji 44
INFO  00:48:12,624 - Print funkcija na liniji 44
INFO  00:48:12,625 - factor type je 1 na liniji 47
INFO  00:48:12,625 - factor type je 1 na liniji 47
INFO  00:48:12,625 - factor type je 6 na liniji 47
ERROR 00:48:12,625 - Greska: Broj nije pronadjen na liniji 47
INFO  00:48:12,625 - factor type je 0 na liniji 47
INFO  00:48:12,625 - Dodeljenja vrednost: 1 je design,1 je assign
INFO  00:48:12,625 - factor type je 1 na liniji 48
INFO  00:48:12,625 - Print funkcija na liniji 48
INFO  00:48:12,625 - Read funkcija na liniji 51
INFO  00:48:12,625 - factor type je 1 na liniji 52
INFO  00:48:12,625 - Dodeljenja vrednost: 1 je design,1 je assign
INFO  00:48:12,625 - factor type je 1 na liniji 53
INFO  00:48:12,625 - Print funkcija na liniji 53
INFO  00:48:12,625 -  Print count calls = 7
INFO  00:48:12,625 -  Deklarisanih promenljivih ima = 6
ERROR 00:48:12,627 - Parsiranje NIJE uspesno zavrseno!
