INFO  21:24:13,352 - Compiling source file: C:\Users\ikadr\Desktop\PP\Projekat\Rad\workspace\MJCompiler\test\program.mj
INFO  21:24:13,414 - #2 program
INFO  21:24:13,414 - #28 test301
INFO  21:24:13,414 - #9 enum
INFO  21:24:13,414 - #28 Broj
INFO  21:24:13,414 - #17 {
INFO  21:24:13,414 - #28 NULA
INFO  21:24:13,414 - #12 ,
INFO  21:24:13,414 - #28 JEDAN
INFO  21:24:13,414 - #12 ,
INFO  21:24:13,414 - #28 PET
INFO  21:24:13,414 - #11 =
INFO  21:24:13,414 - #27 5
INFO  21:24:13,414 - #12 ,
INFO  21:24:13,414 - #28 DESET
INFO  21:24:13,414 - #11 =
INFO  21:24:13,430 - #27 10
INFO  21:24:13,430 - #18 }
INFO  21:24:13,430 - #8 const
INFO  21:24:13,430 - #28 int
INFO  21:24:13,430 - #28 jedan
INFO  21:24:13,430 - #11 =
INFO  21:24:13,522 - #27 1
INFO  21:24:13,522 - #10 ;
INFO  21:24:13,524 - #8 const
INFO  21:24:13,526 - #28 int
INFO  21:24:13,526 - #28 pet
INFO  21:24:13,526 - #11 =
INFO  21:24:13,526 - #27 5
INFO  21:24:13,526 - #10 ;
INFO  21:24:13,526 - #28 int
INFO  21:24:13,526 - #28 niz
INFO  21:24:13,527 - #15 [
INFO  21:24:13,527 - #16 ]
INFO  21:24:13,527 - #10 ;
INFO  21:24:13,527 - #28 char
INFO  21:24:13,528 - #28 nizch
INFO  21:24:13,529 - #15 [
INFO  21:24:13,529 - #16 ]
INFO  21:24:13,529 - #10 ;
INFO  21:24:13,529 - #17 {
INFO  21:24:13,529 - #6 void
INFO  21:24:13,529 - #28 main
INFO  21:24:13,530 - #13 (
INFO  21:24:13,530 - #14 )
INFO  21:24:13,530 - #28 int
INFO  21:24:13,532 - #28 bodovi
INFO  21:24:13,532 - #10 ;
INFO  21:24:13,532 - #28 Broj
INFO  21:24:13,533 - #28 nula
INFO  21:24:13,534 - #12 ,
INFO  21:24:13,534 - #28 jedan
INFO  21:24:13,534 - #10 ;
INFO  21:24:13,534 - #28 bool
INFO  21:24:13,534 - #28 proba
INFO  21:24:13,534 - #10 ;
INFO  21:24:13,534 - #17 {
INFO  21:24:13,534 - #28 nula
INFO  21:24:13,535 - #11 =
INFO  21:24:13,535 - #28 Broj
INFO  21:24:13,535 - #19 .
INFO  21:24:13,535 - #28 NULA
INFO  21:24:13,535 - #10 ;
INFO  21:24:13,535 - #28 bodovi
INFO  21:24:13,535 - #11 =
INFO  21:24:13,535 - #27 0
INFO  21:24:13,535 - #10 ;
INFO  21:24:13,535 - #28 bodovi
INFO  21:24:13,535 - #20 ++
INFO  21:24:13,535 - #10 ;
INFO  21:24:13,535 - #28 bodovi
INFO  21:24:13,535 - #11 =
INFO  21:24:13,535 - #28 bodovi
INFO  21:24:13,535 - #24 *
INFO  21:24:13,535 - #28 pet
INFO  21:24:13,535 - #10 ;
INFO  21:24:13,535 - #28 bodovi
INFO  21:24:13,535 - #21 --
INFO  21:24:13,535 - #10 ;
INFO  21:24:13,535 - #4 print
INFO  21:24:13,535 - #13 (
INFO  21:24:13,535 - #28 bodovi
INFO  21:24:13,535 - #14 )
INFO  21:24:13,535 - #10 ;
INFO  21:24:13,535 - #18 }
INFO  21:24:13,535 - #18 }
INFO  21:24:13,551 - Program(
  ProgName(
   test301
  ) [ProgName]
  GlobalDeclListL(
    GlobalDeclListL(
      GlobalDeclListL(
        GlobalDeclListL(
          GlobalDeclListL(
            GlobalDeclListEps(
            ) [GlobalDeclListEps]
            GlobalDeclEnum(
              EnumDecl(
               Broj
                EnumDeclListL(
                  EnumDeclListL(
                    EnumDeclListL(
                      EnumDeclItem(
                        EnumDeclDefNoVal(
                         NULA
                        ) [EnumDeclDefNoVal]
                      ) [EnumDeclItem]
                      EnumDeclDefNoVal(
                       JEDAN
                      ) [EnumDeclDefNoVal]
                    ) [EnumDeclListL]
                    EnumDeclDefVal(
                     PET
                     5
                    ) [EnumDeclDefVal]
                  ) [EnumDeclListL]
                  EnumDeclDefVal(
                   DESET
                   10
                  ) [EnumDeclDefVal]
                ) [EnumDeclListL]
              ) [EnumDecl]
            ) [GlobalDeclEnum]
          ) [GlobalDeclListL]
          GlobalDeclConst(
            ConstDecl(
              Type(
               int
              ) [Type]
              ConstDeclItem(
                ConstDef(
                 jedan
                  ConstNum(
                   1
                  ) [ConstNum]
                ) [ConstDef]
              ) [ConstDeclItem]
            ) [ConstDecl]
          ) [GlobalDeclConst]
        ) [GlobalDeclListL]
        GlobalDeclConst(
          ConstDecl(
            Type(
             int
            ) [Type]
            ConstDeclItem(
              ConstDef(
               pet
                ConstNum(
                 5
                ) [ConstNum]
              ) [ConstDef]
            ) [ConstDeclItem]
          ) [ConstDecl]
        ) [GlobalDeclConst]
      ) [GlobalDeclListL]
      GlobalDeclVar(
        GlobalVarDecl(
          Type(
           int
          ) [Type]
          GlobalVarDeclItem(
            GlobalVarDeclDefOk(
              VarDeclDefineArray(
               niz
              ) [VarDeclDefineArray]
            ) [GlobalVarDeclDefOk]
          ) [GlobalVarDeclItem]
        ) [GlobalVarDecl]
      ) [GlobalDeclVar]
    ) [GlobalDeclListL]
    GlobalDeclVar(
      GlobalVarDecl(
        Type(
         char
        ) [Type]
        GlobalVarDeclItem(
          GlobalVarDeclDefOk(
            VarDeclDefineArray(
             nizch
            ) [VarDeclDefineArray]
          ) [GlobalVarDeclDefOk]
        ) [GlobalVarDeclItem]
      ) [GlobalVarDecl]
    ) [GlobalDeclVar]
  ) [GlobalDeclListL]
  MethodDecl(
    MethodSignature(
      VoidableType(
      ) [VoidableType]
     main
    ) [MethodSignature]
    VarMethodDeclList_NoEps(
      VarMethodDeclList_NoEps(
        VarMethodDeclList_NoEps(
          VarMethodDeclList_Eps(
          ) [VarMethodDeclList_Eps]
          VarDecl(
            Type(
             int
            ) [Type]
            VarDeclItem(
              VarDeclDefineSingle(
               bodovi
              ) [VarDeclDefineSingle]
            ) [VarDeclItem]
          ) [VarDecl]
        ) [VarMethodDeclList_NoEps]
        VarDecl(
          Type(
           Broj
          ) [Type]
          VarDeclListL(
            VarDeclItem(
              VarDeclDefineSingle(
               nula
              ) [VarDeclDefineSingle]
            ) [VarDeclItem]
            VarDeclDefineSingle(
             jedan
            ) [VarDeclDefineSingle]
          ) [VarDeclListL]
        ) [VarDecl]
      ) [VarMethodDeclList_NoEps]
      VarDecl(
        Type(
         bool
        ) [Type]
        VarDeclItem(
          VarDeclDefineSingle(
           proba
          ) [VarDeclDefineSingle]
        ) [VarDeclItem]
      ) [VarDecl]
    ) [VarMethodDeclList_NoEps]
    StatementList_NoEps(
      StatementList_NoEps(
        StatementList_NoEps(
          StatementList_NoEps(
            StatementList_NoEps(
              StatementList_NoEps(
                StatementList_Eps(
                ) [StatementList_Eps]
                StatementDes(
                  DesignStatAssignment(
                    Designator(
                     nula
                      DesDerived1(
                      ) [DesDerived1]
                    ) [Designator]
                    AssignementExpr(
                      TermExpr(
                        TermFact(
                          FactorDesign(
                            Designator(
                             Broj
                              DesEnum(
                               NULA
                              ) [DesEnum]
                            ) [Designator]
                          ) [FactorDesign]
                        ) [TermFact]
                      ) [TermExpr]
                    ) [AssignementExpr]
                  ) [DesignStatAssignment]
                ) [StatementDes]
              ) [StatementList_NoEps]
              StatementDes(
                DesignStatAssignment(
                  Designator(
                   bodovi
                    DesDerived1(
                    ) [DesDerived1]
                  ) [Designator]
                  AssignementExpr(
                    TermExpr(
                      TermFact(
                        FactorConst(
                          ConstNum(
                           0
                          ) [ConstNum]
                        ) [FactorConst]
                      ) [TermFact]
                    ) [TermExpr]
                  ) [AssignementExpr]
                ) [DesignStatAssignment]
              ) [StatementDes]
            ) [StatementList_NoEps]
            StatementDes(
              DesignStatInc(
                Designator(
                 bodovi
                  DesDerived1(
                  ) [DesDerived1]
                ) [Designator]
              ) [DesignStatInc]
            ) [StatementDes]
          ) [StatementList_NoEps]
          StatementDes(
            DesignStatAssignment(
              Designator(
               bodovi
                DesDerived1(
                ) [DesDerived1]
              ) [Designator]
              AssignementExpr(
                TermExpr(
                  TermMulop(
                    TermFact(
                      FactorDesign(
                        Designator(
                         bodovi
                          DesDerived1(
                          ) [DesDerived1]
                        ) [Designator]
                      ) [FactorDesign]
                    ) [TermFact]
                    Mulop(
                    ) [Mulop]
                    FactorDesign(
                      Designator(
                       pet
                        DesDerived1(
                        ) [DesDerived1]
                      ) [Designator]
                    ) [FactorDesign]
                  ) [TermMulop]
                ) [TermExpr]
              ) [AssignementExpr]
            ) [DesignStatAssignment]
          ) [StatementDes]
        ) [StatementList_NoEps]
        StatementDes(
          DesignStatDec(
            Designator(
             bodovi
              DesDerived1(
              ) [DesDerived1]
            ) [Designator]
          ) [DesignStatDec]
        ) [StatementDes]
      ) [StatementList_NoEps]
      StatPrint(
        TermExpr(
          TermFact(
            FactorDesign(
              Designator(
               bodovi
                DesDerived1(
                ) [DesDerived1]
              ) [Designator]
            ) [FactorDesign]
          ) [TermFact]
        ) [TermExpr]
      ) [StatPrint]
    ) [StatementList_NoEps]
  ) [MethodDecl]
) [Program]
INFO  21:24:13,551 - ===================================
INFO  21:24:13,566 - Deklarisan novi enum tip Broj na liniji 5
INFO  21:24:13,566 - Deklarisana konstanta 'jedan' na liniji 7
INFO  21:24:13,566 - Deklarisana konstanta 'pet' na liniji 8
INFO  21:24:13,566 - Deklarisana promenljiva niza niz na liniji 10
INFO  21:24:13,566 - Deklarisana promenljiva niza nizch na liniji 11
INFO  21:24:13,566 - Obradjuje se funkcija main na liniji 14
INFO  21:24:13,566 - Deklarisana promenljiva bodovi tipa 1 na liniji 15
INFO  21:24:13,566 - Deklarisana promenljiva nula tipa 6 na liniji 16
INFO  21:24:13,566 - Deklarisana promenljiva jedan tipa 6 na liniji 16
INFO  21:24:13,566 - Deklarisana promenljiva proba tipa 5 na liniji 17
ERROR 21:24:13,566 - Greska na 19: Broj nije promenljiva
INFO  21:24:13,566 - Dodeljenja vrednost 
INFO  21:24:13,566 - Dodeljenja vrednost 
INFO  21:24:13,566 - Inkrementirana vrednost
INFO  21:24:13,566 - Dodeljenja vrednost 
INFO  21:24:13,566 - Dekrementirana vrednost
INFO  21:24:13,566 -  Print count calls = 1
INFO  21:24:13,566 -  Deklarisanih promenljivih ima = 10
ERROR 21:24:13,566 - Parsiranje NIJE uspesno zavrseno!
