INFO  17:23:07,129 - Compiling source file: C:\Users\ikadr\Desktop\PP\Projekat\Rad\workspace\MJCompiler\test\program.mj
INFO  17:23:07,197 - #2 program
INFO  17:23:07,198 - #28 test301
INFO  17:23:07,198 - #28 int
INFO  17:23:07,201 - #28 niz
INFO  17:23:07,203 - #15 [
INFO  17:23:07,203 - #16 ]
INFO  17:23:07,203 - #10 ;
INFO  17:23:07,204 - #17 {
INFO  17:23:07,206 - #6 void
INFO  17:23:07,206 - #28 main
INFO  17:23:07,207 - #13 (
INFO  17:23:07,207 - #14 )
INFO  17:23:07,207 - #17 {
INFO  17:23:07,210 - #28 niz
INFO  17:23:07,211 - #11 =
INFO  17:23:07,211 - #5 new
INFO  17:23:07,211 - #28 int
INFO  17:23:07,211 - #15 [
INFO  17:23:07,212 - #27 2
INFO  17:23:07,212 - #16 ]
INFO  17:23:07,213 - #10 ;
INFO  17:23:07,214 - #18 }
INFO  17:23:07,214 - #18 }
INFO  17:23:07,233 - Program(
  ProgName(
   test301
  ) [ProgName]
  GlobalDeclListL(
    GlobalDeclListEps(
    ) [GlobalDeclListEps]
    GlobalDeclVar(
      GlobalVarDecl(
        Type(
         int
        ) [Type]
        GlobalVarDeclItem(
          GlobalVarDeclDefOk(
            VarDeclDefineArray(
             niz
            ) [VarDeclDefineArray]
          ) [GlobalVarDeclDefOk]
        ) [GlobalVarDeclItem]
      ) [GlobalVarDecl]
    ) [GlobalDeclVar]
  ) [GlobalDeclListL]
  MethodDecl(
    MethodSignature(
      VoidableType(
      ) [VoidableType]
     main
    ) [MethodSignature]
    VarMethodDeclList_Eps(
    ) [VarMethodDeclList_Eps]
    StatementList_NoEps(
      StatementList_Eps(
      ) [StatementList_Eps]
      StatementDes(
        DesignStatAssignment(
          DesIdent(
           niz
          ) [DesIdent]
          AssignementExpr(
            TermExpr(
              TermFact(
                FactorNewArr(
                  Type(
                   int
                  ) [Type]
                  TermExpr(
                    TermFact(
                      FactorConst(
                        ConstNum(
                         2
                        ) [ConstNum]
                      ) [FactorConst]
                    ) [TermFact]
                  ) [TermExpr]
                ) [FactorNewArr]
              ) [TermFact]
            ) [TermExpr]
          ) [AssignementExpr]
        ) [DesignStatAssignment]
      ) [StatementDes]
    ) [StatementList_NoEps]
  ) [MethodDecl]
) [Program]
INFO  17:23:07,233 - ===================================
INFO  17:23:07,238 - Deklarisana promenljiva niza niz tipa 1 na liniji 5
INFO  17:23:07,238 - Obradjuje se funkcija main na liniji 7
INFO  17:23:07,238 -  Print count calls = 0
INFO  17:23:07,238 -  Deklarisanih promenljivih ima = 0
INFO  17:23:07,251 - GENERATOR:1
INFO  17:23:07,252 - Parsiranje uspesno zavrseno!
