INFO  20:31:30,715 - Compiling source file: C:\Users\ikadr\Desktop\PP\Projekat\Rad\workspace\MJCompiler\test\program.mj
INFO  20:31:30,716 - ===============SINTAKSNA OBRADA====================
INFO  20:31:30,798 - #2 program
INFO  20:31:30,798 - #28 test301
INFO  20:31:30,798 - #9 enum
INFO  20:31:30,801 - #28 Broj
INFO  20:31:30,801 - #17 {
INFO  20:31:30,802 - #28 NULA
INFO  20:31:30,802 - #12 ,
INFO  20:31:30,803 - #28 JEDAN
INFO  20:31:30,803 - #12 ,
INFO  20:31:30,803 - #28 PET
INFO  20:31:30,803 - #11 =
INFO  20:31:30,804 - #27 5
INFO  20:31:30,804 - #12 ,
INFO  20:31:30,804 - #28 DESET
INFO  20:31:30,804 - #11 =
INFO  20:31:30,804 - #27 10
INFO  20:31:30,804 - #18 }
INFO  20:31:30,805 - #8 const
INFO  20:31:30,807 - #28 int
INFO  20:31:30,807 - #28 jedan
INFO  20:31:30,808 - #11 =
INFO  20:31:30,809 - #27 1
INFO  20:31:30,809 - #8 const
ERROR 20:31:30,809 - 
Sintaksna greska na liniji 8
ERROR 20:31:30,809 - Fatalna greska, parsiranje se ne moze nastaviti na liniji 8
INFO  20:31:30,829 - Type(
 int
) [Type]
INFO  20:31:30,830 - ===============SEMANTICKA OBRADA====================
INFO  20:31:30,834 -  Print count calls = 0
INFO  20:31:30,834 -  Deklarisanih promenljivih ima = 0
ERROR 20:31:30,835 - Parsiranje NIJE uspesno zavrseno!
