INFO  11:33:30,035 - Compiling source file: C:\Users\ikadr\Desktop\PP\Projekat\Rad\workspace\MJCompiler\test\program.mj
INFO  11:33:30,116 - #2 program
INFO  11:33:30,117 - #28 test301
INFO  11:33:30,117 - #9 enum
INFO  11:33:30,119 - #28 Broj
INFO  11:33:30,119 - #17 {
INFO  11:33:30,119 - #28 NULA
INFO  11:33:30,119 - #12 ,
INFO  11:33:30,120 - #28 JEDAN
INFO  11:33:30,120 - #12 ,
INFO  11:33:30,120 - #28 PET
INFO  11:33:30,120 - #11 =
INFO  11:33:30,120 - #27 5
INFO  11:33:30,121 - #12 ,
INFO  11:33:30,121 - #28 DESET
INFO  11:33:30,121 - #11 =
INFO  11:33:30,121 - #27 10
INFO  11:33:30,121 - #18 }
INFO  11:33:30,121 - #8 const
INFO  11:33:30,123 - #28 int
INFO  11:33:30,123 - #28 jedan
INFO  11:33:30,125 - #11 =
INFO  11:33:30,125 - #27 1
INFO  11:33:30,125 - #10 ;
INFO  11:33:30,127 - #8 const
INFO  11:33:30,128 - #28 int
INFO  11:33:30,128 - #28 pet
INFO  11:33:30,129 - #11 =
INFO  11:33:30,129 - #27 5
INFO  11:33:30,129 - #10 ;
INFO  11:33:30,129 - #28 int
INFO  11:33:30,129 - #28 niz
INFO  11:33:30,129 - #15 [
INFO  11:33:30,129 - #16 ]
INFO  11:33:30,129 - #10 ;
INFO  11:33:30,130 - #28 char
INFO  11:33:30,131 - #28 nizch
INFO  11:33:30,131 - #15 [
INFO  11:33:30,131 - #16 ]
INFO  11:33:30,131 - #10 ;
INFO  11:33:30,131 - #17 {
INFO  11:33:30,131 - #6 void
INFO  11:33:30,131 - #28 main
INFO  11:33:30,133 - #13 (
INFO  11:33:30,133 - #14 )
INFO  11:33:30,133 - #28 int
INFO  11:33:30,135 - #28 bodovi
INFO  11:33:30,135 - #10 ;
INFO  11:33:30,135 - #28 Broj
INFO  11:33:30,137 - #28 nula
INFO  11:33:30,137 - #12 ,
INFO  11:33:30,137 - #28 jedan
INFO  11:33:30,138 - #10 ;
INFO  11:33:30,140 - #17 {
INFO  11:33:30,141 - #28 nula
INFO  11:33:30,143 - #11 =
INFO  11:33:30,147 - #28 Broj
INFO  11:33:30,147 - #19 .
INFO  11:33:30,147 - #28 NULA
INFO  11:33:30,147 - #10 ;
INFO  11:33:30,149 - #28 jedan
INFO  11:33:30,150 - #11 =
INFO  11:33:30,150 - #28 Broj
INFO  11:33:30,154 - #19 .
INFO  11:33:30,154 - #28 JEDAN
INFO  11:33:30,154 - #10 ;
INFO  11:33:30,154 - #28 bodovi
INFO  11:33:30,155 - #11 =
INFO  11:33:30,155 - #27 0
INFO  11:33:30,162 - #10 ;
INFO  11:33:30,162 - #28 bodovi
INFO  11:33:30,162 - #20 ++
INFO  11:33:30,163 - #10 ;
INFO  11:33:30,163 - #28 bodovi
INFO  11:33:30,163 - #11 =
INFO  11:33:30,163 - #28 bodovi
INFO  11:33:30,163 - #23 +
INFO  11:33:30,163 - #28 jedan
INFO  11:33:30,165 - #10 ;
INFO  11:33:30,166 - #28 bodovi
INFO  11:33:30,166 - #11 =
INFO  11:33:30,166 - #28 bodovi
INFO  11:33:30,166 - #24 *
INFO  11:33:30,166 - #28 pet
INFO  11:33:30,169 - #10 ;
INFO  11:33:30,169 - #28 bodovi
INFO  11:33:30,170 - #21 --
INFO  11:33:30,171 - #10 ;
INFO  11:33:30,172 - #4 print
INFO  11:33:30,172 - #13 (
INFO  11:33:30,172 - #28 bodovi
INFO  11:33:30,172 - #14 )
INFO  11:33:30,172 - #10 ;
INFO  11:33:30,172 - #28 niz
INFO  11:33:30,173 - #11 =
INFO  11:33:30,173 - #5 new
INFO  11:33:30,173 - #28 char
INFO  11:33:30,173 - #15 [
INFO  11:33:30,173 - #27 2
INFO  11:33:30,173 - #16 ]
INFO  11:33:30,174 - #10 ;
INFO  11:33:30,175 - #28 niz
INFO  11:33:30,176 - #15 [
INFO  11:33:30,176 - #28 nula
INFO  11:33:30,176 - #16 ]
INFO  11:33:30,176 - #11 =
INFO  11:33:30,176 - #28 pet
INFO  11:33:30,177 - #10 ;
INFO  11:33:30,177 - #28 niz
INFO  11:33:30,177 - #15 [
INFO  11:33:30,177 - #27 1
INFO  11:33:30,177 - #16 ]
INFO  11:33:30,177 - #11 =
INFO  11:33:30,177 - #28 Broj
INFO  11:33:30,178 - #19 .
INFO  11:33:30,178 - #28 DESET
INFO  11:33:30,178 - #10 ;
INFO  11:33:30,178 - #28 bodovi
INFO  11:33:30,178 - #11 =
INFO  11:33:30,178 - #28 niz
INFO  11:33:30,178 - #15 [
INFO  11:33:30,178 - #27 1
INFO  11:33:30,179 - #16 ]
INFO  11:33:30,179 - #25 /
INFO  11:33:30,179 - #28 niz
INFO  11:33:30,180 - #15 [
INFO  11:33:30,180 - #27 0
INFO  11:33:30,181 - #16 ]
INFO  11:33:30,181 - #10 ;
INFO  11:33:30,181 - #4 print
INFO  11:33:30,181 - #13 (
INFO  11:33:30,181 - #28 bodovi
INFO  11:33:30,181 - #14 )
INFO  11:33:30,182 - #10 ;
INFO  11:33:30,182 - #4 print
INFO  11:33:30,182 - #13 (
INFO  11:33:30,182 - #28 niz
INFO  11:33:30,182 - #15 [
INFO  11:33:30,182 - #28 Broj
INFO  11:33:30,182 - #19 .
INFO  11:33:30,182 - #28 JEDAN
INFO  11:33:30,183 - #16 ]
INFO  11:33:30,183 - #14 )
INFO  11:33:30,183 - #10 ;
INFO  11:33:30,183 - #28 nizch
INFO  11:33:30,183 - #11 =
INFO  11:33:30,183 - #5 new
INFO  11:33:30,183 - #28 char
INFO  11:33:30,183 - #15 [
INFO  11:33:30,184 - #27 3
INFO  11:33:30,184 - #16 ]
INFO  11:33:30,184 - #10 ;
INFO  11:33:30,184 - #28 nizch
INFO  11:33:30,184 - #15 [
INFO  11:33:30,184 - #27 0
INFO  11:33:30,184 - #16 ]
INFO  11:33:30,185 - #11 =
INFO  11:33:30,185 - #29 a
INFO  11:33:30,185 - #10 ;
INFO  11:33:30,185 - #28 nizch
INFO  11:33:30,185 - #15 [
INFO  11:33:30,185 - #28 jedan
INFO  11:33:30,185 - #16 ]
INFO  11:33:30,186 - #11 =
INFO  11:33:30,186 - #29 b
INFO  11:33:30,186 - #10 ;
INFO  11:33:30,186 - #28 nizch
INFO  11:33:30,186 - #15 [
INFO  11:33:30,186 - #28 pet
INFO  11:33:30,186 - #22 -
INFO  11:33:30,187 - #27 3
INFO  11:33:30,188 - #16 ]
INFO  11:33:30,189 - #11 =
INFO  11:33:30,189 - #29 c
INFO  11:33:30,189 - #10 ;
INFO  11:33:30,189 - #4 print
INFO  11:33:30,189 - #13 (
INFO  11:33:30,189 - #28 nizch
INFO  11:33:30,189 - #15 [
INFO  11:33:30,189 - #27 2
INFO  11:33:30,189 - #22 -
INFO  11:33:30,189 - #27 1
INFO  11:33:30,189 - #16 ]
INFO  11:33:30,190 - #14 )
INFO  11:33:30,190 - #10 ;
INFO  11:33:30,190 - #4 print
INFO  11:33:30,190 - #13 (
INFO  11:33:30,190 - #28 nizch
INFO  11:33:30,190 - #15 [
INFO  11:33:30,190 - #28 jedan
INFO  11:33:30,190 - #24 *
INFO  11:33:30,190 - #27 2
INFO  11:33:30,191 - #16 ]
INFO  11:33:30,191 - #14 )
INFO  11:33:30,191 - #10 ;
INFO  11:33:30,191 - #28 bodovi
INFO  11:33:30,191 - #11 =
INFO  11:33:30,191 - #28 bodovi
INFO  11:33:30,191 - #23 +
INFO  11:33:30,191 - #13 (
INFO  11:33:30,191 - #13 (
INFO  11:33:30,192 - #28 pet
INFO  11:33:30,192 - #24 *
INFO  11:33:30,192 - #28 jedan
INFO  11:33:30,192 - #22 -
INFO  11:33:30,192 - #27 1
INFO  11:33:30,192 - #14 )
INFO  11:33:30,192 - #24 *
INFO  11:33:30,193 - #27 2
INFO  11:33:30,193 - #22 -
INFO  11:33:30,193 - #13 (
INFO  11:33:30,193 - #27 3
INFO  11:33:30,193 - #26 %
INFO  11:33:30,193 - #27 2
INFO  11:33:30,194 - #23 +
INFO  11:33:30,198 - #27 3
INFO  11:33:30,198 - #24 *
INFO  11:33:30,198 - #27 2
INFO  11:33:30,199 - #22 -
INFO  11:33:30,199 - #27 3
INFO  11:33:30,199 - #14 )
INFO  11:33:30,199 - #22 -
INFO  11:33:30,199 - #28 Broj
INFO  11:33:30,199 - #19 .
INFO  11:33:30,199 - #28 JEDAN
INFO  11:33:30,200 - #24 *
INFO  11:33:30,200 - #27 0
INFO  11:33:30,200 - #14 )
INFO  11:33:30,200 - #10 ;
INFO  11:33:30,200 - #4 print
INFO  11:33:30,200 - #13 (
INFO  11:33:30,200 - #28 bodovi
INFO  11:33:30,200 - #14 )
INFO  11:33:30,200 - #10 ;
INFO  11:33:30,201 - #3 read
INFO  11:33:30,201 - #13 (
INFO  11:33:30,201 - #28 bodovi
INFO  11:33:30,201 - #14 )
INFO  11:33:30,201 - #10 ;
INFO  11:33:30,201 - #28 bodovi
INFO  11:33:30,201 - #11 =
INFO  11:33:30,201 - #28 bodovi
INFO  11:33:30,202 - #23 +
INFO  11:33:30,202 - #27 1
INFO  11:33:30,202 - #10 ;
INFO  11:33:30,202 - #4 print
INFO  11:33:30,202 - #13 (
INFO  11:33:30,202 - #28 bodovi
INFO  11:33:30,202 - #14 )
INFO  11:33:30,202 - #10 ;
INFO  11:33:30,202 - #18 }
INFO  11:33:30,202 - #18 }
INFO  11:33:30,253 - Program(
  ProgName(
   test301
  ) [ProgName]
  GlobalDeclListL(
    GlobalDeclListL(
      GlobalDeclListL(
        GlobalDeclListL(
          GlobalDeclListL(
            GlobalDeclListEps(
            ) [GlobalDeclListEps]
            GlobalDeclEnum(
              EnumDecl(
               Broj
                EnumDeclListL(
                  EnumDeclListL(
                    EnumDeclListL(
                      EnumDeclItem(
                        EnumDeclDefNoVal(
                         NULA
                        ) [EnumDeclDefNoVal]
                      ) [EnumDeclItem]
                      EnumDeclDefNoVal(
                       JEDAN
                      ) [EnumDeclDefNoVal]
                    ) [EnumDeclListL]
                    EnumDeclDefVal(
                     PET
                     5
                    ) [EnumDeclDefVal]
                  ) [EnumDeclListL]
                  EnumDeclDefVal(
                   DESET
                   10
                  ) [EnumDeclDefVal]
                ) [EnumDeclListL]
              ) [EnumDecl]
            ) [GlobalDeclEnum]
          ) [GlobalDeclListL]
          GlobalDeclConst(
            ConstDecl(
              Type(
               int
              ) [Type]
              ConstDeclItem(
                ConstDef(
                 jedan
                  ConstNum(
                   1
                  ) [ConstNum]
                ) [ConstDef]
              ) [ConstDeclItem]
            ) [ConstDecl]
          ) [GlobalDeclConst]
        ) [GlobalDeclListL]
        GlobalDeclConst(
          ConstDecl(
            Type(
             int
            ) [Type]
            ConstDeclItem(
              ConstDef(
               pet
                ConstNum(
                 5
                ) [ConstNum]
              ) [ConstDef]
            ) [ConstDeclItem]
          ) [ConstDecl]
        ) [GlobalDeclConst]
      ) [GlobalDeclListL]
      GlobalDeclVar(
        GlobalVarDecl(
          Type(
           int
          ) [Type]
          GlobalVarDeclItem(
            GlobalVarDeclDefOk(
              VarDeclDefineArray(
               niz
              ) [VarDeclDefineArray]
            ) [GlobalVarDeclDefOk]
          ) [GlobalVarDeclItem]
        ) [GlobalVarDecl]
      ) [GlobalDeclVar]
    ) [GlobalDeclListL]
    GlobalDeclVar(
      GlobalVarDecl(
        Type(
         char
        ) [Type]
        GlobalVarDeclItem(
          GlobalVarDeclDefOk(
            VarDeclDefineArray(
             nizch
            ) [VarDeclDefineArray]
          ) [GlobalVarDeclDefOk]
        ) [GlobalVarDeclItem]
      ) [GlobalVarDecl]
    ) [GlobalDeclVar]
  ) [GlobalDeclListL]
  MethodDecl(
    MethodSignature(
      VoidableType(
      ) [VoidableType]
     main
    ) [MethodSignature]
    VarMethodDeclList_NoEps(
      VarMethodDeclList_NoEps(
        VarMethodDeclList_Eps(
        ) [VarMethodDeclList_Eps]
        VarDecl(
          Type(
           int
          ) [Type]
          VarDeclItem(
            VarDeclDefineSingle(
             bodovi
            ) [VarDeclDefineSingle]
          ) [VarDeclItem]
        ) [VarDecl]
      ) [VarMethodDeclList_NoEps]
      VarDecl(
        Type(
         Broj
        ) [Type]
        VarDeclListL(
          VarDeclItem(
            VarDeclDefineSingle(
             nula
            ) [VarDeclDefineSingle]
          ) [VarDeclItem]
          VarDeclDefineSingle(
           jedan
          ) [VarDeclDefineSingle]
        ) [VarDeclListL]
      ) [VarDecl]
    ) [VarMethodDeclList_NoEps]
    StatementList_NoEps(
      StatementList_NoEps(
        StatementList_NoEps(
          StatementList_NoEps(
            StatementList_NoEps(
              StatementList_NoEps(
                StatementList_NoEps(
                  StatementList_NoEps(
                    StatementList_NoEps(
                      StatementList_NoEps(
                        StatementList_NoEps(
                          StatementList_NoEps(
                            StatementList_NoEps(
                              StatementList_NoEps(
                                StatementList_NoEps(
                                  StatementList_NoEps(
                                    StatementList_NoEps(
                                      StatementList_NoEps(
                                        StatementList_NoEps(
                                          StatementList_NoEps(
                                            StatementList_NoEps(
                                              StatementList_NoEps(
                                                StatementList_NoEps(
                                                  StatementList_NoEps(
                                                    StatementList_NoEps(
                                                      StatementList_Eps(
                                                      ) [StatementList_Eps]
                                                      StatementDes(
                                                        DesignStatAssignment(
                                                          Designator(
                                                           nula
                                                            DesDerived1(
                                                            ) [DesDerived1]
                                                          ) [Designator]
                                                          AssignementExpr(
                                                            TermExpr(
                                                              TermFact(
                                                                FactorDesign(
                                                                  Designator(
                                                                   Broj
                                                                    DesEnum(
                                                                     NULA
                                                                    ) [DesEnum]
                                                                  ) [Designator]
                                                                ) [FactorDesign]
                                                              ) [TermFact]
                                                            ) [TermExpr]
                                                          ) [AssignementExpr]
                                                        ) [DesignStatAssignment]
                                                      ) [StatementDes]
                                                    ) [StatementList_NoEps]
                                                    StatementDes(
                                                      DesignStatAssignment(
                                                        Designator(
                                                         jedan
                                                          DesDerived1(
                                                          ) [DesDerived1]
                                                        ) [Designator]
                                                        AssignementExpr(
                                                          TermExpr(
                                                            TermFact(
                                                              FactorDesign(
                                                                Designator(
                                                                 Broj
                                                                  DesEnum(
                                                                   JEDAN
                                                                  ) [DesEnum]
                                                                ) [Designator]
                                                              ) [FactorDesign]
                                                            ) [TermFact]
                                                          ) [TermExpr]
                                                        ) [AssignementExpr]
                                                      ) [DesignStatAssignment]
                                                    ) [StatementDes]
                                                  ) [StatementList_NoEps]
                                                  StatementDes(
                                                    DesignStatAssignment(
                                                      Designator(
                                                       bodovi
                                                        DesDerived1(
                                                        ) [DesDerived1]
                                                      ) [Designator]
                                                      AssignementExpr(
                                                        TermExpr(
                                                          TermFact(
                                                            FactorConst(
                                                              ConstNum(
                                                               0
                                                              ) [ConstNum]
                                                            ) [FactorConst]
                                                          ) [TermFact]
                                                        ) [TermExpr]
                                                      ) [AssignementExpr]
                                                    ) [DesignStatAssignment]
                                                  ) [StatementDes]
                                                ) [StatementList_NoEps]
                                                StatementDes(
                                                  DesignStatInc(
                                                    Designator(
                                                     bodovi
                                                      DesDerived1(
                                                      ) [DesDerived1]
                                                    ) [Designator]
                                                  ) [DesignStatInc]
                                                ) [StatementDes]
                                              ) [StatementList_NoEps]
                                              StatementDes(
                                                DesignStatAssignment(
                                                  Designator(
                                                   bodovi
                                                    DesDerived1(
                                                    ) [DesDerived1]
                                                  ) [Designator]
                                                  AssignementExpr(
                                                    AddopExp(
                                                      TermExpr(
                                                        TermFact(
                                                          FactorDesign(
                                                            Designator(
                                                             bodovi
                                                              DesDerived1(
                                                              ) [DesDerived1]
                                                            ) [Designator]
                                                          ) [FactorDesign]
                                                        ) [TermFact]
                                                      ) [TermExpr]
                                                      Addop_Plus(
                                                      ) [Addop_Plus]
                                                      TermFact(
                                                        FactorDesign(
                                                          Designator(
                                                           jedan
                                                            DesDerived1(
                                                            ) [DesDerived1]
                                                          ) [Designator]
                                                        ) [FactorDesign]
                                                      ) [TermFact]
                                                    ) [AddopExp]
                                                  ) [AssignementExpr]
                                                ) [DesignStatAssignment]
                                              ) [StatementDes]
                                            ) [StatementList_NoEps]
                                            StatementDes(
                                              DesignStatAssignment(
                                                Designator(
                                                 bodovi
                                                  DesDerived1(
                                                  ) [DesDerived1]
                                                ) [Designator]
                                                AssignementExpr(
                                                  TermExpr(
                                                    TermMulop(
                                                      TermFact(
                                                        FactorDesign(
                                                          Designator(
                                                           bodovi
                                                            DesDerived1(
                                                            ) [DesDerived1]
                                                          ) [Designator]
                                                        ) [FactorDesign]
                                                      ) [TermFact]
                                                      Mulop_Mul(
                                                      ) [Mulop_Mul]
                                                      FactorDesign(
                                                        Designator(
                                                         pet
                                                          DesDerived1(
                                                          ) [DesDerived1]
                                                        ) [Designator]
                                                      ) [FactorDesign]
                                                    ) [TermMulop]
                                                  ) [TermExpr]
                                                ) [AssignementExpr]
                                              ) [DesignStatAssignment]
                                            ) [StatementDes]
                                          ) [StatementList_NoEps]
                                          StatementDes(
                                            DesignStatDec(
                                              Designator(
                                               bodovi
                                                DesDerived1(
                                                ) [DesDerived1]
                                              ) [Designator]
                                            ) [DesignStatDec]
                                          ) [StatementDes]
                                        ) [StatementList_NoEps]
                                        StatPrint(
                                          TermExpr(
                                            TermFact(
                                              FactorDesign(
                                                Designator(
                                                 bodovi
                                                  DesDerived1(
                                                  ) [DesDerived1]
                                                ) [Designator]
                                              ) [FactorDesign]
                                            ) [TermFact]
                                          ) [TermExpr]
                                        ) [StatPrint]
                                      ) [StatementList_NoEps]
                                      StatementDes(
                                        DesignStatAssignment(
                                          Designator(
                                           niz
                                            DesDerived1(
                                            ) [DesDerived1]
                                          ) [Designator]
                                          AssignementExpr(
                                            TermExpr(
                                              TermFact(
                                                FactorNewArr(
                                                  Type(
                                                   char
                                                  ) [Type]
                                                  TermExpr(
                                                    TermFact(
                                                      FactorConst(
                                                        ConstNum(
                                                         2
                                                        ) [ConstNum]
                                                      ) [FactorConst]
                                                    ) [TermFact]
                                                  ) [TermExpr]
                                                ) [FactorNewArr]
                                              ) [TermFact]
                                            ) [TermExpr]
                                          ) [AssignementExpr]
                                        ) [DesignStatAssignment]
                                      ) [StatementDes]
                                    ) [StatementList_NoEps]
                                    StatementDes(
                                      DesignStatAssignment(
                                        Designator(
                                         niz
                                          DesArr(
                                            TermExpr(
                                              TermFact(
                                                FactorDesign(
                                                  Designator(
                                                   nula
                                                    DesDerived1(
                                                    ) [DesDerived1]
                                                  ) [Designator]
                                                ) [FactorDesign]
                                              ) [TermFact]
                                            ) [TermExpr]
                                          ) [DesArr]
                                        ) [Designator]
                                        AssignementExpr(
                                          TermExpr(
                                            TermFact(
                                              FactorDesign(
                                                Designator(
                                                 pet
                                                  DesDerived1(
                                                  ) [DesDerived1]
                                                ) [Designator]
                                              ) [FactorDesign]
                                            ) [TermFact]
                                          ) [TermExpr]
                                        ) [AssignementExpr]
                                      ) [DesignStatAssignment]
                                    ) [StatementDes]
                                  ) [StatementList_NoEps]
                                  StatementDes(
                                    DesignStatAssignment(
                                      Designator(
                                       niz
                                        DesArr(
                                          TermExpr(
                                            TermFact(
                                              FactorConst(
                                                ConstNum(
                                                 1
                                                ) [ConstNum]
                                              ) [FactorConst]
                                            ) [TermFact]
                                          ) [TermExpr]
                                        ) [DesArr]
                                      ) [Designator]
                                      AssignementExpr(
                                        TermExpr(
                                          TermFact(
                                            FactorDesign(
                                              Designator(
                                               Broj
                                                DesEnum(
                                                 DESET
                                                ) [DesEnum]
                                              ) [Designator]
                                            ) [FactorDesign]
                                          ) [TermFact]
                                        ) [TermExpr]
                                      ) [AssignementExpr]
                                    ) [DesignStatAssignment]
                                  ) [StatementDes]
                                ) [StatementList_NoEps]
                                StatementDes(
                                  DesignStatAssignment(
                                    Designator(
                                     bodovi
                                      DesDerived1(
                                      ) [DesDerived1]
                                    ) [Designator]
                                    AssignementExpr(
                                      TermExpr(
                                        TermMulop(
                                          TermFact(
                                            FactorDesign(
                                              Designator(
                                               niz
                                                DesArr(
                                                  TermExpr(
                                                    TermFact(
                                                      FactorConst(
                                                        ConstNum(
                                                         1
                                                        ) [ConstNum]
                                                      ) [FactorConst]
                                                    ) [TermFact]
                                                  ) [TermExpr]
                                                ) [DesArr]
                                              ) [Designator]
                                            ) [FactorDesign]
                                          ) [TermFact]
                                          Mulop_Div(
                                          ) [Mulop_Div]
                                          FactorDesign(
                                            Designator(
                                             niz
                                              DesArr(
                                                TermExpr(
                                                  TermFact(
                                                    FactorConst(
                                                      ConstNum(
                                                       0
                                                      ) [ConstNum]
                                                    ) [FactorConst]
                                                  ) [TermFact]
                                                ) [TermExpr]
                                              ) [DesArr]
                                            ) [Designator]
                                          ) [FactorDesign]
                                        ) [TermMulop]
                                      ) [TermExpr]
                                    ) [AssignementExpr]
                                  ) [DesignStatAssignment]
                                ) [StatementDes]
                              ) [StatementList_NoEps]
                              StatPrint(
                                TermExpr(
                                  TermFact(
                                    FactorDesign(
                                      Designator(
                                       bodovi
                                        DesDerived1(
                                        ) [DesDerived1]
                                      ) [Designator]
                                    ) [FactorDesign]
                                  ) [TermFact]
                                ) [TermExpr]
                              ) [StatPrint]
                            ) [StatementList_NoEps]
                            StatPrint(
                              TermExpr(
                                TermFact(
                                  FactorDesign(
                                    Designator(
                                     niz
                                      DesArr(
                                        TermExpr(
                                          TermFact(
                                            FactorDesign(
                                              Designator(
                                               Broj
                                                DesEnum(
                                                 JEDAN
                                                ) [DesEnum]
                                              ) [Designator]
                                            ) [FactorDesign]
                                          ) [TermFact]
                                        ) [TermExpr]
                                      ) [DesArr]
                                    ) [Designator]
                                  ) [FactorDesign]
                                ) [TermFact]
                              ) [TermExpr]
                            ) [StatPrint]
                          ) [StatementList_NoEps]
                          StatementDes(
                            DesignStatAssignment(
                              Designator(
                               nizch
                                DesDerived1(
                                ) [DesDerived1]
                              ) [Designator]
                              AssignementExpr(
                                TermExpr(
                                  TermFact(
                                    FactorNewArr(
                                      Type(
                                       char
                                      ) [Type]
                                      TermExpr(
                                        TermFact(
                                          FactorConst(
                                            ConstNum(
                                             3
                                            ) [ConstNum]
                                          ) [FactorConst]
                                        ) [TermFact]
                                      ) [TermExpr]
                                    ) [FactorNewArr]
                                  ) [TermFact]
                                ) [TermExpr]
                              ) [AssignementExpr]
                            ) [DesignStatAssignment]
                          ) [StatementDes]
                        ) [StatementList_NoEps]
                        StatementDes(
                          DesignStatAssignment(
                            Designator(
                             nizch
                              DesArr(
                                TermExpr(
                                  TermFact(
                                    FactorConst(
                                      ConstNum(
                                       0
                                      ) [ConstNum]
                                    ) [FactorConst]
                                  ) [TermFact]
                                ) [TermExpr]
                              ) [DesArr]
                            ) [Designator]
                            AssignementExpr(
                              TermExpr(
                                TermFact(
                                  FactorConst(
                                    ConstChar(
                                     a
                                    ) [ConstChar]
                                  ) [FactorConst]
                                ) [TermFact]
                              ) [TermExpr]
                            ) [AssignementExpr]
                          ) [DesignStatAssignment]
                        ) [StatementDes]
                      ) [StatementList_NoEps]
                      StatementDes(
                        DesignStatAssignment(
                          Designator(
                           nizch
                            DesArr(
                              TermExpr(
                                TermFact(
                                  FactorDesign(
                                    Designator(
                                     jedan
                                      DesDerived1(
                                      ) [DesDerived1]
                                    ) [Designator]
                                  ) [FactorDesign]
                                ) [TermFact]
                              ) [TermExpr]
                            ) [DesArr]
                          ) [Designator]
                          AssignementExpr(
                            TermExpr(
                              TermFact(
                                FactorConst(
                                  ConstChar(
                                   b
                                  ) [ConstChar]
                                ) [FactorConst]
                              ) [TermFact]
                            ) [TermExpr]
                          ) [AssignementExpr]
                        ) [DesignStatAssignment]
                      ) [StatementDes]
                    ) [StatementList_NoEps]
                    StatementDes(
                      DesignStatAssignment(
                        Designator(
                         nizch
                          DesArr(
                            AddopExp(
                              TermExpr(
                                TermFact(
                                  FactorDesign(
                                    Designator(
                                     pet
                                      DesDerived1(
                                      ) [DesDerived1]
                                    ) [Designator]
                                  ) [FactorDesign]
                                ) [TermFact]
                              ) [TermExpr]
                              Addop_Minus(
                              ) [Addop_Minus]
                              TermFact(
                                FactorConst(
                                  ConstNum(
                                   3
                                  ) [ConstNum]
                                ) [FactorConst]
                              ) [TermFact]
                            ) [AddopExp]
                          ) [DesArr]
                        ) [Designator]
                        AssignementExpr(
                          TermExpr(
                            TermFact(
                              FactorConst(
                                ConstChar(
                                 c
                                ) [ConstChar]
                              ) [FactorConst]
                            ) [TermFact]
                          ) [TermExpr]
                        ) [AssignementExpr]
                      ) [DesignStatAssignment]
                    ) [StatementDes]
                  ) [StatementList_NoEps]
                  StatPrint(
                    TermExpr(
                      TermFact(
                        FactorDesign(
                          Designator(
                           nizch
                            DesArr(
                              AddopExp(
                                TermExpr(
                                  TermFact(
                                    FactorConst(
                                      ConstNum(
                                       2
                                      ) [ConstNum]
                                    ) [FactorConst]
                                  ) [TermFact]
                                ) [TermExpr]
                                Addop_Minus(
                                ) [Addop_Minus]
                                TermFact(
                                  FactorConst(
                                    ConstNum(
                                     1
                                    ) [ConstNum]
                                  ) [FactorConst]
                                ) [TermFact]
                              ) [AddopExp]
                            ) [DesArr]
                          ) [Designator]
                        ) [FactorDesign]
                      ) [TermFact]
                    ) [TermExpr]
                  ) [StatPrint]
                ) [StatementList_NoEps]
                StatPrint(
                  TermExpr(
                    TermFact(
                      FactorDesign(
                        Designator(
                         nizch
                          DesArr(
                            TermExpr(
                              TermMulop(
                                TermFact(
                                  FactorDesign(
                                    Designator(
                                     jedan
                                      DesDerived1(
                                      ) [DesDerived1]
                                    ) [Designator]
                                  ) [FactorDesign]
                                ) [TermFact]
                                Mulop_Mul(
                                ) [Mulop_Mul]
                                FactorConst(
                                  ConstNum(
                                   2
                                  ) [ConstNum]
                                ) [FactorConst]
                              ) [TermMulop]
                            ) [TermExpr]
                          ) [DesArr]
                        ) [Designator]
                      ) [FactorDesign]
                    ) [TermFact]
                  ) [TermExpr]
                ) [StatPrint]
              ) [StatementList_NoEps]
              StatementDes(
                DesignStatAssignment(
                  Designator(
                   bodovi
                    DesDerived1(
                    ) [DesDerived1]
                  ) [Designator]
                  AssignementExpr(
                    AddopExp(
                      TermExpr(
                        TermFact(
                          FactorDesign(
                            Designator(
                             bodovi
                              DesDerived1(
                              ) [DesDerived1]
                            ) [Designator]
                          ) [FactorDesign]
                        ) [TermFact]
                      ) [TermExpr]
                      Addop_Plus(
                      ) [Addop_Plus]
                      TermFact(
                        FactorExpr(
                          AddopExp(
                            AddopExp(
                              TermExpr(
                                TermMulop(
                                  TermFact(
                                    FactorExpr(
                                      AddopExp(
                                        TermExpr(
                                          TermMulop(
                                            TermFact(
                                              FactorDesign(
                                                Designator(
                                                 pet
                                                  DesDerived1(
                                                  ) [DesDerived1]
                                                ) [Designator]
                                              ) [FactorDesign]
                                            ) [TermFact]
                                            Mulop_Mul(
                                            ) [Mulop_Mul]
                                            FactorDesign(
                                              Designator(
                                               jedan
                                                DesDerived1(
                                                ) [DesDerived1]
                                              ) [Designator]
                                            ) [FactorDesign]
                                          ) [TermMulop]
                                        ) [TermExpr]
                                        Addop_Minus(
                                        ) [Addop_Minus]
                                        TermFact(
                                          FactorConst(
                                            ConstNum(
                                             1
                                            ) [ConstNum]
                                          ) [FactorConst]
                                        ) [TermFact]
                                      ) [AddopExp]
                                    ) [FactorExpr]
                                  ) [TermFact]
                                  Mulop_Mul(
                                  ) [Mulop_Mul]
                                  FactorConst(
                                    ConstNum(
                                     2
                                    ) [ConstNum]
                                  ) [FactorConst]
                                ) [TermMulop]
                              ) [TermExpr]
                              Addop_Minus(
                              ) [Addop_Minus]
                              TermFact(
                                FactorExpr(
                                  AddopExp(
                                    AddopExp(
                                      TermExpr(
                                        TermMulop(
                                          TermFact(
                                            FactorConst(
                                              ConstNum(
                                               3
                                              ) [ConstNum]
                                            ) [FactorConst]
                                          ) [TermFact]
                                          Mulop_Mod(
                                          ) [Mulop_Mod]
                                          FactorConst(
                                            ConstNum(
                                             2
                                            ) [ConstNum]
                                          ) [FactorConst]
                                        ) [TermMulop]
                                      ) [TermExpr]
                                      Addop_Plus(
                                      ) [Addop_Plus]
                                      TermMulop(
                                        TermFact(
                                          FactorConst(
                                            ConstNum(
                                             3
                                            ) [ConstNum]
                                          ) [FactorConst]
                                        ) [TermFact]
                                        Mulop_Mul(
                                        ) [Mulop_Mul]
                                        FactorConst(
                                          ConstNum(
                                           2
                                          ) [ConstNum]
                                        ) [FactorConst]
                                      ) [TermMulop]
                                    ) [AddopExp]
                                    Addop_Minus(
                                    ) [Addop_Minus]
                                    TermFact(
                                      FactorConst(
                                        ConstNum(
                                         3
                                        ) [ConstNum]
                                      ) [FactorConst]
                                    ) [TermFact]
                                  ) [AddopExp]
                                ) [FactorExpr]
                              ) [TermFact]
                            ) [AddopExp]
                            Addop_Minus(
                            ) [Addop_Minus]
                            TermMulop(
                              TermFact(
                                FactorDesign(
                                  Designator(
                                   Broj
                                    DesEnum(
                                     JEDAN
                                    ) [DesEnum]
                                  ) [Designator]
                                ) [FactorDesign]
                              ) [TermFact]
                              Mulop_Mul(
                              ) [Mulop_Mul]
                              FactorConst(
                                ConstNum(
                                 0
                                ) [ConstNum]
                              ) [FactorConst]
                            ) [TermMulop]
                          ) [AddopExp]
                        ) [FactorExpr]
                      ) [TermFact]
                    ) [AddopExp]
                  ) [AssignementExpr]
                ) [DesignStatAssignment]
              ) [StatementDes]
            ) [StatementList_NoEps]
            StatPrint(
              TermExpr(
                TermFact(
                  FactorDesign(
                    Designator(
                     bodovi
                      DesDerived1(
                      ) [DesDerived1]
                    ) [Designator]
                  ) [FactorDesign]
                ) [TermFact]
              ) [TermExpr]
            ) [StatPrint]
          ) [StatementList_NoEps]
          StatRead(
            Designator(
             bodovi
              DesDerived1(
              ) [DesDerived1]
            ) [Designator]
          ) [StatRead]
        ) [StatementList_NoEps]
        StatementDes(
          DesignStatAssignment(
            Designator(
             bodovi
              DesDerived1(
              ) [DesDerived1]
            ) [Designator]
            AssignementExpr(
              AddopExp(
                TermExpr(
                  TermFact(
                    FactorDesign(
                      Designator(
                       bodovi
                        DesDerived1(
                        ) [DesDerived1]
                      ) [Designator]
                    ) [FactorDesign]
                  ) [TermFact]
                ) [TermExpr]
                Addop_Plus(
                ) [Addop_Plus]
                TermFact(
                  FactorConst(
                    ConstNum(
                     1
                    ) [ConstNum]
                  ) [FactorConst]
                ) [TermFact]
              ) [AddopExp]
            ) [AssignementExpr]
          ) [DesignStatAssignment]
        ) [StatementDes]
      ) [StatementList_NoEps]
      StatPrint(
        TermExpr(
          TermFact(
            FactorDesign(
              Designator(
               bodovi
                DesDerived1(
                ) [DesDerived1]
              ) [Designator]
            ) [FactorDesign]
          ) [TermFact]
        ) [TermExpr]
      ) [StatPrint]
    ) [StatementList_NoEps]
  ) [MethodDecl]
) [Program]
INFO  11:33:30,309 - ===================================
INFO  11:33:30,316 - Deklarisan novi enum tip Broj na liniji 5
INFO  11:33:30,320 - Deklarisana konstanta 'jedan' na liniji 7
INFO  11:33:30,325 - Deklarisana konstanta 'pet' na liniji 8
INFO  11:33:30,326 - Deklarisana promenljiva niza niz tipa 1 na liniji 10
INFO  11:33:30,326 - Deklarisana promenljiva niza nizch tipa 2 na liniji 11
INFO  11:33:30,326 - Obradjuje se funkcija main na liniji 14
INFO  11:33:30,326 - Deklarisana promenljiva bodovi tipa 1 na liniji 15
INFO  11:33:30,327 - Deklarisana promenljiva nula tipa 6 na liniji 16
INFO  11:33:30,327 - Deklarisana promenljiva jedan tipa 6 na liniji 16
INFO  11:33:30,327 - Designator ident je: nula, 6
INFO  11:33:30,327 - Designator ident je: Broj, 6
INFO  11:33:30,327 - kind design u factorDesign je: 2,a ime: Broj
INFO  11:33:30,327 - desObj kind je 1
INFO  11:33:30,328 - Dodeljenja vrednost: 6 je design,6 je assign
INFO  11:33:30,328 - Designator ident je: jedan, 6
INFO  11:33:30,328 - Designator ident je: Broj, 6
INFO  11:33:30,328 - kind design u factorDesign je: 2,a ime: Broj
INFO  11:33:30,328 - desObj kind je 1
INFO  11:33:30,328 - Dodeljenja vrednost: 6 je design,6 je assign
INFO  11:33:30,328 - Designator ident je: bodovi, 1
INFO  11:33:30,328 - desObj kind je 1
INFO  11:33:30,329 - Dodeljenja vrednost: 1 je design,1 je assign
INFO  11:33:30,329 - Designator ident je: bodovi, 1
INFO  11:33:30,329 - Inkrementirana vrednost
INFO  11:33:30,329 - Designator ident je: bodovi, 1
INFO  11:33:30,329 - Designator ident je: bodovi, 1
INFO  11:33:30,329 - kind design u factorDesign je: 1,a ime: bodovi
INFO  11:33:30,329 - Designator ident je: jedan, 6
INFO  11:33:30,329 - kind design u factorDesign je: 1,a ime: jedan
INFO  11:33:30,330 - desObj kind je 1
INFO  11:33:30,330 - Dodeljenja vrednost: 1 je design,1 je assign
INFO  11:33:30,330 - Designator ident je: bodovi, 1
INFO  11:33:30,330 - Designator ident je: bodovi, 1
INFO  11:33:30,330 - kind design u factorDesign je: 1,a ime: bodovi
INFO  11:33:30,330 - Designator ident je: pet, 1
INFO  11:33:30,330 - kind design u factorDesign je: 0,a ime: pet
INFO  11:33:30,330 - Clanovi term su su: 1, a clanovi factor 1
INFO  11:33:30,330 - desObj kind je 1
INFO  11:33:30,331 - Dodeljenja vrednost: 1 je design,1 je assign
INFO  11:33:30,331 - Designator ident je: bodovi, 1
INFO  11:33:30,331 - Dekrementirana vrednost
INFO  11:33:30,331 - Designator ident je: bodovi, 1
INFO  11:33:30,331 - kind design u factorDesign je: 1,a ime: bodovi
INFO  11:33:30,331 - Designator ident je: niz, 3
INFO  11:33:30,331 - desObj kind je 1
INFO  11:33:30,331 - Designator ident je: nula, 6
INFO  11:33:30,331 - kind design u factorDesign je: 1,a ime: nula
INFO  11:33:30,331 - Designator ident je: elem, 3
INFO  11:33:30,331 - Designator ident je: pet, 1
INFO  11:33:30,331 - kind design u factorDesign je: 0,a ime: pet
INFO  11:33:30,331 - desObj kind je 5
INFO  11:33:30,332 - Designator ident je: elem, 3
INFO  11:33:30,332 - Designator ident je: Broj, 6
INFO  11:33:30,332 - kind design u factorDesign je: 2,a ime: Broj
INFO  11:33:30,332 - desObj kind je 5
INFO  11:33:30,332 - Dodeljenja vrednost enum i int
INFO  11:33:30,332 - Designator ident je: bodovi, 1
INFO  11:33:30,332 - Designator ident je: elem, 3
INFO  11:33:30,332 - kind design u factorDesign je: 5,a ime: elem
INFO  11:33:30,332 - Designator ident je: elem, 3
INFO  11:33:30,332 - kind design u factorDesign je: 5,a ime: elem
INFO  11:33:30,332 - Clanovi term su su: 3, a clanovi factor 3
INFO  11:33:30,332 - desObj kind je 1
INFO  11:33:30,332 - Designator ident je: bodovi, 1
INFO  11:33:30,332 - kind design u factorDesign je: 1,a ime: bodovi
INFO  11:33:30,333 - Designator ident je: Broj, 6
INFO  11:33:30,333 - kind design u factorDesign je: 2,a ime: Broj
INFO  11:33:30,333 - Designator ident je: elem, 3
INFO  11:33:30,333 - kind design u factorDesign je: 5,a ime: elem
INFO  11:33:30,333 - Designator ident je: nizch, 3
INFO  11:33:30,333 - desObj kind je 1
INFO  11:33:30,333 - Designator ident je: elem, 3
INFO  11:33:30,333 - desObj kind je 5
INFO  11:33:30,333 - Designator ident je: jedan, 6
INFO  11:33:30,333 - kind design u factorDesign je: 1,a ime: jedan
INFO  11:33:30,333 - Designator ident je: elem, 3
INFO  11:33:30,334 - desObj kind je 5
INFO  11:33:30,334 - Designator ident je: pet, 1
INFO  11:33:30,334 - kind design u factorDesign je: 0,a ime: pet
INFO  11:33:30,334 - Designator ident je: elem, 3
INFO  11:33:30,334 - desObj kind je 5
INFO  11:33:30,334 - Designator ident je: elem, 3
INFO  11:33:30,334 - kind design u factorDesign je: 5,a ime: elem
INFO  11:33:30,334 - Designator ident je: jedan, 6
INFO  11:33:30,334 - kind design u factorDesign je: 1,a ime: jedan
INFO  11:33:30,334 - Clanovi term su su: 6, a clanovi factor 1
INFO  11:33:30,334 - Designator ident je: elem, 3
INFO  11:33:30,334 - kind design u factorDesign je: 5,a ime: elem
INFO  11:33:30,334 - Designator ident je: bodovi, 1
INFO  11:33:30,334 - Designator ident je: bodovi, 1
INFO  11:33:30,334 - kind design u factorDesign je: 1,a ime: bodovi
INFO  11:33:30,334 - Designator ident je: pet, 1
INFO  11:33:30,334 - kind design u factorDesign je: 0,a ime: pet
INFO  11:33:30,334 - Designator ident je: jedan, 6
INFO  11:33:30,335 - kind design u factorDesign je: 1,a ime: jedan
INFO  11:33:30,335 - Clanovi term su su: 1, a clanovi factor 6
INFO  11:33:30,335 - Clanovi term su su: 6, a clanovi factor 1
INFO  11:33:30,335 - Clanovi term su su: 1, a clanovi factor 1
INFO  11:33:30,335 - Clanovi term su su: 1, a clanovi factor 1
INFO  11:33:30,336 - Designator ident je: Broj, 6
INFO  11:33:30,336 - kind design u factorDesign je: 2,a ime: Broj
INFO  11:33:30,336 - Clanovi term su su: 6, a clanovi factor 1
INFO  11:33:30,336 - desObj kind je 1
INFO  11:33:30,336 - Dodeljenja vrednost: 1 je design,1 je assign
INFO  11:33:30,336 - Designator ident je: bodovi, 1
INFO  11:33:30,336 - kind design u factorDesign je: 1,a ime: bodovi
INFO  11:33:30,336 - Designator ident je: bodovi, 1
INFO  11:33:30,336 - Designator ident je: bodovi, 1
INFO  11:33:30,336 - Designator ident je: bodovi, 1
INFO  11:33:30,336 - kind design u factorDesign je: 1,a ime: bodovi
INFO  11:33:30,336 - desObj kind je 1
INFO  11:33:30,336 - Dodeljenja vrednost: 1 je design,1 je assign
INFO  11:33:30,337 - Designator ident je: bodovi, 1
INFO  11:33:30,338 - kind design u factorDesign je: 1,a ime: bodovi
INFO  11:33:30,338 -  Print count calls = 4
INFO  11:33:30,338 -  Deklarisanih promenljivih ima = 3
INFO  11:33:30,340 - Parsiranje uspesno zavrseno!
