INFO  10:51:49,746 - Compiling source file: C:\Users\ikadr\Desktop\PP\Projekat\Rad\workspace\MJCompiler\test\program.mj
INFO  10:51:49,821 - #2 program
INFO  10:51:49,821 - #28 test301
INFO  10:51:49,821 - #9 enum
INFO  10:51:49,825 - #28 Broj
INFO  10:51:49,825 - #17 {
INFO  10:51:49,827 - #28 NULA
INFO  10:51:49,827 - #12 ,
INFO  10:51:49,827 - #28 JEDAN
INFO  10:51:49,827 - #12 ,
INFO  10:51:49,828 - #28 PET
INFO  10:51:49,828 - #11 =
INFO  10:51:49,828 - #27 5
INFO  10:51:49,828 - #12 ,
INFO  10:51:49,828 - #28 DESET
INFO  10:51:49,829 - #11 =
INFO  10:51:49,829 - #27 10
INFO  10:51:49,829 - #18 }
INFO  10:51:49,829 - #8 const
INFO  10:51:49,831 - #28 int
INFO  10:51:49,831 - #28 jedan
INFO  10:51:49,833 - #11 =
INFO  10:51:49,850 - #27 1
INFO  10:51:49,850 - #10 ;
INFO  10:51:49,852 - #8 const
INFO  10:51:49,853 - #28 int
INFO  10:51:49,853 - #28 pet
INFO  10:51:49,853 - #11 =
INFO  10:51:49,853 - #27 5
INFO  10:51:49,854 - #10 ;
INFO  10:51:49,854 - #28 int
INFO  10:51:49,854 - #28 niz
INFO  10:51:49,854 - #15 [
INFO  10:51:49,854 - #16 ]
INFO  10:51:49,855 - #10 ;
INFO  10:51:49,856 - #28 char
INFO  10:51:49,858 - #28 nizch
INFO  10:51:49,858 - #15 [
INFO  10:51:49,859 - #16 ]
INFO  10:51:49,859 - #10 ;
INFO  10:51:49,859 - #17 {
INFO  10:51:49,859 - #6 void
INFO  10:51:49,859 - #28 main
INFO  10:51:49,861 - #13 (
INFO  10:51:49,861 - #14 )
INFO  10:51:49,861 - #28 int
INFO  10:51:49,864 - #28 bodovi
INFO  10:51:49,864 - #10 ;
INFO  10:51:49,865 - #28 Broj
INFO  10:51:49,866 - #28 nula
INFO  10:51:49,866 - #12 ,
INFO  10:51:49,866 - #28 jedan
INFO  10:51:49,866 - #10 ;
INFO  10:51:49,868 - #17 {
INFO  10:51:49,868 - #28 nula
INFO  10:51:49,870 - #11 =
INFO  10:51:49,871 - #28 Broj
INFO  10:51:49,874 - #19 .
INFO  10:51:49,874 - #28 NULA
INFO  10:51:49,874 - #10 ;
INFO  10:51:49,875 - #28 jedan
INFO  10:51:49,876 - #11 =
INFO  10:51:49,876 - #28 Broj
INFO  10:51:49,876 - #19 .
INFO  10:51:49,876 - #28 JEDAN
INFO  10:51:49,880 - #10 ;
INFO  10:51:49,880 - #28 bodovi
INFO  10:51:49,880 - #11 =
INFO  10:51:49,881 - #27 0
INFO  10:51:49,929 - #10 ;
INFO  10:51:49,931 - #28 bodovi
INFO  10:51:49,931 - #20 ++
INFO  10:51:49,931 - #10 ;
INFO  10:51:49,932 - #28 bodovi
INFO  10:51:49,932 - #11 =
INFO  10:51:49,932 - #28 bodovi
INFO  10:51:49,932 - #23 +
INFO  10:51:49,933 - #28 jedan
INFO  10:51:49,936 - #10 ;
INFO  10:51:49,939 - #28 bodovi
INFO  10:51:49,939 - #11 =
INFO  10:51:49,939 - #28 bodovi
INFO  10:51:49,940 - #24 *
INFO  10:51:49,940 - #28 pet
INFO  10:51:49,944 - #10 ;
INFO  10:51:49,945 - #28 bodovi
INFO  10:51:49,945 - #21 --
INFO  10:51:49,945 - #10 ;
INFO  10:51:49,946 - #4 print
INFO  10:51:49,946 - #13 (
INFO  10:51:49,946 - #28 bodovi
INFO  10:51:49,946 - #14 )
INFO  10:51:49,946 - #10 ;
INFO  10:51:49,947 - #28 niz
INFO  10:51:49,947 - #11 =
INFO  10:51:49,948 - #5 new
INFO  10:51:49,948 - #28 int
INFO  10:51:49,948 - #15 [
INFO  10:51:49,948 - #27 2
INFO  10:51:49,948 - #16 ]
INFO  10:51:49,948 - #10 ;
INFO  10:51:49,949 - #28 niz
INFO  10:51:49,949 - #15 [
INFO  10:51:49,951 - #28 nula
INFO  10:51:49,952 - #16 ]
INFO  10:51:49,952 - #11 =
INFO  10:51:49,952 - #28 pet
INFO  10:51:49,953 - #10 ;
INFO  10:51:49,953 - #28 niz
INFO  10:51:49,953 - #15 [
INFO  10:51:49,953 - #27 1
INFO  10:51:49,953 - #16 ]
INFO  10:51:49,954 - #11 =
INFO  10:51:49,954 - #28 Broj
INFO  10:51:49,954 - #19 .
INFO  10:51:49,954 - #28 DESET
INFO  10:51:49,955 - #10 ;
INFO  10:51:49,955 - #28 bodovi
INFO  10:51:49,955 - #11 =
INFO  10:51:49,955 - #28 niz
INFO  10:51:49,955 - #15 [
INFO  10:51:49,955 - #27 1
INFO  10:51:49,955 - #16 ]
INFO  10:51:49,956 - #25 /
INFO  10:51:49,956 - #28 niz
INFO  10:51:49,975 - #15 [
INFO  10:51:49,982 - #27 0
INFO  10:51:49,983 - #16 ]
INFO  10:51:49,983 - #10 ;
INFO  10:51:49,983 - #4 print
INFO  10:51:49,983 - #13 (
INFO  10:51:49,984 - #28 bodovi
INFO  10:51:49,984 - #14 )
INFO  10:51:49,984 - #10 ;
INFO  10:51:49,984 - #4 print
INFO  10:51:49,984 - #13 (
INFO  10:51:49,984 - #28 niz
INFO  10:51:49,984 - #15 [
INFO  10:51:49,985 - #28 Broj
INFO  10:51:49,985 - #19 .
INFO  10:51:49,985 - #28 JEDAN
INFO  10:51:49,985 - #16 ]
INFO  10:51:49,985 - #14 )
INFO  10:51:49,985 - #10 ;
INFO  10:51:49,985 - #28 nizch
INFO  10:51:49,985 - #11 =
INFO  10:51:49,990 - #5 new
INFO  10:51:49,990 - #28 char
INFO  10:51:49,990 - #15 [
INFO  10:51:49,990 - #27 3
INFO  10:51:49,990 - #16 ]
INFO  10:51:49,990 - #10 ;
INFO  10:51:49,991 - #28 nizch
INFO  10:51:49,991 - #15 [
INFO  10:51:49,991 - #27 0
INFO  10:51:49,992 - #16 ]
INFO  10:51:49,992 - #11 =
INFO  10:51:49,992 - #29 a
INFO  10:51:49,992 - #10 ;
INFO  10:51:49,992 - #28 nizch
INFO  10:51:49,993 - #15 [
INFO  10:51:49,993 - #28 jedan
INFO  10:51:49,993 - #16 ]
INFO  10:51:49,993 - #11 =
INFO  10:51:49,993 - #29 b
INFO  10:51:49,993 - #10 ;
INFO  10:51:49,994 - #28 nizch
INFO  10:51:49,994 - #15 [
INFO  10:51:49,994 - #28 pet
INFO  10:51:49,995 - #22 -
INFO  10:51:49,995 - #27 3
INFO  10:51:50,007 - #16 ]
INFO  10:51:50,007 - #11 =
INFO  10:51:50,007 - #29 c
INFO  10:51:50,007 - #10 ;
INFO  10:51:50,008 - #4 print
INFO  10:51:50,008 - #13 (
INFO  10:51:50,008 - #28 nizch
INFO  10:51:50,008 - #15 [
INFO  10:51:50,008 - #27 2
INFO  10:51:50,009 - #22 -
INFO  10:51:50,009 - #27 1
INFO  10:51:50,009 - #16 ]
INFO  10:51:50,009 - #14 )
INFO  10:51:50,010 - #10 ;
INFO  10:51:50,010 - #4 print
INFO  10:51:50,010 - #13 (
INFO  10:51:50,010 - #28 nizch
INFO  10:51:50,010 - #15 [
INFO  10:51:50,023 - #28 jedan
INFO  10:51:50,024 - #24 *
INFO  10:51:50,025 - #27 2
INFO  10:51:50,026 - #16 ]
INFO  10:51:50,026 - #14 )
INFO  10:51:50,026 - #10 ;
INFO  10:51:50,027 - #28 bodovi
INFO  10:51:50,027 - #11 =
INFO  10:51:50,027 - #28 bodovi
INFO  10:51:50,027 - #23 +
INFO  10:51:50,027 - #13 (
INFO  10:51:50,027 - #13 (
INFO  10:51:50,027 - #28 pet
INFO  10:51:50,028 - #24 *
INFO  10:51:50,028 - #28 jedan
INFO  10:51:50,028 - #22 -
INFO  10:51:50,028 - #27 1
INFO  10:51:50,028 - #14 )
INFO  10:51:50,028 - #24 *
INFO  10:51:50,029 - #27 2
INFO  10:51:50,029 - #22 -
INFO  10:51:50,029 - #13 (
INFO  10:51:50,029 - #27 3
INFO  10:51:50,029 - #26 %
INFO  10:51:50,029 - #27 2
INFO  10:51:50,056 - #23 +
INFO  10:51:50,056 - #27 3
INFO  10:51:50,056 - #24 *
INFO  10:51:50,057 - #27 2
INFO  10:51:50,057 - #22 -
INFO  10:51:50,057 - #27 3
INFO  10:51:50,057 - #14 )
INFO  10:51:50,057 - #22 -
INFO  10:51:50,057 - #28 Broj
INFO  10:51:50,057 - #19 .
INFO  10:51:50,057 - #28 JEDAN
INFO  10:51:50,057 - #24 *
INFO  10:51:50,057 - #27 0
INFO  10:51:50,058 - #14 )
INFO  10:51:50,058 - #10 ;
INFO  10:51:50,058 - #4 print
INFO  10:51:50,058 - #13 (
INFO  10:51:50,058 - #28 bodovi
INFO  10:51:50,058 - #14 )
INFO  10:51:50,058 - #10 ;
INFO  10:51:50,058 - #3 read
INFO  10:51:50,058 - #13 (
INFO  10:51:50,058 - #28 bodovi
INFO  10:51:50,058 - #14 )
INFO  10:51:50,058 - #10 ;
INFO  10:51:50,059 - #28 bodovi
INFO  10:51:50,059 - #11 =
INFO  10:51:50,059 - #28 bodovi
INFO  10:51:50,059 - #23 +
INFO  10:51:50,059 - #27 1
INFO  10:51:50,059 - #10 ;
INFO  10:51:50,059 - #4 print
INFO  10:51:50,059 - #13 (
INFO  10:51:50,059 - #28 bodovi
INFO  10:51:50,059 - #14 )
INFO  10:51:50,059 - #10 ;
INFO  10:51:50,060 - #18 }
INFO  10:51:50,060 - #18 }
INFO  10:51:50,179 - Program(
  ProgName(
   test301
  ) [ProgName]
  GlobalDeclListL(
    GlobalDeclListL(
      GlobalDeclListL(
        GlobalDeclListL(
          GlobalDeclListL(
            GlobalDeclListEps(
            ) [GlobalDeclListEps]
            GlobalDeclEnum(
              EnumDecl(
                EnumName(
                 Broj
                ) [EnumName]
                EnumDeclListL(
                  EnumDeclListL(
                    EnumDeclListL(
                      EnumDeclItem(
                        EnumDeclDefNoVal(
                         NULA
                        ) [EnumDeclDefNoVal]
                      ) [EnumDeclItem]
                      EnumDeclDefNoVal(
                       JEDAN
                      ) [EnumDeclDefNoVal]
                    ) [EnumDeclListL]
                    EnumDeclDefVal(
                     PET
                     5
                    ) [EnumDeclDefVal]
                  ) [EnumDeclListL]
                  EnumDeclDefVal(
                   DESET
                   10
                  ) [EnumDeclDefVal]
                ) [EnumDeclListL]
              ) [EnumDecl]
            ) [GlobalDeclEnum]
          ) [GlobalDeclListL]
          GlobalDeclConst(
            ConstDecl(
              Type(
               int
              ) [Type]
              ConstDeclItem(
                ConstDef(
                 jedan
                  ConstNum(
                   1
                  ) [ConstNum]
                ) [ConstDef]
              ) [ConstDeclItem]
            ) [ConstDecl]
          ) [GlobalDeclConst]
        ) [GlobalDeclListL]
        GlobalDeclConst(
          ConstDecl(
            Type(
             int
            ) [Type]
            ConstDeclItem(
              ConstDef(
               pet
                ConstNum(
                 5
                ) [ConstNum]
              ) [ConstDef]
            ) [ConstDeclItem]
          ) [ConstDecl]
        ) [GlobalDeclConst]
      ) [GlobalDeclListL]
      GlobalDeclVar(
        GlobalVarDecl(
          Type(
           int
          ) [Type]
          GlobalVarDeclItem(
            GlobalVarDeclDefOk(
              VarDeclDefineArray(
               niz
              ) [VarDeclDefineArray]
            ) [GlobalVarDeclDefOk]
          ) [GlobalVarDeclItem]
        ) [GlobalVarDecl]
      ) [GlobalDeclVar]
    ) [GlobalDeclListL]
    GlobalDeclVar(
      GlobalVarDecl(
        Type(
         char
        ) [Type]
        GlobalVarDeclItem(
          GlobalVarDeclDefOk(
            VarDeclDefineArray(
             nizch
            ) [VarDeclDefineArray]
          ) [GlobalVarDeclDefOk]
        ) [GlobalVarDeclItem]
      ) [GlobalVarDecl]
    ) [GlobalDeclVar]
  ) [GlobalDeclListL]
  MethodDecl(
    MethodSignature(
      VoidableType(
      ) [VoidableType]
     main
    ) [MethodSignature]
    VarMethodDeclList_NoEps(
      VarMethodDeclList_NoEps(
        VarMethodDeclList_Eps(
        ) [VarMethodDeclList_Eps]
        VarDecl(
          Type(
           int
          ) [Type]
          VarDeclItem(
            VarDeclDefineSingle(
             bodovi
            ) [VarDeclDefineSingle]
          ) [VarDeclItem]
        ) [VarDecl]
      ) [VarMethodDeclList_NoEps]
      VarDecl(
        Type(
         Broj
        ) [Type]
        VarDeclListL(
          VarDeclItem(
            VarDeclDefineSingle(
             nula
            ) [VarDeclDefineSingle]
          ) [VarDeclItem]
          VarDeclDefineSingle(
           jedan
          ) [VarDeclDefineSingle]
        ) [VarDeclListL]
      ) [VarDecl]
    ) [VarMethodDeclList_NoEps]
    StatementList_NoEps(
      StatementList_NoEps(
        StatementList_NoEps(
          StatementList_NoEps(
            StatementList_NoEps(
              StatementList_NoEps(
                StatementList_NoEps(
                  StatementList_NoEps(
                    StatementList_NoEps(
                      StatementList_NoEps(
                        StatementList_NoEps(
                          StatementList_NoEps(
                            StatementList_NoEps(
                              StatementList_NoEps(
                                StatementList_NoEps(
                                  StatementList_NoEps(
                                    StatementList_NoEps(
                                      StatementList_NoEps(
                                        StatementList_NoEps(
                                          StatementList_NoEps(
                                            StatementList_NoEps(
                                              StatementList_NoEps(
                                                StatementList_NoEps(
                                                  StatementList_NoEps(
                                                    StatementList_NoEps(
                                                      StatementList_Eps(
                                                      ) [StatementList_Eps]
                                                      StatementDes(
                                                        DesignStatAssignment(
                                                          DesIdent(
                                                           nula
                                                          ) [DesIdent]
                                                          AssignementExpr(
                                                            TermExpr(
                                                              MinusNo(
                                                              ) [MinusNo]
                                                              TermFact(
                                                                FactorDesign(
                                                                  DesEnum(
                                                                   Broj
                                                                   NULA
                                                                  ) [DesEnum]
                                                                ) [FactorDesign]
                                                              ) [TermFact]
                                                            ) [TermExpr]
                                                          ) [AssignementExpr]
                                                        ) [DesignStatAssignment]
                                                      ) [StatementDes]
                                                    ) [StatementList_NoEps]
                                                    StatementDes(
                                                      DesignStatAssignment(
                                                        DesIdent(
                                                         jedan
                                                        ) [DesIdent]
                                                        AssignementExpr(
                                                          TermExpr(
                                                            MinusNo(
                                                            ) [MinusNo]
                                                            TermFact(
                                                              FactorDesign(
                                                                DesEnum(
                                                                 Broj
                                                                 JEDAN
                                                                ) [DesEnum]
                                                              ) [FactorDesign]
                                                            ) [TermFact]
                                                          ) [TermExpr]
                                                        ) [AssignementExpr]
                                                      ) [DesignStatAssignment]
                                                    ) [StatementDes]
                                                  ) [StatementList_NoEps]
                                                  StatementDes(
                                                    DesignStatAssignment(
                                                      DesIdent(
                                                       bodovi
                                                      ) [DesIdent]
                                                      AssignementExpr(
                                                        TermExpr(
                                                          MinusNo(
                                                          ) [MinusNo]
                                                          TermFact(
                                                            FactorConst(
                                                              ConstNum(
                                                               0
                                                              ) [ConstNum]
                                                            ) [FactorConst]
                                                          ) [TermFact]
                                                        ) [TermExpr]
                                                      ) [AssignementExpr]
                                                    ) [DesignStatAssignment]
                                                  ) [StatementDes]
                                                ) [StatementList_NoEps]
                                                StatementDes(
                                                  DesignStatInc(
                                                    DesIdent(
                                                     bodovi
                                                    ) [DesIdent]
                                                  ) [DesignStatInc]
                                                ) [StatementDes]
                                              ) [StatementList_NoEps]
                                              StatementDes(
                                                DesignStatAssignment(
                                                  DesIdent(
                                                   bodovi
                                                  ) [DesIdent]
                                                  AssignementExpr(
                                                    AddopExp(
                                                      TermExpr(
                                                        MinusNo(
                                                        ) [MinusNo]
                                                        TermFact(
                                                          FactorDesign(
                                                            DesIdent(
                                                             bodovi
                                                            ) [DesIdent]
                                                          ) [FactorDesign]
                                                        ) [TermFact]
                                                      ) [TermExpr]
                                                      Addop_Plus(
                                                      ) [Addop_Plus]
                                                      TermFact(
                                                        FactorDesign(
                                                          DesIdent(
                                                           jedan
                                                          ) [DesIdent]
                                                        ) [FactorDesign]
                                                      ) [TermFact]
                                                    ) [AddopExp]
                                                  ) [AssignementExpr]
                                                ) [DesignStatAssignment]
                                              ) [StatementDes]
                                            ) [StatementList_NoEps]
                                            StatementDes(
                                              DesignStatAssignment(
                                                DesIdent(
                                                 bodovi
                                                ) [DesIdent]
                                                AssignementExpr(
                                                  TermExpr(
                                                    MinusNo(
                                                    ) [MinusNo]
                                                    TermMulop(
                                                      TermFact(
                                                        FactorDesign(
                                                          DesIdent(
                                                           bodovi
                                                          ) [DesIdent]
                                                        ) [FactorDesign]
                                                      ) [TermFact]
                                                      Mulop_Mul(
                                                      ) [Mulop_Mul]
                                                      FactorDesign(
                                                        DesIdent(
                                                         pet
                                                        ) [DesIdent]
                                                      ) [FactorDesign]
                                                    ) [TermMulop]
                                                  ) [TermExpr]
                                                ) [AssignementExpr]
                                              ) [DesignStatAssignment]
                                            ) [StatementDes]
                                          ) [StatementList_NoEps]
                                          StatementDes(
                                            DesignStatDec(
                                              DesIdent(
                                               bodovi
                                              ) [DesIdent]
                                            ) [DesignStatDec]
                                          ) [StatementDes]
                                        ) [StatementList_NoEps]
                                        StatPrint(
                                          TermExpr(
                                            MinusNo(
                                            ) [MinusNo]
                                            TermFact(
                                              FactorDesign(
                                                DesIdent(
                                                 bodovi
                                                ) [DesIdent]
                                              ) [FactorDesign]
                                            ) [TermFact]
                                          ) [TermExpr]
                                        ) [StatPrint]
                                      ) [StatementList_NoEps]
                                      StatementDes(
                                        DesignStatAssignment(
                                          DesIdent(
                                           niz
                                          ) [DesIdent]
                                          AssignementExpr(
                                            TermExpr(
                                              MinusNo(
                                              ) [MinusNo]
                                              TermFact(
                                                FactorNewArr(
                                                  Type(
                                                   int
                                                  ) [Type]
                                                  TermExpr(
                                                    MinusNo(
                                                    ) [MinusNo]
                                                    TermFact(
                                                      FactorConst(
                                                        ConstNum(
                                                         2
                                                        ) [ConstNum]
                                                      ) [FactorConst]
                                                    ) [TermFact]
                                                  ) [TermExpr]
                                                ) [FactorNewArr]
                                              ) [TermFact]
                                            ) [TermExpr]
                                          ) [AssignementExpr]
                                        ) [DesignStatAssignment]
                                      ) [StatementDes]
                                    ) [StatementList_NoEps]
                                    StatementDes(
                                      DesignStatAssignment(
                                        DesArr(
                                          ArrayName(
                                           niz
                                          ) [ArrayName]
                                          TermExpr(
                                            MinusNo(
                                            ) [MinusNo]
                                            TermFact(
                                              FactorDesign(
                                                DesIdent(
                                                 nula
                                                ) [DesIdent]
                                              ) [FactorDesign]
                                            ) [TermFact]
                                          ) [TermExpr]
                                        ) [DesArr]
                                        AssignementExpr(
                                          TermExpr(
                                            MinusNo(
                                            ) [MinusNo]
                                            TermFact(
                                              FactorDesign(
                                                DesIdent(
                                                 pet
                                                ) [DesIdent]
                                              ) [FactorDesign]
                                            ) [TermFact]
                                          ) [TermExpr]
                                        ) [AssignementExpr]
                                      ) [DesignStatAssignment]
                                    ) [StatementDes]
                                  ) [StatementList_NoEps]
                                  StatementDes(
                                    DesignStatAssignment(
                                      DesArr(
                                        ArrayName(
                                         niz
                                        ) [ArrayName]
                                        TermExpr(
                                          MinusNo(
                                          ) [MinusNo]
                                          TermFact(
                                            FactorConst(
                                              ConstNum(
                                               1
                                              ) [ConstNum]
                                            ) [FactorConst]
                                          ) [TermFact]
                                        ) [TermExpr]
                                      ) [DesArr]
                                      AssignementExpr(
                                        TermExpr(
                                          MinusNo(
                                          ) [MinusNo]
                                          TermFact(
                                            FactorDesign(
                                              DesEnum(
                                               Broj
                                               DESET
                                              ) [DesEnum]
                                            ) [FactorDesign]
                                          ) [TermFact]
                                        ) [TermExpr]
                                      ) [AssignementExpr]
                                    ) [DesignStatAssignment]
                                  ) [StatementDes]
                                ) [StatementList_NoEps]
                                StatementDes(
                                  DesignStatAssignment(
                                    DesIdent(
                                     bodovi
                                    ) [DesIdent]
                                    AssignementExpr(
                                      TermExpr(
                                        MinusNo(
                                        ) [MinusNo]
                                        TermMulop(
                                          TermFact(
                                            FactorDesign(
                                              DesArr(
                                                ArrayName(
                                                 niz
                                                ) [ArrayName]
                                                TermExpr(
                                                  MinusNo(
                                                  ) [MinusNo]
                                                  TermFact(
                                                    FactorConst(
                                                      ConstNum(
                                                       1
                                                      ) [ConstNum]
                                                    ) [FactorConst]
                                                  ) [TermFact]
                                                ) [TermExpr]
                                              ) [DesArr]
                                            ) [FactorDesign]
                                          ) [TermFact]
                                          Mulop_Div(
                                          ) [Mulop_Div]
                                          FactorDesign(
                                            DesArr(
                                              ArrayName(
                                               niz
                                              ) [ArrayName]
                                              TermExpr(
                                                MinusNo(
                                                ) [MinusNo]
                                                TermFact(
                                                  FactorConst(
                                                    ConstNum(
                                                     0
                                                    ) [ConstNum]
                                                  ) [FactorConst]
                                                ) [TermFact]
                                              ) [TermExpr]
                                            ) [DesArr]
                                          ) [FactorDesign]
                                        ) [TermMulop]
                                      ) [TermExpr]
                                    ) [AssignementExpr]
                                  ) [DesignStatAssignment]
                                ) [StatementDes]
                              ) [StatementList_NoEps]
                              StatPrint(
                                TermExpr(
                                  MinusNo(
                                  ) [MinusNo]
                                  TermFact(
                                    FactorDesign(
                                      DesIdent(
                                       bodovi
                                      ) [DesIdent]
                                    ) [FactorDesign]
                                  ) [TermFact]
                                ) [TermExpr]
                              ) [StatPrint]
                            ) [StatementList_NoEps]
                            StatPrint(
                              TermExpr(
                                MinusNo(
                                ) [MinusNo]
                                TermFact(
                                  FactorDesign(
                                    DesArr(
                                      ArrayName(
                                       niz
                                      ) [ArrayName]
                                      TermExpr(
                                        MinusNo(
                                        ) [MinusNo]
                                        TermFact(
                                          FactorDesign(
                                            DesEnum(
                                             Broj
                                             JEDAN
                                            ) [DesEnum]
                                          ) [FactorDesign]
                                        ) [TermFact]
                                      ) [TermExpr]
                                    ) [DesArr]
                                  ) [FactorDesign]
                                ) [TermFact]
                              ) [TermExpr]
                            ) [StatPrint]
                          ) [StatementList_NoEps]
                          StatementDes(
                            DesignStatAssignment(
                              DesIdent(
                               nizch
                              ) [DesIdent]
                              AssignementExpr(
                                TermExpr(
                                  MinusNo(
                                  ) [MinusNo]
                                  TermFact(
                                    FactorNewArr(
                                      Type(
                                       char
                                      ) [Type]
                                      TermExpr(
                                        MinusNo(
                                        ) [MinusNo]
                                        TermFact(
                                          FactorConst(
                                            ConstNum(
                                             3
                                            ) [ConstNum]
                                          ) [FactorConst]
                                        ) [TermFact]
                                      ) [TermExpr]
                                    ) [FactorNewArr]
                                  ) [TermFact]
                                ) [TermExpr]
                              ) [AssignementExpr]
                            ) [DesignStatAssignment]
                          ) [StatementDes]
                        ) [StatementList_NoEps]
                        StatementDes(
                          DesignStatAssignment(
                            DesArr(
                              ArrayName(
                               nizch
                              ) [ArrayName]
                              TermExpr(
                                MinusNo(
                                ) [MinusNo]
                                TermFact(
                                  FactorConst(
                                    ConstNum(
                                     0
                                    ) [ConstNum]
                                  ) [FactorConst]
                                ) [TermFact]
                              ) [TermExpr]
                            ) [DesArr]
                            AssignementExpr(
                              TermExpr(
                                MinusNo(
                                ) [MinusNo]
                                TermFact(
                                  FactorConst(
                                    ConstChar(
                                     a
                                    ) [ConstChar]
                                  ) [FactorConst]
                                ) [TermFact]
                              ) [TermExpr]
                            ) [AssignementExpr]
                          ) [DesignStatAssignment]
                        ) [StatementDes]
                      ) [StatementList_NoEps]
                      StatementDes(
                        DesignStatAssignment(
                          DesArr(
                            ArrayName(
                             nizch
                            ) [ArrayName]
                            TermExpr(
                              MinusNo(
                              ) [MinusNo]
                              TermFact(
                                FactorDesign(
                                  DesIdent(
                                   jedan
                                  ) [DesIdent]
                                ) [FactorDesign]
                              ) [TermFact]
                            ) [TermExpr]
                          ) [DesArr]
                          AssignementExpr(
                            TermExpr(
                              MinusNo(
                              ) [MinusNo]
                              TermFact(
                                FactorConst(
                                  ConstChar(
                                   b
                                  ) [ConstChar]
                                ) [FactorConst]
                              ) [TermFact]
                            ) [TermExpr]
                          ) [AssignementExpr]
                        ) [DesignStatAssignment]
                      ) [StatementDes]
                    ) [StatementList_NoEps]
                    StatementDes(
                      DesignStatAssignment(
                        DesArr(
                          ArrayName(
                           nizch
                          ) [ArrayName]
                          AddopExp(
                            TermExpr(
                              MinusNo(
                              ) [MinusNo]
                              TermFact(
                                FactorDesign(
                                  DesIdent(
                                   pet
                                  ) [DesIdent]
                                ) [FactorDesign]
                              ) [TermFact]
                            ) [TermExpr]
                            Addop_Minus(
                            ) [Addop_Minus]
                            TermFact(
                              FactorConst(
                                ConstNum(
                                 3
                                ) [ConstNum]
                              ) [FactorConst]
                            ) [TermFact]
                          ) [AddopExp]
                        ) [DesArr]
                        AssignementExpr(
                          TermExpr(
                            MinusNo(
                            ) [MinusNo]
                            TermFact(
                              FactorConst(
                                ConstChar(
                                 c
                                ) [ConstChar]
                              ) [FactorConst]
                            ) [TermFact]
                          ) [TermExpr]
                        ) [AssignementExpr]
                      ) [DesignStatAssignment]
                    ) [StatementDes]
                  ) [StatementList_NoEps]
                  StatPrint(
                    TermExpr(
                      MinusNo(
                      ) [MinusNo]
                      TermFact(
                        FactorDesign(
                          DesArr(
                            ArrayName(
                             nizch
                            ) [ArrayName]
                            AddopExp(
                              TermExpr(
                                MinusNo(
                                ) [MinusNo]
                                TermFact(
                                  FactorConst(
                                    ConstNum(
                                     2
                                    ) [ConstNum]
                                  ) [FactorConst]
                                ) [TermFact]
                              ) [TermExpr]
                              Addop_Minus(
                              ) [Addop_Minus]
                              TermFact(
                                FactorConst(
                                  ConstNum(
                                   1
                                  ) [ConstNum]
                                ) [FactorConst]
                              ) [TermFact]
                            ) [AddopExp]
                          ) [DesArr]
                        ) [FactorDesign]
                      ) [TermFact]
                    ) [TermExpr]
                  ) [StatPrint]
                ) [StatementList_NoEps]
                StatPrint(
                  TermExpr(
                    MinusNo(
                    ) [MinusNo]
                    TermFact(
                      FactorDesign(
                        DesArr(
                          ArrayName(
                           nizch
                          ) [ArrayName]
                          TermExpr(
                            MinusNo(
                            ) [MinusNo]
                            TermMulop(
                              TermFact(
                                FactorDesign(
                                  DesIdent(
                                   jedan
                                  ) [DesIdent]
                                ) [FactorDesign]
                              ) [TermFact]
                              Mulop_Mul(
                              ) [Mulop_Mul]
                              FactorConst(
                                ConstNum(
                                 2
                                ) [ConstNum]
                              ) [FactorConst]
                            ) [TermMulop]
                          ) [TermExpr]
                        ) [DesArr]
                      ) [FactorDesign]
                    ) [TermFact]
                  ) [TermExpr]
                ) [StatPrint]
              ) [StatementList_NoEps]
              StatementDes(
                DesignStatAssignment(
                  DesIdent(
                   bodovi
                  ) [DesIdent]
                  AssignementExpr(
                    AddopExp(
                      TermExpr(
                        MinusNo(
                        ) [MinusNo]
                        TermFact(
                          FactorDesign(
                            DesIdent(
                             bodovi
                            ) [DesIdent]
                          ) [FactorDesign]
                        ) [TermFact]
                      ) [TermExpr]
                      Addop_Plus(
                      ) [Addop_Plus]
                      TermFact(
                        FactorExpr(
                          AddopExp(
                            AddopExp(
                              TermExpr(
                                MinusNo(
                                ) [MinusNo]
                                TermMulop(
                                  TermFact(
                                    FactorExpr(
                                      AddopExp(
                                        TermExpr(
                                          MinusNo(
                                          ) [MinusNo]
                                          TermMulop(
                                            TermFact(
                                              FactorDesign(
                                                DesIdent(
                                                 pet
                                                ) [DesIdent]
                                              ) [FactorDesign]
                                            ) [TermFact]
                                            Mulop_Mul(
                                            ) [Mulop_Mul]
                                            FactorDesign(
                                              DesIdent(
                                               jedan
                                              ) [DesIdent]
                                            ) [FactorDesign]
                                          ) [TermMulop]
                                        ) [TermExpr]
                                        Addop_Minus(
                                        ) [Addop_Minus]
                                        TermFact(
                                          FactorConst(
                                            ConstNum(
                                             1
                                            ) [ConstNum]
                                          ) [FactorConst]
                                        ) [TermFact]
                                      ) [AddopExp]
                                    ) [FactorExpr]
                                  ) [TermFact]
                                  Mulop_Mul(
                                  ) [Mulop_Mul]
                                  FactorConst(
                                    ConstNum(
                                     2
                                    ) [ConstNum]
                                  ) [FactorConst]
                                ) [TermMulop]
                              ) [TermExpr]
                              Addop_Minus(
                              ) [Addop_Minus]
                              TermFact(
                                FactorExpr(
                                  AddopExp(
                                    AddopExp(
                                      TermExpr(
                                        MinusNo(
                                        ) [MinusNo]
                                        TermMulop(
                                          TermFact(
                                            FactorConst(
                                              ConstNum(
                                               3
                                              ) [ConstNum]
                                            ) [FactorConst]
                                          ) [TermFact]
                                          Mulop_Mod(
                                          ) [Mulop_Mod]
                                          FactorConst(
                                            ConstNum(
                                             2
                                            ) [ConstNum]
                                          ) [FactorConst]
                                        ) [TermMulop]
                                      ) [TermExpr]
                                      Addop_Plus(
                                      ) [Addop_Plus]
                                      TermMulop(
                                        TermFact(
                                          FactorConst(
                                            ConstNum(
                                             3
                                            ) [ConstNum]
                                          ) [FactorConst]
                                        ) [TermFact]
                                        Mulop_Mul(
                                        ) [Mulop_Mul]
                                        FactorConst(
                                          ConstNum(
                                           2
                                          ) [ConstNum]
                                        ) [FactorConst]
                                      ) [TermMulop]
                                    ) [AddopExp]
                                    Addop_Minus(
                                    ) [Addop_Minus]
                                    TermFact(
                                      FactorConst(
                                        ConstNum(
                                         3
                                        ) [ConstNum]
                                      ) [FactorConst]
                                    ) [TermFact]
                                  ) [AddopExp]
                                ) [FactorExpr]
                              ) [TermFact]
                            ) [AddopExp]
                            Addop_Minus(
                            ) [Addop_Minus]
                            TermMulop(
                              TermFact(
                                FactorDesign(
                                  DesEnum(
                                   Broj
                                   JEDAN
                                  ) [DesEnum]
                                ) [FactorDesign]
                              ) [TermFact]
                              Mulop_Mul(
                              ) [Mulop_Mul]
                              FactorConst(
                                ConstNum(
                                 0
                                ) [ConstNum]
                              ) [FactorConst]
                            ) [TermMulop]
                          ) [AddopExp]
                        ) [FactorExpr]
                      ) [TermFact]
                    ) [AddopExp]
                  ) [AssignementExpr]
                ) [DesignStatAssignment]
              ) [StatementDes]
            ) [StatementList_NoEps]
            StatPrint(
              TermExpr(
                MinusNo(
                ) [MinusNo]
                TermFact(
                  FactorDesign(
                    DesIdent(
                     bodovi
                    ) [DesIdent]
                  ) [FactorDesign]
                ) [TermFact]
              ) [TermExpr]
            ) [StatPrint]
          ) [StatementList_NoEps]
          StatRead(
            DesIdent(
             bodovi
            ) [DesIdent]
          ) [StatRead]
        ) [StatementList_NoEps]
        StatementDes(
          DesignStatAssignment(
            DesIdent(
             bodovi
            ) [DesIdent]
            AssignementExpr(
              AddopExp(
                TermExpr(
                  MinusNo(
                  ) [MinusNo]
                  TermFact(
                    FactorDesign(
                      DesIdent(
                       bodovi
                      ) [DesIdent]
                    ) [FactorDesign]
                  ) [TermFact]
                ) [TermExpr]
                Addop_Plus(
                ) [Addop_Plus]
                TermFact(
                  FactorConst(
                    ConstNum(
                     1
                    ) [ConstNum]
                  ) [FactorConst]
                ) [TermFact]
              ) [AddopExp]
            ) [AssignementExpr]
          ) [DesignStatAssignment]
        ) [StatementDes]
      ) [StatementList_NoEps]
      StatPrint(
        TermExpr(
          MinusNo(
          ) [MinusNo]
          TermFact(
            FactorDesign(
              DesIdent(
               bodovi
              ) [DesIdent]
            ) [FactorDesign]
          ) [TermFact]
        ) [TermExpr]
      ) [StatPrint]
    ) [StatementList_NoEps]
  ) [MethodDecl]
) [Program]
INFO  10:51:50,242 - ===================================
INFO  10:51:50,256 - Deklarisan novi enum tip Broj na liniji 5
INFO  10:51:50,257 - Deklarisana konstanta Broj.NULA unutar enuma Broj na liniji 5
INFO  10:51:50,273 - Deklarisana konstanta Broj.JEDAN unutar enuma Broj na liniji 5
INFO  10:51:50,273 - Deklarisana konstanta Broj.PET unutar enuma Broj na liniji 5
INFO  10:51:50,273 - Deklarisana konstanta Broj.DESET unutar enuma Broj na liniji 5
INFO  10:51:50,274 - Deklarisana konstanta 'jedan' na liniji 7
INFO  10:51:50,274 - Deklarisana konstanta 'pet' na liniji 8
INFO  10:51:50,274 - Deklarisana promenljiva niza niz tipa 1 na liniji 10
INFO  10:51:50,274 - Deklarisana promenljiva niza nizch tipa 2 na liniji 11
INFO  10:51:50,274 - Obradjuje se funkcija main na liniji 14
INFO  10:51:50,274 - Deklarisana promenljiva bodovi tipa 1 na liniji 15
INFO  10:51:50,274 - Deklarisana promenljiva nula tipa 6 na liniji 16
INFO  10:51:50,275 - Deklarisana promenljiva jedan tipa 6 na liniji 16
INFO  10:51:50,276 - Dodeljenja vrednost: 1 je design,1 je assign
INFO  10:51:50,276 - Inkrementirana vrednost
INFO  10:51:50,276 - Dodeljenja vrednost: 1 je design,1 je assign
INFO  10:51:50,276 - Dodeljenja vrednost: 1 je design,1 je assign
INFO  10:51:50,276 - Dekrementirana vrednost
INFO  10:51:50,276 - Print funkcija na liniji 7
INFO  10:51:50,277 - Dodeljenja vrednost: 1 je design,1 je assign
INFO  10:51:50,277 - Print funkcija na liniji 7
INFO  10:51:50,277 - Print funkcija na liniji 7
INFO  10:51:50,278 - Print funkcija na liniji 7
INFO  10:51:50,278 - Print funkcija na liniji 7
INFO  10:51:50,278 - Dodeljenja vrednost: 1 je design,1 je assign
INFO  10:51:50,278 - Print funkcija na liniji 7
INFO  10:51:50,278 - Read funkcija na liniji 49
INFO  10:51:50,278 - Dodeljenja vrednost: 1 je design,1 je assign
INFO  10:51:50,278 - Print funkcija na liniji 7
INFO  10:51:50,278 -  Print count calls = 7
INFO  10:51:50,278 -  Deklarisanih promenljivih ima = 5
INFO  10:51:50,299 - 
INFO  10:51:50,300 - Parsiranje uspesno zavrseno!
