INFO  13:11:13,361 - Compiling source file: C:\Users\ikadr\Desktop\PP\Projekat\Rad\workspace\MJCompiler\test\program.mj
INFO  13:11:13,451 - #2 program
INFO  13:11:13,451 - #28 test301
INFO  13:11:13,451 - #9 enum
INFO  13:11:13,453 - #28 Broj
INFO  13:11:13,453 - #17 {
INFO  13:11:13,454 - #28 NULA
INFO  13:11:13,454 - #12 ,
INFO  13:11:13,454 - #28 JEDAN
INFO  13:11:13,454 - #12 ,
INFO  13:11:13,454 - #28 PET
INFO  13:11:13,454 - #11 =
INFO  13:11:13,454 - #27 5
INFO  13:11:13,455 - #12 ,
INFO  13:11:13,455 - #28 DESET
INFO  13:11:13,455 - #11 =
INFO  13:11:13,455 - #27 10
INFO  13:11:13,455 - #18 }
INFO  13:11:13,455 - #8 const
INFO  13:11:13,457 - #28 int
INFO  13:11:13,457 - #28 jedan
INFO  13:11:13,459 - #11 =
INFO  13:11:13,484 - #27 1
INFO  13:11:13,484 - #10 ;
INFO  13:11:13,486 - #8 const
INFO  13:11:13,488 - #28 int
INFO  13:11:13,488 - #28 pet
INFO  13:11:13,488 - #11 =
INFO  13:11:13,488 - #27 5
INFO  13:11:13,488 - #10 ;
INFO  13:11:13,488 - #28 int
INFO  13:11:13,489 - #28 niz
INFO  13:11:13,489 - #15 [
INFO  13:11:13,489 - #16 ]
INFO  13:11:13,489 - #10 ;
INFO  13:11:13,489 - #28 char
INFO  13:11:13,490 - #28 nizch
INFO  13:11:13,490 - #15 [
INFO  13:11:13,490 - #16 ]
INFO  13:11:13,490 - #10 ;
INFO  13:11:13,491 - #17 {
INFO  13:11:13,491 - #6 void
INFO  13:11:13,491 - #28 main
INFO  13:11:13,492 - #13 (
INFO  13:11:13,492 - #14 )
INFO  13:11:13,492 - #28 int
INFO  13:11:13,494 - #28 bodovi
INFO  13:11:13,494 - #10 ;
INFO  13:11:13,494 - #28 Broj
INFO  13:11:13,495 - #28 nula
INFO  13:11:13,496 - #12 ,
INFO  13:11:13,496 - #28 jedan
INFO  13:11:13,496 - #10 ;
INFO  13:11:13,496 - #28 bool
INFO  13:11:13,496 - #28 proba
INFO  13:11:13,496 - #10 ;
INFO  13:11:13,496 - #17 {
INFO  13:11:13,496 - #28 nula
INFO  13:11:13,498 - #11 =
INFO  13:11:13,500 - #28 Broj
INFO  13:11:13,500 - #19 .
INFO  13:11:13,500 - #28 NULA
INFO  13:11:13,500 - #10 ;
INFO  13:11:13,501 - #28 jedan
INFO  13:11:13,502 - #11 =
INFO  13:11:13,502 - #28 Broj
INFO  13:11:13,502 - #19 .
INFO  13:11:13,502 - #28 JEDAN
INFO  13:11:13,502 - #10 ;
INFO  13:11:13,502 - #28 proba
INFO  13:11:13,502 - #11 =
INFO  13:11:13,503 - #30 false
INFO  13:11:13,503 - #10 ;
INFO  13:11:13,503 - #28 bodovi
INFO  13:11:13,503 - #11 =
INFO  13:11:13,503 - #27 0
INFO  13:11:13,503 - #10 ;
INFO  13:11:13,504 - #28 bodovi
INFO  13:11:13,504 - #20 ++
INFO  13:11:13,504 - #10 ;
INFO  13:11:13,504 - #28 bodovi
INFO  13:11:13,504 - #11 =
INFO  13:11:13,504 - #28 bodovi
INFO  13:11:13,504 - #23 +
INFO  13:11:13,505 - #28 jedan
INFO  13:11:13,507 - #10 ;
INFO  13:11:13,507 - #28 bodovi
INFO  13:11:13,507 - #11 =
INFO  13:11:13,507 - #28 bodovi
INFO  13:11:13,507 - #24 *
INFO  13:11:13,508 - #28 pet
INFO  13:11:13,509 - #10 ;
INFO  13:11:13,509 - #28 bodovi
INFO  13:11:13,509 - #21 --
INFO  13:11:13,509 - #10 ;
INFO  13:11:13,509 - #4 print
INFO  13:11:13,510 - #13 (
INFO  13:11:13,510 - #28 bodovi
INFO  13:11:13,510 - #14 )
INFO  13:11:13,510 - #10 ;
INFO  13:11:13,510 - #28 niz
INFO  13:11:13,510 - #11 =
INFO  13:11:13,510 - #5 new
INFO  13:11:13,510 - #28 int
INFO  13:11:13,510 - #15 [
INFO  13:11:13,511 - #27 2
INFO  13:11:13,511 - #16 ]
INFO  13:11:13,511 - #10 ;
INFO  13:11:13,511 - #28 niz
INFO  13:11:13,511 - #15 [
INFO  13:11:13,511 - #28 nula
INFO  13:11:13,511 - #16 ]
INFO  13:11:13,511 - #11 =
INFO  13:11:13,512 - #28 pet
INFO  13:11:13,512 - #10 ;
INFO  13:11:13,512 - #28 niz
INFO  13:11:13,512 - #15 [
INFO  13:11:13,512 - #27 1
INFO  13:11:13,512 - #16 ]
INFO  13:11:13,512 - #11 =
INFO  13:11:13,512 - #28 Broj
INFO  13:11:13,512 - #19 .
INFO  13:11:13,513 - #28 DESET
INFO  13:11:13,513 - #10 ;
INFO  13:11:13,513 - #28 bodovi
INFO  13:11:13,513 - #11 =
INFO  13:11:13,513 - #28 niz
INFO  13:11:13,513 - #15 [
INFO  13:11:13,513 - #27 1
INFO  13:11:13,514 - #16 ]
INFO  13:11:13,514 - #25 /
INFO  13:11:13,514 - #28 niz
INFO  13:11:13,515 - #15 [
INFO  13:11:13,515 - #27 0
INFO  13:11:13,521 - #16 ]
INFO  13:11:13,521 - #10 ;
INFO  13:11:13,521 - #4 print
INFO  13:11:13,521 - #13 (
INFO  13:11:13,521 - #28 bodovi
INFO  13:11:13,522 - #14 )
INFO  13:11:13,522 - #10 ;
INFO  13:11:13,522 - #4 print
INFO  13:11:13,522 - #13 (
INFO  13:11:13,522 - #28 niz
INFO  13:11:13,522 - #15 [
INFO  13:11:13,522 - #28 Broj
INFO  13:11:13,522 - #19 .
INFO  13:11:13,522 - #28 JEDAN
INFO  13:11:13,522 - #16 ]
INFO  13:11:13,522 - #14 )
INFO  13:11:13,523 - #10 ;
INFO  13:11:13,523 - #28 nizch
INFO  13:11:13,523 - #11 =
INFO  13:11:13,523 - #5 new
INFO  13:11:13,523 - #28 char
INFO  13:11:13,523 - #15 [
INFO  13:11:13,523 - #27 3
INFO  13:11:13,523 - #16 ]
INFO  13:11:13,523 - #10 ;
INFO  13:11:13,523 - #28 nizch
INFO  13:11:13,524 - #15 [
INFO  13:11:13,524 - #27 0
INFO  13:11:13,524 - #16 ]
INFO  13:11:13,524 - #11 =
INFO  13:11:13,524 - #29 a
INFO  13:11:13,524 - #10 ;
INFO  13:11:13,524 - #28 nizch
INFO  13:11:13,524 - #15 [
INFO  13:11:13,524 - #28 jedan
INFO  13:11:13,525 - #16 ]
INFO  13:11:13,525 - #11 =
INFO  13:11:13,525 - #29 b
INFO  13:11:13,525 - #10 ;
INFO  13:11:13,525 - #28 nizch
INFO  13:11:13,525 - #15 [
INFO  13:11:13,525 - #28 pet
INFO  13:11:13,525 - #22 -
INFO  13:11:13,525 - #27 3
INFO  13:11:13,526 - #16 ]
INFO  13:11:13,527 - #11 =
INFO  13:11:13,527 - #29 c
INFO  13:11:13,527 - #10 ;
INFO  13:11:13,527 - #4 print
INFO  13:11:13,527 - #13 (
INFO  13:11:13,527 - #28 nizch
INFO  13:11:13,527 - #15 [
INFO  13:11:13,527 - #27 2
INFO  13:11:13,527 - #22 -
INFO  13:11:13,527 - #27 1
INFO  13:11:13,528 - #16 ]
INFO  13:11:13,528 - #14 )
INFO  13:11:13,528 - #10 ;
INFO  13:11:13,528 - #4 print
INFO  13:11:13,528 - #13 (
INFO  13:11:13,528 - #28 nizch
INFO  13:11:13,528 - #15 [
INFO  13:11:13,528 - #28 jedan
INFO  13:11:13,528 - #24 *
INFO  13:11:13,528 - #27 2
INFO  13:11:13,528 - #16 ]
INFO  13:11:13,528 - #14 )
INFO  13:11:13,528 - #10 ;
INFO  13:11:13,528 - #28 bodovi
INFO  13:11:13,528 - #11 =
INFO  13:11:13,529 - #28 bodovi
INFO  13:11:13,529 - #23 +
INFO  13:11:13,529 - #13 (
INFO  13:11:13,529 - #13 (
INFO  13:11:13,529 - #28 pet
INFO  13:11:13,529 - #24 *
INFO  13:11:13,529 - #28 jedan
INFO  13:11:13,529 - #22 -
INFO  13:11:13,529 - #27 1
INFO  13:11:13,529 - #14 )
INFO  13:11:13,529 - #24 *
INFO  13:11:13,530 - #27 2
INFO  13:11:13,530 - #22 -
INFO  13:11:13,530 - #13 (
INFO  13:11:13,530 - #27 3
INFO  13:11:13,530 - #26 %
INFO  13:11:13,530 - #27 2
INFO  13:11:13,531 - #23 +
INFO  13:11:13,531 - #27 3
INFO  13:11:13,531 - #24 *
INFO  13:11:13,532 - #27 2
INFO  13:11:13,532 - #22 -
INFO  13:11:13,532 - #27 3
INFO  13:11:13,532 - #14 )
INFO  13:11:13,532 - #22 -
INFO  13:11:13,532 - #28 Broj
INFO  13:11:13,532 - #19 .
INFO  13:11:13,532 - #28 JEDAN
INFO  13:11:13,532 - #24 *
INFO  13:11:13,532 - #27 0
INFO  13:11:13,532 - #14 )
INFO  13:11:13,533 - #10 ;
INFO  13:11:13,533 - #4 print
INFO  13:11:13,533 - #13 (
INFO  13:11:13,533 - #28 bodovi
INFO  13:11:13,533 - #14 )
INFO  13:11:13,533 - #10 ;
INFO  13:11:13,533 - #3 read
INFO  13:11:13,534 - #13 (
INFO  13:11:13,534 - #28 bodovi
INFO  13:11:13,534 - #14 )
INFO  13:11:13,534 - #10 ;
INFO  13:11:13,534 - #28 bodovi
INFO  13:11:13,534 - #11 =
INFO  13:11:13,535 - #28 bodovi
INFO  13:11:13,535 - #23 +
INFO  13:11:13,535 - #27 1
INFO  13:11:13,535 - #10 ;
INFO  13:11:13,535 - #4 print
INFO  13:11:13,535 - #13 (
INFO  13:11:13,535 - #28 bodovi
INFO  13:11:13,535 - #14 )
INFO  13:11:13,535 - #10 ;
INFO  13:11:13,535 - #18 }
INFO  13:11:13,535 - #18 }
INFO  13:11:13,561 - Program(
  ProgName(
   test301
  ) [ProgName]
  GlobalDeclListL(
    GlobalDeclListL(
      GlobalDeclListL(
        GlobalDeclListL(
          GlobalDeclListL(
            GlobalDeclListEps(
            ) [GlobalDeclListEps]
            GlobalDeclEnum(
              EnumDecl(
               Broj
                EnumDeclListL(
                  EnumDeclListL(
                    EnumDeclListL(
                      EnumDeclItem(
                        EnumDeclDefNoVal(
                         NULA
                        ) [EnumDeclDefNoVal]
                      ) [EnumDeclItem]
                      EnumDeclDefNoVal(
                       JEDAN
                      ) [EnumDeclDefNoVal]
                    ) [EnumDeclListL]
                    EnumDeclDefVal(
                     PET
                     5
                    ) [EnumDeclDefVal]
                  ) [EnumDeclListL]
                  EnumDeclDefVal(
                   DESET
                   10
                  ) [EnumDeclDefVal]
                ) [EnumDeclListL]
              ) [EnumDecl]
            ) [GlobalDeclEnum]
          ) [GlobalDeclListL]
          GlobalDeclConst(
            ConstDecl(
              Type(
               int
              ) [Type]
              ConstDeclItem(
                ConstDef(
                 jedan
                  ConstNum(
                   1
                  ) [ConstNum]
                ) [ConstDef]
              ) [ConstDeclItem]
            ) [ConstDecl]
          ) [GlobalDeclConst]
        ) [GlobalDeclListL]
        GlobalDeclConst(
          ConstDecl(
            Type(
             int
            ) [Type]
            ConstDeclItem(
              ConstDef(
               pet
                ConstNum(
                 5
                ) [ConstNum]
              ) [ConstDef]
            ) [ConstDeclItem]
          ) [ConstDecl]
        ) [GlobalDeclConst]
      ) [GlobalDeclListL]
      GlobalDeclVar(
        GlobalVarDecl(
          Type(
           int
          ) [Type]
          GlobalVarDeclItem(
            GlobalVarDeclDefOk(
              VarDeclDefineArray(
               niz
              ) [VarDeclDefineArray]
            ) [GlobalVarDeclDefOk]
          ) [GlobalVarDeclItem]
        ) [GlobalVarDecl]
      ) [GlobalDeclVar]
    ) [GlobalDeclListL]
    GlobalDeclVar(
      GlobalVarDecl(
        Type(
         char
        ) [Type]
        GlobalVarDeclItem(
          GlobalVarDeclDefOk(
            VarDeclDefineArray(
             nizch
            ) [VarDeclDefineArray]
          ) [GlobalVarDeclDefOk]
        ) [GlobalVarDeclItem]
      ) [GlobalVarDecl]
    ) [GlobalDeclVar]
  ) [GlobalDeclListL]
  MethodDecl(
    MethodSignature(
      VoidableType(
      ) [VoidableType]
     main
    ) [MethodSignature]
    VarMethodDeclList_NoEps(
      VarMethodDeclList_NoEps(
        VarMethodDeclList_NoEps(
          VarMethodDeclList_Eps(
          ) [VarMethodDeclList_Eps]
          VarDecl(
            Type(
             int
            ) [Type]
            VarDeclItem(
              VarDeclDefineSingle(
               bodovi
              ) [VarDeclDefineSingle]
            ) [VarDeclItem]
          ) [VarDecl]
        ) [VarMethodDeclList_NoEps]
        VarDecl(
          Type(
           Broj
          ) [Type]
          VarDeclListL(
            VarDeclItem(
              VarDeclDefineSingle(
               nula
              ) [VarDeclDefineSingle]
            ) [VarDeclItem]
            VarDeclDefineSingle(
             jedan
            ) [VarDeclDefineSingle]
          ) [VarDeclListL]
        ) [VarDecl]
      ) [VarMethodDeclList_NoEps]
      VarDecl(
        Type(
         bool
        ) [Type]
        VarDeclItem(
          VarDeclDefineSingle(
           proba
          ) [VarDeclDefineSingle]
        ) [VarDeclItem]
      ) [VarDecl]
    ) [VarMethodDeclList_NoEps]
    StatementList_NoEps(
      StatementList_NoEps(
        StatementList_NoEps(
          StatementList_NoEps(
            StatementList_NoEps(
              StatementList_NoEps(
                StatementList_NoEps(
                  StatementList_NoEps(
                    StatementList_NoEps(
                      StatementList_NoEps(
                        StatementList_NoEps(
                          StatementList_NoEps(
                            StatementList_NoEps(
                              StatementList_NoEps(
                                StatementList_NoEps(
                                  StatementList_NoEps(
                                    StatementList_NoEps(
                                      StatementList_NoEps(
                                        StatementList_NoEps(
                                          StatementList_NoEps(
                                            StatementList_NoEps(
                                              StatementList_NoEps(
                                                StatementList_NoEps(
                                                  StatementList_NoEps(
                                                    StatementList_NoEps(
                                                      StatementList_NoEps(
                                                        StatementList_Eps(
                                                        ) [StatementList_Eps]
                                                        StatementDes(
                                                          DesignStatAssignment(
                                                            Designator(
                                                             nula
                                                              DesDerived1(
                                                              ) [DesDerived1]
                                                            ) [Designator]
                                                            AssignementExpr(
                                                              TermExpr(
                                                                TermFact(
                                                                  FactorDesign(
                                                                    Designator(
                                                                     Broj
                                                                      DesEnum(
                                                                       NULA
                                                                      ) [DesEnum]
                                                                    ) [Designator]
                                                                  ) [FactorDesign]
                                                                ) [TermFact]
                                                              ) [TermExpr]
                                                            ) [AssignementExpr]
                                                          ) [DesignStatAssignment]
                                                        ) [StatementDes]
                                                      ) [StatementList_NoEps]
                                                      StatementDes(
                                                        DesignStatAssignment(
                                                          Designator(
                                                           jedan
                                                            DesDerived1(
                                                            ) [DesDerived1]
                                                          ) [Designator]
                                                          AssignementExpr(
                                                            TermExpr(
                                                              TermFact(
                                                                FactorDesign(
                                                                  Designator(
                                                                   Broj
                                                                    DesEnum(
                                                                     JEDAN
                                                                    ) [DesEnum]
                                                                  ) [Designator]
                                                                ) [FactorDesign]
                                                              ) [TermFact]
                                                            ) [TermExpr]
                                                          ) [AssignementExpr]
                                                        ) [DesignStatAssignment]
                                                      ) [StatementDes]
                                                    ) [StatementList_NoEps]
                                                    StatementDes(
                                                      DesignStatAssignment(
                                                        Designator(
                                                         proba
                                                          DesDerived1(
                                                          ) [DesDerived1]
                                                        ) [Designator]
                                                        AssignementExpr(
                                                          TermExpr(
                                                            TermFact(
                                                              FactorConst(
                                                                ConstBool(
                                                                 false
                                                                ) [ConstBool]
                                                              ) [FactorConst]
                                                            ) [TermFact]
                                                          ) [TermExpr]
                                                        ) [AssignementExpr]
                                                      ) [DesignStatAssignment]
                                                    ) [StatementDes]
                                                  ) [StatementList_NoEps]
                                                  StatementDes(
                                                    DesignStatAssignment(
                                                      Designator(
                                                       bodovi
                                                        DesDerived1(
                                                        ) [DesDerived1]
                                                      ) [Designator]
                                                      AssignementExpr(
                                                        TermExpr(
                                                          TermFact(
                                                            FactorConst(
                                                              ConstNum(
                                                               0
                                                              ) [ConstNum]
                                                            ) [FactorConst]
                                                          ) [TermFact]
                                                        ) [TermExpr]
                                                      ) [AssignementExpr]
                                                    ) [DesignStatAssignment]
                                                  ) [StatementDes]
                                                ) [StatementList_NoEps]
                                                StatementDes(
                                                  DesignStatInc(
                                                    Designator(
                                                     bodovi
                                                      DesDerived1(
                                                      ) [DesDerived1]
                                                    ) [Designator]
                                                  ) [DesignStatInc]
                                                ) [StatementDes]
                                              ) [StatementList_NoEps]
                                              StatementDes(
                                                DesignStatAssignment(
                                                  Designator(
                                                   bodovi
                                                    DesDerived1(
                                                    ) [DesDerived1]
                                                  ) [Designator]
                                                  AssignementExpr(
                                                    AddopExp(
                                                      TermExpr(
                                                        TermFact(
                                                          FactorDesign(
                                                            Designator(
                                                             bodovi
                                                              DesDerived1(
                                                              ) [DesDerived1]
                                                            ) [Designator]
                                                          ) [FactorDesign]
                                                        ) [TermFact]
                                                      ) [TermExpr]
                                                      Addop(
                                                      ) [Addop]
                                                      TermFact(
                                                        FactorDesign(
                                                          Designator(
                                                           jedan
                                                            DesDerived1(
                                                            ) [DesDerived1]
                                                          ) [Designator]
                                                        ) [FactorDesign]
                                                      ) [TermFact]
                                                    ) [AddopExp]
                                                  ) [AssignementExpr]
                                                ) [DesignStatAssignment]
                                              ) [StatementDes]
                                            ) [StatementList_NoEps]
                                            StatementDes(
                                              DesignStatAssignment(
                                                Designator(
                                                 bodovi
                                                  DesDerived1(
                                                  ) [DesDerived1]
                                                ) [Designator]
                                                AssignementExpr(
                                                  TermExpr(
                                                    TermMulop(
                                                      TermFact(
                                                        FactorDesign(
                                                          Designator(
                                                           bodovi
                                                            DesDerived1(
                                                            ) [DesDerived1]
                                                          ) [Designator]
                                                        ) [FactorDesign]
                                                      ) [TermFact]
                                                      Mulop(
                                                      ) [Mulop]
                                                      FactorDesign(
                                                        Designator(
                                                         pet
                                                          DesDerived1(
                                                          ) [DesDerived1]
                                                        ) [Designator]
                                                      ) [FactorDesign]
                                                    ) [TermMulop]
                                                  ) [TermExpr]
                                                ) [AssignementExpr]
                                              ) [DesignStatAssignment]
                                            ) [StatementDes]
                                          ) [StatementList_NoEps]
                                          StatementDes(
                                            DesignStatDec(
                                              Designator(
                                               bodovi
                                                DesDerived1(
                                                ) [DesDerived1]
                                              ) [Designator]
                                            ) [DesignStatDec]
                                          ) [StatementDes]
                                        ) [StatementList_NoEps]
                                        StatPrint(
                                          TermExpr(
                                            TermFact(
                                              FactorDesign(
                                                Designator(
                                                 bodovi
                                                  DesDerived1(
                                                  ) [DesDerived1]
                                                ) [Designator]
                                              ) [FactorDesign]
                                            ) [TermFact]
                                          ) [TermExpr]
                                        ) [StatPrint]
                                      ) [StatementList_NoEps]
                                      StatementDes(
                                        DesignStatAssignment(
                                          Designator(
                                           niz
                                            DesDerived1(
                                            ) [DesDerived1]
                                          ) [Designator]
                                          AssignementExpr(
                                            TermExpr(
                                              TermFact(
                                                FactorNewArr(
                                                  Type(
                                                   int
                                                  ) [Type]
                                                  TermExpr(
                                                    TermFact(
                                                      FactorConst(
                                                        ConstNum(
                                                         2
                                                        ) [ConstNum]
                                                      ) [FactorConst]
                                                    ) [TermFact]
                                                  ) [TermExpr]
                                                ) [FactorNewArr]
                                              ) [TermFact]
                                            ) [TermExpr]
                                          ) [AssignementExpr]
                                        ) [DesignStatAssignment]
                                      ) [StatementDes]
                                    ) [StatementList_NoEps]
                                    StatementDes(
                                      DesignStatAssignment(
                                        Designator(
                                         niz
                                          DesArr(
                                            TermExpr(
                                              TermFact(
                                                FactorDesign(
                                                  Designator(
                                                   nula
                                                    DesDerived1(
                                                    ) [DesDerived1]
                                                  ) [Designator]
                                                ) [FactorDesign]
                                              ) [TermFact]
                                            ) [TermExpr]
                                          ) [DesArr]
                                        ) [Designator]
                                        AssignementExpr(
                                          TermExpr(
                                            TermFact(
                                              FactorDesign(
                                                Designator(
                                                 pet
                                                  DesDerived1(
                                                  ) [DesDerived1]
                                                ) [Designator]
                                              ) [FactorDesign]
                                            ) [TermFact]
                                          ) [TermExpr]
                                        ) [AssignementExpr]
                                      ) [DesignStatAssignment]
                                    ) [StatementDes]
                                  ) [StatementList_NoEps]
                                  StatementDes(
                                    DesignStatAssignment(
                                      Designator(
                                       niz
                                        DesArr(
                                          TermExpr(
                                            TermFact(
                                              FactorConst(
                                                ConstNum(
                                                 1
                                                ) [ConstNum]
                                              ) [FactorConst]
                                            ) [TermFact]
                                          ) [TermExpr]
                                        ) [DesArr]
                                      ) [Designator]
                                      AssignementExpr(
                                        TermExpr(
                                          TermFact(
                                            FactorDesign(
                                              Designator(
                                               Broj
                                                DesEnum(
                                                 DESET
                                                ) [DesEnum]
                                              ) [Designator]
                                            ) [FactorDesign]
                                          ) [TermFact]
                                        ) [TermExpr]
                                      ) [AssignementExpr]
                                    ) [DesignStatAssignment]
                                  ) [StatementDes]
                                ) [StatementList_NoEps]
                                StatementDes(
                                  DesignStatAssignment(
                                    Designator(
                                     bodovi
                                      DesDerived1(
                                      ) [DesDerived1]
                                    ) [Designator]
                                    AssignementExpr(
                                      TermExpr(
                                        TermMulop(
                                          TermFact(
                                            FactorDesign(
                                              Designator(
                                               niz
                                                DesArr(
                                                  TermExpr(
                                                    TermFact(
                                                      FactorConst(
                                                        ConstNum(
                                                         1
                                                        ) [ConstNum]
                                                      ) [FactorConst]
                                                    ) [TermFact]
                                                  ) [TermExpr]
                                                ) [DesArr]
                                              ) [Designator]
                                            ) [FactorDesign]
                                          ) [TermFact]
                                          Divop(
                                          ) [Divop]
                                          FactorDesign(
                                            Designator(
                                             niz
                                              DesArr(
                                                TermExpr(
                                                  TermFact(
                                                    FactorConst(
                                                      ConstNum(
                                                       0
                                                      ) [ConstNum]
                                                    ) [FactorConst]
                                                  ) [TermFact]
                                                ) [TermExpr]
                                              ) [DesArr]
                                            ) [Designator]
                                          ) [FactorDesign]
                                        ) [TermMulop]
                                      ) [TermExpr]
                                    ) [AssignementExpr]
                                  ) [DesignStatAssignment]
                                ) [StatementDes]
                              ) [StatementList_NoEps]
                              StatPrint(
                                TermExpr(
                                  TermFact(
                                    FactorDesign(
                                      Designator(
                                       bodovi
                                        DesDerived1(
                                        ) [DesDerived1]
                                      ) [Designator]
                                    ) [FactorDesign]
                                  ) [TermFact]
                                ) [TermExpr]
                              ) [StatPrint]
                            ) [StatementList_NoEps]
                            StatPrint(
                              TermExpr(
                                TermFact(
                                  FactorDesign(
                                    Designator(
                                     niz
                                      DesArr(
                                        TermExpr(
                                          TermFact(
                                            FactorDesign(
                                              Designator(
                                               Broj
                                                DesEnum(
                                                 JEDAN
                                                ) [DesEnum]
                                              ) [Designator]
                                            ) [FactorDesign]
                                          ) [TermFact]
                                        ) [TermExpr]
                                      ) [DesArr]
                                    ) [Designator]
                                  ) [FactorDesign]
                                ) [TermFact]
                              ) [TermExpr]
                            ) [StatPrint]
                          ) [StatementList_NoEps]
                          StatementDes(
                            DesignStatAssignment(
                              Designator(
                               nizch
                                DesDerived1(
                                ) [DesDerived1]
                              ) [Designator]
                              AssignementExpr(
                                TermExpr(
                                  TermFact(
                                    FactorNewArr(
                                      Type(
                                       char
                                      ) [Type]
                                      TermExpr(
                                        TermFact(
                                          FactorConst(
                                            ConstNum(
                                             3
                                            ) [ConstNum]
                                          ) [FactorConst]
                                        ) [TermFact]
                                      ) [TermExpr]
                                    ) [FactorNewArr]
                                  ) [TermFact]
                                ) [TermExpr]
                              ) [AssignementExpr]
                            ) [DesignStatAssignment]
                          ) [StatementDes]
                        ) [StatementList_NoEps]
                        StatementDes(
                          DesignStatAssignment(
                            Designator(
                             nizch
                              DesArr(
                                TermExpr(
                                  TermFact(
                                    FactorConst(
                                      ConstNum(
                                       0
                                      ) [ConstNum]
                                    ) [FactorConst]
                                  ) [TermFact]
                                ) [TermExpr]
                              ) [DesArr]
                            ) [Designator]
                            AssignementExpr(
                              TermExpr(
                                TermFact(
                                  FactorConst(
                                    ConstChar(
                                     a
                                    ) [ConstChar]
                                  ) [FactorConst]
                                ) [TermFact]
                              ) [TermExpr]
                            ) [AssignementExpr]
                          ) [DesignStatAssignment]
                        ) [StatementDes]
                      ) [StatementList_NoEps]
                      StatementDes(
                        DesignStatAssignment(
                          Designator(
                           nizch
                            DesArr(
                              TermExpr(
                                TermFact(
                                  FactorDesign(
                                    Designator(
                                     jedan
                                      DesDerived1(
                                      ) [DesDerived1]
                                    ) [Designator]
                                  ) [FactorDesign]
                                ) [TermFact]
                              ) [TermExpr]
                            ) [DesArr]
                          ) [Designator]
                          AssignementExpr(
                            TermExpr(
                              TermFact(
                                FactorConst(
                                  ConstChar(
                                   b
                                  ) [ConstChar]
                                ) [FactorConst]
                              ) [TermFact]
                            ) [TermExpr]
                          ) [AssignementExpr]
                        ) [DesignStatAssignment]
                      ) [StatementDes]
                    ) [StatementList_NoEps]
                    StatementDes(
                      DesignStatAssignment(
                        Designator(
                         nizch
                          DesArr(
                            AddopExp(
                              TermExpr(
                                TermFact(
                                  FactorDesign(
                                    Designator(
                                     pet
                                      DesDerived1(
                                      ) [DesDerived1]
                                    ) [Designator]
                                  ) [FactorDesign]
                                ) [TermFact]
                              ) [TermExpr]
                              Subop(
                              ) [Subop]
                              TermFact(
                                FactorConst(
                                  ConstNum(
                                   3
                                  ) [ConstNum]
                                ) [FactorConst]
                              ) [TermFact]
                            ) [AddopExp]
                          ) [DesArr]
                        ) [Designator]
                        AssignementExpr(
                          TermExpr(
                            TermFact(
                              FactorConst(
                                ConstChar(
                                 c
                                ) [ConstChar]
                              ) [FactorConst]
                            ) [TermFact]
                          ) [TermExpr]
                        ) [AssignementExpr]
                      ) [DesignStatAssignment]
                    ) [StatementDes]
                  ) [StatementList_NoEps]
                  StatPrint(
                    TermExpr(
                      TermFact(
                        FactorDesign(
                          Designator(
                           nizch
                            DesArr(
                              AddopExp(
                                TermExpr(
                                  TermFact(
                                    FactorConst(
                                      ConstNum(
                                       2
                                      ) [ConstNum]
                                    ) [FactorConst]
                                  ) [TermFact]
                                ) [TermExpr]
                                Subop(
                                ) [Subop]
                                TermFact(
                                  FactorConst(
                                    ConstNum(
                                     1
                                    ) [ConstNum]
                                  ) [FactorConst]
                                ) [TermFact]
                              ) [AddopExp]
                            ) [DesArr]
                          ) [Designator]
                        ) [FactorDesign]
                      ) [TermFact]
                    ) [TermExpr]
                  ) [StatPrint]
                ) [StatementList_NoEps]
                StatPrint(
                  TermExpr(
                    TermFact(
                      FactorDesign(
                        Designator(
                         nizch
                          DesArr(
                            TermExpr(
                              TermMulop(
                                TermFact(
                                  FactorDesign(
                                    Designator(
                                     jedan
                                      DesDerived1(
                                      ) [DesDerived1]
                                    ) [Designator]
                                  ) [FactorDesign]
                                ) [TermFact]
                                Mulop(
                                ) [Mulop]
                                FactorConst(
                                  ConstNum(
                                   2
                                  ) [ConstNum]
                                ) [FactorConst]
                              ) [TermMulop]
                            ) [TermExpr]
                          ) [DesArr]
                        ) [Designator]
                      ) [FactorDesign]
                    ) [TermFact]
                  ) [TermExpr]
                ) [StatPrint]
              ) [StatementList_NoEps]
              StatementDes(
                DesignStatAssignment(
                  Designator(
                   bodovi
                    DesDerived1(
                    ) [DesDerived1]
                  ) [Designator]
                  AssignementExpr(
                    AddopExp(
                      TermExpr(
                        TermFact(
                          FactorDesign(
                            Designator(
                             bodovi
                              DesDerived1(
                              ) [DesDerived1]
                            ) [Designator]
                          ) [FactorDesign]
                        ) [TermFact]
                      ) [TermExpr]
                      Addop(
                      ) [Addop]
                      TermFact(
                        FactorExpr(
                          AddopExp(
                            AddopExp(
                              TermExpr(
                                TermMulop(
                                  TermFact(
                                    FactorExpr(
                                      AddopExp(
                                        TermExpr(
                                          TermMulop(
                                            TermFact(
                                              FactorDesign(
                                                Designator(
                                                 pet
                                                  DesDerived1(
                                                  ) [DesDerived1]
                                                ) [Designator]
                                              ) [FactorDesign]
                                            ) [TermFact]
                                            Mulop(
                                            ) [Mulop]
                                            FactorDesign(
                                              Designator(
                                               jedan
                                                DesDerived1(
                                                ) [DesDerived1]
                                              ) [Designator]
                                            ) [FactorDesign]
                                          ) [TermMulop]
                                        ) [TermExpr]
                                        Subop(
                                        ) [Subop]
                                        TermFact(
                                          FactorConst(
                                            ConstNum(
                                             1
                                            ) [ConstNum]
                                          ) [FactorConst]
                                        ) [TermFact]
                                      ) [AddopExp]
                                    ) [FactorExpr]
                                  ) [TermFact]
                                  Mulop(
                                  ) [Mulop]
                                  FactorConst(
                                    ConstNum(
                                     2
                                    ) [ConstNum]
                                  ) [FactorConst]
                                ) [TermMulop]
                              ) [TermExpr]
                              Subop(
                              ) [Subop]
                              TermFact(
                                FactorExpr(
                                  AddopExp(
                                    AddopExp(
                                      TermExpr(
                                        TermMulop(
                                          TermFact(
                                            FactorConst(
                                              ConstNum(
                                               3
                                              ) [ConstNum]
                                            ) [FactorConst]
                                          ) [TermFact]
                                          Modop(
                                          ) [Modop]
                                          FactorConst(
                                            ConstNum(
                                             2
                                            ) [ConstNum]
                                          ) [FactorConst]
                                        ) [TermMulop]
                                      ) [TermExpr]
                                      Addop(
                                      ) [Addop]
                                      TermMulop(
                                        TermFact(
                                          FactorConst(
                                            ConstNum(
                                             3
                                            ) [ConstNum]
                                          ) [FactorConst]
                                        ) [TermFact]
                                        Mulop(
                                        ) [Mulop]
                                        FactorConst(
                                          ConstNum(
                                           2
                                          ) [ConstNum]
                                        ) [FactorConst]
                                      ) [TermMulop]
                                    ) [AddopExp]
                                    Subop(
                                    ) [Subop]
                                    TermFact(
                                      FactorConst(
                                        ConstNum(
                                         3
                                        ) [ConstNum]
                                      ) [FactorConst]
                                    ) [TermFact]
                                  ) [AddopExp]
                                ) [FactorExpr]
                              ) [TermFact]
                            ) [AddopExp]
                            Subop(
                            ) [Subop]
                            TermMulop(
                              TermFact(
                                FactorDesign(
                                  Designator(
                                   Broj
                                    DesEnum(
                                     JEDAN
                                    ) [DesEnum]
                                  ) [Designator]
                                ) [FactorDesign]
                              ) [TermFact]
                              Mulop(
                              ) [Mulop]
                              FactorConst(
                                ConstNum(
                                 0
                                ) [ConstNum]
                              ) [FactorConst]
                            ) [TermMulop]
                          ) [AddopExp]
                        ) [FactorExpr]
                      ) [TermFact]
                    ) [AddopExp]
                  ) [AssignementExpr]
                ) [DesignStatAssignment]
              ) [StatementDes]
            ) [StatementList_NoEps]
            StatPrint(
              TermExpr(
                TermFact(
                  FactorDesign(
                    Designator(
                     bodovi
                      DesDerived1(
                      ) [DesDerived1]
                    ) [Designator]
                  ) [FactorDesign]
                ) [TermFact]
              ) [TermExpr]
            ) [StatPrint]
          ) [StatementList_NoEps]
          StatRead(
            Designator(
             bodovi
              DesDerived1(
              ) [DesDerived1]
            ) [Designator]
          ) [StatRead]
        ) [StatementList_NoEps]
        StatementDes(
          DesignStatAssignment(
            Designator(
             bodovi
              DesDerived1(
              ) [DesDerived1]
            ) [Designator]
            AssignementExpr(
              AddopExp(
                TermExpr(
                  TermFact(
                    FactorDesign(
                      Designator(
                       bodovi
                        DesDerived1(
                        ) [DesDerived1]
                      ) [Designator]
                    ) [FactorDesign]
                  ) [TermFact]
                ) [TermExpr]
                Addop(
                ) [Addop]
                TermFact(
                  FactorConst(
                    ConstNum(
                     1
                    ) [ConstNum]
                  ) [FactorConst]
                ) [TermFact]
              ) [AddopExp]
            ) [AssignementExpr]
          ) [DesignStatAssignment]
        ) [StatementDes]
      ) [StatementList_NoEps]
      StatPrint(
        TermExpr(
          TermFact(
            FactorDesign(
              Designator(
               bodovi
                DesDerived1(
                ) [DesDerived1]
              ) [Designator]
            ) [FactorDesign]
          ) [TermFact]
        ) [TermExpr]
      ) [StatPrint]
    ) [StatementList_NoEps]
  ) [MethodDecl]
) [Program]
INFO  13:11:13,580 - ===================================
INFO  13:11:13,584 - Deklarisan novi enum tip Broj na liniji 5
INFO  13:11:13,584 - Deklarisana konstanta 'jedan' na liniji 7
INFO  13:11:13,584 - Deklarisana konstanta 'pet' na liniji 8
INFO  13:11:13,584 - Deklarisana promenljiva niza niz tipa 1 na liniji 10
INFO  13:11:13,584 - Deklarisana promenljiva niza nizch tipa 2 na liniji 11
INFO  13:11:13,584 - Obradjuje se funkcija main na liniji 14
INFO  13:11:13,584 - Deklarisana promenljiva bodovi tipa 1 na liniji 15
INFO  13:11:13,585 - Deklarisana promenljiva nula tipa 6 na liniji 16
INFO  13:11:13,585 - Deklarisana promenljiva jedan tipa 6 na liniji 16
INFO  13:11:13,585 - Deklarisana promenljiva proba tipa 5 na liniji 17
INFO  13:11:13,585 - Dodeljenja vrednost: 6 je design,6 je assign
INFO  13:11:13,585 - Dodeljenja vrednost: 6 je design,6 je assign
INFO  13:11:13,585 - Dodeljenja vrednost: 5 je design,5 je assign
INFO  13:11:13,585 - Dodeljenja vrednost: 1 je design,1 je assign
INFO  13:11:13,585 - Inkrementirana vrednost
INFO  13:11:13,585 - Dodeljenja vrednost: 1 je design,1 je assign
INFO  13:11:13,586 - Dodeljenja vrednost: 1 je design,1 je assign
INFO  13:11:13,586 - Dekrementirana vrednost
INFO  13:11:13,586 - Dodeljenja vrednost: 1 je design,1 je assign
INFO  13:11:13,586 - Dodeljenja vrednost: 1 je design,1 je assign
INFO  13:11:13,586 - Dodeljenja vrednost enum i int
INFO  13:11:13,586 - Dodeljenja vrednost: 1 je design,1 je assign
INFO  13:11:13,586 - Dodeljenja vrednost: 2 je design,2 je assign
INFO  13:11:13,586 - Dodeljenja vrednost: 2 je design,2 je assign
INFO  13:11:13,586 - Dodeljenja vrednost: 2 je design,2 je assign
INFO  13:11:13,586 - Dodeljenja vrednost: 2 je design,2 je assign
INFO  13:11:13,587 - Dodeljenja vrednost: 1 je design,1 je assign
INFO  13:11:13,587 - Dodeljenja vrednost: 1 je design,1 je assign
INFO  13:11:13,587 -  Print count calls = 7
INFO  13:11:13,587 -  Deklarisanih promenljivih ima = 8
INFO  13:11:13,588 - Parsiranje uspesno zavrseno!
