INFO  20:45:33,348 - Compiling source file: C:\Users\ikadr\Desktop\PP\Projekat\Rad\workspace\MJCompiler\test\program.mj
INFO  20:45:33,410 - #2 program
INFO  20:45:33,410 - #28 test301
INFO  20:45:33,410 - #9 enum
INFO  20:45:33,410 - #28 Broj
INFO  20:45:33,410 - #17 {
INFO  20:45:33,410 - #28 NULA
INFO  20:45:33,410 - #12 ,
INFO  20:45:33,410 - #28 JEDAN
INFO  20:45:33,410 - #12 ,
INFO  20:45:33,426 - #28 PET
INFO  20:45:33,426 - #11 =
INFO  20:45:33,426 - #27 5
INFO  20:45:33,426 - #12 ,
INFO  20:45:33,426 - #28 DESET
INFO  20:45:33,426 - #11 =
INFO  20:45:33,426 - #27 10
INFO  20:45:33,426 - #18 }
INFO  20:45:33,426 - #8 const
INFO  20:45:33,426 - #28 int
INFO  20:45:33,426 - #28 jedan
INFO  20:45:33,426 - #11 =
INFO  20:45:33,442 - #27 1
INFO  20:45:33,442 - #10 ;
INFO  20:45:33,442 - #8 const
INFO  20:45:33,442 - #28 int
INFO  20:45:33,442 - #28 pet
INFO  20:45:33,442 - #11 =
INFO  20:45:33,442 - #27 5
INFO  20:45:33,442 - #10 ;
INFO  20:45:33,442 - #28 int
INFO  20:45:33,442 - #28 niz
INFO  20:45:33,442 - #15 [
INFO  20:45:33,442 - #16 ]
INFO  20:45:33,442 - #10 ;
INFO  20:45:33,442 - #28 char
INFO  20:45:33,442 - #28 nizch
INFO  20:45:33,442 - #15 [
INFO  20:45:33,442 - #16 ]
INFO  20:45:33,442 - #10 ;
INFO  20:45:33,442 - #17 {
INFO  20:45:33,442 - #6 void
INFO  20:45:33,442 - #28 main
INFO  20:45:33,442 - #13 (
INFO  20:45:33,442 - #14 )
INFO  20:45:33,442 - #28 int
INFO  20:45:33,442 - #28 bodovi
INFO  20:45:33,442 - #10 ;
INFO  20:45:33,442 - #28 Broj
INFO  20:45:33,457 - #28 nula
INFO  20:45:33,457 - #12 ,
INFO  20:45:33,457 - #28 jedan
INFO  20:45:33,457 - #10 ;
INFO  20:45:33,457 - #17 {
INFO  20:45:33,457 - #28 nula
INFO  20:45:33,457 - #11 =
INFO  20:45:33,457 - #28 Broj
INFO  20:45:33,457 - #19 .
INFO  20:45:33,457 - #28 NULA
INFO  20:45:33,457 - #10 ;
INFO  20:45:33,457 - #28 jedan
INFO  20:45:33,457 - #11 =
INFO  20:45:33,457 - #28 Broj
INFO  20:45:33,457 - #19 .
INFO  20:45:33,457 - #28 JEDAN
INFO  20:45:33,457 - #10 ;
INFO  20:45:33,457 - #28 bodovi
INFO  20:45:33,457 - #11 =
INFO  20:45:33,457 - #27 0
INFO  20:45:33,457 - #10 ;
INFO  20:45:33,457 - #28 bodovi
INFO  20:45:33,457 - #20 ++
INFO  20:45:33,457 - #10 ;
INFO  20:45:33,457 - #28 bodovi
INFO  20:45:33,457 - #11 =
INFO  20:45:33,457 - #28 bodovi
INFO  20:45:33,457 - #23 +
INFO  20:45:33,457 - #28 jedan
INFO  20:45:33,457 - #10 ;
INFO  20:45:33,457 - #28 bodovi
INFO  20:45:33,457 - #11 =
INFO  20:45:33,457 - #28 bodovi
INFO  20:45:33,457 - #24 *
INFO  20:45:33,457 - #28 pet
INFO  20:45:33,457 - #10 ;
INFO  20:45:33,457 - #28 bodovi
INFO  20:45:33,457 - #21 --
INFO  20:45:33,457 - #10 ;
INFO  20:45:33,457 - #4 print
INFO  20:45:33,457 - #13 (
INFO  20:45:33,457 - #28 bodovi
INFO  20:45:33,457 - #14 )
INFO  20:45:33,457 - #10 ;
INFO  20:45:33,457 - #28 niz
INFO  20:45:33,457 - #11 =
INFO  20:45:33,457 - #5 new
INFO  20:45:33,457 - #28 int
INFO  20:45:33,457 - #15 [
INFO  20:45:33,457 - #27 2
INFO  20:45:33,457 - #16 ]
INFO  20:45:33,457 - #10 ;
INFO  20:45:33,473 - #28 niz
INFO  20:45:33,473 - #15 [
INFO  20:45:33,473 - #27 1
INFO  20:45:33,473 - #16 ]
INFO  20:45:33,473 - #11 =
INFO  20:45:33,473 - #27 5
INFO  20:45:33,473 - #10 ;
INFO  20:45:33,473 - #18 }
INFO  20:45:33,473 - #18 }
INFO  20:45:33,488 - Program(
  ProgName(
   test301
  ) [ProgName]
  GlobalDeclListL(
    GlobalDeclListL(
      GlobalDeclListL(
        GlobalDeclListL(
          GlobalDeclListL(
            GlobalDeclListEps(
            ) [GlobalDeclListEps]
            GlobalDeclEnum(
              EnumDecl(
               Broj
                EnumDeclListL(
                  EnumDeclListL(
                    EnumDeclListL(
                      EnumDeclItem(
                        EnumDeclDefNoVal(
                         NULA
                        ) [EnumDeclDefNoVal]
                      ) [EnumDeclItem]
                      EnumDeclDefNoVal(
                       JEDAN
                      ) [EnumDeclDefNoVal]
                    ) [EnumDeclListL]
                    EnumDeclDefVal(
                     PET
                     5
                    ) [EnumDeclDefVal]
                  ) [EnumDeclListL]
                  EnumDeclDefVal(
                   DESET
                   10
                  ) [EnumDeclDefVal]
                ) [EnumDeclListL]
              ) [EnumDecl]
            ) [GlobalDeclEnum]
          ) [GlobalDeclListL]
          GlobalDeclConst(
            ConstDecl(
              Type(
               int
              ) [Type]
              ConstDeclItem(
                ConstDef(
                 jedan
                  ConstNum(
                   1
                  ) [ConstNum]
                ) [ConstDef]
              ) [ConstDeclItem]
            ) [ConstDecl]
          ) [GlobalDeclConst]
        ) [GlobalDeclListL]
        GlobalDeclConst(
          ConstDecl(
            Type(
             int
            ) [Type]
            ConstDeclItem(
              ConstDef(
               pet
                ConstNum(
                 5
                ) [ConstNum]
              ) [ConstDef]
            ) [ConstDeclItem]
          ) [ConstDecl]
        ) [GlobalDeclConst]
      ) [GlobalDeclListL]
      GlobalDeclVar(
        GlobalVarDecl(
          Type(
           int
          ) [Type]
          GlobalVarDeclItem(
            GlobalVarDeclDefOk(
              VarDeclDefineArray(
               niz
              ) [VarDeclDefineArray]
            ) [GlobalVarDeclDefOk]
          ) [GlobalVarDeclItem]
        ) [GlobalVarDecl]
      ) [GlobalDeclVar]
    ) [GlobalDeclListL]
    GlobalDeclVar(
      GlobalVarDecl(
        Type(
         char
        ) [Type]
        GlobalVarDeclItem(
          GlobalVarDeclDefOk(
            VarDeclDefineArray(
             nizch
            ) [VarDeclDefineArray]
          ) [GlobalVarDeclDefOk]
        ) [GlobalVarDeclItem]
      ) [GlobalVarDecl]
    ) [GlobalDeclVar]
  ) [GlobalDeclListL]
  MethodDecl(
    MethodSignature(
      VoidableType(
      ) [VoidableType]
     main
    ) [MethodSignature]
    VarMethodDeclList_NoEps(
      VarMethodDeclList_NoEps(
        VarMethodDeclList_Eps(
        ) [VarMethodDeclList_Eps]
        VarDecl(
          Type(
           int
          ) [Type]
          VarDeclItem(
            VarDeclDefineSingle(
             bodovi
            ) [VarDeclDefineSingle]
          ) [VarDeclItem]
        ) [VarDecl]
      ) [VarMethodDeclList_NoEps]
      VarDecl(
        Type(
         Broj
        ) [Type]
        VarDeclListL(
          VarDeclItem(
            VarDeclDefineSingle(
             nula
            ) [VarDeclDefineSingle]
          ) [VarDeclItem]
          VarDeclDefineSingle(
           jedan
          ) [VarDeclDefineSingle]
        ) [VarDeclListL]
      ) [VarDecl]
    ) [VarMethodDeclList_NoEps]
    StatementList_NoEps(
      StatementList_NoEps(
        StatementList_NoEps(
          StatementList_NoEps(
            StatementList_NoEps(
              StatementList_NoEps(
                StatementList_NoEps(
                  StatementList_NoEps(
                    StatementList_NoEps(
                      StatementList_NoEps(
                        StatementList_Eps(
                        ) [StatementList_Eps]
                        StatementDes(
                          DesignStatAssignment(
                            Designator(
                             nula
                              DesDerived1(
                              ) [DesDerived1]
                            ) [Designator]
                            AssignementExpr(
                              TermExpr(
                                TermFact(
                                  FactorDesign(
                                    Designator(
                                     Broj
                                      DesEnum(
                                       NULA
                                      ) [DesEnum]
                                    ) [Designator]
                                  ) [FactorDesign]
                                ) [TermFact]
                              ) [TermExpr]
                            ) [AssignementExpr]
                          ) [DesignStatAssignment]
                        ) [StatementDes]
                      ) [StatementList_NoEps]
                      StatementDes(
                        DesignStatAssignment(
                          Designator(
                           jedan
                            DesDerived1(
                            ) [DesDerived1]
                          ) [Designator]
                          AssignementExpr(
                            TermExpr(
                              TermFact(
                                FactorDesign(
                                  Designator(
                                   Broj
                                    DesEnum(
                                     JEDAN
                                    ) [DesEnum]
                                  ) [Designator]
                                ) [FactorDesign]
                              ) [TermFact]
                            ) [TermExpr]
                          ) [AssignementExpr]
                        ) [DesignStatAssignment]
                      ) [StatementDes]
                    ) [StatementList_NoEps]
                    StatementDes(
                      DesignStatAssignment(
                        Designator(
                         bodovi
                          DesDerived1(
                          ) [DesDerived1]
                        ) [Designator]
                        AssignementExpr(
                          TermExpr(
                            TermFact(
                              FactorConst(
                                ConstNum(
                                 0
                                ) [ConstNum]
                              ) [FactorConst]
                            ) [TermFact]
                          ) [TermExpr]
                        ) [AssignementExpr]
                      ) [DesignStatAssignment]
                    ) [StatementDes]
                  ) [StatementList_NoEps]
                  StatementDes(
                    DesignStatInc(
                      Designator(
                       bodovi
                        DesDerived1(
                        ) [DesDerived1]
                      ) [Designator]
                    ) [DesignStatInc]
                  ) [StatementDes]
                ) [StatementList_NoEps]
                StatementDes(
                  DesignStatAssignment(
                    Designator(
                     bodovi
                      DesDerived1(
                      ) [DesDerived1]
                    ) [Designator]
                    AssignementExpr(
                      AddopExp(
                        TermExpr(
                          TermFact(
                            FactorDesign(
                              Designator(
                               bodovi
                                DesDerived1(
                                ) [DesDerived1]
                              ) [Designator]
                            ) [FactorDesign]
                          ) [TermFact]
                        ) [TermExpr]
                        Addop_Plus(
                        ) [Addop_Plus]
                        TermFact(
                          FactorDesign(
                            Designator(
                             jedan
                              DesDerived1(
                              ) [DesDerived1]
                            ) [Designator]
                          ) [FactorDesign]
                        ) [TermFact]
                      ) [AddopExp]
                    ) [AssignementExpr]
                  ) [DesignStatAssignment]
                ) [StatementDes]
              ) [StatementList_NoEps]
              StatementDes(
                DesignStatAssignment(
                  Designator(
                   bodovi
                    DesDerived1(
                    ) [DesDerived1]
                  ) [Designator]
                  AssignementExpr(
                    TermExpr(
                      TermMulop(
                        TermFact(
                          FactorDesign(
                            Designator(
                             bodovi
                              DesDerived1(
                              ) [DesDerived1]
                            ) [Designator]
                          ) [FactorDesign]
                        ) [TermFact]
                        Mulop_Mul(
                        ) [Mulop_Mul]
                        FactorDesign(
                          Designator(
                           pet
                            DesDerived1(
                            ) [DesDerived1]
                          ) [Designator]
                        ) [FactorDesign]
                      ) [TermMulop]
                    ) [TermExpr]
                  ) [AssignementExpr]
                ) [DesignStatAssignment]
              ) [StatementDes]
            ) [StatementList_NoEps]
            StatementDes(
              DesignStatDec(
                Designator(
                 bodovi
                  DesDerived1(
                  ) [DesDerived1]
                ) [Designator]
              ) [DesignStatDec]
            ) [StatementDes]
          ) [StatementList_NoEps]
          StatPrint(
            TermExpr(
              TermFact(
                FactorDesign(
                  Designator(
                   bodovi
                    DesDerived1(
                    ) [DesDerived1]
                  ) [Designator]
                ) [FactorDesign]
              ) [TermFact]
            ) [TermExpr]
          ) [StatPrint]
        ) [StatementList_NoEps]
        StatementDes(
          DesignStatAssignment(
            Designator(
             niz
              DesDerived1(
              ) [DesDerived1]
            ) [Designator]
            AssignementExpr(
              TermExpr(
                TermFact(
                  FactorNewArr(
                    Type(
                     int
                    ) [Type]
                    TermExpr(
                      TermFact(
                        FactorConst(
                          ConstNum(
                           2
                          ) [ConstNum]
                        ) [FactorConst]
                      ) [TermFact]
                    ) [TermExpr]
                  ) [FactorNewArr]
                ) [TermFact]
              ) [TermExpr]
            ) [AssignementExpr]
          ) [DesignStatAssignment]
        ) [StatementDes]
      ) [StatementList_NoEps]
      StatementDes(
        DesignStatAssignment(
          Designator(
           niz
            DesArr(
              TermExpr(
                TermFact(
                  FactorConst(
                    ConstNum(
                     1
                    ) [ConstNum]
                  ) [FactorConst]
                ) [TermFact]
              ) [TermExpr]
            ) [DesArr]
          ) [Designator]
          AssignementExpr(
            TermExpr(
              TermFact(
                FactorConst(
                  ConstNum(
                   5
                  ) [ConstNum]
                ) [FactorConst]
              ) [TermFact]
            ) [TermExpr]
          ) [AssignementExpr]
        ) [DesignStatAssignment]
      ) [StatementDes]
    ) [StatementList_NoEps]
  ) [MethodDecl]
) [Program]
INFO  20:45:33,488 - ===================================
INFO  20:45:33,488 - Deklarisan novi enum tip Broj na liniji 5
INFO  20:45:33,488 - Deklarisana konstanta 'jedan' na liniji 7
INFO  20:45:33,488 - Deklarisana konstanta 'pet' na liniji 8
INFO  20:45:33,488 - Deklarisana promenljiva niza niz tipa 1 na liniji 10
INFO  20:45:33,488 - Deklarisana promenljiva niza nizch tipa 2 na liniji 11
INFO  20:45:33,488 - Obradjuje se funkcija main na liniji 14
INFO  20:45:33,488 - Deklarisana promenljiva bodovi tipa 1 na liniji 15
INFO  20:45:33,488 - Deklarisana promenljiva nula tipa 6 na liniji 16
INFO  20:45:33,488 - Deklarisana promenljiva jedan tipa 6 na liniji 16
INFO  20:45:33,488 - Designator ident je: nula, 6
INFO  20:45:33,488 - Designator ident je: Broj, 6
INFO  20:45:33,488 - desObj kind je 1
INFO  20:45:33,488 - Dodeljenja vrednost: 6 je design,6 je assign
INFO  20:45:33,488 - Designator ident je: jedan, 6
INFO  20:45:33,488 - Designator ident je: Broj, 6
INFO  20:45:33,488 - desObj kind je 1
INFO  20:45:33,488 - Dodeljenja vrednost: 6 je design,6 je assign
INFO  20:45:33,488 - Designator ident je: bodovi, 1
INFO  20:45:33,488 - desObj kind je 1
INFO  20:45:33,488 - Dodeljenja vrednost: 1 je design,1 je assign
INFO  20:45:33,488 - Designator ident je: bodovi, 1
INFO  20:45:33,488 - Inkrementirana vrednost
INFO  20:45:33,488 - Designator ident je: bodovi, 1
INFO  20:45:33,488 - Designator ident je: bodovi, 1
INFO  20:45:33,504 - Designator ident je: jedan, 6
INFO  20:45:33,504 - desObj kind je 1
INFO  20:45:33,504 - Dodeljenja vrednost: 1 je design,1 je assign
INFO  20:45:33,504 - Designator ident je: bodovi, 1
INFO  20:45:33,504 - Designator ident je: bodovi, 1
INFO  20:45:33,504 - Designator ident je: pet, 1
INFO  20:45:33,504 - desObj kind je 1
INFO  20:45:33,504 - Dodeljenja vrednost: 1 je design,1 je assign
INFO  20:45:33,504 - Designator ident je: bodovi, 1
INFO  20:45:33,504 - Dekrementirana vrednost
INFO  20:45:33,504 - Designator ident je: bodovi, 1
INFO  20:45:33,504 - Designator ident je: niz, 3
INFO  20:45:33,504 - desObj kind je 1
INFO  20:45:33,504 - Dodeljenja vrednost: 3 je design,3 je assign
INFO  20:45:33,504 - Designator ident je: elem, 3
INFO  20:45:33,504 - desObj kind je 5
ERROR 20:45:33,504 -  OVDE Greska: nekompatibilni tipovi u dodeli na liniji 30
ERROR 20:45:33,504 - 3 je kind designatora, 1 je kind assignmenta
INFO  20:45:33,504 -  Print count calls = 1
INFO  20:45:33,504 -  Deklarisanih promenljivih ima = 3
ERROR 20:45:33,504 - Parsiranje NIJE uspesno zavrseno!
