INFO  21:24:18,246 - Compiling source file: C:\Users\ikadr\Desktop\PP\Projekat\Rad\workspace\MJCompiler\test\program.mj
INFO  21:24:18,333 - #2 program
INFO  21:24:18,333 - #28 test301
INFO  21:24:18,334 - #9 enum
INFO  21:24:18,337 - #28 Broj
INFO  21:24:18,337 - #17 {
INFO  21:24:18,337 - #28 NULA
INFO  21:24:18,337 - #12 ,
INFO  21:24:18,337 - #28 JEDAN
INFO  21:24:18,337 - #12 ,
INFO  21:24:18,338 - #28 PET
INFO  21:24:18,338 - #11 =
INFO  21:24:18,338 - #27 5
INFO  21:24:18,338 - #12 ,
INFO  21:24:18,338 - #28 DESET
INFO  21:24:18,338 - #11 =
INFO  21:24:18,339 - #27 10
INFO  21:24:18,339 - #18 }
INFO  21:24:18,339 - #9 enum
INFO  21:24:18,341 - #28 Kocka
INFO  21:24:18,341 - #17 {
INFO  21:24:18,342 - #28 strana
INFO  21:24:18,342 - #12 ,
INFO  21:24:18,342 - #28 obim
INFO  21:24:18,342 - #18 }
INFO  21:24:18,342 - #8 const
INFO  21:24:18,343 - #28 int
INFO  21:24:18,343 - #28 jedan
INFO  21:24:18,344 - #11 =
INFO  21:24:18,344 - #27 1
INFO  21:24:18,344 - #10 ;
INFO  21:24:18,345 - #8 const
INFO  21:24:18,408 - #28 int
INFO  21:24:18,409 - #28 pet
INFO  21:24:18,409 - #11 =
INFO  21:24:18,409 - #27 5
INFO  21:24:18,410 - #10 ;
INFO  21:24:18,410 - #28 int
INFO  21:24:18,410 - #28 niz
INFO  21:24:18,410 - #15 [
INFO  21:24:18,410 - #16 ]
INFO  21:24:18,411 - #10 ;
INFO  21:24:18,412 - #28 char
INFO  21:24:18,418 - #28 nizch
INFO  21:24:18,418 - #15 [
INFO  21:24:18,418 - #16 ]
INFO  21:24:18,419 - #10 ;
INFO  21:24:18,419 - #17 {
INFO  21:24:18,419 - #6 void
INFO  21:24:18,420 - #28 main
INFO  21:24:18,423 - #13 (
INFO  21:24:18,423 - #14 )
INFO  21:24:18,424 - #28 int
INFO  21:24:18,428 - #28 bodovi
INFO  21:24:18,428 - #10 ;
INFO  21:24:18,429 - #28 Broj
INFO  21:24:18,431 - #28 nula
INFO  21:24:18,431 - #12 ,
INFO  21:24:18,431 - #28 jedan
INFO  21:24:18,431 - #10 ;
INFO  21:24:18,432 - #17 {
INFO  21:24:18,432 - #28 nula
INFO  21:24:18,434 - #11 =
INFO  21:24:18,435 - #28 Broj
INFO  21:24:18,436 - #19 .
INFO  21:24:18,436 - #28 NULA
INFO  21:24:18,436 - #10 ;
INFO  21:24:18,437 - #28 jedan
INFO  21:24:18,438 - #11 =
INFO  21:24:18,438 - #28 Broj
INFO  21:24:18,438 - #19 .
INFO  21:24:18,439 - #28 JEDAN
INFO  21:24:18,439 - #10 ;
INFO  21:24:18,439 - #28 bodovi
INFO  21:24:18,439 - #11 =
INFO  21:24:18,439 - #27 0
INFO  21:24:18,440 - #10 ;
INFO  21:24:18,440 - #28 bodovi
INFO  21:24:18,441 - #20 ++
INFO  21:24:18,441 - #10 ;
INFO  21:24:18,442 - #28 bodovi
INFO  21:24:18,442 - #11 =
INFO  21:24:18,442 - #28 bodovi
INFO  21:24:18,443 - #23 +
INFO  21:24:18,444 - #28 jedan
INFO  21:24:18,450 - #10 ;
INFO  21:24:18,451 - #28 bodovi
INFO  21:24:18,451 - #11 =
INFO  21:24:18,452 - #28 bodovi
INFO  21:24:18,453 - #24 *
INFO  21:24:18,453 - #28 pet
INFO  21:24:18,457 - #10 ;
INFO  21:24:18,457 - #28 bodovi
INFO  21:24:18,457 - #21 --
INFO  21:24:18,458 - #10 ;
INFO  21:24:18,458 - #4 print
INFO  21:24:18,458 - #13 (
INFO  21:24:18,458 - #28 bodovi
INFO  21:24:18,458 - #14 )
INFO  21:24:18,458 - #10 ;
INFO  21:24:18,458 - #28 niz
INFO  21:24:18,459 - #11 =
INFO  21:24:18,459 - #5 new
INFO  21:24:18,459 - #28 int
INFO  21:24:18,459 - #15 [
INFO  21:24:18,459 - #27 2
INFO  21:24:18,459 - #16 ]
INFO  21:24:18,459 - #10 ;
INFO  21:24:18,459 - #28 niz
INFO  21:24:18,460 - #15 [
INFO  21:24:18,461 - #28 nula
INFO  21:24:18,461 - #16 ]
INFO  21:24:18,462 - #11 =
INFO  21:24:18,462 - #28 pet
INFO  21:24:18,462 - #10 ;
INFO  21:24:18,462 - #28 niz
INFO  21:24:18,462 - #15 [
INFO  21:24:18,462 - #27 1
INFO  21:24:18,462 - #16 ]
INFO  21:24:18,462 - #11 =
INFO  21:24:18,462 - #28 Broj
INFO  21:24:18,462 - #19 .
INFO  21:24:18,463 - #28 DESET
INFO  21:24:18,463 - #10 ;
INFO  21:24:18,463 - #28 bodovi
INFO  21:24:18,463 - #11 =
INFO  21:24:18,463 - #28 niz
INFO  21:24:18,463 - #15 [
INFO  21:24:18,464 - #27 1
INFO  21:24:18,464 - #16 ]
INFO  21:24:18,464 - #25 /
INFO  21:24:18,464 - #28 niz
INFO  21:24:18,465 - #15 [
INFO  21:24:18,471 - #27 0
INFO  21:24:18,472 - #16 ]
INFO  21:24:18,472 - #10 ;
INFO  21:24:18,472 - #4 print
INFO  21:24:18,472 - #13 (
INFO  21:24:18,472 - #28 bodovi
INFO  21:24:18,472 - #14 )
INFO  21:24:18,472 - #10 ;
INFO  21:24:18,472 - #4 print
INFO  21:24:18,472 - #13 (
INFO  21:24:18,473 - #28 niz
INFO  21:24:18,473 - #15 [
INFO  21:24:18,473 - #28 Broj
INFO  21:24:18,473 - #19 .
INFO  21:24:18,473 - #28 JEDAN
INFO  21:24:18,474 - #16 ]
INFO  21:24:18,474 - #14 )
INFO  21:24:18,474 - #10 ;
INFO  21:24:18,474 - #28 nizch
INFO  21:24:18,474 - #11 =
INFO  21:24:18,474 - #5 new
INFO  21:24:18,474 - #28 char
INFO  21:24:18,474 - #15 [
INFO  21:24:18,474 - #27 3
INFO  21:24:18,475 - #16 ]
INFO  21:24:18,475 - #10 ;
INFO  21:24:18,475 - #28 nizch
INFO  21:24:18,475 - #15 [
INFO  21:24:18,475 - #27 0
INFO  21:24:18,475 - #16 ]
INFO  21:24:18,475 - #11 =
INFO  21:24:18,475 - #29 a
INFO  21:24:18,475 - #10 ;
INFO  21:24:18,476 - #28 nizch
INFO  21:24:18,476 - #15 [
INFO  21:24:18,476 - #28 jedan
INFO  21:24:18,476 - #16 ]
INFO  21:24:18,476 - #11 =
INFO  21:24:18,476 - #29 b
INFO  21:24:18,476 - #10 ;
INFO  21:24:18,476 - #28 nizch
INFO  21:24:18,476 - #15 [
INFO  21:24:18,476 - #28 pet
INFO  21:24:18,476 - #22 -
INFO  21:24:18,477 - #27 3
INFO  21:24:18,478 - #16 ]
INFO  21:24:18,478 - #11 =
INFO  21:24:18,478 - #29 c
INFO  21:24:18,478 - #10 ;
INFO  21:24:18,478 - #4 print
INFO  21:24:18,478 - #13 (
INFO  21:24:18,478 - #28 nizch
INFO  21:24:18,478 - #15 [
INFO  21:24:18,478 - #27 2
INFO  21:24:18,478 - #22 -
INFO  21:24:18,479 - #27 1
INFO  21:24:18,479 - #16 ]
INFO  21:24:18,479 - #14 )
INFO  21:24:18,479 - #10 ;
INFO  21:24:18,479 - #4 print
INFO  21:24:18,479 - #13 (
INFO  21:24:18,479 - #28 nizch
INFO  21:24:18,479 - #15 [
INFO  21:24:18,479 - #28 jedan
INFO  21:24:18,479 - #24 *
INFO  21:24:18,480 - #27 2
INFO  21:24:18,480 - #16 ]
INFO  21:24:18,480 - #14 )
INFO  21:24:18,480 - #10 ;
INFO  21:24:18,480 - #28 bodovi
INFO  21:24:18,480 - #11 =
INFO  21:24:18,480 - #28 bodovi
INFO  21:24:18,480 - #23 +
INFO  21:24:18,480 - #13 (
INFO  21:24:18,480 - #13 (
INFO  21:24:18,480 - #28 pet
INFO  21:24:18,480 - #24 *
INFO  21:24:18,481 - #28 jedan
INFO  21:24:18,481 - #22 -
INFO  21:24:18,481 - #27 1
INFO  21:24:18,481 - #14 )
INFO  21:24:18,481 - #24 *
INFO  21:24:18,481 - #27 2
INFO  21:24:18,481 - #22 -
INFO  21:24:18,481 - #13 (
INFO  21:24:18,481 - #27 3
INFO  21:24:18,482 - #26 %
INFO  21:24:18,482 - #27 2
INFO  21:24:18,483 - #23 +
INFO  21:24:18,483 - #27 3
INFO  21:24:18,483 - #24 *
INFO  21:24:18,483 - #27 2
INFO  21:24:18,483 - #22 -
INFO  21:24:18,483 - #27 3
INFO  21:24:18,483 - #14 )
INFO  21:24:18,483 - #22 -
INFO  21:24:18,483 - #28 Broj
INFO  21:24:18,483 - #19 .
INFO  21:24:18,483 - #28 JEDAN
INFO  21:24:18,483 - #24 *
INFO  21:24:18,483 - #27 0
INFO  21:24:18,483 - #14 )
INFO  21:24:18,483 - #10 ;
INFO  21:24:18,484 - #4 print
INFO  21:24:18,484 - #13 (
INFO  21:24:18,484 - #28 bodovi
INFO  21:24:18,484 - #14 )
INFO  21:24:18,484 - #10 ;
INFO  21:24:18,484 - #3 read
INFO  21:24:18,484 - #13 (
INFO  21:24:18,484 - #28 bodovi
INFO  21:24:18,484 - #14 )
INFO  21:24:18,485 - #10 ;
INFO  21:24:18,485 - #28 bodovi
INFO  21:24:18,485 - #11 =
INFO  21:24:18,485 - #28 bodovi
INFO  21:24:18,485 - #23 +
INFO  21:24:18,485 - #27 1
INFO  21:24:18,485 - #10 ;
INFO  21:24:18,485 - #4 print
INFO  21:24:18,485 - #13 (
INFO  21:24:18,486 - #28 bodovi
INFO  21:24:18,486 - #14 )
INFO  21:24:18,487 - #10 ;
INFO  21:24:18,487 - #18 }
INFO  21:24:18,487 - #18 }
INFO  21:24:18,510 - Program(
  ProgName(
   test301
  ) [ProgName]
  GlobalDeclListL(
    GlobalDeclListL(
      GlobalDeclListL(
        GlobalDeclListL(
          GlobalDeclListL(
            GlobalDeclListL(
              GlobalDeclListEps(
              ) [GlobalDeclListEps]
              GlobalDeclEnum(
                EnumDecl(
                 Broj
                  EnumDeclListL(
                    EnumDeclListL(
                      EnumDeclListL(
                        EnumDeclItem(
                          EnumDeclDefNoVal(
                           NULA
                          ) [EnumDeclDefNoVal]
                        ) [EnumDeclItem]
                        EnumDeclDefNoVal(
                         JEDAN
                        ) [EnumDeclDefNoVal]
                      ) [EnumDeclListL]
                      EnumDeclDefVal(
                       PET
                       5
                      ) [EnumDeclDefVal]
                    ) [EnumDeclListL]
                    EnumDeclDefVal(
                     DESET
                     10
                    ) [EnumDeclDefVal]
                  ) [EnumDeclListL]
                ) [EnumDecl]
              ) [GlobalDeclEnum]
            ) [GlobalDeclListL]
            GlobalDeclEnum(
              EnumDecl(
               Kocka
                EnumDeclListL(
                  EnumDeclItem(
                    EnumDeclDefNoVal(
                     strana
                    ) [EnumDeclDefNoVal]
                  ) [EnumDeclItem]
                  EnumDeclDefNoVal(
                   obim
                  ) [EnumDeclDefNoVal]
                ) [EnumDeclListL]
              ) [EnumDecl]
            ) [GlobalDeclEnum]
          ) [GlobalDeclListL]
          GlobalDeclConst(
            ConstDecl(
              Type(
               int
              ) [Type]
              ConstDeclItem(
                ConstDef(
                 jedan
                  ConstNum(
                   1
                  ) [ConstNum]
                ) [ConstDef]
              ) [ConstDeclItem]
            ) [ConstDecl]
          ) [GlobalDeclConst]
        ) [GlobalDeclListL]
        GlobalDeclConst(
          ConstDecl(
            Type(
             int
            ) [Type]
            ConstDeclItem(
              ConstDef(
               pet
                ConstNum(
                 5
                ) [ConstNum]
              ) [ConstDef]
            ) [ConstDeclItem]
          ) [ConstDecl]
        ) [GlobalDeclConst]
      ) [GlobalDeclListL]
      GlobalDeclVar(
        GlobalVarDecl(
          Type(
           int
          ) [Type]
          GlobalVarDeclItem(
            GlobalVarDeclDefOk(
              VarDeclDefineArray(
               niz
              ) [VarDeclDefineArray]
            ) [GlobalVarDeclDefOk]
          ) [GlobalVarDeclItem]
        ) [GlobalVarDecl]
      ) [GlobalDeclVar]
    ) [GlobalDeclListL]
    GlobalDeclVar(
      GlobalVarDecl(
        Type(
         char
        ) [Type]
        GlobalVarDeclItem(
          GlobalVarDeclDefOk(
            VarDeclDefineArray(
             nizch
            ) [VarDeclDefineArray]
          ) [GlobalVarDeclDefOk]
        ) [GlobalVarDeclItem]
      ) [GlobalVarDecl]
    ) [GlobalDeclVar]
  ) [GlobalDeclListL]
  MethodDecl(
    MethodSignature(
      VoidableType(
      ) [VoidableType]
     main
    ) [MethodSignature]
    VarMethodDeclList_NoEps(
      VarMethodDeclList_NoEps(
        VarMethodDeclList_Eps(
        ) [VarMethodDeclList_Eps]
        VarDecl(
          Type(
           int
          ) [Type]
          VarDeclItem(
            VarDeclDefineSingle(
             bodovi
            ) [VarDeclDefineSingle]
          ) [VarDeclItem]
        ) [VarDecl]
      ) [VarMethodDeclList_NoEps]
      VarDecl(
        Type(
         Broj
        ) [Type]
        VarDeclListL(
          VarDeclItem(
            VarDeclDefineSingle(
             nula
            ) [VarDeclDefineSingle]
          ) [VarDeclItem]
          VarDeclDefineSingle(
           jedan
          ) [VarDeclDefineSingle]
        ) [VarDeclListL]
      ) [VarDecl]
    ) [VarMethodDeclList_NoEps]
    StatementList_NoEps(
      StatementList_NoEps(
        StatementList_NoEps(
          StatementList_NoEps(
            StatementList_NoEps(
              StatementList_NoEps(
                StatementList_NoEps(
                  StatementList_NoEps(
                    StatementList_NoEps(
                      StatementList_NoEps(
                        StatementList_NoEps(
                          StatementList_NoEps(
                            StatementList_NoEps(
                              StatementList_NoEps(
                                StatementList_NoEps(
                                  StatementList_NoEps(
                                    StatementList_NoEps(
                                      StatementList_NoEps(
                                        StatementList_NoEps(
                                          StatementList_NoEps(
                                            StatementList_NoEps(
                                              StatementList_NoEps(
                                                StatementList_NoEps(
                                                  StatementList_NoEps(
                                                    StatementList_NoEps(
                                                      StatementList_Eps(
                                                      ) [StatementList_Eps]
                                                      StatementDes(
                                                        DesignStatAssignment(
                                                          DesIdent(
                                                           nula
                                                          ) [DesIdent]
                                                          AssignementExpr(
                                                            TermExpr(
                                                              TermFact(
                                                                FactorDesign(
                                                                  DesEnum(
                                                                   Broj
                                                                   NULA
                                                                  ) [DesEnum]
                                                                ) [FactorDesign]
                                                              ) [TermFact]
                                                            ) [TermExpr]
                                                          ) [AssignementExpr]
                                                        ) [DesignStatAssignment]
                                                      ) [StatementDes]
                                                    ) [StatementList_NoEps]
                                                    StatementDes(
                                                      DesignStatAssignment(
                                                        DesIdent(
                                                         jedan
                                                        ) [DesIdent]
                                                        AssignementExpr(
                                                          TermExpr(
                                                            TermFact(
                                                              FactorDesign(
                                                                DesEnum(
                                                                 Broj
                                                                 JEDAN
                                                                ) [DesEnum]
                                                              ) [FactorDesign]
                                                            ) [TermFact]
                                                          ) [TermExpr]
                                                        ) [AssignementExpr]
                                                      ) [DesignStatAssignment]
                                                    ) [StatementDes]
                                                  ) [StatementList_NoEps]
                                                  StatementDes(
                                                    DesignStatAssignment(
                                                      DesIdent(
                                                       bodovi
                                                      ) [DesIdent]
                                                      AssignementExpr(
                                                        TermExpr(
                                                          TermFact(
                                                            FactorConst(
                                                              ConstNum(
                                                               0
                                                              ) [ConstNum]
                                                            ) [FactorConst]
                                                          ) [TermFact]
                                                        ) [TermExpr]
                                                      ) [AssignementExpr]
                                                    ) [DesignStatAssignment]
                                                  ) [StatementDes]
                                                ) [StatementList_NoEps]
                                                StatementDes(
                                                  DesignStatInc(
                                                    DesIdent(
                                                     bodovi
                                                    ) [DesIdent]
                                                  ) [DesignStatInc]
                                                ) [StatementDes]
                                              ) [StatementList_NoEps]
                                              StatementDes(
                                                DesignStatAssignment(
                                                  DesIdent(
                                                   bodovi
                                                  ) [DesIdent]
                                                  AssignementExpr(
                                                    AddopExp(
                                                      TermExpr(
                                                        TermFact(
                                                          FactorDesign(
                                                            DesIdent(
                                                             bodovi
                                                            ) [DesIdent]
                                                          ) [FactorDesign]
                                                        ) [TermFact]
                                                      ) [TermExpr]
                                                      Addop_Plus(
                                                      ) [Addop_Plus]
                                                      TermFact(
                                                        FactorDesign(
                                                          DesIdent(
                                                           jedan
                                                          ) [DesIdent]
                                                        ) [FactorDesign]
                                                      ) [TermFact]
                                                    ) [AddopExp]
                                                  ) [AssignementExpr]
                                                ) [DesignStatAssignment]
                                              ) [StatementDes]
                                            ) [StatementList_NoEps]
                                            StatementDes(
                                              DesignStatAssignment(
                                                DesIdent(
                                                 bodovi
                                                ) [DesIdent]
                                                AssignementExpr(
                                                  TermExpr(
                                                    TermMulop(
                                                      TermFact(
                                                        FactorDesign(
                                                          DesIdent(
                                                           bodovi
                                                          ) [DesIdent]
                                                        ) [FactorDesign]
                                                      ) [TermFact]
                                                      Mulop_Mul(
                                                      ) [Mulop_Mul]
                                                      FactorDesign(
                                                        DesIdent(
                                                         pet
                                                        ) [DesIdent]
                                                      ) [FactorDesign]
                                                    ) [TermMulop]
                                                  ) [TermExpr]
                                                ) [AssignementExpr]
                                              ) [DesignStatAssignment]
                                            ) [StatementDes]
                                          ) [StatementList_NoEps]
                                          StatementDes(
                                            DesignStatDec(
                                              DesIdent(
                                               bodovi
                                              ) [DesIdent]
                                            ) [DesignStatDec]
                                          ) [StatementDes]
                                        ) [StatementList_NoEps]
                                        StatPrint(
                                          TermExpr(
                                            TermFact(
                                              FactorDesign(
                                                DesIdent(
                                                 bodovi
                                                ) [DesIdent]
                                              ) [FactorDesign]
                                            ) [TermFact]
                                          ) [TermExpr]
                                        ) [StatPrint]
                                      ) [StatementList_NoEps]
                                      StatementDes(
                                        DesignStatAssignment(
                                          DesIdent(
                                           niz
                                          ) [DesIdent]
                                          AssignementExpr(
                                            TermExpr(
                                              TermFact(
                                                FactorNewArr(
                                                  Type(
                                                   int
                                                  ) [Type]
                                                  TermExpr(
                                                    TermFact(
                                                      FactorConst(
                                                        ConstNum(
                                                         2
                                                        ) [ConstNum]
                                                      ) [FactorConst]
                                                    ) [TermFact]
                                                  ) [TermExpr]
                                                ) [FactorNewArr]
                                              ) [TermFact]
                                            ) [TermExpr]
                                          ) [AssignementExpr]
                                        ) [DesignStatAssignment]
                                      ) [StatementDes]
                                    ) [StatementList_NoEps]
                                    StatementDes(
                                      DesignStatAssignment(
                                        DesArr(
                                          ArrayName(
                                           niz
                                          ) [ArrayName]
                                          TermExpr(
                                            TermFact(
                                              FactorDesign(
                                                DesIdent(
                                                 nula
                                                ) [DesIdent]
                                              ) [FactorDesign]
                                            ) [TermFact]
                                          ) [TermExpr]
                                        ) [DesArr]
                                        AssignementExpr(
                                          TermExpr(
                                            TermFact(
                                              FactorDesign(
                                                DesIdent(
                                                 pet
                                                ) [DesIdent]
                                              ) [FactorDesign]
                                            ) [TermFact]
                                          ) [TermExpr]
                                        ) [AssignementExpr]
                                      ) [DesignStatAssignment]
                                    ) [StatementDes]
                                  ) [StatementList_NoEps]
                                  StatementDes(
                                    DesignStatAssignment(
                                      DesArr(
                                        ArrayName(
                                         niz
                                        ) [ArrayName]
                                        TermExpr(
                                          TermFact(
                                            FactorConst(
                                              ConstNum(
                                               1
                                              ) [ConstNum]
                                            ) [FactorConst]
                                          ) [TermFact]
                                        ) [TermExpr]
                                      ) [DesArr]
                                      AssignementExpr(
                                        TermExpr(
                                          TermFact(
                                            FactorDesign(
                                              DesEnum(
                                               Broj
                                               DESET
                                              ) [DesEnum]
                                            ) [FactorDesign]
                                          ) [TermFact]
                                        ) [TermExpr]
                                      ) [AssignementExpr]
                                    ) [DesignStatAssignment]
                                  ) [StatementDes]
                                ) [StatementList_NoEps]
                                StatementDes(
                                  DesignStatAssignment(
                                    DesIdent(
                                     bodovi
                                    ) [DesIdent]
                                    AssignementExpr(
                                      TermExpr(
                                        TermMulop(
                                          TermFact(
                                            FactorDesign(
                                              DesArr(
                                                ArrayName(
                                                 niz
                                                ) [ArrayName]
                                                TermExpr(
                                                  TermFact(
                                                    FactorConst(
                                                      ConstNum(
                                                       1
                                                      ) [ConstNum]
                                                    ) [FactorConst]
                                                  ) [TermFact]
                                                ) [TermExpr]
                                              ) [DesArr]
                                            ) [FactorDesign]
                                          ) [TermFact]
                                          Mulop_Div(
                                          ) [Mulop_Div]
                                          FactorDesign(
                                            DesArr(
                                              ArrayName(
                                               niz
                                              ) [ArrayName]
                                              TermExpr(
                                                TermFact(
                                                  FactorConst(
                                                    ConstNum(
                                                     0
                                                    ) [ConstNum]
                                                  ) [FactorConst]
                                                ) [TermFact]
                                              ) [TermExpr]
                                            ) [DesArr]
                                          ) [FactorDesign]
                                        ) [TermMulop]
                                      ) [TermExpr]
                                    ) [AssignementExpr]
                                  ) [DesignStatAssignment]
                                ) [StatementDes]
                              ) [StatementList_NoEps]
                              StatPrint(
                                TermExpr(
                                  TermFact(
                                    FactorDesign(
                                      DesIdent(
                                       bodovi
                                      ) [DesIdent]
                                    ) [FactorDesign]
                                  ) [TermFact]
                                ) [TermExpr]
                              ) [StatPrint]
                            ) [StatementList_NoEps]
                            StatPrint(
                              TermExpr(
                                TermFact(
                                  FactorDesign(
                                    DesArr(
                                      ArrayName(
                                       niz
                                      ) [ArrayName]
                                      TermExpr(
                                        TermFact(
                                          FactorDesign(
                                            DesEnum(
                                             Broj
                                             JEDAN
                                            ) [DesEnum]
                                          ) [FactorDesign]
                                        ) [TermFact]
                                      ) [TermExpr]
                                    ) [DesArr]
                                  ) [FactorDesign]
                                ) [TermFact]
                              ) [TermExpr]
                            ) [StatPrint]
                          ) [StatementList_NoEps]
                          StatementDes(
                            DesignStatAssignment(
                              DesIdent(
                               nizch
                              ) [DesIdent]
                              AssignementExpr(
                                TermExpr(
                                  TermFact(
                                    FactorNewArr(
                                      Type(
                                       char
                                      ) [Type]
                                      TermExpr(
                                        TermFact(
                                          FactorConst(
                                            ConstNum(
                                             3
                                            ) [ConstNum]
                                          ) [FactorConst]
                                        ) [TermFact]
                                      ) [TermExpr]
                                    ) [FactorNewArr]
                                  ) [TermFact]
                                ) [TermExpr]
                              ) [AssignementExpr]
                            ) [DesignStatAssignment]
                          ) [StatementDes]
                        ) [StatementList_NoEps]
                        StatementDes(
                          DesignStatAssignment(
                            DesArr(
                              ArrayName(
                               nizch
                              ) [ArrayName]
                              TermExpr(
                                TermFact(
                                  FactorConst(
                                    ConstNum(
                                     0
                                    ) [ConstNum]
                                  ) [FactorConst]
                                ) [TermFact]
                              ) [TermExpr]
                            ) [DesArr]
                            AssignementExpr(
                              TermExpr(
                                TermFact(
                                  FactorConst(
                                    ConstChar(
                                     a
                                    ) [ConstChar]
                                  ) [FactorConst]
                                ) [TermFact]
                              ) [TermExpr]
                            ) [AssignementExpr]
                          ) [DesignStatAssignment]
                        ) [StatementDes]
                      ) [StatementList_NoEps]
                      StatementDes(
                        DesignStatAssignment(
                          DesArr(
                            ArrayName(
                             nizch
                            ) [ArrayName]
                            TermExpr(
                              TermFact(
                                FactorDesign(
                                  DesIdent(
                                   jedan
                                  ) [DesIdent]
                                ) [FactorDesign]
                              ) [TermFact]
                            ) [TermExpr]
                          ) [DesArr]
                          AssignementExpr(
                            TermExpr(
                              TermFact(
                                FactorConst(
                                  ConstChar(
                                   b
                                  ) [ConstChar]
                                ) [FactorConst]
                              ) [TermFact]
                            ) [TermExpr]
                          ) [AssignementExpr]
                        ) [DesignStatAssignment]
                      ) [StatementDes]
                    ) [StatementList_NoEps]
                    StatementDes(
                      DesignStatAssignment(
                        DesArr(
                          ArrayName(
                           nizch
                          ) [ArrayName]
                          AddopExp(
                            TermExpr(
                              TermFact(
                                FactorDesign(
                                  DesIdent(
                                   pet
                                  ) [DesIdent]
                                ) [FactorDesign]
                              ) [TermFact]
                            ) [TermExpr]
                            Addop_Minus(
                            ) [Addop_Minus]
                            TermFact(
                              FactorConst(
                                ConstNum(
                                 3
                                ) [ConstNum]
                              ) [FactorConst]
                            ) [TermFact]
                          ) [AddopExp]
                        ) [DesArr]
                        AssignementExpr(
                          TermExpr(
                            TermFact(
                              FactorConst(
                                ConstChar(
                                 c
                                ) [ConstChar]
                              ) [FactorConst]
                            ) [TermFact]
                          ) [TermExpr]
                        ) [AssignementExpr]
                      ) [DesignStatAssignment]
                    ) [StatementDes]
                  ) [StatementList_NoEps]
                  StatPrint(
                    TermExpr(
                      TermFact(
                        FactorDesign(
                          DesArr(
                            ArrayName(
                             nizch
                            ) [ArrayName]
                            AddopExp(
                              TermExpr(
                                TermFact(
                                  FactorConst(
                                    ConstNum(
                                     2
                                    ) [ConstNum]
                                  ) [FactorConst]
                                ) [TermFact]
                              ) [TermExpr]
                              Addop_Minus(
                              ) [Addop_Minus]
                              TermFact(
                                FactorConst(
                                  ConstNum(
                                   1
                                  ) [ConstNum]
                                ) [FactorConst]
                              ) [TermFact]
                            ) [AddopExp]
                          ) [DesArr]
                        ) [FactorDesign]
                      ) [TermFact]
                    ) [TermExpr]
                  ) [StatPrint]
                ) [StatementList_NoEps]
                StatPrint(
                  TermExpr(
                    TermFact(
                      FactorDesign(
                        DesArr(
                          ArrayName(
                           nizch
                          ) [ArrayName]
                          TermExpr(
                            TermMulop(
                              TermFact(
                                FactorDesign(
                                  DesIdent(
                                   jedan
                                  ) [DesIdent]
                                ) [FactorDesign]
                              ) [TermFact]
                              Mulop_Mul(
                              ) [Mulop_Mul]
                              FactorConst(
                                ConstNum(
                                 2
                                ) [ConstNum]
                              ) [FactorConst]
                            ) [TermMulop]
                          ) [TermExpr]
                        ) [DesArr]
                      ) [FactorDesign]
                    ) [TermFact]
                  ) [TermExpr]
                ) [StatPrint]
              ) [StatementList_NoEps]
              StatementDes(
                DesignStatAssignment(
                  DesIdent(
                   bodovi
                  ) [DesIdent]
                  AssignementExpr(
                    AddopExp(
                      TermExpr(
                        TermFact(
                          FactorDesign(
                            DesIdent(
                             bodovi
                            ) [DesIdent]
                          ) [FactorDesign]
                        ) [TermFact]
                      ) [TermExpr]
                      Addop_Plus(
                      ) [Addop_Plus]
                      TermFact(
                        FactorExpr(
                          AddopExp(
                            AddopExp(
                              TermExpr(
                                TermMulop(
                                  TermFact(
                                    FactorExpr(
                                      AddopExp(
                                        TermExpr(
                                          TermMulop(
                                            TermFact(
                                              FactorDesign(
                                                DesIdent(
                                                 pet
                                                ) [DesIdent]
                                              ) [FactorDesign]
                                            ) [TermFact]
                                            Mulop_Mul(
                                            ) [Mulop_Mul]
                                            FactorDesign(
                                              DesIdent(
                                               jedan
                                              ) [DesIdent]
                                            ) [FactorDesign]
                                          ) [TermMulop]
                                        ) [TermExpr]
                                        Addop_Minus(
                                        ) [Addop_Minus]
                                        TermFact(
                                          FactorConst(
                                            ConstNum(
                                             1
                                            ) [ConstNum]
                                          ) [FactorConst]
                                        ) [TermFact]
                                      ) [AddopExp]
                                    ) [FactorExpr]
                                  ) [TermFact]
                                  Mulop_Mul(
                                  ) [Mulop_Mul]
                                  FactorConst(
                                    ConstNum(
                                     2
                                    ) [ConstNum]
                                  ) [FactorConst]
                                ) [TermMulop]
                              ) [TermExpr]
                              Addop_Minus(
                              ) [Addop_Minus]
                              TermFact(
                                FactorExpr(
                                  AddopExp(
                                    AddopExp(
                                      TermExpr(
                                        TermMulop(
                                          TermFact(
                                            FactorConst(
                                              ConstNum(
                                               3
                                              ) [ConstNum]
                                            ) [FactorConst]
                                          ) [TermFact]
                                          Mulop_Mod(
                                          ) [Mulop_Mod]
                                          FactorConst(
                                            ConstNum(
                                             2
                                            ) [ConstNum]
                                          ) [FactorConst]
                                        ) [TermMulop]
                                      ) [TermExpr]
                                      Addop_Plus(
                                      ) [Addop_Plus]
                                      TermMulop(
                                        TermFact(
                                          FactorConst(
                                            ConstNum(
                                             3
                                            ) [ConstNum]
                                          ) [FactorConst]
                                        ) [TermFact]
                                        Mulop_Mul(
                                        ) [Mulop_Mul]
                                        FactorConst(
                                          ConstNum(
                                           2
                                          ) [ConstNum]
                                        ) [FactorConst]
                                      ) [TermMulop]
                                    ) [AddopExp]
                                    Addop_Minus(
                                    ) [Addop_Minus]
                                    TermFact(
                                      FactorConst(
                                        ConstNum(
                                         3
                                        ) [ConstNum]
                                      ) [FactorConst]
                                    ) [TermFact]
                                  ) [AddopExp]
                                ) [FactorExpr]
                              ) [TermFact]
                            ) [AddopExp]
                            Addop_Minus(
                            ) [Addop_Minus]
                            TermMulop(
                              TermFact(
                                FactorDesign(
                                  DesEnum(
                                   Broj
                                   JEDAN
                                  ) [DesEnum]
                                ) [FactorDesign]
                              ) [TermFact]
                              Mulop_Mul(
                              ) [Mulop_Mul]
                              FactorConst(
                                ConstNum(
                                 0
                                ) [ConstNum]
                              ) [FactorConst]
                            ) [TermMulop]
                          ) [AddopExp]
                        ) [FactorExpr]
                      ) [TermFact]
                    ) [AddopExp]
                  ) [AssignementExpr]
                ) [DesignStatAssignment]
              ) [StatementDes]
            ) [StatementList_NoEps]
            StatPrint(
              TermExpr(
                TermFact(
                  FactorDesign(
                    DesIdent(
                     bodovi
                    ) [DesIdent]
                  ) [FactorDesign]
                ) [TermFact]
              ) [TermExpr]
            ) [StatPrint]
          ) [StatementList_NoEps]
          StatRead(
            DesIdent(
             bodovi
            ) [DesIdent]
          ) [StatRead]
        ) [StatementList_NoEps]
        StatementDes(
          DesignStatAssignment(
            DesIdent(
             bodovi
            ) [DesIdent]
            AssignementExpr(
              AddopExp(
                TermExpr(
                  TermFact(
                    FactorDesign(
                      DesIdent(
                       bodovi
                      ) [DesIdent]
                    ) [FactorDesign]
                  ) [TermFact]
                ) [TermExpr]
                Addop_Plus(
                ) [Addop_Plus]
                TermFact(
                  FactorConst(
                    ConstNum(
                     1
                    ) [ConstNum]
                  ) [FactorConst]
                ) [TermFact]
              ) [AddopExp]
            ) [AssignementExpr]
          ) [DesignStatAssignment]
        ) [StatementDes]
      ) [StatementList_NoEps]
      StatPrint(
        TermExpr(
          TermFact(
            FactorDesign(
              DesIdent(
               bodovi
              ) [DesIdent]
            ) [FactorDesign]
          ) [TermFact]
        ) [TermExpr]
      ) [StatPrint]
    ) [StatementList_NoEps]
  ) [MethodDecl]
) [Program]
INFO  21:24:18,513 - ===================================
INFO  21:24:18,519 - Deklarisan novi enum tip Broj na liniji 5
INFO  21:24:18,519 - Deklarisan novi enum tip Kocka na liniji 6
INFO  21:24:18,519 - Deklarisana konstanta 'jedan' na liniji 8
INFO  21:24:18,519 - Deklarisana konstanta 'pet' na liniji 9
INFO  21:24:18,519 - Deklarisana promenljiva niza niz tipa 1 na liniji 11
INFO  21:24:18,519 - Deklarisana promenljiva niza nizch tipa 2 na liniji 12
INFO  21:24:18,520 - Obradjuje se funkcija main na liniji 15
INFO  21:24:18,520 - Deklarisana promenljiva bodovi tipa 1 na liniji 16
INFO  21:24:18,520 - Deklarisana promenljiva nula tipa 6 na liniji 17
INFO  21:24:18,520 - Deklarisana promenljiva jedan tipa 6 na liniji 17
INFO  21:24:18,520 - Dodeljenja vrednost enuma promenljivoj enuma
INFO  21:24:18,520 - Dodeljenja vrednost enuma promenljivoj enuma
INFO  21:24:18,520 - Dodeljenja vrednost: 1 je design,1 je assign
INFO  21:24:18,520 - Inkrementirana vrednost
INFO  21:24:18,521 - Dodeljenja vrednost: 1 je design,1 je assign
INFO  21:24:18,521 - Dodeljenja vrednost: 1 je design,1 je assign
INFO  21:24:18,521 - Dekrementirana vrednost
INFO  21:24:18,521 - Dodeljenja vrednost: 1 je design,1 je assign
INFO  21:24:18,521 - Dodeljenja vrednost: 1 je design,1 je assign
INFO  21:24:18,521 - Dodeljenja vrednost: 1 je design,1 je assign
INFO  21:24:18,521 -  Print count calls = 7
INFO  21:24:18,521 -  Deklarisanih promenljivih ima = 3
INFO  21:24:18,523 - Parsiranje uspesno zavrseno!
