INFO  13:42:01,274 - Compiling source file: C:\Users\ikadr\Desktop\PP\Projekat\Rad\workspace\MJCompiler\test\program.mj
INFO  13:42:01,363 - #2 program
INFO  13:42:01,363 - #28 test301
INFO  13:42:01,363 - #17 {
INFO  13:42:01,366 - #6 void
INFO  13:42:01,366 - #28 main
INFO  13:42:01,367 - #13 (
INFO  13:42:01,367 - #14 )
INFO  13:42:01,367 - #28 char
INFO  13:42:01,369 - #28 nizch
INFO  13:42:01,370 - #15 [
INFO  13:42:01,370 - #16 ]
INFO  13:42:01,370 - #10 ;
INFO  13:42:01,370 - #28 int
INFO  13:42:01,371 - #28 niz
INFO  13:42:01,371 - #15 [
INFO  13:42:01,371 - #16 ]
INFO  13:42:01,372 - #12 ,
INFO  13:42:01,372 - #28 x
INFO  13:42:01,372 - #10 ;
INFO  13:42:01,372 - #17 {
INFO  13:42:01,372 - #28 nizch
INFO  13:42:01,374 - #11 =
INFO  13:42:01,374 - #5 new
INFO  13:42:01,374 - #28 char
INFO  13:42:01,374 - #15 [
INFO  13:42:01,374 - #27 3
INFO  13:42:01,374 - #16 ]
INFO  13:42:01,375 - #10 ;
INFO  13:42:01,375 - #28 niz
INFO  13:42:01,376 - #11 =
INFO  13:42:01,376 - #5 new
INFO  13:42:01,376 - #28 int
INFO  13:42:01,376 - #15 [
INFO  13:42:01,376 - #27 2
INFO  13:42:01,376 - #16 ]
INFO  13:42:01,376 - #10 ;
INFO  13:42:01,376 - #28 nizch
INFO  13:42:01,376 - #15 [
INFO  13:42:01,377 - #27 1
INFO  13:42:01,377 - #16 ]
INFO  13:42:01,378 - #11 =
INFO  13:42:01,378 - #29 a
INFO  13:42:01,378 - #10 ;
INFO  13:42:01,378 - #28 x
INFO  13:42:01,378 - #11 =
INFO  13:42:01,379 - #27 5
INFO  13:42:01,379 - #10 ;
INFO  13:42:01,379 - #28 niz
INFO  13:42:01,379 - #15 [
INFO  13:42:01,379 - #27 1
INFO  13:42:01,379 - #16 ]
INFO  13:42:01,379 - #11 =
INFO  13:42:01,380 - #27 2
INFO  13:42:01,380 - #10 ;
INFO  13:42:01,380 - #28 niz
INFO  13:42:01,380 - #15 [
INFO  13:42:01,380 - #27 1
INFO  13:42:01,380 - #16 ]
INFO  13:42:01,380 - #11 =
INFO  13:42:01,380 - #28 niz
INFO  13:42:01,381 - #15 [
INFO  13:42:01,381 - #27 1
INFO  13:42:01,381 - #16 ]
INFO  13:42:01,381 - #23 +
INFO  13:42:01,381 - #28 x
INFO  13:42:01,384 - #10 ;
INFO  13:42:01,384 - #4 print
INFO  13:42:01,384 - #13 (
INFO  13:42:01,388 - #28 nizch
INFO  13:42:01,388 - #15 [
INFO  13:42:01,388 - #27 1
INFO  13:42:01,389 - #16 ]
INFO  13:42:01,389 - #14 )
INFO  13:42:01,389 - #10 ;
INFO  13:42:01,389 - #18 }
INFO  13:42:01,389 - #18 }
INFO  13:42:01,405 - Program(
  ProgName(
   test301
  ) [ProgName]
  GlobalDeclListEps(
  ) [GlobalDeclListEps]
  MethodDecl(
    MethodSignature(
      VoidableType(
      ) [VoidableType]
     main
    ) [MethodSignature]
    VarMethodDeclList_NoEps(
      VarMethodDeclList_NoEps(
        VarMethodDeclList_Eps(
        ) [VarMethodDeclList_Eps]
        VarDecl(
          Type(
           char
          ) [Type]
          VarDeclItem(
            VarDeclDefineArray(
             nizch
            ) [VarDeclDefineArray]
          ) [VarDeclItem]
        ) [VarDecl]
      ) [VarMethodDeclList_NoEps]
      VarDecl(
        Type(
         int
        ) [Type]
        VarDeclListL(
          VarDeclItem(
            VarDeclDefineArray(
             niz
            ) [VarDeclDefineArray]
          ) [VarDeclItem]
          VarDeclDefineSingle(
           x
          ) [VarDeclDefineSingle]
        ) [VarDeclListL]
      ) [VarDecl]
    ) [VarMethodDeclList_NoEps]
    StatementList_NoEps(
      StatementList_NoEps(
        StatementList_NoEps(
          StatementList_NoEps(
            StatementList_NoEps(
              StatementList_NoEps(
                StatementList_NoEps(
                  StatementList_Eps(
                  ) [StatementList_Eps]
                  StatementDes(
                    DesignStatAssignment(
                      DesIdent(
                       nizch
                      ) [DesIdent]
                      AssignementExpr(
                        TermExpr(
                          TermFact(
                            FactorNewArr(
                              Type(
                               char
                              ) [Type]
                              TermExpr(
                                TermFact(
                                  FactorConst(
                                    ConstNum(
                                     3
                                    ) [ConstNum]
                                  ) [FactorConst]
                                ) [TermFact]
                              ) [TermExpr]
                            ) [FactorNewArr]
                          ) [TermFact]
                        ) [TermExpr]
                      ) [AssignementExpr]
                    ) [DesignStatAssignment]
                  ) [StatementDes]
                ) [StatementList_NoEps]
                StatementDes(
                  DesignStatAssignment(
                    DesIdent(
                     niz
                    ) [DesIdent]
                    AssignementExpr(
                      TermExpr(
                        TermFact(
                          FactorNewArr(
                            Type(
                             int
                            ) [Type]
                            TermExpr(
                              TermFact(
                                FactorConst(
                                  ConstNum(
                                   2
                                  ) [ConstNum]
                                ) [FactorConst]
                              ) [TermFact]
                            ) [TermExpr]
                          ) [FactorNewArr]
                        ) [TermFact]
                      ) [TermExpr]
                    ) [AssignementExpr]
                  ) [DesignStatAssignment]
                ) [StatementDes]
              ) [StatementList_NoEps]
              StatementDes(
                DesignStatAssignment(
                  DesArr(
                    ArrayName(
                     nizch
                    ) [ArrayName]
                    TermExpr(
                      TermFact(
                        FactorConst(
                          ConstNum(
                           1
                          ) [ConstNum]
                        ) [FactorConst]
                      ) [TermFact]
                    ) [TermExpr]
                  ) [DesArr]
                  AssignementExpr(
                    TermExpr(
                      TermFact(
                        FactorConst(
                          ConstChar(
                           a
                          ) [ConstChar]
                        ) [FactorConst]
                      ) [TermFact]
                    ) [TermExpr]
                  ) [AssignementExpr]
                ) [DesignStatAssignment]
              ) [StatementDes]
            ) [StatementList_NoEps]
            StatementDes(
              DesignStatAssignment(
                DesIdent(
                 x
                ) [DesIdent]
                AssignementExpr(
                  TermExpr(
                    TermFact(
                      FactorConst(
                        ConstNum(
                         5
                        ) [ConstNum]
                      ) [FactorConst]
                    ) [TermFact]
                  ) [TermExpr]
                ) [AssignementExpr]
              ) [DesignStatAssignment]
            ) [StatementDes]
          ) [StatementList_NoEps]
          StatementDes(
            DesignStatAssignment(
              DesArr(
                ArrayName(
                 niz
                ) [ArrayName]
                TermExpr(
                  TermFact(
                    FactorConst(
                      ConstNum(
                       1
                      ) [ConstNum]
                    ) [FactorConst]
                  ) [TermFact]
                ) [TermExpr]
              ) [DesArr]
              AssignementExpr(
                TermExpr(
                  TermFact(
                    FactorConst(
                      ConstNum(
                       2
                      ) [ConstNum]
                    ) [FactorConst]
                  ) [TermFact]
                ) [TermExpr]
              ) [AssignementExpr]
            ) [DesignStatAssignment]
          ) [StatementDes]
        ) [StatementList_NoEps]
        StatementDes(
          DesignStatAssignment(
            DesArr(
              ArrayName(
               niz
              ) [ArrayName]
              TermExpr(
                TermFact(
                  FactorConst(
                    ConstNum(
                     1
                    ) [ConstNum]
                  ) [FactorConst]
                ) [TermFact]
              ) [TermExpr]
            ) [DesArr]
            AssignementExpr(
              AddopExp(
                TermExpr(
                  TermFact(
                    FactorDesign(
                      DesArr(
                        ArrayName(
                         niz
                        ) [ArrayName]
                        TermExpr(
                          TermFact(
                            FactorConst(
                              ConstNum(
                               1
                              ) [ConstNum]
                            ) [FactorConst]
                          ) [TermFact]
                        ) [TermExpr]
                      ) [DesArr]
                    ) [FactorDesign]
                  ) [TermFact]
                ) [TermExpr]
                Addop_Plus(
                ) [Addop_Plus]
                TermFact(
                  FactorDesign(
                    DesIdent(
                     x
                    ) [DesIdent]
                  ) [FactorDesign]
                ) [TermFact]
              ) [AddopExp]
            ) [AssignementExpr]
          ) [DesignStatAssignment]
        ) [StatementDes]
      ) [StatementList_NoEps]
      StatPrint(
        TermExpr(
          TermFact(
            FactorDesign(
              DesArr(
                ArrayName(
                 nizch
                ) [ArrayName]
                TermExpr(
                  TermFact(
                    FactorConst(
                      ConstNum(
                       1
                      ) [ConstNum]
                    ) [FactorConst]
                  ) [TermFact]
                ) [TermExpr]
              ) [DesArr]
            ) [FactorDesign]
          ) [TermFact]
        ) [TermExpr]
      ) [StatPrint]
    ) [StatementList_NoEps]
  ) [MethodDecl]
) [Program]
INFO  13:42:01,405 - ===================================
INFO  13:42:01,410 - Obradjuje se funkcija main na liniji 8
INFO  13:42:01,410 - Deklarisana promenljiva niza nizch tipa 2 na liniji 9
INFO  13:42:01,410 - Deklarisana promenljiva niza niz tipa 1 na liniji 10
INFO  13:42:01,410 - Deklarisana promenljiva x tipa 1 na liniji 10
INFO  13:42:01,411 - Dodeljenja vrednost: 1 je design,1 je assign
INFO  13:42:01,411 -  Print count calls = 1
INFO  13:42:01,411 -  Deklarisanih promenljivih ima = 1
INFO  13:42:01,421 - GENERATOR:niz
INFO  13:42:01,421 - Parsiranje uspesno zavrseno!
