INFO  19:42:43,888 - Compiling source file: C:\Users\ikadr\Desktop\PP\Projekat\Rad\workspace\MJCompiler\test\program.mj
INFO  19:42:43,979 - #2 program
INFO  19:42:43,980 - #28 test301
INFO  19:42:43,980 - #9 enum
INFO  19:42:43,982 - #28 Broj
INFO  19:42:43,982 - #17 {
INFO  19:42:43,982 - #28 NULA
INFO  19:42:43,982 - #12 ,
INFO  19:42:43,982 - #28 JEDAN
INFO  19:42:43,982 - #12 ,
INFO  19:42:43,982 - #28 PET
INFO  19:42:43,983 - #11 =
INFO  19:42:43,983 - #27 5
INFO  19:42:43,983 - #12 ,
INFO  19:42:43,983 - #28 DESET
INFO  19:42:43,983 - #11 =
INFO  19:42:43,983 - #27 10
INFO  19:42:43,983 - #18 }
INFO  19:42:43,983 - #28 int
INFO  19:42:43,985 - #28 niz
INFO  19:42:43,986 - #15 [
INFO  19:42:43,986 - #16 ]
INFO  19:42:43,988 - #10 ;
INFO  19:42:43,988 - #17 {
INFO  19:42:43,990 - #6 void
INFO  19:42:43,990 - #28 main
INFO  19:42:43,991 - #13 (
INFO  19:42:43,991 - #14 )
INFO  19:42:43,991 - #28 int
INFO  19:42:43,993 - #28 x
INFO  19:42:43,993 - #12 ,
INFO  19:42:43,994 - #28 y
INFO  19:42:43,994 - #12 ,
INFO  19:42:43,994 - #28 z
INFO  19:42:43,994 - #10 ;
INFO  19:42:43,994 - #28 Broj
INFO  19:42:43,995 - #28 pet
INFO  19:42:43,995 - #10 ;
INFO  19:42:43,995 - #17 {
INFO  19:42:43,995 - #28 pet
INFO  19:42:43,997 - #11 =
INFO  19:42:43,999 - #28 Broj
INFO  19:42:43,999 - #19 .
INFO  19:42:43,999 - #28 JEDAN
INFO  19:42:43,999 - #10 ;
INFO  19:42:44,000 - #28 x
INFO  19:42:44,000 - #11 =
INFO  19:42:44,001 - #27 7
INFO  19:42:44,001 - #10 ;
INFO  19:42:44,001 - #28 y
INFO  19:42:44,001 - #11 =
INFO  19:42:44,001 - #27 5
INFO  19:42:44,001 - #10 ;
INFO  19:42:44,002 - #28 z
INFO  19:42:44,002 - #11 =
INFO  19:42:44,002 - #28 x
INFO  19:42:44,002 - #24 *
INFO  19:42:44,002 - #28 pet
INFO  19:42:44,006 - #10 ;
INFO  19:42:44,006 - #4 print
INFO  19:42:44,006 - #13 (
INFO  19:42:44,006 - #28 z
INFO  19:42:44,006 - #14 )
INFO  19:42:44,007 - #10 ;
INFO  19:42:44,007 - #18 }
INFO  19:42:44,007 - #18 }
INFO  19:42:44,024 - Program(
  ProgName(
   test301
  ) [ProgName]
  GlobalDeclListL(
    GlobalDeclListL(
      GlobalDeclListEps(
      ) [GlobalDeclListEps]
      GlobalDeclEnum(
        EnumDecl(
         Broj
          EnumDeclListL(
            EnumDeclListL(
              EnumDeclListL(
                EnumDeclItem(
                  EnumDeclDefNoVal(
                   NULA
                  ) [EnumDeclDefNoVal]
                ) [EnumDeclItem]
                EnumDeclDefNoVal(
                 JEDAN
                ) [EnumDeclDefNoVal]
              ) [EnumDeclListL]
              EnumDeclDefVal(
               PET
               5
              ) [EnumDeclDefVal]
            ) [EnumDeclListL]
            EnumDeclDefVal(
             DESET
             10
            ) [EnumDeclDefVal]
          ) [EnumDeclListL]
        ) [EnumDecl]
      ) [GlobalDeclEnum]
    ) [GlobalDeclListL]
    GlobalDeclVar(
      GlobalVarDecl(
        Type(
         int
        ) [Type]
        GlobalVarDeclItem(
          GlobalVarDeclDefOk(
            VarDeclDefineArray(
             niz
            ) [VarDeclDefineArray]
          ) [GlobalVarDeclDefOk]
        ) [GlobalVarDeclItem]
      ) [GlobalVarDecl]
    ) [GlobalDeclVar]
  ) [GlobalDeclListL]
  MethodDecl(
    MethodSignature(
      VoidableType(
      ) [VoidableType]
     main
    ) [MethodSignature]
    VarMethodDeclList_NoEps(
      VarMethodDeclList_NoEps(
        VarMethodDeclList_Eps(
        ) [VarMethodDeclList_Eps]
        VarDecl(
          Type(
           int
          ) [Type]
          VarDeclListL(
            VarDeclListL(
              VarDeclItem(
                VarDeclDefineSingle(
                 x
                ) [VarDeclDefineSingle]
              ) [VarDeclItem]
              VarDeclDefineSingle(
               y
              ) [VarDeclDefineSingle]
            ) [VarDeclListL]
            VarDeclDefineSingle(
             z
            ) [VarDeclDefineSingle]
          ) [VarDeclListL]
        ) [VarDecl]
      ) [VarMethodDeclList_NoEps]
      VarDecl(
        Type(
         Broj
        ) [Type]
        VarDeclItem(
          VarDeclDefineSingle(
           pet
          ) [VarDeclDefineSingle]
        ) [VarDeclItem]
      ) [VarDecl]
    ) [VarMethodDeclList_NoEps]
    StatementList_NoEps(
      StatementList_NoEps(
        StatementList_NoEps(
          StatementList_NoEps(
            StatementList_NoEps(
              StatementList_Eps(
              ) [StatementList_Eps]
              StatementDes(
                DesignStatAssignment(
                  Designator(
                    ArrayInd(
                    ) [ArrayInd]
                   pet
                    DesDerived1(
                    ) [DesDerived1]
                  ) [Designator]
                  AssignementExpr(
                    TermExpr(
                      TermFact(
                        FactorDesign(
                          Designator(
                            ArrayInd(
                            ) [ArrayInd]
                           Broj
                            DesEnum(
                             JEDAN
                            ) [DesEnum]
                          ) [Designator]
                        ) [FactorDesign]
                      ) [TermFact]
                    ) [TermExpr]
                  ) [AssignementExpr]
                ) [DesignStatAssignment]
              ) [StatementDes]
            ) [StatementList_NoEps]
            StatementDes(
              DesignStatAssignment(
                Designator(
                  ArrayInd(
                  ) [ArrayInd]
                 x
                  DesDerived1(
                  ) [DesDerived1]
                ) [Designator]
                AssignementExpr(
                  TermExpr(
                    TermFact(
                      FactorConst(
                        ConstNum(
                         7
                        ) [ConstNum]
                      ) [FactorConst]
                    ) [TermFact]
                  ) [TermExpr]
                ) [AssignementExpr]
              ) [DesignStatAssignment]
            ) [StatementDes]
          ) [StatementList_NoEps]
          StatementDes(
            DesignStatAssignment(
              Designator(
                ArrayInd(
                ) [ArrayInd]
               y
                DesDerived1(
                ) [DesDerived1]
              ) [Designator]
              AssignementExpr(
                TermExpr(
                  TermFact(
                    FactorConst(
                      ConstNum(
                       5
                      ) [ConstNum]
                    ) [FactorConst]
                  ) [TermFact]
                ) [TermExpr]
              ) [AssignementExpr]
            ) [DesignStatAssignment]
          ) [StatementDes]
        ) [StatementList_NoEps]
        StatementDes(
          DesignStatAssignment(
            Designator(
              ArrayInd(
              ) [ArrayInd]
             z
              DesDerived1(
              ) [DesDerived1]
            ) [Designator]
            AssignementExpr(
              TermExpr(
                TermMulop(
                  TermFact(
                    FactorDesign(
                      Designator(
                        ArrayInd(
                        ) [ArrayInd]
                       x
                        DesDerived1(
                        ) [DesDerived1]
                      ) [Designator]
                    ) [FactorDesign]
                  ) [TermFact]
                  Mulop_Mul(
                  ) [Mulop_Mul]
                  FactorDesign(
                    Designator(
                      ArrayInd(
                      ) [ArrayInd]
                     pet
                      DesDerived1(
                      ) [DesDerived1]
                    ) [Designator]
                  ) [FactorDesign]
                ) [TermMulop]
              ) [TermExpr]
            ) [AssignementExpr]
          ) [DesignStatAssignment]
        ) [StatementDes]
      ) [StatementList_NoEps]
      StatPrint(
        TermExpr(
          TermFact(
            FactorDesign(
              Designator(
                ArrayInd(
                ) [ArrayInd]
               z
                DesDerived1(
                ) [DesDerived1]
              ) [Designator]
            ) [FactorDesign]
          ) [TermFact]
        ) [TermExpr]
      ) [StatPrint]
    ) [StatementList_NoEps]
  ) [MethodDecl]
) [Program]
INFO  19:42:44,025 - ===================================
INFO  19:42:44,033 - Deklarisan novi enum tip Broj na liniji 5
INFO  19:42:44,033 - Deklarisana promenljiva niza niz tipa 1 na liniji 6
INFO  19:42:44,034 - Obradjuje se funkcija main na liniji 8
INFO  19:42:44,034 - Deklarisana promenljiva x tipa 1 na liniji 9
INFO  19:42:44,034 - Deklarisana promenljiva y tipa 1 na liniji 9
INFO  19:42:44,034 - Deklarisana promenljiva z tipa 1 na liniji 9
INFO  19:42:44,034 - Deklarisana promenljiva pet tipa 6 na liniji 10
INFO  19:42:44,034 - Dodeljenja vrednost: 6 je design,6 je assign
INFO  19:42:44,034 - Dodeljenja vrednost: 1 je design,1 je assign
INFO  19:42:44,034 - Dodeljenja vrednost: 1 je design,1 je assign
INFO  19:42:44,034 - termMulop je 1
INFO  19:42:44,034 - Dodeljenja vrednost: 1 je design,1 je assign
INFO  19:42:44,035 -  Print count calls = 1
INFO  19:42:44,035 -  Deklarisanih promenljivih ima = 4
INFO  19:42:44,048 - Parsiranje uspesno zavrseno!
INFO  19:42:44,048 - GENERATOR:factor kind 1
