INFO  11:56:40,089 - Compiling source file: C:\Users\ikadr\Desktop\PP\Projekat\Rad\workspace\MJCompiler\test\program.mj
INFO  11:56:40,177 - #2 program
INFO  11:56:40,195 - #28 test301
INFO  11:56:40,195 - #9 enum
INFO  11:56:40,195 - #28 Broj
INFO  11:56:40,195 - #17 {
INFO  11:56:40,195 - #28 NULA
INFO  11:56:40,195 - #12 ,
INFO  11:56:40,195 - #28 JEDAN
INFO  11:56:40,195 - #12 ,
INFO  11:56:40,195 - #28 PET
INFO  11:56:40,195 - #11 =
INFO  11:56:40,195 - #27 5
INFO  11:56:40,195 - #12 ,
INFO  11:56:40,195 - #28 DESET
INFO  11:56:40,195 - #11 =
INFO  11:56:40,195 - #27 10
INFO  11:56:40,195 - #18 }
INFO  11:56:40,195 - #28 int
INFO  11:56:40,210 - #28 niz
INFO  11:56:40,210 - #15 [
INFO  11:56:40,210 - #16 ]
INFO  11:56:40,210 - #10 ;
INFO  11:56:40,210 - #17 {
INFO  11:56:40,210 - #6 void
INFO  11:56:40,210 - #28 main
INFO  11:56:40,210 - #13 (
INFO  11:56:40,226 - #14 )
INFO  11:56:40,226 - #28 int
INFO  11:56:40,227 - #28 x
INFO  11:56:40,227 - #12 ,
INFO  11:56:40,227 - #28 y
INFO  11:56:40,227 - #12 ,
INFO  11:56:40,227 - #28 z
INFO  11:56:40,227 - #10 ;
INFO  11:56:40,227 - #17 {
INFO  11:56:40,227 - #28 x
INFO  11:56:40,227 - #11 =
INFO  11:56:40,227 - #27 7
INFO  11:56:40,227 - #10 ;
INFO  11:56:40,227 - #28 y
INFO  11:56:40,227 - #11 =
INFO  11:56:40,227 - #28 Broj
INFO  11:56:40,227 - #19 .
INFO  11:56:40,227 - #28 PET
INFO  11:56:40,227 - #10 ;
INFO  11:56:40,227 - #28 z
INFO  11:56:40,227 - #11 =
INFO  11:56:40,227 - #28 x
INFO  11:56:40,227 - #25 /
INFO  11:56:40,243 - #28 y
INFO  11:56:40,243 - #10 ;
INFO  11:56:40,243 - #4 print
INFO  11:56:40,243 - #13 (
INFO  11:56:40,243 - #29 a
INFO  11:56:40,243 - #14 )
INFO  11:56:40,243 - #10 ;
INFO  11:56:40,243 - #4 print
INFO  11:56:40,243 - #13 (
INFO  11:56:40,243 - #28 x
INFO  11:56:40,243 - #24 *
INFO  11:56:40,243 - #28 y
INFO  11:56:40,243 - #14 )
INFO  11:56:40,243 - #10 ;
INFO  11:56:40,243 - #4 print
INFO  11:56:40,243 - #13 (
INFO  11:56:40,243 - #28 z
INFO  11:56:40,243 - #14 )
INFO  11:56:40,243 - #10 ;
INFO  11:56:40,243 - #28 x
INFO  11:56:40,243 - #21 --
INFO  11:56:40,243 - #10 ;
INFO  11:56:40,259 - #4 print
INFO  11:56:40,259 - #13 (
INFO  11:56:40,259 - #28 x
INFO  11:56:40,259 - #14 )
INFO  11:56:40,259 - #10 ;
INFO  11:56:40,259 - #18 }
INFO  11:56:40,259 - #18 }
INFO  11:56:40,274 - Program(
  ProgName(
   test301
  ) [ProgName]
  GlobalDeclListL(
    GlobalDeclListL(
      GlobalDeclListEps(
      ) [GlobalDeclListEps]
      GlobalDeclEnum(
        EnumDecl(
         Broj
          EnumDeclListL(
            EnumDeclListL(
              EnumDeclListL(
                EnumDeclItem(
                  EnumDeclDefNoVal(
                   NULA
                  ) [EnumDeclDefNoVal]
                ) [EnumDeclItem]
                EnumDeclDefNoVal(
                 JEDAN
                ) [EnumDeclDefNoVal]
              ) [EnumDeclListL]
              EnumDeclDefVal(
               PET
               5
              ) [EnumDeclDefVal]
            ) [EnumDeclListL]
            EnumDeclDefVal(
             DESET
             10
            ) [EnumDeclDefVal]
          ) [EnumDeclListL]
        ) [EnumDecl]
      ) [GlobalDeclEnum]
    ) [GlobalDeclListL]
    GlobalDeclVar(
      GlobalVarDecl(
        Type(
         int
        ) [Type]
        GlobalVarDeclItem(
          GlobalVarDeclDefOk(
            VarDeclDefineArray(
             niz
            ) [VarDeclDefineArray]
          ) [GlobalVarDeclDefOk]
        ) [GlobalVarDeclItem]
      ) [GlobalVarDecl]
    ) [GlobalDeclVar]
  ) [GlobalDeclListL]
  MethodDecl(
    MethodSignature(
      VoidableType(
      ) [VoidableType]
     main
    ) [MethodSignature]
    VarMethodDeclList_NoEps(
      VarMethodDeclList_Eps(
      ) [VarMethodDeclList_Eps]
      VarDecl(
        Type(
         int
        ) [Type]
        VarDeclListL(
          VarDeclListL(
            VarDeclItem(
              VarDeclDefineSingle(
               x
              ) [VarDeclDefineSingle]
            ) [VarDeclItem]
            VarDeclDefineSingle(
             y
            ) [VarDeclDefineSingle]
          ) [VarDeclListL]
          VarDeclDefineSingle(
           z
          ) [VarDeclDefineSingle]
        ) [VarDeclListL]
      ) [VarDecl]
    ) [VarMethodDeclList_NoEps]
    StatementList_NoEps(
      StatementList_NoEps(
        StatementList_NoEps(
          StatementList_NoEps(
            StatementList_NoEps(
              StatementList_NoEps(
                StatementList_NoEps(
                  StatementList_NoEps(
                    StatementList_Eps(
                    ) [StatementList_Eps]
                    StatementDes(
                      DesignStatAssignment(
                        Designator(
                         x
                          DesDerived1(
                          ) [DesDerived1]
                        ) [Designator]
                        AssignementExpr(
                          TermExpr(
                            TermFact(
                              FactorConst(
                                ConstNum(
                                 7
                                ) [ConstNum]
                              ) [FactorConst]
                            ) [TermFact]
                          ) [TermExpr]
                        ) [AssignementExpr]
                      ) [DesignStatAssignment]
                    ) [StatementDes]
                  ) [StatementList_NoEps]
                  StatementDes(
                    DesignStatAssignment(
                      Designator(
                       y
                        DesDerived1(
                        ) [DesDerived1]
                      ) [Designator]
                      AssignementExpr(
                        TermExpr(
                          TermFact(
                            FactorDesign(
                              Designator(
                               Broj
                                DesEnum(
                                 PET
                                ) [DesEnum]
                              ) [Designator]
                            ) [FactorDesign]
                          ) [TermFact]
                        ) [TermExpr]
                      ) [AssignementExpr]
                    ) [DesignStatAssignment]
                  ) [StatementDes]
                ) [StatementList_NoEps]
                StatementDes(
                  DesignStatAssignment(
                    Designator(
                     z
                      DesDerived1(
                      ) [DesDerived1]
                    ) [Designator]
                    AssignementExpr(
                      TermExpr(
                        TermMulop(
                          TermFact(
                            FactorDesign(
                              Designator(
                               x
                                DesDerived1(
                                ) [DesDerived1]
                              ) [Designator]
                            ) [FactorDesign]
                          ) [TermFact]
                          Mulop_Div(
                          ) [Mulop_Div]
                          FactorDesign(
                            Designator(
                             y
                              DesDerived1(
                              ) [DesDerived1]
                            ) [Designator]
                          ) [FactorDesign]
                        ) [TermMulop]
                      ) [TermExpr]
                    ) [AssignementExpr]
                  ) [DesignStatAssignment]
                ) [StatementDes]
              ) [StatementList_NoEps]
              StatPrint(
                TermExpr(
                  TermFact(
                    FactorConst(
                      ConstChar(
                       a
                      ) [ConstChar]
                    ) [FactorConst]
                  ) [TermFact]
                ) [TermExpr]
              ) [StatPrint]
            ) [StatementList_NoEps]
            StatPrint(
              TermExpr(
                TermMulop(
                  TermFact(
                    FactorDesign(
                      Designator(
                       x
                        DesDerived1(
                        ) [DesDerived1]
                      ) [Designator]
                    ) [FactorDesign]
                  ) [TermFact]
                  Mulop_Mul(
                  ) [Mulop_Mul]
                  FactorDesign(
                    Designator(
                     y
                      DesDerived1(
                      ) [DesDerived1]
                    ) [Designator]
                  ) [FactorDesign]
                ) [TermMulop]
              ) [TermExpr]
            ) [StatPrint]
          ) [StatementList_NoEps]
          StatPrint(
            TermExpr(
              TermFact(
                FactorDesign(
                  Designator(
                   z
                    DesDerived1(
                    ) [DesDerived1]
                  ) [Designator]
                ) [FactorDesign]
              ) [TermFact]
            ) [TermExpr]
          ) [StatPrint]
        ) [StatementList_NoEps]
        StatementDes(
          DesignStatDec(
            Designator(
             x
              DesDerived1(
              ) [DesDerived1]
            ) [Designator]
          ) [DesignStatDec]
        ) [StatementDes]
      ) [StatementList_NoEps]
      StatPrint(
        TermExpr(
          TermFact(
            FactorDesign(
              Designator(
               x
                DesDerived1(
                ) [DesDerived1]
              ) [Designator]
            ) [FactorDesign]
          ) [TermFact]
        ) [TermExpr]
      ) [StatPrint]
    ) [StatementList_NoEps]
  ) [MethodDecl]
) [Program]
INFO  11:56:40,274 - ===================================
INFO  11:56:40,290 - Deklarisan novi enum tip Broj na liniji 5
INFO  11:56:40,290 - Deklarisana promenljiva niza niz tipa 1 na liniji 6
INFO  11:56:40,290 - Obradjuje se funkcija main na liniji 8
INFO  11:56:40,290 - Deklarisana promenljiva x tipa 1 na liniji 9
INFO  11:56:40,290 - Deklarisana promenljiva y tipa 1 na liniji 9
INFO  11:56:40,290 - Deklarisana promenljiva z tipa 1 na liniji 9
INFO  11:56:40,290 - Dodeljenja vrednost: 1 je design,1 je assign
INFO  11:56:40,290 - Dodeljenja vrednost enum i int
INFO  11:56:40,290 - Dodeljenja vrednost: 1 je design,1 je assign
INFO  11:56:40,290 - Dekrementirana vrednost
INFO  11:56:40,290 -  Print count calls = 4
INFO  11:56:40,290 -  Deklarisanih promenljivih ima = 7
INFO  11:56:40,290 - Parsiranje uspesno zavrseno!
