INFO  12:25:07,320 - Compiling source file: C:\Users\ikadr\Desktop\PP\Projekat\Rad\workspace\MJCompiler\test\program.mj
INFO  12:25:07,389 - #2 program
INFO  12:25:07,389 - #28 test301
INFO  12:25:07,389 - #9 enum
INFO  12:25:07,389 - #28 Broj
INFO  12:25:07,389 - #17 {
INFO  12:25:07,389 - #28 NULA
INFO  12:25:07,389 - #12 ,
INFO  12:25:07,389 - #28 JEDAN
INFO  12:25:07,389 - #12 ,
INFO  12:25:07,389 - #28 PET
INFO  12:25:07,389 - #11 =
INFO  12:25:07,389 - #27 5
INFO  12:25:07,389 - #12 ,
INFO  12:25:07,389 - #28 DESET
INFO  12:25:07,389 - #11 =
INFO  12:25:07,389 - #27 10
INFO  12:25:07,389 - #18 }
INFO  12:25:07,389 - #8 const
INFO  12:25:07,389 - #28 int
INFO  12:25:07,389 - #28 jedan
INFO  12:25:07,389 - #11 =
INFO  12:25:07,389 - #27 1
INFO  12:25:07,389 - #10 ;
INFO  12:25:07,389 - #8 const
INFO  12:25:07,389 - #28 int
INFO  12:25:07,389 - #28 pet
INFO  12:25:07,389 - #11 =
INFO  12:25:07,389 - #27 5
INFO  12:25:07,389 - #10 ;
INFO  12:25:07,389 - #28 int
INFO  12:25:07,389 - #28 niz
INFO  12:25:07,389 - #15 [
INFO  12:25:07,389 - #16 ]
INFO  12:25:07,405 - #10 ;
INFO  12:25:07,405 - #28 char
INFO  12:25:07,405 - #28 nizch
INFO  12:25:07,405 - #15 [
INFO  12:25:07,405 - #16 ]
INFO  12:25:07,405 - #10 ;
INFO  12:25:07,405 - #17 {
INFO  12:25:07,405 - #6 void
INFO  12:25:07,405 - #28 main
INFO  12:25:07,405 - #13 (
INFO  12:25:07,405 - #14 )
INFO  12:25:07,405 - #28 int
INFO  12:25:07,405 - #28 bodovi
INFO  12:25:07,405 - #10 ;
INFO  12:25:07,405 - #28 Broj
INFO  12:25:07,405 - #28 nula
INFO  12:25:07,405 - #12 ,
INFO  12:25:07,405 - #28 jedan
INFO  12:25:07,405 - #10 ;
INFO  12:25:07,405 - #28 bool
INFO  12:25:07,405 - #28 proba
INFO  12:25:07,405 - #10 ;
INFO  12:25:07,405 - #17 {
INFO  12:25:07,405 - #28 bodovi
INFO  12:25:07,405 - #11 =
INFO  12:25:07,405 - #27 0
INFO  12:25:07,405 - #10 ;
INFO  12:25:07,405 - #28 bodovi
INFO  12:25:07,405 - #20 ++
INFO  12:25:07,405 - #10 ;
INFO  12:25:07,420 - #28 bodovi
INFO  12:25:07,420 - #11 =
INFO  12:25:07,420 - #28 bodovi
INFO  12:25:07,420 - #23 +
INFO  12:25:07,420 - #28 jedan
INFO  12:25:07,421 - #10 ;
INFO  12:25:07,422 - #28 bodovi
INFO  12:25:07,422 - #11 =
INFO  12:25:07,422 - #28 bodovi
INFO  12:25:07,422 - #24 *
INFO  12:25:07,422 - #28 pet
INFO  12:25:07,424 - #10 ;
INFO  12:25:07,424 - #28 bodovi
INFO  12:25:07,424 - #21 --
INFO  12:25:07,424 - #10 ;
INFO  12:25:07,424 - #4 print
INFO  12:25:07,425 - #13 (
INFO  12:25:07,425 - #28 bodovi
INFO  12:25:07,425 - #14 )
INFO  12:25:07,425 - #10 ;
INFO  12:25:07,425 - #28 niz
INFO  12:25:07,425 - #11 =
INFO  12:25:07,425 - #5 new
INFO  12:25:07,425 - #28 int
INFO  12:25:07,425 - #15 [
INFO  12:25:07,426 - #27 2
INFO  12:25:07,426 - #16 ]
INFO  12:25:07,426 - #10 ;
INFO  12:25:07,426 - #28 niz
INFO  12:25:07,426 - #15 [
INFO  12:25:07,426 - #28 nula
INFO  12:25:07,426 - #16 ]
INFO  12:25:07,427 - #11 =
INFO  12:25:07,427 - #28 pet
INFO  12:25:07,427 - #10 ;
INFO  12:25:07,427 - #28 bodovi
INFO  12:25:07,427 - #11 =
INFO  12:25:07,427 - #28 niz
INFO  12:25:07,427 - #15 [
INFO  12:25:07,427 - #27 1
INFO  12:25:07,427 - #16 ]
INFO  12:25:07,428 - #25 /
INFO  12:25:07,428 - #28 niz
INFO  12:25:07,429 - #15 [
INFO  12:25:07,429 - #27 0
INFO  12:25:07,429 - #16 ]
INFO  12:25:07,429 - #10 ;
INFO  12:25:07,430 - #4 print
INFO  12:25:07,430 - #13 (
INFO  12:25:07,430 - #28 bodovi
INFO  12:25:07,430 - #14 )
INFO  12:25:07,430 - #10 ;
INFO  12:25:07,430 - #28 nizch
INFO  12:25:07,430 - #11 =
INFO  12:25:07,430 - #5 new
INFO  12:25:07,430 - #28 char
INFO  12:25:07,430 - #15 [
INFO  12:25:07,431 - #27 3
INFO  12:25:07,431 - #16 ]
INFO  12:25:07,431 - #10 ;
INFO  12:25:07,431 - #28 nizch
INFO  12:25:07,431 - #15 [
INFO  12:25:07,431 - #27 0
INFO  12:25:07,431 - #16 ]
INFO  12:25:07,431 - #11 =
INFO  12:25:07,431 - #29 a
INFO  12:25:07,432 - #10 ;
INFO  12:25:07,432 - #28 nizch
INFO  12:25:07,432 - #15 [
INFO  12:25:07,432 - #28 jedan
INFO  12:25:07,437 - #16 ]
INFO  12:25:07,437 - #11 =
INFO  12:25:07,437 - #29 b
INFO  12:25:07,438 - #10 ;
INFO  12:25:07,438 - #28 nizch
INFO  12:25:07,438 - #15 [
INFO  12:25:07,438 - #28 pet
INFO  12:25:07,438 - #22 -
INFO  12:25:07,438 - #27 3
INFO  12:25:07,439 - #16 ]
INFO  12:25:07,439 - #11 =
INFO  12:25:07,439 - #29 c
INFO  12:25:07,440 - #10 ;
INFO  12:25:07,440 - #4 print
INFO  12:25:07,440 - #13 (
INFO  12:25:07,440 - #28 nizch
INFO  12:25:07,440 - #15 [
INFO  12:25:07,440 - #27 2
INFO  12:25:07,440 - #22 -
INFO  12:25:07,440 - #27 1
INFO  12:25:07,440 - #16 ]
INFO  12:25:07,440 - #14 )
INFO  12:25:07,441 - #10 ;
INFO  12:25:07,441 - #4 print
INFO  12:25:07,441 - #13 (
INFO  12:25:07,441 - #28 nizch
INFO  12:25:07,441 - #15 [
INFO  12:25:07,441 - #28 jedan
INFO  12:25:07,441 - #24 *
INFO  12:25:07,441 - #27 2
INFO  12:25:07,441 - #16 ]
INFO  12:25:07,441 - #14 )
INFO  12:25:07,441 - #10 ;
INFO  12:25:07,441 - #28 bodovi
INFO  12:25:07,442 - #11 =
INFO  12:25:07,442 - #28 bodovi
INFO  12:25:07,442 - #23 +
INFO  12:25:07,442 - #13 (
INFO  12:25:07,442 - #13 (
INFO  12:25:07,442 - #28 pet
INFO  12:25:07,442 - #24 *
INFO  12:25:07,442 - #28 jedan
INFO  12:25:07,442 - #22 -
INFO  12:25:07,442 - #27 1
INFO  12:25:07,442 - #14 )
INFO  12:25:07,443 - #24 *
INFO  12:25:07,443 - #27 2
INFO  12:25:07,443 - #22 -
INFO  12:25:07,443 - #13 (
INFO  12:25:07,443 - #27 3
INFO  12:25:07,443 - #26 %
INFO  12:25:07,443 - #27 2
INFO  12:25:07,445 - #23 +
INFO  12:25:07,445 - #27 3
INFO  12:25:07,445 - #24 *
INFO  12:25:07,445 - #27 2
INFO  12:25:07,445 - #22 -
INFO  12:25:07,445 - #27 3
INFO  12:25:07,445 - #14 )
INFO  12:25:07,445 - #22 -
INFO  12:25:07,446 - #28 Broj
INFO  12:25:07,446 - #19 .
INFO  12:25:07,446 - #28 JEDAN
INFO  12:25:07,446 - #24 *
INFO  12:25:07,446 - #27 0
INFO  12:25:07,446 - #14 )
INFO  12:25:07,446 - #10 ;
INFO  12:25:07,446 - #4 print
INFO  12:25:07,446 - #13 (
INFO  12:25:07,446 - #28 bodovi
INFO  12:25:07,446 - #14 )
INFO  12:25:07,447 - #10 ;
INFO  12:25:07,447 - #3 read
INFO  12:25:07,447 - #13 (
INFO  12:25:07,447 - #28 bodovi
INFO  12:25:07,447 - #14 )
INFO  12:25:07,447 - #10 ;
INFO  12:25:07,447 - #28 bodovi
INFO  12:25:07,447 - #11 =
INFO  12:25:07,447 - #28 bodovi
INFO  12:25:07,447 - #23 +
INFO  12:25:07,447 - #27 1
INFO  12:25:07,447 - #10 ;
INFO  12:25:07,448 - #4 print
INFO  12:25:07,448 - #13 (
INFO  12:25:07,448 - #28 bodovi
INFO  12:25:07,448 - #14 )
INFO  12:25:07,448 - #10 ;
INFO  12:25:07,448 - #18 }
INFO  12:25:07,448 - #18 }
INFO  12:25:07,469 - Program(
  ProgName(
   test301
  ) [ProgName]
  GlobalDeclListL(
    GlobalDeclListL(
      GlobalDeclListL(
        GlobalDeclListL(
          GlobalDeclListL(
            GlobalDeclListEps(
            ) [GlobalDeclListEps]
            GlobalDeclEnum(
              EnumDecl(
               Broj
                EnumDeclListL(
                  EnumDeclListL(
                    EnumDeclListL(
                      EnumDeclItem(
                        EnumDeclDefNoVal(
                         NULA
                        ) [EnumDeclDefNoVal]
                      ) [EnumDeclItem]
                      EnumDeclDefNoVal(
                       JEDAN
                      ) [EnumDeclDefNoVal]
                    ) [EnumDeclListL]
                    EnumDeclDefVal(
                     PET
                     5
                    ) [EnumDeclDefVal]
                  ) [EnumDeclListL]
                  EnumDeclDefVal(
                   DESET
                   10
                  ) [EnumDeclDefVal]
                ) [EnumDeclListL]
              ) [EnumDecl]
            ) [GlobalDeclEnum]
          ) [GlobalDeclListL]
          GlobalDeclConst(
            ConstDecl(
              Type(
               int
              ) [Type]
              ConstDeclItem(
                ConstDef(
                 jedan
                  ConstNum(
                   1
                  ) [ConstNum]
                ) [ConstDef]
              ) [ConstDeclItem]
            ) [ConstDecl]
          ) [GlobalDeclConst]
        ) [GlobalDeclListL]
        GlobalDeclConst(
          ConstDecl(
            Type(
             int
            ) [Type]
            ConstDeclItem(
              ConstDef(
               pet
                ConstNum(
                 5
                ) [ConstNum]
              ) [ConstDef]
            ) [ConstDeclItem]
          ) [ConstDecl]
        ) [GlobalDeclConst]
      ) [GlobalDeclListL]
      GlobalDeclVar(
        GlobalVarDecl(
          Type(
           int
          ) [Type]
          GlobalVarDeclItem(
            GlobalVarDeclDefOk(
              VarDeclDefineArray(
               niz
              ) [VarDeclDefineArray]
            ) [GlobalVarDeclDefOk]
          ) [GlobalVarDeclItem]
        ) [GlobalVarDecl]
      ) [GlobalDeclVar]
    ) [GlobalDeclListL]
    GlobalDeclVar(
      GlobalVarDecl(
        Type(
         char
        ) [Type]
        GlobalVarDeclItem(
          GlobalVarDeclDefOk(
            VarDeclDefineArray(
             nizch
            ) [VarDeclDefineArray]
          ) [GlobalVarDeclDefOk]
        ) [GlobalVarDeclItem]
      ) [GlobalVarDecl]
    ) [GlobalDeclVar]
  ) [GlobalDeclListL]
  MethodDecl(
    MethodSignature(
      VoidableType(
      ) [VoidableType]
     main
    ) [MethodSignature]
    VarMethodDeclList_NoEps(
      VarMethodDeclList_NoEps(
        VarMethodDeclList_NoEps(
          VarMethodDeclList_Eps(
          ) [VarMethodDeclList_Eps]
          VarDecl(
            Type(
             int
            ) [Type]
            VarDeclItem(
              VarDeclDefineSingle(
               bodovi
              ) [VarDeclDefineSingle]
            ) [VarDeclItem]
          ) [VarDecl]
        ) [VarMethodDeclList_NoEps]
        VarDecl(
          Type(
           Broj
          ) [Type]
          VarDeclListL(
            VarDeclItem(
              VarDeclDefineSingle(
               nula
              ) [VarDeclDefineSingle]
            ) [VarDeclItem]
            VarDeclDefineSingle(
             jedan
            ) [VarDeclDefineSingle]
          ) [VarDeclListL]
        ) [VarDecl]
      ) [VarMethodDeclList_NoEps]
      VarDecl(
        Type(
         bool
        ) [Type]
        VarDeclItem(
          VarDeclDefineSingle(
           proba
          ) [VarDeclDefineSingle]
        ) [VarDeclItem]
      ) [VarDecl]
    ) [VarMethodDeclList_NoEps]
    StatementList_NoEps(
      StatementList_NoEps(
        StatementList_NoEps(
          StatementList_NoEps(
            StatementList_NoEps(
              StatementList_NoEps(
                StatementList_NoEps(
                  StatementList_NoEps(
                    StatementList_NoEps(
                      StatementList_NoEps(
                        StatementList_NoEps(
                          StatementList_NoEps(
                            StatementList_NoEps(
                              StatementList_NoEps(
                                StatementList_NoEps(
                                  StatementList_NoEps(
                                    StatementList_NoEps(
                                      StatementList_NoEps(
                                        StatementList_NoEps(
                                          StatementList_NoEps(
                                            StatementList_NoEps(
                                              StatementList_Eps(
                                              ) [StatementList_Eps]
                                              StatementDes(
                                                DesignStatAssignment(
                                                  Designator(
                                                   bodovi
                                                    DesDerived1(
                                                    ) [DesDerived1]
                                                  ) [Designator]
                                                  AssignementExpr(
                                                    TermExpr(
                                                      TermFact(
                                                        FactorConst(
                                                          ConstNum(
                                                           0
                                                          ) [ConstNum]
                                                        ) [FactorConst]
                                                      ) [TermFact]
                                                    ) [TermExpr]
                                                  ) [AssignementExpr]
                                                ) [DesignStatAssignment]
                                              ) [StatementDes]
                                            ) [StatementList_NoEps]
                                            StatementDes(
                                              DesignStatInc(
                                                Designator(
                                                 bodovi
                                                  DesDerived1(
                                                  ) [DesDerived1]
                                                ) [Designator]
                                              ) [DesignStatInc]
                                            ) [StatementDes]
                                          ) [StatementList_NoEps]
                                          StatementDes(
                                            DesignStatAssignment(
                                              Designator(
                                               bodovi
                                                DesDerived1(
                                                ) [DesDerived1]
                                              ) [Designator]
                                              AssignementExpr(
                                                AddopExp(
                                                  TermExpr(
                                                    TermFact(
                                                      FactorDesign(
                                                        Designator(
                                                         bodovi
                                                          DesDerived1(
                                                          ) [DesDerived1]
                                                        ) [Designator]
                                                      ) [FactorDesign]
                                                    ) [TermFact]
                                                  ) [TermExpr]
                                                  Addop(
                                                  ) [Addop]
                                                  TermFact(
                                                    FactorDesign(
                                                      Designator(
                                                       jedan
                                                        DesDerived1(
                                                        ) [DesDerived1]
                                                      ) [Designator]
                                                    ) [FactorDesign]
                                                  ) [TermFact]
                                                ) [AddopExp]
                                              ) [AssignementExpr]
                                            ) [DesignStatAssignment]
                                          ) [StatementDes]
                                        ) [StatementList_NoEps]
                                        StatementDes(
                                          DesignStatAssignment(
                                            Designator(
                                             bodovi
                                              DesDerived1(
                                              ) [DesDerived1]
                                            ) [Designator]
                                            AssignementExpr(
                                              TermExpr(
                                                TermMulop(
                                                  TermFact(
                                                    FactorDesign(
                                                      Designator(
                                                       bodovi
                                                        DesDerived1(
                                                        ) [DesDerived1]
                                                      ) [Designator]
                                                    ) [FactorDesign]
                                                  ) [TermFact]
                                                  Mulop(
                                                  ) [Mulop]
                                                  FactorDesign(
                                                    Designator(
                                                     pet
                                                      DesDerived1(
                                                      ) [DesDerived1]
                                                    ) [Designator]
                                                  ) [FactorDesign]
                                                ) [TermMulop]
                                              ) [TermExpr]
                                            ) [AssignementExpr]
                                          ) [DesignStatAssignment]
                                        ) [StatementDes]
                                      ) [StatementList_NoEps]
                                      StatementDes(
                                        DesignStatDec(
                                          Designator(
                                           bodovi
                                            DesDerived1(
                                            ) [DesDerived1]
                                          ) [Designator]
                                        ) [DesignStatDec]
                                      ) [StatementDes]
                                    ) [StatementList_NoEps]
                                    StatPrint(
                                      TermExpr(
                                        TermFact(
                                          FactorDesign(
                                            Designator(
                                             bodovi
                                              DesDerived1(
                                              ) [DesDerived1]
                                            ) [Designator]
                                          ) [FactorDesign]
                                        ) [TermFact]
                                      ) [TermExpr]
                                    ) [StatPrint]
                                  ) [StatementList_NoEps]
                                  StatementDes(
                                    DesignStatAssignment(
                                      Designator(
                                       niz
                                        DesDerived1(
                                        ) [DesDerived1]
                                      ) [Designator]
                                      AssignementExpr(
                                        TermExpr(
                                          TermFact(
                                            FactorNewConst(
                                              Type(
                                               int
                                              ) [Type]
                                              TermExpr(
                                                TermFact(
                                                  FactorConst(
                                                    ConstNum(
                                                     2
                                                    ) [ConstNum]
                                                  ) [FactorConst]
                                                ) [TermFact]
                                              ) [TermExpr]
                                            ) [FactorNewConst]
                                          ) [TermFact]
                                        ) [TermExpr]
                                      ) [AssignementExpr]
                                    ) [DesignStatAssignment]
                                  ) [StatementDes]
                                ) [StatementList_NoEps]
                                StatementDes(
                                  DesignStatAssignment(
                                    Designator(
                                     niz
                                      DesExpr(
                                        TermExpr(
                                          TermFact(
                                            FactorDesign(
                                              Designator(
                                               nula
                                                DesDerived1(
                                                ) [DesDerived1]
                                              ) [Designator]
                                            ) [FactorDesign]
                                          ) [TermFact]
                                        ) [TermExpr]
                                      ) [DesExpr]
                                    ) [Designator]
                                    AssignementExpr(
                                      TermExpr(
                                        TermFact(
                                          FactorDesign(
                                            Designator(
                                             pet
                                              DesDerived1(
                                              ) [DesDerived1]
                                            ) [Designator]
                                          ) [FactorDesign]
                                        ) [TermFact]
                                      ) [TermExpr]
                                    ) [AssignementExpr]
                                  ) [DesignStatAssignment]
                                ) [StatementDes]
                              ) [StatementList_NoEps]
                              StatementDes(
                                DesignStatAssignment(
                                  Designator(
                                   bodovi
                                    DesDerived1(
                                    ) [DesDerived1]
                                  ) [Designator]
                                  AssignementExpr(
                                    TermExpr(
                                      TermMulop(
                                        TermFact(
                                          FactorDesign(
                                            Designator(
                                             niz
                                              DesExpr(
                                                TermExpr(
                                                  TermFact(
                                                    FactorConst(
                                                      ConstNum(
                                                       1
                                                      ) [ConstNum]
                                                    ) [FactorConst]
                                                  ) [TermFact]
                                                ) [TermExpr]
                                              ) [DesExpr]
                                            ) [Designator]
                                          ) [FactorDesign]
                                        ) [TermFact]
                                        Divop(
                                        ) [Divop]
                                        FactorDesign(
                                          Designator(
                                           niz
                                            DesExpr(
                                              TermExpr(
                                                TermFact(
                                                  FactorConst(
                                                    ConstNum(
                                                     0
                                                    ) [ConstNum]
                                                  ) [FactorConst]
                                                ) [TermFact]
                                              ) [TermExpr]
                                            ) [DesExpr]
                                          ) [Designator]
                                        ) [FactorDesign]
                                      ) [TermMulop]
                                    ) [TermExpr]
                                  ) [AssignementExpr]
                                ) [DesignStatAssignment]
                              ) [StatementDes]
                            ) [StatementList_NoEps]
                            StatPrint(
                              TermExpr(
                                TermFact(
                                  FactorDesign(
                                    Designator(
                                     bodovi
                                      DesDerived1(
                                      ) [DesDerived1]
                                    ) [Designator]
                                  ) [FactorDesign]
                                ) [TermFact]
                              ) [TermExpr]
                            ) [StatPrint]
                          ) [StatementList_NoEps]
                          StatementDes(
                            DesignStatAssignment(
                              Designator(
                               nizch
                                DesDerived1(
                                ) [DesDerived1]
                              ) [Designator]
                              AssignementExpr(
                                TermExpr(
                                  TermFact(
                                    FactorNewConst(
                                      Type(
                                       char
                                      ) [Type]
                                      TermExpr(
                                        TermFact(
                                          FactorConst(
                                            ConstNum(
                                             3
                                            ) [ConstNum]
                                          ) [FactorConst]
                                        ) [TermFact]
                                      ) [TermExpr]
                                    ) [FactorNewConst]
                                  ) [TermFact]
                                ) [TermExpr]
                              ) [AssignementExpr]
                            ) [DesignStatAssignment]
                          ) [StatementDes]
                        ) [StatementList_NoEps]
                        StatementDes(
                          DesignStatAssignment(
                            Designator(
                             nizch
                              DesExpr(
                                TermExpr(
                                  TermFact(
                                    FactorConst(
                                      ConstNum(
                                       0
                                      ) [ConstNum]
                                    ) [FactorConst]
                                  ) [TermFact]
                                ) [TermExpr]
                              ) [DesExpr]
                            ) [Designator]
                            AssignementExpr(
                              TermExpr(
                                TermFact(
                                  FactorConst(
                                    ConstChar(
                                     a
                                    ) [ConstChar]
                                  ) [FactorConst]
                                ) [TermFact]
                              ) [TermExpr]
                            ) [AssignementExpr]
                          ) [DesignStatAssignment]
                        ) [StatementDes]
                      ) [StatementList_NoEps]
                      StatementDes(
                        DesignStatAssignment(
                          Designator(
                           nizch
                            DesExpr(
                              TermExpr(
                                TermFact(
                                  FactorDesign(
                                    Designator(
                                     jedan
                                      DesDerived1(
                                      ) [DesDerived1]
                                    ) [Designator]
                                  ) [FactorDesign]
                                ) [TermFact]
                              ) [TermExpr]
                            ) [DesExpr]
                          ) [Designator]
                          AssignementExpr(
                            TermExpr(
                              TermFact(
                                FactorConst(
                                  ConstChar(
                                   b
                                  ) [ConstChar]
                                ) [FactorConst]
                              ) [TermFact]
                            ) [TermExpr]
                          ) [AssignementExpr]
                        ) [DesignStatAssignment]
                      ) [StatementDes]
                    ) [StatementList_NoEps]
                    StatementDes(
                      DesignStatAssignment(
                        Designator(
                         nizch
                          DesExpr(
                            AddopExp(
                              TermExpr(
                                TermFact(
                                  FactorDesign(
                                    Designator(
                                     pet
                                      DesDerived1(
                                      ) [DesDerived1]
                                    ) [Designator]
                                  ) [FactorDesign]
                                ) [TermFact]
                              ) [TermExpr]
                              Subop(
                              ) [Subop]
                              TermFact(
                                FactorConst(
                                  ConstNum(
                                   3
                                  ) [ConstNum]
                                ) [FactorConst]
                              ) [TermFact]
                            ) [AddopExp]
                          ) [DesExpr]
                        ) [Designator]
                        AssignementExpr(
                          TermExpr(
                            TermFact(
                              FactorConst(
                                ConstChar(
                                 c
                                ) [ConstChar]
                              ) [FactorConst]
                            ) [TermFact]
                          ) [TermExpr]
                        ) [AssignementExpr]
                      ) [DesignStatAssignment]
                    ) [StatementDes]
                  ) [StatementList_NoEps]
                  StatPrint(
                    TermExpr(
                      TermFact(
                        FactorDesign(
                          Designator(
                           nizch
                            DesExpr(
                              AddopExp(
                                TermExpr(
                                  TermFact(
                                    FactorConst(
                                      ConstNum(
                                       2
                                      ) [ConstNum]
                                    ) [FactorConst]
                                  ) [TermFact]
                                ) [TermExpr]
                                Subop(
                                ) [Subop]
                                TermFact(
                                  FactorConst(
                                    ConstNum(
                                     1
                                    ) [ConstNum]
                                  ) [FactorConst]
                                ) [TermFact]
                              ) [AddopExp]
                            ) [DesExpr]
                          ) [Designator]
                        ) [FactorDesign]
                      ) [TermFact]
                    ) [TermExpr]
                  ) [StatPrint]
                ) [StatementList_NoEps]
                StatPrint(
                  TermExpr(
                    TermFact(
                      FactorDesign(
                        Designator(
                         nizch
                          DesExpr(
                            TermExpr(
                              TermMulop(
                                TermFact(
                                  FactorDesign(
                                    Designator(
                                     jedan
                                      DesDerived1(
                                      ) [DesDerived1]
                                    ) [Designator]
                                  ) [FactorDesign]
                                ) [TermFact]
                                Mulop(
                                ) [Mulop]
                                FactorConst(
                                  ConstNum(
                                   2
                                  ) [ConstNum]
                                ) [FactorConst]
                              ) [TermMulop]
                            ) [TermExpr]
                          ) [DesExpr]
                        ) [Designator]
                      ) [FactorDesign]
                    ) [TermFact]
                  ) [TermExpr]
                ) [StatPrint]
              ) [StatementList_NoEps]
              StatementDes(
                DesignStatAssignment(
                  Designator(
                   bodovi
                    DesDerived1(
                    ) [DesDerived1]
                  ) [Designator]
                  AssignementExpr(
                    AddopExp(
                      TermExpr(
                        TermFact(
                          FactorDesign(
                            Designator(
                             bodovi
                              DesDerived1(
                              ) [DesDerived1]
                            ) [Designator]
                          ) [FactorDesign]
                        ) [TermFact]
                      ) [TermExpr]
                      Addop(
                      ) [Addop]
                      TermFact(
                        FactorExpr(
                          AddopExp(
                            AddopExp(
                              TermExpr(
                                TermMulop(
                                  TermFact(
                                    FactorExpr(
                                      AddopExp(
                                        TermExpr(
                                          TermMulop(
                                            TermFact(
                                              FactorDesign(
                                                Designator(
                                                 pet
                                                  DesDerived1(
                                                  ) [DesDerived1]
                                                ) [Designator]
                                              ) [FactorDesign]
                                            ) [TermFact]
                                            Mulop(
                                            ) [Mulop]
                                            FactorDesign(
                                              Designator(
                                               jedan
                                                DesDerived1(
                                                ) [DesDerived1]
                                              ) [Designator]
                                            ) [FactorDesign]
                                          ) [TermMulop]
                                        ) [TermExpr]
                                        Subop(
                                        ) [Subop]
                                        TermFact(
                                          FactorConst(
                                            ConstNum(
                                             1
                                            ) [ConstNum]
                                          ) [FactorConst]
                                        ) [TermFact]
                                      ) [AddopExp]
                                    ) [FactorExpr]
                                  ) [TermFact]
                                  Mulop(
                                  ) [Mulop]
                                  FactorConst(
                                    ConstNum(
                                     2
                                    ) [ConstNum]
                                  ) [FactorConst]
                                ) [TermMulop]
                              ) [TermExpr]
                              Subop(
                              ) [Subop]
                              TermFact(
                                FactorExpr(
                                  AddopExp(
                                    AddopExp(
                                      TermExpr(
                                        TermMulop(
                                          TermFact(
                                            FactorConst(
                                              ConstNum(
                                               3
                                              ) [ConstNum]
                                            ) [FactorConst]
                                          ) [TermFact]
                                          Modop(
                                          ) [Modop]
                                          FactorConst(
                                            ConstNum(
                                             2
                                            ) [ConstNum]
                                          ) [FactorConst]
                                        ) [TermMulop]
                                      ) [TermExpr]
                                      Addop(
                                      ) [Addop]
                                      TermMulop(
                                        TermFact(
                                          FactorConst(
                                            ConstNum(
                                             3
                                            ) [ConstNum]
                                          ) [FactorConst]
                                        ) [TermFact]
                                        Mulop(
                                        ) [Mulop]
                                        FactorConst(
                                          ConstNum(
                                           2
                                          ) [ConstNum]
                                        ) [FactorConst]
                                      ) [TermMulop]
                                    ) [AddopExp]
                                    Subop(
                                    ) [Subop]
                                    TermFact(
                                      FactorConst(
                                        ConstNum(
                                         3
                                        ) [ConstNum]
                                      ) [FactorConst]
                                    ) [TermFact]
                                  ) [AddopExp]
                                ) [FactorExpr]
                              ) [TermFact]
                            ) [AddopExp]
                            Subop(
                            ) [Subop]
                            TermMulop(
                              TermFact(
                                FactorDesign(
                                  Designator(
                                   Broj
                                    DesEnum(
                                     JEDAN
                                    ) [DesEnum]
                                  ) [Designator]
                                ) [FactorDesign]
                              ) [TermFact]
                              Mulop(
                              ) [Mulop]
                              FactorConst(
                                ConstNum(
                                 0
                                ) [ConstNum]
                              ) [FactorConst]
                            ) [TermMulop]
                          ) [AddopExp]
                        ) [FactorExpr]
                      ) [TermFact]
                    ) [AddopExp]
                  ) [AssignementExpr]
                ) [DesignStatAssignment]
              ) [StatementDes]
            ) [StatementList_NoEps]
            StatPrint(
              TermExpr(
                TermFact(
                  FactorDesign(
                    Designator(
                     bodovi
                      DesDerived1(
                      ) [DesDerived1]
                    ) [Designator]
                  ) [FactorDesign]
                ) [TermFact]
              ) [TermExpr]
            ) [StatPrint]
          ) [StatementList_NoEps]
          StatRead(
            Designator(
             bodovi
              DesDerived1(
              ) [DesDerived1]
            ) [Designator]
          ) [StatRead]
        ) [StatementList_NoEps]
        StatementDes(
          DesignStatAssignment(
            Designator(
             bodovi
              DesDerived1(
              ) [DesDerived1]
            ) [Designator]
            AssignementExpr(
              AddopExp(
                TermExpr(
                  TermFact(
                    FactorDesign(
                      Designator(
                       bodovi
                        DesDerived1(
                        ) [DesDerived1]
                      ) [Designator]
                    ) [FactorDesign]
                  ) [TermFact]
                ) [TermExpr]
                Addop(
                ) [Addop]
                TermFact(
                  FactorConst(
                    ConstNum(
                     1
                    ) [ConstNum]
                  ) [FactorConst]
                ) [TermFact]
              ) [AddopExp]
            ) [AssignementExpr]
          ) [DesignStatAssignment]
        ) [StatementDes]
      ) [StatementList_NoEps]
      StatPrint(
        TermExpr(
          TermFact(
            FactorDesign(
              Designator(
               bodovi
                DesDerived1(
                ) [DesDerived1]
              ) [Designator]
            ) [FactorDesign]
          ) [TermFact]
        ) [TermExpr]
      ) [StatPrint]
    ) [StatementList_NoEps]
  ) [MethodDecl]
) [Program]
INFO  12:25:07,469 - ===================================
INFO  12:25:07,469 - Deklarisan novi enum tip Broj na liniji 5
INFO  12:25:07,469 - Deklarisana konstanta 'jedan' na liniji 7
INFO  12:25:07,469 - Deklarisana konstanta 'pet' na liniji 8
INFO  12:25:07,469 - Deklarisana promenljiva niza niz na liniji 10
INFO  12:25:07,469 - Deklarisana promenljiva niza nizch na liniji 11
INFO  12:25:07,469 - Obradjuje se funkcija main na liniji 14
INFO  12:25:07,469 - Deklarisana promenljiva bodovi tipa 1 na liniji 15
INFO  12:25:07,469 - Deklarisana promenljiva nula tipa 6 na liniji 16
INFO  12:25:07,469 - Deklarisana promenljiva jedan tipa 6 na liniji 16
INFO  12:25:07,469 - Deklarisana promenljiva proba tipa 5 na liniji 17
ERROR 12:25:07,469 - Greska na 22: nekompatibilni tipovi u dodeli
ERROR 12:25:07,469 - 1 je kind designatora, 1 je kind assignmenta
ERROR 12:25:07,469 - Greska na 23: bodovi nije promenljiva
