INFO  11:42:58,968 - Compiling source file: C:\Users\ikadr\Desktop\PP\Projekat\Rad\workspace\MJCompiler\test\program.mj
INFO  11:42:59,030 - #2 program
INFO  11:42:59,030 - #28 test301
INFO  11:42:59,030 - #9 enum
INFO  11:42:59,030 - #28 Broj
INFO  11:42:59,030 - #17 {
INFO  11:42:59,030 - #28 NULA
INFO  11:42:59,030 - #12 ,
INFO  11:42:59,030 - #28 JEDAN
INFO  11:42:59,030 - #12 ,
INFO  11:42:59,030 - #28 PET
INFO  11:42:59,030 - #11 =
INFO  11:42:59,030 - #27 5
INFO  11:42:59,030 - #12 ,
INFO  11:42:59,030 - #28 DESET
INFO  11:42:59,030 - #11 =
INFO  11:42:59,030 - #27 10
INFO  11:42:59,030 - #18 }
INFO  11:42:59,030 - #8 const
INFO  11:42:59,030 - #28 int
INFO  11:42:59,030 - #28 jedan
INFO  11:42:59,046 - #11 =
INFO  11:42:59,062 - #27 1
INFO  11:42:59,062 - #10 ;
INFO  11:42:59,062 - #8 const
INFO  11:42:59,062 - #28 int
INFO  11:42:59,062 - #28 pet
INFO  11:42:59,062 - #11 =
INFO  11:42:59,062 - #27 5
INFO  11:42:59,062 - #10 ;
INFO  11:42:59,062 - #28 int
INFO  11:42:59,062 - #28 niz
INFO  11:42:59,062 - #15 [
INFO  11:42:59,062 - #16 ]
INFO  11:42:59,062 - #10 ;
INFO  11:42:59,062 - #28 char
INFO  11:42:59,062 - #28 nizch
INFO  11:42:59,062 - #15 [
INFO  11:42:59,062 - #16 ]
INFO  11:42:59,062 - #10 ;
INFO  11:42:59,062 - #17 {
INFO  11:42:59,062 - #6 void
INFO  11:42:59,062 - #28 main
INFO  11:42:59,062 - #13 (
INFO  11:42:59,062 - #14 )
INFO  11:42:59,062 - #28 int
INFO  11:42:59,079 - #28 bodovi
INFO  11:42:59,079 - #10 ;
INFO  11:42:59,079 - #28 Broj
INFO  11:42:59,081 - #28 nula
INFO  11:42:59,081 - #12 ,
INFO  11:42:59,081 - #28 jedan
INFO  11:42:59,081 - #10 ;
INFO  11:42:59,082 - #28 bool
INFO  11:42:59,082 - #28 proba
INFO  11:42:59,082 - #10 ;
INFO  11:42:59,082 - #17 {
INFO  11:42:59,082 - #28 bodovi
INFO  11:42:59,084 - #11 =
INFO  11:42:59,087 - #27 0
INFO  11:42:59,088 - #10 ;
INFO  11:42:59,090 - #28 bodovi
INFO  11:42:59,091 - #20 ++
INFO  11:42:59,091 - #10 ;
INFO  11:42:59,092 - #28 bodovi
INFO  11:42:59,092 - #11 =
INFO  11:42:59,092 - #28 bodovi
INFO  11:42:59,092 - #23 +
INFO  11:42:59,093 - #28 jedan
INFO  11:42:59,095 - #10 ;
INFO  11:42:59,103 - #28 bodovi
INFO  11:42:59,103 - #11 =
INFO  11:42:59,103 - #28 bodovi
INFO  11:42:59,103 - #24 *
INFO  11:42:59,104 - #28 pet
INFO  11:42:59,105 - #10 ;
INFO  11:42:59,106 - #28 bodovi
INFO  11:42:59,106 - #21 --
INFO  11:42:59,106 - #10 ;
INFO  11:42:59,107 - #4 print
INFO  11:42:59,107 - #13 (
INFO  11:42:59,107 - #28 bodovi
INFO  11:42:59,107 - #14 )
INFO  11:42:59,107 - #10 ;
INFO  11:42:59,107 - #28 niz
INFO  11:42:59,108 - #11 =
INFO  11:42:59,108 - #5 new
INFO  11:42:59,108 - #28 int
INFO  11:42:59,108 - #15 [
INFO  11:42:59,108 - #27 2
INFO  11:42:59,108 - #16 ]
INFO  11:42:59,109 - #10 ;
INFO  11:42:59,109 - #28 niz
INFO  11:42:59,109 - #15 [
INFO  11:42:59,109 - #28 nula
INFO  11:42:59,110 - #16 ]
INFO  11:42:59,110 - #11 =
INFO  11:42:59,110 - #28 pet
INFO  11:42:59,110 - #10 ;
INFO  11:42:59,111 - #28 bodovi
INFO  11:42:59,111 - #11 =
INFO  11:42:59,111 - #28 niz
INFO  11:42:59,112 - #15 [
INFO  11:42:59,112 - #27 1
INFO  11:42:59,112 - #16 ]
INFO  11:42:59,112 - #25 /
INFO  11:42:59,112 - #28 niz
INFO  11:42:59,113 - #15 [
INFO  11:42:59,114 - #27 0
INFO  11:42:59,114 - #16 ]
INFO  11:42:59,114 - #10 ;
INFO  11:42:59,114 - #4 print
INFO  11:42:59,114 - #13 (
INFO  11:42:59,114 - #28 bodovi
INFO  11:42:59,114 - #14 )
INFO  11:42:59,114 - #10 ;
INFO  11:42:59,115 - #28 nizch
INFO  11:42:59,115 - #11 =
INFO  11:42:59,115 - #5 new
INFO  11:42:59,115 - #28 char
INFO  11:42:59,115 - #15 [
INFO  11:42:59,115 - #27 3
INFO  11:42:59,115 - #16 ]
INFO  11:42:59,115 - #10 ;
INFO  11:42:59,115 - #28 nizch
INFO  11:42:59,115 - #15 [
INFO  11:42:59,116 - #27 0
INFO  11:42:59,116 - #16 ]
INFO  11:42:59,116 - #11 =
INFO  11:42:59,116 - #29 a
INFO  11:42:59,116 - #10 ;
INFO  11:42:59,116 - #28 nizch
INFO  11:42:59,116 - #15 [
INFO  11:42:59,116 - #28 jedan
INFO  11:42:59,116 - #16 ]
INFO  11:42:59,117 - #11 =
INFO  11:42:59,117 - #29 b
INFO  11:42:59,117 - #10 ;
INFO  11:42:59,117 - #28 nizch
INFO  11:42:59,117 - #15 [
INFO  11:42:59,117 - #28 pet
INFO  11:42:59,117 - #22 -
INFO  11:42:59,118 - #27 3
INFO  11:42:59,119 - #16 ]
INFO  11:42:59,119 - #11 =
INFO  11:42:59,119 - #29 c
INFO  11:42:59,119 - #10 ;
INFO  11:42:59,119 - #4 print
INFO  11:42:59,120 - #13 (
INFO  11:42:59,120 - #28 nizch
INFO  11:42:59,120 - #15 [
INFO  11:42:59,120 - #27 2
INFO  11:42:59,120 - #22 -
INFO  11:42:59,120 - #27 1
INFO  11:42:59,120 - #16 ]
INFO  11:42:59,120 - #14 )
INFO  11:42:59,120 - #10 ;
INFO  11:42:59,120 - #4 print
INFO  11:42:59,121 - #13 (
INFO  11:42:59,121 - #28 nizch
INFO  11:42:59,121 - #15 [
INFO  11:42:59,121 - #28 jedan
INFO  11:42:59,121 - #24 *
INFO  11:42:59,121 - #27 2
INFO  11:42:59,121 - #16 ]
INFO  11:42:59,121 - #14 )
INFO  11:42:59,121 - #10 ;
INFO  11:42:59,122 - #28 bodovi
INFO  11:42:59,122 - #11 =
INFO  11:42:59,122 - #28 bodovi
INFO  11:42:59,122 - #23 +
INFO  11:42:59,122 - #13 (
INFO  11:42:59,122 - #13 (
INFO  11:42:59,122 - #28 pet
INFO  11:42:59,122 - #24 *
INFO  11:42:59,122 - #28 jedan
INFO  11:42:59,122 - #22 -
INFO  11:42:59,123 - #27 1
INFO  11:42:59,123 - #14 )
INFO  11:42:59,123 - #24 *
INFO  11:42:59,123 - #27 2
INFO  11:42:59,123 - #22 -
INFO  11:42:59,123 - #13 (
INFO  11:42:59,123 - #27 3
INFO  11:42:59,123 - #26 %
INFO  11:42:59,123 - #27 2
INFO  11:42:59,125 - #23 +
INFO  11:42:59,125 - #27 3
INFO  11:42:59,125 - #24 *
INFO  11:42:59,125 - #27 2
INFO  11:42:59,126 - #22 -
INFO  11:42:59,126 - #27 3
INFO  11:42:59,126 - #14 )
INFO  11:42:59,126 - #22 -
INFO  11:42:59,126 - #28 Broj
INFO  11:42:59,126 - #19 .
INFO  11:42:59,126 - #28 JEDAN
INFO  11:42:59,126 - #24 *
INFO  11:42:59,127 - #27 0
INFO  11:42:59,127 - #14 )
INFO  11:42:59,127 - #10 ;
INFO  11:42:59,127 - #4 print
INFO  11:42:59,127 - #13 (
INFO  11:42:59,127 - #28 bodovi
INFO  11:42:59,127 - #14 )
INFO  11:42:59,127 - #10 ;
INFO  11:42:59,127 - #3 read
INFO  11:42:59,127 - #13 (
INFO  11:42:59,127 - #28 bodovi
INFO  11:42:59,127 - #14 )
INFO  11:42:59,127 - #10 ;
INFO  11:42:59,127 - #28 bodovi
INFO  11:42:59,127 - #11 =
INFO  11:42:59,127 - #28 bodovi
INFO  11:42:59,127 - #23 +
INFO  11:42:59,127 - #27 1
INFO  11:42:59,127 - #10 ;
INFO  11:42:59,127 - #4 print
INFO  11:42:59,127 - #13 (
INFO  11:42:59,127 - #28 bodovi
INFO  11:42:59,127 - #14 )
INFO  11:42:59,127 - #10 ;
INFO  11:42:59,127 - #18 }
INFO  11:42:59,127 - #18 }
INFO  11:42:59,143 - Program(
  ProgName(
   test301
  ) [ProgName]
  GlobalDeclListL(
    GlobalDeclListL(
      GlobalDeclListL(
        GlobalDeclListL(
          GlobalDeclListL(
            GlobalDeclListEps(
            ) [GlobalDeclListEps]
            GlobalDeclEnum(
              EnumDecl(
               Broj
                EnumDeclListL(
                  EnumDeclListL(
                    EnumDeclListL(
                      EnumDeclItem(
                        EnumDeclDefNoVal(
                         NULA
                        ) [EnumDeclDefNoVal]
                      ) [EnumDeclItem]
                      EnumDeclDefNoVal(
                       JEDAN
                      ) [EnumDeclDefNoVal]
                    ) [EnumDeclListL]
                    EnumDeclDefVal(
                     PET
                     5
                    ) [EnumDeclDefVal]
                  ) [EnumDeclListL]
                  EnumDeclDefVal(
                   DESET
                   10
                  ) [EnumDeclDefVal]
                ) [EnumDeclListL]
              ) [EnumDecl]
            ) [GlobalDeclEnum]
          ) [GlobalDeclListL]
          GlobalDeclConst(
            ConstDecl(
              Type(
               int
              ) [Type]
              ConstDeclItem(
                ConstDef(
                 jedan
                  ConstNum(
                   1
                  ) [ConstNum]
                ) [ConstDef]
              ) [ConstDeclItem]
            ) [ConstDecl]
          ) [GlobalDeclConst]
        ) [GlobalDeclListL]
        GlobalDeclConst(
          ConstDecl(
            Type(
             int
            ) [Type]
            ConstDeclItem(
              ConstDef(
               pet
                ConstNum(
                 5
                ) [ConstNum]
              ) [ConstDef]
            ) [ConstDeclItem]
          ) [ConstDecl]
        ) [GlobalDeclConst]
      ) [GlobalDeclListL]
      GlobalDeclVar(
        GlobalVarDecl(
          Type(
           int
          ) [Type]
          GlobalVarDeclItem(
            GlobalVarDeclDefOk(
              VarDeclDefineArray(
               niz
              ) [VarDeclDefineArray]
            ) [GlobalVarDeclDefOk]
          ) [GlobalVarDeclItem]
        ) [GlobalVarDecl]
      ) [GlobalDeclVar]
    ) [GlobalDeclListL]
    GlobalDeclVar(
      GlobalVarDecl(
        Type(
         char
        ) [Type]
        GlobalVarDeclItem(
          GlobalVarDeclDefOk(
            VarDeclDefineArray(
             nizch
            ) [VarDeclDefineArray]
          ) [GlobalVarDeclDefOk]
        ) [GlobalVarDeclItem]
      ) [GlobalVarDecl]
    ) [GlobalDeclVar]
  ) [GlobalDeclListL]
  MethodDecl(
    MethodSignature(
      VoidableType(
      ) [VoidableType]
     main
    ) [MethodSignature]
    VarMethodDeclList_NoEps(
      VarMethodDeclList_NoEps(
        VarMethodDeclList_NoEps(
          VarMethodDeclList_Eps(
          ) [VarMethodDeclList_Eps]
          VarDecl(
            Type(
             int
            ) [Type]
            VarDeclItem(
              VarDeclDefineSingle(
               bodovi
              ) [VarDeclDefineSingle]
            ) [VarDeclItem]
          ) [VarDecl]
        ) [VarMethodDeclList_NoEps]
        VarDecl(
          Type(
           Broj
          ) [Type]
          VarDeclListL(
            VarDeclItem(
              VarDeclDefineSingle(
               nula
              ) [VarDeclDefineSingle]
            ) [VarDeclItem]
            VarDeclDefineSingle(
             jedan
            ) [VarDeclDefineSingle]
          ) [VarDeclListL]
        ) [VarDecl]
      ) [VarMethodDeclList_NoEps]
      VarDecl(
        Type(
         bool
        ) [Type]
        VarDeclItem(
          VarDeclDefineSingle(
           proba
          ) [VarDeclDefineSingle]
        ) [VarDeclItem]
      ) [VarDecl]
    ) [VarMethodDeclList_NoEps]
    StatementList_NoEps(
      StatementList_NoEps(
        StatementList_NoEps(
          StatementList_NoEps(
            StatementList_NoEps(
              StatementList_NoEps(
                StatementList_NoEps(
                  StatementList_NoEps(
                    StatementList_NoEps(
                      StatementList_NoEps(
                        StatementList_NoEps(
                          StatementList_NoEps(
                            StatementList_NoEps(
                              StatementList_NoEps(
                                StatementList_NoEps(
                                  StatementList_NoEps(
                                    StatementList_NoEps(
                                      StatementList_NoEps(
                                        StatementList_NoEps(
                                          StatementList_NoEps(
                                            StatementList_NoEps(
                                              StatementList_Eps(
                                              ) [StatementList_Eps]
                                              StatementDes(
                                                DesignStatAssignment(
                                                  Designator(
                                                   bodovi
                                                    DesDerived1(
                                                    ) [DesDerived1]
                                                  ) [Designator]
                                                  AssignementExpr(
                                                    TermExpr(
                                                      TermFact(
                                                        FactorConst(
                                                          ConstNum(
                                                           0
                                                          ) [ConstNum]
                                                        ) [FactorConst]
                                                      ) [TermFact]
                                                    ) [TermExpr]
                                                  ) [AssignementExpr]
                                                ) [DesignStatAssignment]
                                              ) [StatementDes]
                                            ) [StatementList_NoEps]
                                            StatementDes(
                                              DesignStatInc(
                                                Designator(
                                                 bodovi
                                                  DesDerived1(
                                                  ) [DesDerived1]
                                                ) [Designator]
                                              ) [DesignStatInc]
                                            ) [StatementDes]
                                          ) [StatementList_NoEps]
                                          StatementDes(
                                            DesignStatAssignment(
                                              Designator(
                                               bodovi
                                                DesDerived1(
                                                ) [DesDerived1]
                                              ) [Designator]
                                              AssignementExpr(
                                                AddopExp(
                                                  TermExpr(
                                                    TermFact(
                                                      FactorDesign(
                                                        Designator(
                                                         bodovi
                                                          DesDerived1(
                                                          ) [DesDerived1]
                                                        ) [Designator]
                                                      ) [FactorDesign]
                                                    ) [TermFact]
                                                  ) [TermExpr]
                                                  Addop(
                                                  ) [Addop]
                                                  TermFact(
                                                    FactorDesign(
                                                      Designator(
                                                       jedan
                                                        DesDerived1(
                                                        ) [DesDerived1]
                                                      ) [Designator]
                                                    ) [FactorDesign]
                                                  ) [TermFact]
                                                ) [AddopExp]
                                              ) [AssignementExpr]
                                            ) [DesignStatAssignment]
                                          ) [StatementDes]
                                        ) [StatementList_NoEps]
                                        StatementDes(
                                          DesignStatAssignment(
                                            Designator(
                                             bodovi
                                              DesDerived1(
                                              ) [DesDerived1]
                                            ) [Designator]
                                            AssignementExpr(
                                              TermExpr(
                                                TermMulop(
                                                  TermFact(
                                                    FactorDesign(
                                                      Designator(
                                                       bodovi
                                                        DesDerived1(
                                                        ) [DesDerived1]
                                                      ) [Designator]
                                                    ) [FactorDesign]
                                                  ) [TermFact]
                                                  Mulop(
                                                  ) [Mulop]
                                                  FactorDesign(
                                                    Designator(
                                                     pet
                                                      DesDerived1(
                                                      ) [DesDerived1]
                                                    ) [Designator]
                                                  ) [FactorDesign]
                                                ) [TermMulop]
                                              ) [TermExpr]
                                            ) [AssignementExpr]
                                          ) [DesignStatAssignment]
                                        ) [StatementDes]
                                      ) [StatementList_NoEps]
                                      StatementDes(
                                        DesignStatDec(
                                          Designator(
                                           bodovi
                                            DesDerived1(
                                            ) [DesDerived1]
                                          ) [Designator]
                                        ) [DesignStatDec]
                                      ) [StatementDes]
                                    ) [StatementList_NoEps]
                                    StatPrint(
                                      TermExpr(
                                        TermFact(
                                          FactorDesign(
                                            Designator(
                                             bodovi
                                              DesDerived1(
                                              ) [DesDerived1]
                                            ) [Designator]
                                          ) [FactorDesign]
                                        ) [TermFact]
                                      ) [TermExpr]
                                    ) [StatPrint]
                                  ) [StatementList_NoEps]
                                  StatementDes(
                                    DesignStatAssignment(
                                      Designator(
                                       niz
                                        DesDerived1(
                                        ) [DesDerived1]
                                      ) [Designator]
                                      AssignementExpr(
                                        TermExpr(
                                          TermFact(
                                            FactorNewConst(
                                              Type(
                                               int
                                              ) [Type]
                                              TermExpr(
                                                TermFact(
                                                  FactorConst(
                                                    ConstNum(
                                                     2
                                                    ) [ConstNum]
                                                  ) [FactorConst]
                                                ) [TermFact]
                                              ) [TermExpr]
                                            ) [FactorNewConst]
                                          ) [TermFact]
                                        ) [TermExpr]
                                      ) [AssignementExpr]
                                    ) [DesignStatAssignment]
                                  ) [StatementDes]
                                ) [StatementList_NoEps]
                                StatementDes(
                                  DesignStatAssignment(
                                    Designator(
                                     niz
                                      DesExpr(
                                        TermExpr(
                                          TermFact(
                                            FactorDesign(
                                              Designator(
                                               nula
                                                DesDerived1(
                                                ) [DesDerived1]
                                              ) [Designator]
                                            ) [FactorDesign]
                                          ) [TermFact]
                                        ) [TermExpr]
                                      ) [DesExpr]
                                    ) [Designator]
                                    AssignementExpr(
                                      TermExpr(
                                        TermFact(
                                          FactorDesign(
                                            Designator(
                                             pet
                                              DesDerived1(
                                              ) [DesDerived1]
                                            ) [Designator]
                                          ) [FactorDesign]
                                        ) [TermFact]
                                      ) [TermExpr]
                                    ) [AssignementExpr]
                                  ) [DesignStatAssignment]
                                ) [StatementDes]
                              ) [StatementList_NoEps]
                              StatementDes(
                                DesignStatAssignment(
                                  Designator(
                                   bodovi
                                    DesDerived1(
                                    ) [DesDerived1]
                                  ) [Designator]
                                  AssignementExpr(
                                    TermExpr(
                                      TermMulop(
                                        TermFact(
                                          FactorDesign(
                                            Designator(
                                             niz
                                              DesExpr(
                                                TermExpr(
                                                  TermFact(
                                                    FactorConst(
                                                      ConstNum(
                                                       1
                                                      ) [ConstNum]
                                                    ) [FactorConst]
                                                  ) [TermFact]
                                                ) [TermExpr]
                                              ) [DesExpr]
                                            ) [Designator]
                                          ) [FactorDesign]
                                        ) [TermFact]
                                        Divop(
                                        ) [Divop]
                                        FactorDesign(
                                          Designator(
                                           niz
                                            DesExpr(
                                              TermExpr(
                                                TermFact(
                                                  FactorConst(
                                                    ConstNum(
                                                     0
                                                    ) [ConstNum]
                                                  ) [FactorConst]
                                                ) [TermFact]
                                              ) [TermExpr]
                                            ) [DesExpr]
                                          ) [Designator]
                                        ) [FactorDesign]
                                      ) [TermMulop]
                                    ) [TermExpr]
                                  ) [AssignementExpr]
                                ) [DesignStatAssignment]
                              ) [StatementDes]
                            ) [StatementList_NoEps]
                            StatPrint(
                              TermExpr(
                                TermFact(
                                  FactorDesign(
                                    Designator(
                                     bodovi
                                      DesDerived1(
                                      ) [DesDerived1]
                                    ) [Designator]
                                  ) [FactorDesign]
                                ) [TermFact]
                              ) [TermExpr]
                            ) [StatPrint]
                          ) [StatementList_NoEps]
                          StatementDes(
                            DesignStatAssignment(
                              Designator(
                               nizch
                                DesDerived1(
                                ) [DesDerived1]
                              ) [Designator]
                              AssignementExpr(
                                TermExpr(
                                  TermFact(
                                    FactorNewConst(
                                      Type(
                                       char
                                      ) [Type]
                                      TermExpr(
                                        TermFact(
                                          FactorConst(
                                            ConstNum(
                                             3
                                            ) [ConstNum]
                                          ) [FactorConst]
                                        ) [TermFact]
                                      ) [TermExpr]
                                    ) [FactorNewConst]
                                  ) [TermFact]
                                ) [TermExpr]
                              ) [AssignementExpr]
                            ) [DesignStatAssignment]
                          ) [StatementDes]
                        ) [StatementList_NoEps]
                        StatementDes(
                          DesignStatAssignment(
                            Designator(
                             nizch
                              DesExpr(
                                TermExpr(
                                  TermFact(
                                    FactorConst(
                                      ConstNum(
                                       0
                                      ) [ConstNum]
                                    ) [FactorConst]
                                  ) [TermFact]
                                ) [TermExpr]
                              ) [DesExpr]
                            ) [Designator]
                            AssignementExpr(
                              TermExpr(
                                TermFact(
                                  FactorConst(
                                    ConstChar(
                                     a
                                    ) [ConstChar]
                                  ) [FactorConst]
                                ) [TermFact]
                              ) [TermExpr]
                            ) [AssignementExpr]
                          ) [DesignStatAssignment]
                        ) [StatementDes]
                      ) [StatementList_NoEps]
                      StatementDes(
                        DesignStatAssignment(
                          Designator(
                           nizch
                            DesExpr(
                              TermExpr(
                                TermFact(
                                  FactorDesign(
                                    Designator(
                                     jedan
                                      DesDerived1(
                                      ) [DesDerived1]
                                    ) [Designator]
                                  ) [FactorDesign]
                                ) [TermFact]
                              ) [TermExpr]
                            ) [DesExpr]
                          ) [Designator]
                          AssignementExpr(
                            TermExpr(
                              TermFact(
                                FactorConst(
                                  ConstChar(
                                   b
                                  ) [ConstChar]
                                ) [FactorConst]
                              ) [TermFact]
                            ) [TermExpr]
                          ) [AssignementExpr]
                        ) [DesignStatAssignment]
                      ) [StatementDes]
                    ) [StatementList_NoEps]
                    StatementDes(
                      DesignStatAssignment(
                        Designator(
                         nizch
                          DesExpr(
                            AddopExp(
                              TermExpr(
                                TermFact(
                                  FactorDesign(
                                    Designator(
                                     pet
                                      DesDerived1(
                                      ) [DesDerived1]
                                    ) [Designator]
                                  ) [FactorDesign]
                                ) [TermFact]
                              ) [TermExpr]
                              Subop(
                              ) [Subop]
                              TermFact(
                                FactorConst(
                                  ConstNum(
                                   3
                                  ) [ConstNum]
                                ) [FactorConst]
                              ) [TermFact]
                            ) [AddopExp]
                          ) [DesExpr]
                        ) [Designator]
                        AssignementExpr(
                          TermExpr(
                            TermFact(
                              FactorConst(
                                ConstChar(
                                 c
                                ) [ConstChar]
                              ) [FactorConst]
                            ) [TermFact]
                          ) [TermExpr]
                        ) [AssignementExpr]
                      ) [DesignStatAssignment]
                    ) [StatementDes]
                  ) [StatementList_NoEps]
                  StatPrint(
                    TermExpr(
                      TermFact(
                        FactorDesign(
                          Designator(
                           nizch
                            DesExpr(
                              AddopExp(
                                TermExpr(
                                  TermFact(
                                    FactorConst(
                                      ConstNum(
                                       2
                                      ) [ConstNum]
                                    ) [FactorConst]
                                  ) [TermFact]
                                ) [TermExpr]
                                Subop(
                                ) [Subop]
                                TermFact(
                                  FactorConst(
                                    ConstNum(
                                     1
                                    ) [ConstNum]
                                  ) [FactorConst]
                                ) [TermFact]
                              ) [AddopExp]
                            ) [DesExpr]
                          ) [Designator]
                        ) [FactorDesign]
                      ) [TermFact]
                    ) [TermExpr]
                  ) [StatPrint]
                ) [StatementList_NoEps]
                StatPrint(
                  TermExpr(
                    TermFact(
                      FactorDesign(
                        Designator(
                         nizch
                          DesExpr(
                            TermExpr(
                              TermMulop(
                                TermFact(
                                  FactorDesign(
                                    Designator(
                                     jedan
                                      DesDerived1(
                                      ) [DesDerived1]
                                    ) [Designator]
                                  ) [FactorDesign]
                                ) [TermFact]
                                Mulop(
                                ) [Mulop]
                                FactorConst(
                                  ConstNum(
                                   2
                                  ) [ConstNum]
                                ) [FactorConst]
                              ) [TermMulop]
                            ) [TermExpr]
                          ) [DesExpr]
                        ) [Designator]
                      ) [FactorDesign]
                    ) [TermFact]
                  ) [TermExpr]
                ) [StatPrint]
              ) [StatementList_NoEps]
              StatementDes(
                DesignStatAssignment(
                  Designator(
                   bodovi
                    DesDerived1(
                    ) [DesDerived1]
                  ) [Designator]
                  AssignementExpr(
                    AddopExp(
                      TermExpr(
                        TermFact(
                          FactorDesign(
                            Designator(
                             bodovi
                              DesDerived1(
                              ) [DesDerived1]
                            ) [Designator]
                          ) [FactorDesign]
                        ) [TermFact]
                      ) [TermExpr]
                      Addop(
                      ) [Addop]
                      TermFact(
                        FactorExpr(
                          AddopExp(
                            AddopExp(
                              TermExpr(
                                TermMulop(
                                  TermFact(
                                    FactorExpr(
                                      AddopExp(
                                        TermExpr(
                                          TermMulop(
                                            TermFact(
                                              FactorDesign(
                                                Designator(
                                                 pet
                                                  DesDerived1(
                                                  ) [DesDerived1]
                                                ) [Designator]
                                              ) [FactorDesign]
                                            ) [TermFact]
                                            Mulop(
                                            ) [Mulop]
                                            FactorDesign(
                                              Designator(
                                               jedan
                                                DesDerived1(
                                                ) [DesDerived1]
                                              ) [Designator]
                                            ) [FactorDesign]
                                          ) [TermMulop]
                                        ) [TermExpr]
                                        Subop(
                                        ) [Subop]
                                        TermFact(
                                          FactorConst(
                                            ConstNum(
                                             1
                                            ) [ConstNum]
                                          ) [FactorConst]
                                        ) [TermFact]
                                      ) [AddopExp]
                                    ) [FactorExpr]
                                  ) [TermFact]
                                  Mulop(
                                  ) [Mulop]
                                  FactorConst(
                                    ConstNum(
                                     2
                                    ) [ConstNum]
                                  ) [FactorConst]
                                ) [TermMulop]
                              ) [TermExpr]
                              Subop(
                              ) [Subop]
                              TermFact(
                                FactorExpr(
                                  AddopExp(
                                    AddopExp(
                                      TermExpr(
                                        TermMulop(
                                          TermFact(
                                            FactorConst(
                                              ConstNum(
                                               3
                                              ) [ConstNum]
                                            ) [FactorConst]
                                          ) [TermFact]
                                          Modop(
                                          ) [Modop]
                                          FactorConst(
                                            ConstNum(
                                             2
                                            ) [ConstNum]
                                          ) [FactorConst]
                                        ) [TermMulop]
                                      ) [TermExpr]
                                      Addop(
                                      ) [Addop]
                                      TermMulop(
                                        TermFact(
                                          FactorConst(
                                            ConstNum(
                                             3
                                            ) [ConstNum]
                                          ) [FactorConst]
                                        ) [TermFact]
                                        Mulop(
                                        ) [Mulop]
                                        FactorConst(
                                          ConstNum(
                                           2
                                          ) [ConstNum]
                                        ) [FactorConst]
                                      ) [TermMulop]
                                    ) [AddopExp]
                                    Subop(
                                    ) [Subop]
                                    TermFact(
                                      FactorConst(
                                        ConstNum(
                                         3
                                        ) [ConstNum]
                                      ) [FactorConst]
                                    ) [TermFact]
                                  ) [AddopExp]
                                ) [FactorExpr]
                              ) [TermFact]
                            ) [AddopExp]
                            Subop(
                            ) [Subop]
                            TermMulop(
                              TermFact(
                                FactorDesign(
                                  Designator(
                                   Broj
                                    DesEnum(
                                     JEDAN
                                    ) [DesEnum]
                                  ) [Designator]
                                ) [FactorDesign]
                              ) [TermFact]
                              Mulop(
                              ) [Mulop]
                              FactorConst(
                                ConstNum(
                                 0
                                ) [ConstNum]
                              ) [FactorConst]
                            ) [TermMulop]
                          ) [AddopExp]
                        ) [FactorExpr]
                      ) [TermFact]
                    ) [AddopExp]
                  ) [AssignementExpr]
                ) [DesignStatAssignment]
              ) [StatementDes]
            ) [StatementList_NoEps]
            StatPrint(
              TermExpr(
                TermFact(
                  FactorDesign(
                    Designator(
                     bodovi
                      DesDerived1(
                      ) [DesDerived1]
                    ) [Designator]
                  ) [FactorDesign]
                ) [TermFact]
              ) [TermExpr]
            ) [StatPrint]
          ) [StatementList_NoEps]
          StatRead(
            Designator(
             bodovi
              DesDerived1(
              ) [DesDerived1]
            ) [Designator]
          ) [StatRead]
        ) [StatementList_NoEps]
        StatementDes(
          DesignStatAssignment(
            Designator(
             bodovi
              DesDerived1(
              ) [DesDerived1]
            ) [Designator]
            AssignementExpr(
              AddopExp(
                TermExpr(
                  TermFact(
                    FactorDesign(
                      Designator(
                       bodovi
                        DesDerived1(
                        ) [DesDerived1]
                      ) [Designator]
                    ) [FactorDesign]
                  ) [TermFact]
                ) [TermExpr]
                Addop(
                ) [Addop]
                TermFact(
                  FactorConst(
                    ConstNum(
                     1
                    ) [ConstNum]
                  ) [FactorConst]
                ) [TermFact]
              ) [AddopExp]
            ) [AssignementExpr]
          ) [DesignStatAssignment]
        ) [StatementDes]
      ) [StatementList_NoEps]
      StatPrint(
        TermExpr(
          TermFact(
            FactorDesign(
              Designator(
               bodovi
                DesDerived1(
                ) [DesDerived1]
              ) [Designator]
            ) [FactorDesign]
          ) [TermFact]
        ) [TermExpr]
      ) [StatPrint]
    ) [StatementList_NoEps]
  ) [MethodDecl]
) [Program]
INFO  11:42:59,158 - ===================================
INFO  11:42:59,174 - Deklarisan novi enum tip Broj na liniji 5
INFO  11:42:59,174 - Deklarisana konstanta 'jedan' na liniji 7
INFO  11:42:59,174 - Deklarisana konstanta 'pet' na liniji 8
INFO  11:42:59,174 - Deklarisana promenljiva niza niz na liniji 10
INFO  11:42:59,174 - Deklarisana promenljiva niza nizch na liniji 11
INFO  11:42:59,174 - Obradjuje se funkcija main na liniji 14
INFO  11:42:59,174 - Deklarisana promenljiva bodovi na liniji 15
INFO  11:42:59,174 - Deklarisana promenljiva nula na liniji 16
INFO  11:42:59,174 - Deklarisana promenljiva jedan na liniji 16
INFO  11:42:59,174 - Deklarisana promenljiva proba na liniji 17
ERROR 11:42:59,174 - Greska na 23: bodovi nije promenljiva
