INFO  16:49:41,344 - Compiling source file: C:\Users\ikadr\Desktop\PP\Projekat\Rad\workspace\MJCompiler\test\program.mj
INFO  16:49:41,345 - ===============SINTAKSNA OBRADA====================
INFO  16:49:41,424 - #2 program
INFO  16:49:41,425 - #29 test301
INFO  16:49:41,425 - #17 {
INFO  16:49:41,429 - #6 void
INFO  16:49:41,429 - #29 main
INFO  16:49:41,430 - #13 (
INFO  16:49:41,430 - #14 )
INFO  16:49:41,430 - #29 int
INFO  16:49:41,432 - #29 bodovi
INFO  16:49:41,434 - #12 ,
INFO  16:49:41,434 - #29 x
INFO  16:49:41,434 - #12 ,
INFO  16:49:41,434 - #29 y
INFO  16:49:41,434 - #10 ;
INFO  16:49:41,434 - #17 {
INFO  16:49:41,435 - #29 bodovi
INFO  16:49:41,437 - #11 =
INFO  16:49:41,437 - #28 0
INFO  16:49:41,437 - #10 ;
INFO  16:49:41,458 - #29 bodovi
INFO  16:49:41,458 - #20 ++
INFO  16:49:41,458 - #10 ;
INFO  16:49:41,458 - #29 y
INFO  16:49:41,458 - #11 =
INFO  16:49:41,459 - #28 2
INFO  16:49:41,459 - #10 ;
INFO  16:49:41,459 - #29 x
INFO  16:49:41,459 - #11 =
INFO  16:49:41,459 - #29 y
INFO  16:49:41,459 - #27 @
INFO  16:49:41,460 - #29 y
INFO  16:49:41,463 - #10 ;
INFO  16:49:41,463 - #4 print
INFO  16:49:41,463 - #13 (
INFO  16:49:41,463 - #29 x
INFO  16:49:41,463 - #14 )
INFO  16:49:41,463 - #10 ;
INFO  16:49:41,464 - #18 }
INFO  16:49:41,464 - #18 }
INFO  16:49:41,481 - Program(
  ProgName(
   test301
  ) [ProgName]
  GlobalDeclListEps(
  ) [GlobalDeclListEps]
  MethodDecl(
    MethodSignature(
      VoidableType(
      ) [VoidableType]
     main
    ) [MethodSignature]
    VarMethodDeclList_NoEps(
      VarMethodDeclList_Eps(
      ) [VarMethodDeclList_Eps]
      VarDecl(
        Type(
         int
        ) [Type]
        VarDeclListL(
          VarDeclListL(
            VarDeclItem(
              VarDeclDefineSingle(
               bodovi
              ) [VarDeclDefineSingle]
            ) [VarDeclItem]
            VarDeclDefineSingle(
             x
            ) [VarDeclDefineSingle]
          ) [VarDeclListL]
          VarDeclDefineSingle(
           y
          ) [VarDeclDefineSingle]
        ) [VarDeclListL]
      ) [VarDecl]
    ) [VarMethodDeclList_NoEps]
    StatementList_NoEps(
      StatementList_NoEps(
        StatementList_NoEps(
          StatementList_NoEps(
            StatementList_NoEps(
              StatementList_Eps(
              ) [StatementList_Eps]
              StatementDes(
                DesignStatAssignment(
                  DesIdent(
                   bodovi
                  ) [DesIdent]
                  AssignementExpr(
                    TermExpr(
                      TermFact(
                        FactorConst(
                          ConstNum(
                           0
                          ) [ConstNum]
                        ) [FactorConst]
                      ) [TermFact]
                    ) [TermExpr]
                  ) [AssignementExpr]
                ) [DesignStatAssignment]
              ) [StatementDes]
            ) [StatementList_NoEps]
            StatementDes(
              DesignStatInc(
                DesIdent(
                 bodovi
                ) [DesIdent]
              ) [DesignStatInc]
            ) [StatementDes]
          ) [StatementList_NoEps]
          StatementDes(
            DesignStatAssignment(
              DesIdent(
               y
              ) [DesIdent]
              AssignementExpr(
                TermExpr(
                  TermFact(
                    FactorConst(
                      ConstNum(
                       2
                      ) [ConstNum]
                    ) [FactorConst]
                  ) [TermFact]
                ) [TermExpr]
              ) [AssignementExpr]
            ) [DesignStatAssignment]
          ) [StatementDes]
        ) [StatementList_NoEps]
        StatementDes(
          DesignStatAssignment(
            DesIdent(
             x
            ) [DesIdent]
            AssignementExpr(
              TermExpr(
                TermMulop(
                  TermFact(
                    FactorDesign(
                      DesIdent(
                       y
                      ) [DesIdent]
                    ) [FactorDesign]
                  ) [TermFact]
                  Mulop_Et(
                  ) [Mulop_Et]
                  FactorDesign(
                    DesIdent(
                     y
                    ) [DesIdent]
                  ) [FactorDesign]
                ) [TermMulop]
              ) [TermExpr]
            ) [AssignementExpr]
          ) [DesignStatAssignment]
        ) [StatementDes]
      ) [StatementList_NoEps]
      StatPrint(
        TermExpr(
          TermFact(
            FactorDesign(
              DesIdent(
               x
              ) [DesIdent]
            ) [FactorDesign]
          ) [TermFact]
        ) [TermExpr]
      ) [StatPrint]
    ) [StatementList_NoEps]
  ) [MethodDecl]
) [Program]
INFO  16:49:41,482 - ===============SEMANTICKA OBRADA====================
INFO  16:49:41,487 - Obradjuje se funkcija main na liniji 8
INFO  16:49:41,488 - Deklarisana promenljiva bodovi tipa 1 na liniji 9
INFO  16:49:41,488 - Deklarisana promenljiva x tipa 1 na liniji 9
INFO  16:49:41,488 - Deklarisana promenljiva y tipa 1 na liniji 9
INFO  16:49:41,488 - Dodeljenja vrednost: 1 je design,1 je assign
INFO  16:49:41,488 - Inkrementirana vrednost
INFO  16:49:41,488 - Dodeljenja vrednost: 1 je design,1 je assign
INFO  16:49:41,488 - Dodeljenja vrednost: 1 je design,1 je assign
INFO  16:49:41,488 - Print funkcija na liniji 17
INFO  16:49:41,488 -  Print count calls = 1
INFO  16:49:41,488 -  Deklarisanih promenljivih ima = 3
INFO  16:49:41,490 - Parsiranje uspesno zavrseno!
