INFO  16:41:27,841 - Compiling source file: C:\Users\ikadr\Desktop\PP\Projekat\Rad\workspace\MJCompiler\test\program.mj
INFO  16:41:27,904 - #2 program
INFO  16:41:27,904 - #28 test301
INFO  16:41:27,904 - #9 enum
INFO  16:41:27,906 - #28 Broj
INFO  16:41:27,906 - #17 {
INFO  16:41:27,906 - #28 NULA
INFO  16:41:27,906 - #12 ,
INFO  16:41:27,907 - #28 JEDAN
INFO  16:41:27,907 - #12 ,
INFO  16:41:27,907 - #28 PET
INFO  16:41:27,907 - #11 =
INFO  16:41:27,907 - #27 5
INFO  16:41:27,907 - #12 ,
INFO  16:41:27,908 - #28 DESET
INFO  16:41:27,908 - #11 =
INFO  16:41:27,908 - #27 10
INFO  16:41:27,908 - #18 }
INFO  16:41:27,908 - #28 int
INFO  16:41:27,910 - #28 niz
INFO  16:41:27,912 - #15 [
INFO  16:41:27,912 - #16 ]
INFO  16:41:27,912 - #10 ;
INFO  16:41:27,912 - #17 {
INFO  16:41:27,914 - #6 void
INFO  16:41:27,914 - #28 main
INFO  16:41:27,915 - #13 (
INFO  16:41:27,915 - #14 )
INFO  16:41:27,915 - #17 {
INFO  16:41:27,917 - #28 niz
INFO  16:41:27,918 - #11 =
INFO  16:41:27,920 - #5 new
INFO  16:41:27,920 - #28 int
INFO  16:41:27,920 - #15 [
INFO  16:41:27,921 - #27 2
INFO  16:41:27,921 - #16 ]
INFO  16:41:27,921 - #10 ;
INFO  16:41:27,921 - #18 }
INFO  16:41:27,922 - #18 }
INFO  16:41:27,937 - Program(
  ProgName(
   test301
  ) [ProgName]
  GlobalDeclListL(
    GlobalDeclListL(
      GlobalDeclListEps(
      ) [GlobalDeclListEps]
      GlobalDeclEnum(
        EnumDecl(
         Broj
          EnumDeclListL(
            EnumDeclListL(
              EnumDeclListL(
                EnumDeclItem(
                  EnumDeclDefNoVal(
                   NULA
                  ) [EnumDeclDefNoVal]
                ) [EnumDeclItem]
                EnumDeclDefNoVal(
                 JEDAN
                ) [EnumDeclDefNoVal]
              ) [EnumDeclListL]
              EnumDeclDefVal(
               PET
               5
              ) [EnumDeclDefVal]
            ) [EnumDeclListL]
            EnumDeclDefVal(
             DESET
             10
            ) [EnumDeclDefVal]
          ) [EnumDeclListL]
        ) [EnumDecl]
      ) [GlobalDeclEnum]
    ) [GlobalDeclListL]
    GlobalDeclVar(
      GlobalVarDecl(
        Type(
         int
        ) [Type]
        GlobalVarDeclItem(
          GlobalVarDeclDefOk(
            VarDeclDefineArray(
             niz
            ) [VarDeclDefineArray]
          ) [GlobalVarDeclDefOk]
        ) [GlobalVarDeclItem]
      ) [GlobalVarDecl]
    ) [GlobalDeclVar]
  ) [GlobalDeclListL]
  MethodDecl(
    MethodSignature(
      VoidableType(
      ) [VoidableType]
     main
    ) [MethodSignature]
    VarMethodDeclList_Eps(
    ) [VarMethodDeclList_Eps]
    StatementList_NoEps(
      StatementList_Eps(
      ) [StatementList_Eps]
      StatementDes(
        DesignStatAssignment(
          Designator(
            ArrayInd(
            ) [ArrayInd]
           niz
            DesDerived1(
            ) [DesDerived1]
          ) [Designator]
          AssignementExpr(
            TermExpr(
              TermFact(
                FactorNewArr(
                  Type(
                   int
                  ) [Type]
                  TermExpr(
                    TermFact(
                      FactorConst(
                        ConstNum(
                         2
                        ) [ConstNum]
                      ) [FactorConst]
                    ) [TermFact]
                  ) [TermExpr]
                ) [FactorNewArr]
              ) [TermFact]
            ) [TermExpr]
          ) [AssignementExpr]
        ) [DesignStatAssignment]
      ) [StatementDes]
    ) [StatementList_NoEps]
  ) [MethodDecl]
) [Program]
INFO  16:41:27,938 - ===================================
INFO  16:41:27,941 - Deklarisan novi enum tip Broj na liniji 5
INFO  16:41:27,941 - Deklarisana promenljiva niza niz tipa 1 na liniji 6
INFO  16:41:27,942 - Obradjuje se funkcija main na liniji 8
INFO  16:41:27,942 - kind niza u newArr je3, a elemenata 1
INFO  16:41:27,942 -  Print count calls = 0
INFO  16:41:27,942 -  Deklarisanih promenljivih ima = 0
INFO  16:41:27,949 - Parsiranje uspesno zavrseno!
INFO  16:41:27,949 - GENERATOR:3
