INFO  17:00:08,909 - Compiling source file: C:\Users\ikadr\Desktop\PP\Projekat\Rad\workspace\MJCompiler\test\program.mj
INFO  17:00:08,910 - ===============SINTAKSNA OBRADA====================
INFO  17:00:08,974 - #2 program
INFO  17:00:08,974 - #29 test301
INFO  17:00:08,974 - #17 {
INFO  17:00:08,976 - #6 void
INFO  17:00:08,976 - #29 main
INFO  17:00:08,978 - #13 (
INFO  17:00:08,978 - #14 )
INFO  17:00:08,978 - #29 int
INFO  17:00:08,981 - #29 bodovi
INFO  17:00:08,983 - #12 ,
INFO  17:00:08,983 - #29 x
INFO  17:00:08,983 - #12 ,
INFO  17:00:08,984 - #29 y
INFO  17:00:08,984 - #12 ,
INFO  17:00:08,984 - #29 z
INFO  17:00:08,984 - #10 ;
INFO  17:00:08,984 - #17 {
INFO  17:00:08,986 - #29 bodovi
INFO  17:00:08,987 - #11 =
INFO  17:00:08,989 - #28 0
INFO  17:00:08,989 - #10 ;
INFO  17:00:08,990 - #29 bodovi
INFO  17:00:08,990 - #20 ++
INFO  17:00:08,990 - #10 ;
INFO  17:00:08,991 - #29 y
INFO  17:00:08,991 - #11 =
INFO  17:00:08,991 - #28 2
INFO  17:00:08,991 - #10 ;
INFO  17:00:08,991 - #29 z
INFO  17:00:08,991 - #11 =
INFO  17:00:08,991 - #28 4
INFO  17:00:08,991 - #10 ;
INFO  17:00:08,991 - #29 x
INFO  17:00:08,991 - #11 =
INFO  17:00:08,992 - #29 z
INFO  17:00:08,992 - #27 @
INFO  17:00:08,992 - #29 y
INFO  17:00:08,994 - #10 ;
INFO  17:00:08,994 - #4 print
INFO  17:00:08,994 - #13 (
INFO  17:00:08,994 - #29 x
INFO  17:00:08,994 - #14 )
INFO  17:00:08,994 - #10 ;
INFO  17:00:08,995 - #18 }
INFO  17:00:08,995 - #18 }
INFO  17:00:09,013 - Program(
  ProgName(
   test301
  ) [ProgName]
  GlobalDeclListEps(
  ) [GlobalDeclListEps]
  MethodDecl(
    MethodSignature(
      VoidableType(
      ) [VoidableType]
     main
    ) [MethodSignature]
    VarMethodDeclList_NoEps(
      VarMethodDeclList_Eps(
      ) [VarMethodDeclList_Eps]
      VarDecl(
        Type(
         int
        ) [Type]
        VarDeclListL(
          VarDeclListL(
            VarDeclListL(
              VarDeclItem(
                VarDeclDefineSingle(
                 bodovi
                ) [VarDeclDefineSingle]
              ) [VarDeclItem]
              VarDeclDefineSingle(
               x
              ) [VarDeclDefineSingle]
            ) [VarDeclListL]
            VarDeclDefineSingle(
             y
            ) [VarDeclDefineSingle]
          ) [VarDeclListL]
          VarDeclDefineSingle(
           z
          ) [VarDeclDefineSingle]
        ) [VarDeclListL]
      ) [VarDecl]
    ) [VarMethodDeclList_NoEps]
    StatementList_NoEps(
      StatementList_NoEps(
        StatementList_NoEps(
          StatementList_NoEps(
            StatementList_NoEps(
              StatementList_NoEps(
                StatementList_Eps(
                ) [StatementList_Eps]
                StatementDes(
                  DesignStatAssignment(
                    DesIdent(
                     bodovi
                    ) [DesIdent]
                    AssignementExpr(
                      TermExpr(
                        TermFact(
                          FactorConst(
                            ConstNum(
                             0
                            ) [ConstNum]
                          ) [FactorConst]
                        ) [TermFact]
                      ) [TermExpr]
                    ) [AssignementExpr]
                  ) [DesignStatAssignment]
                ) [StatementDes]
              ) [StatementList_NoEps]
              StatementDes(
                DesignStatInc(
                  DesIdent(
                   bodovi
                  ) [DesIdent]
                ) [DesignStatInc]
              ) [StatementDes]
            ) [StatementList_NoEps]
            StatementDes(
              DesignStatAssignment(
                DesIdent(
                 y
                ) [DesIdent]
                AssignementExpr(
                  TermExpr(
                    TermFact(
                      FactorConst(
                        ConstNum(
                         2
                        ) [ConstNum]
                      ) [FactorConst]
                    ) [TermFact]
                  ) [TermExpr]
                ) [AssignementExpr]
              ) [DesignStatAssignment]
            ) [StatementDes]
          ) [StatementList_NoEps]
          StatementDes(
            DesignStatAssignment(
              DesIdent(
               z
              ) [DesIdent]
              AssignementExpr(
                TermExpr(
                  TermFact(
                    FactorConst(
                      ConstNum(
                       4
                      ) [ConstNum]
                    ) [FactorConst]
                  ) [TermFact]
                ) [TermExpr]
              ) [AssignementExpr]
            ) [DesignStatAssignment]
          ) [StatementDes]
        ) [StatementList_NoEps]
        StatementDes(
          DesignStatAssignment(
            DesIdent(
             x
            ) [DesIdent]
            AssignementExpr(
              TermExpr(
                TermMulop(
                  TermFact(
                    FactorDesign(
                      DesIdent(
                       z
                      ) [DesIdent]
                    ) [FactorDesign]
                  ) [TermFact]
                  Mulop_Et(
                  ) [Mulop_Et]
                  FactorDesign(
                    DesIdent(
                     y
                    ) [DesIdent]
                  ) [FactorDesign]
                ) [TermMulop]
              ) [TermExpr]
            ) [AssignementExpr]
          ) [DesignStatAssignment]
        ) [StatementDes]
      ) [StatementList_NoEps]
      StatPrint(
        TermExpr(
          TermFact(
            FactorDesign(
              DesIdent(
               x
              ) [DesIdent]
            ) [FactorDesign]
          ) [TermFact]
        ) [TermExpr]
      ) [StatPrint]
    ) [StatementList_NoEps]
  ) [MethodDecl]
) [Program]
INFO  17:00:09,014 - ===============SEMANTICKA OBRADA====================
INFO  17:00:09,020 - Obradjuje se funkcija main na liniji 8
INFO  17:00:09,020 - Deklarisana promenljiva bodovi tipa 1 na liniji 9
INFO  17:00:09,020 - Deklarisana promenljiva x tipa 1 na liniji 9
INFO  17:00:09,021 - Deklarisana promenljiva y tipa 1 na liniji 9
INFO  17:00:09,021 - Deklarisana promenljiva z tipa 1 na liniji 9
INFO  17:00:09,021 - Dodeljenja vrednost: 1 je design,1 je assign
INFO  17:00:09,021 - Inkrementirana vrednost
INFO  17:00:09,021 - Dodeljenja vrednost: 1 je design,1 je assign
INFO  17:00:09,021 - Dodeljenja vrednost: 1 je design,1 je assign
INFO  17:00:09,022 - Dodeljenja vrednost: 1 je design,1 je assign
INFO  17:00:09,022 - Print funkcija na liniji 18
INFO  17:00:09,022 -  Print count calls = 1
INFO  17:00:09,022 -  Deklarisanih promenljivih ima = 4
INFO  17:00:09,033 - 
INFO  17:00:09,034 - Parsiranje uspesno zavrseno!
