INFO  12:58:24,801 - Compiling source file: C:\Users\ikadr\Desktop\PP\Projekat\Rad\workspace\MJCompiler\test\program.mj
INFO  12:58:24,864 - #2 program
INFO  12:58:24,864 - #28 test301
INFO  12:58:24,864 - #9 enum
INFO  12:58:24,864 - #28 Broj
INFO  12:58:24,864 - #17 {
INFO  12:58:24,864 - #28 NULA
INFO  12:58:24,864 - #12 ,
INFO  12:58:24,864 - #28 JEDAN
INFO  12:58:24,864 - #12 ,
INFO  12:58:24,864 - #28 PET
INFO  12:58:24,864 - #11 =
INFO  12:58:24,864 - #27 5
INFO  12:58:24,864 - #12 ,
INFO  12:58:24,864 - #28 DESET
INFO  12:58:24,864 - #11 =
INFO  12:58:24,864 - #27 10
INFO  12:58:24,864 - #18 }
INFO  12:58:24,864 - #28 int
INFO  12:58:24,864 - #28 niz
INFO  12:58:24,879 - #15 [
INFO  12:58:24,879 - #16 ]
INFO  12:58:24,879 - #10 ;
INFO  12:58:24,879 - #17 {
INFO  12:58:24,879 - #6 void
INFO  12:58:24,879 - #28 main
INFO  12:58:24,879 - #13 (
INFO  12:58:24,879 - #14 )
INFO  12:58:24,879 - #28 int
INFO  12:58:24,879 - #28 x
INFO  12:58:24,879 - #12 ,
INFO  12:58:24,879 - #28 y
INFO  12:58:24,879 - #12 ,
INFO  12:58:24,879 - #28 z
INFO  12:58:24,879 - #10 ;
INFO  12:58:24,879 - #28 Broj
INFO  12:58:24,879 - #28 pet
INFO  12:58:24,879 - #10 ;
INFO  12:58:24,879 - #17 {
INFO  12:58:24,879 - #28 pet
INFO  12:58:24,879 - #11 =
INFO  12:58:24,879 - #28 Broj
INFO  12:58:24,879 - #19 .
INFO  12:58:24,879 - #28 JEDAN
INFO  12:58:24,879 - #10 ;
INFO  12:58:24,879 - #28 x
INFO  12:58:24,879 - #11 =
INFO  12:58:24,879 - #27 7
INFO  12:58:24,879 - #10 ;
INFO  12:58:24,879 - #28 y
INFO  12:58:24,879 - #11 =
INFO  12:58:24,879 - #27 5
INFO  12:58:24,879 - #10 ;
INFO  12:58:24,879 - #28 z
INFO  12:58:24,879 - #11 =
INFO  12:58:24,879 - #28 pet
INFO  12:58:24,895 - #23 +
INFO  12:58:24,895 - #28 x
INFO  12:58:24,895 - #10 ;
INFO  12:58:24,895 - #4 print
INFO  12:58:24,895 - #13 (
INFO  12:58:24,895 - #29 a
INFO  12:58:24,895 - #14 )
INFO  12:58:24,895 - #10 ;
INFO  12:58:24,895 - #4 print
INFO  12:58:24,895 - #13 (
INFO  12:58:24,895 - #28 y
INFO  12:58:24,895 - #14 )
INFO  12:58:24,895 - #10 ;
INFO  12:58:24,895 - #4 print
INFO  12:58:24,895 - #13 (
INFO  12:58:24,895 - #28 z
INFO  12:58:24,895 - #14 )
INFO  12:58:24,895 - #10 ;
INFO  12:58:24,895 - #28 x
INFO  12:58:24,895 - #21 --
INFO  12:58:24,895 - #10 ;
INFO  12:58:24,895 - #4 print
INFO  12:58:24,895 - #13 (
INFO  12:58:24,895 - #28 x
INFO  12:58:24,895 - #14 )
INFO  12:58:24,895 - #10 ;
INFO  12:58:24,895 - #18 }
INFO  12:58:24,895 - #18 }
INFO  12:58:24,910 - Program(
  ProgName(
   test301
  ) [ProgName]
  GlobalDeclListL(
    GlobalDeclListL(
      GlobalDeclListEps(
      ) [GlobalDeclListEps]
      GlobalDeclEnum(
        EnumDecl(
         Broj
          EnumDeclListL(
            EnumDeclListL(
              EnumDeclListL(
                EnumDeclItem(
                  EnumDeclDefNoVal(
                   NULA
                  ) [EnumDeclDefNoVal]
                ) [EnumDeclItem]
                EnumDeclDefNoVal(
                 JEDAN
                ) [EnumDeclDefNoVal]
              ) [EnumDeclListL]
              EnumDeclDefVal(
               PET
               5
              ) [EnumDeclDefVal]
            ) [EnumDeclListL]
            EnumDeclDefVal(
             DESET
             10
            ) [EnumDeclDefVal]
          ) [EnumDeclListL]
        ) [EnumDecl]
      ) [GlobalDeclEnum]
    ) [GlobalDeclListL]
    GlobalDeclVar(
      GlobalVarDecl(
        Type(
         int
        ) [Type]
        GlobalVarDeclItem(
          GlobalVarDeclDefOk(
            VarDeclDefineArray(
             niz
            ) [VarDeclDefineArray]
          ) [GlobalVarDeclDefOk]
        ) [GlobalVarDeclItem]
      ) [GlobalVarDecl]
    ) [GlobalDeclVar]
  ) [GlobalDeclListL]
  MethodDecl(
    MethodSignature(
      VoidableType(
      ) [VoidableType]
     main
    ) [MethodSignature]
    VarMethodDeclList_NoEps(
      VarMethodDeclList_NoEps(
        VarMethodDeclList_Eps(
        ) [VarMethodDeclList_Eps]
        VarDecl(
          Type(
           int
          ) [Type]
          VarDeclListL(
            VarDeclListL(
              VarDeclItem(
                VarDeclDefineSingle(
                 x
                ) [VarDeclDefineSingle]
              ) [VarDeclItem]
              VarDeclDefineSingle(
               y
              ) [VarDeclDefineSingle]
            ) [VarDeclListL]
            VarDeclDefineSingle(
             z
            ) [VarDeclDefineSingle]
          ) [VarDeclListL]
        ) [VarDecl]
      ) [VarMethodDeclList_NoEps]
      VarDecl(
        Type(
         Broj
        ) [Type]
        VarDeclItem(
          VarDeclDefineSingle(
           pet
          ) [VarDeclDefineSingle]
        ) [VarDeclItem]
      ) [VarDecl]
    ) [VarMethodDeclList_NoEps]
    StatementList_NoEps(
      StatementList_NoEps(
        StatementList_NoEps(
          StatementList_NoEps(
            StatementList_NoEps(
              StatementList_NoEps(
                StatementList_NoEps(
                  StatementList_NoEps(
                    StatementList_NoEps(
                      StatementList_Eps(
                      ) [StatementList_Eps]
                      StatementDes(
                        DesignStatAssignment(
                          Designator(
                           pet
                            DesDerived1(
                            ) [DesDerived1]
                          ) [Designator]
                          AssignementExpr(
                            TermExpr(
                              TermFact(
                                FactorDesign(
                                  Designator(
                                   Broj
                                    DesEnum(
                                     JEDAN
                                    ) [DesEnum]
                                  ) [Designator]
                                ) [FactorDesign]
                              ) [TermFact]
                            ) [TermExpr]
                          ) [AssignementExpr]
                        ) [DesignStatAssignment]
                      ) [StatementDes]
                    ) [StatementList_NoEps]
                    StatementDes(
                      DesignStatAssignment(
                        Designator(
                         x
                          DesDerived1(
                          ) [DesDerived1]
                        ) [Designator]
                        AssignementExpr(
                          TermExpr(
                            TermFact(
                              FactorConst(
                                ConstNum(
                                 7
                                ) [ConstNum]
                              ) [FactorConst]
                            ) [TermFact]
                          ) [TermExpr]
                        ) [AssignementExpr]
                      ) [DesignStatAssignment]
                    ) [StatementDes]
                  ) [StatementList_NoEps]
                  StatementDes(
                    DesignStatAssignment(
                      Designator(
                       y
                        DesDerived1(
                        ) [DesDerived1]
                      ) [Designator]
                      AssignementExpr(
                        TermExpr(
                          TermFact(
                            FactorConst(
                              ConstNum(
                               5
                              ) [ConstNum]
                            ) [FactorConst]
                          ) [TermFact]
                        ) [TermExpr]
                      ) [AssignementExpr]
                    ) [DesignStatAssignment]
                  ) [StatementDes]
                ) [StatementList_NoEps]
                StatementDes(
                  DesignStatAssignment(
                    Designator(
                     z
                      DesDerived1(
                      ) [DesDerived1]
                    ) [Designator]
                    AssignementExpr(
                      AddopExp(
                        TermExpr(
                          TermFact(
                            FactorDesign(
                              Designator(
                               pet
                                DesDerived1(
                                ) [DesDerived1]
                              ) [Designator]
                            ) [FactorDesign]
                          ) [TermFact]
                        ) [TermExpr]
                        Addop_Plus(
                        ) [Addop_Plus]
                        TermFact(
                          FactorDesign(
                            Designator(
                             x
                              DesDerived1(
                              ) [DesDerived1]
                            ) [Designator]
                          ) [FactorDesign]
                        ) [TermFact]
                      ) [AddopExp]
                    ) [AssignementExpr]
                  ) [DesignStatAssignment]
                ) [StatementDes]
              ) [StatementList_NoEps]
              StatPrint(
                TermExpr(
                  TermFact(
                    FactorConst(
                      ConstChar(
                       a
                      ) [ConstChar]
                    ) [FactorConst]
                  ) [TermFact]
                ) [TermExpr]
              ) [StatPrint]
            ) [StatementList_NoEps]
            StatPrint(
              TermExpr(
                TermFact(
                  FactorDesign(
                    Designator(
                     y
                      DesDerived1(
                      ) [DesDerived1]
                    ) [Designator]
                  ) [FactorDesign]
                ) [TermFact]
              ) [TermExpr]
            ) [StatPrint]
          ) [StatementList_NoEps]
          StatPrint(
            TermExpr(
              TermFact(
                FactorDesign(
                  Designator(
                   z
                    DesDerived1(
                    ) [DesDerived1]
                  ) [Designator]
                ) [FactorDesign]
              ) [TermFact]
            ) [TermExpr]
          ) [StatPrint]
        ) [StatementList_NoEps]
        StatementDes(
          DesignStatDec(
            Designator(
             x
              DesDerived1(
              ) [DesDerived1]
            ) [Designator]
          ) [DesignStatDec]
        ) [StatementDes]
      ) [StatementList_NoEps]
      StatPrint(
        TermExpr(
          TermFact(
            FactorDesign(
              Designator(
               x
                DesDerived1(
                ) [DesDerived1]
              ) [Designator]
            ) [FactorDesign]
          ) [TermFact]
        ) [TermExpr]
      ) [StatPrint]
    ) [StatementList_NoEps]
  ) [MethodDecl]
) [Program]
INFO  12:58:24,910 - ===================================
INFO  12:58:24,926 - Deklarisan novi enum tip Broj na liniji 5
INFO  12:58:24,926 - Deklarisana promenljiva niza niz tipa 1 na liniji 6
INFO  12:58:24,926 - Obradjuje se funkcija main na liniji 8
INFO  12:58:24,926 - Deklarisana promenljiva x tipa 1 na liniji 9
INFO  12:58:24,926 - Deklarisana promenljiva y tipa 1 na liniji 9
INFO  12:58:24,926 - Deklarisana promenljiva z tipa 1 na liniji 9
INFO  12:58:24,926 - Deklarisana promenljiva pet tipa 6 na liniji 10
INFO  12:58:24,926 - Dodeljenja vrednost: 6 je design,6 je assign
INFO  12:58:24,926 - Dodeljenja vrednost: 1 je design,1 je assign
INFO  12:58:24,926 - Dodeljenja vrednost: 1 je design,1 je assign
ERROR 12:58:24,926 - Greska: nekompatibilni tipovi u dodeli na liniji 19
ERROR 12:58:24,926 - 1 je kind designatora, 6 je kind assignmenta
INFO  12:58:24,926 - Dekrementirana vrednost
INFO  12:58:24,926 -  Print count calls = 4
INFO  12:58:24,926 -  Deklarisanih promenljivih ima = 4
ERROR 12:58:24,926 - Parsiranje NIJE uspesno zavrseno!
