INFO  12:35:54,479 - Compiling source file: C:\Users\ikadr\Desktop\PP\Projekat\Rad\workspace\MJCompiler\test\program.mj
INFO  12:35:54,480 - ===============SINTAKSNA OBRADA====================
INFO  12:35:54,546 - #2 program
INFO  12:35:54,546 - #29 test301
INFO  12:35:54,547 - #9 enum
INFO  12:35:54,549 - #29 Broj
INFO  12:35:54,549 - #17 {
INFO  12:35:54,551 - #29 NULA
INFO  12:35:54,551 - #12 ,
INFO  12:35:54,551 - #29 JEDAN
INFO  12:35:54,552 - #12 ,
INFO  12:35:54,552 - #29 PET
INFO  12:35:54,552 - #11 =
INFO  12:35:54,552 - #28 5
INFO  12:35:54,552 - #12 ,
INFO  12:35:54,552 - #29 DESET
INFO  12:35:54,552 - #11 =
INFO  12:35:54,553 - #28 10
INFO  12:35:54,553 - #18 }
INFO  12:35:54,553 - #8 const
INFO  12:35:54,554 - #29 int
INFO  12:35:54,554 - #29 jedan
INFO  12:35:54,555 - #11 =
INFO  12:35:54,555 - #28 1
INFO  12:35:54,556 - #10 ;
INFO  12:35:54,557 - #8 const
INFO  12:35:54,558 - #29 int
INFO  12:35:54,558 - #29 pet
INFO  12:35:54,558 - #11 =
INFO  12:35:54,558 - #28 5
INFO  12:35:54,558 - #10 ;
INFO  12:35:54,558 - #29 int
INFO  12:35:54,559 - #29 niz
INFO  12:35:54,559 - #15 [
INFO  12:35:54,559 - #16 ]
INFO  12:35:54,559 - #10 ;
INFO  12:35:54,559 - #29 char
INFO  12:35:54,560 - #29 nizch
INFO  12:35:54,560 - #15 [
INFO  12:35:54,560 - #16 ]
INFO  12:35:54,561 - #10 ;
INFO  12:35:54,561 - #17 {
INFO  12:35:54,561 - #6 void
INFO  12:35:54,561 - #29 main
INFO  12:35:54,562 - #13 (
INFO  12:35:54,562 - #14 )
INFO  12:35:54,562 - #29 int
INFO  12:35:54,564 - #29 bodovi
INFO  12:35:54,565 - #12 ,
INFO  12:35:54,565 - #29 x
INFO  12:35:54,565 - #10 ;
INFO  12:35:54,565 - #29 Broj
INFO  12:35:54,568 - #29 nula
INFO  12:35:54,568 - #12 ,
INFO  12:35:54,568 - #29 jedan
INFO  12:35:54,568 - #10 ;
INFO  12:35:54,568 - #17 {
INFO  12:35:54,569 - #29 nula
INFO  12:35:54,570 - #11 =
INFO  12:35:54,570 - #29 Broj
INFO  12:35:54,570 - #19 .
INFO  12:35:54,570 - #29 NULA
INFO  12:35:54,570 - #10 ;
INFO  12:35:54,571 - #29 jedan
INFO  12:35:54,571 - #11 =
INFO  12:35:54,571 - #29 Broj
INFO  12:35:54,571 - #19 .
INFO  12:35:54,571 - #29 JEDAN
INFO  12:35:54,571 - #10 ;
INFO  12:35:54,572 - #29 bodovi
INFO  12:35:54,572 - #11 =
INFO  12:35:54,572 - #28 7
INFO  12:35:54,572 - #10 ;
INFO  12:35:54,572 - #29 x
INFO  12:35:54,572 - #11 =
INFO  12:35:54,572 - #28 5
INFO  12:35:54,572 - #10 ;
INFO  12:35:54,573 - #29 bodovi
INFO  12:35:54,573 - #11 =
INFO  12:35:54,573 - #28 2
INFO  12:35:54,573 - #23 +
INFO  12:35:54,573 - #29 x
INFO  12:35:54,575 - #27 @
INFO  12:35:54,575 - #29 bodovi
INFO  12:35:54,578 - #22 -
INFO  12:35:54,578 - #28 5
INFO  12:35:54,579 - #24 *
INFO  12:35:54,579 - #28 6
INFO  12:35:54,580 - #10 ;
INFO  12:35:54,580 - #4 print
INFO  12:35:54,581 - #13 (
INFO  12:35:54,581 - #29 bodovi
INFO  12:35:54,581 - #14 )
INFO  12:35:54,581 - #10 ;
INFO  12:35:54,581 - #18 }
INFO  12:35:54,582 - #18 }
INFO  12:35:54,595 - Program(
  ProgName(
   test301
  ) [ProgName]
  GlobalDeclListL(
    GlobalDeclListL(
      GlobalDeclListL(
        GlobalDeclListL(
          GlobalDeclListL(
            GlobalDeclListEps(
            ) [GlobalDeclListEps]
            GlobalDeclEnum(
              EnumDecl(
                EnumName(
                 Broj
                ) [EnumName]
                EnumDeclListL(
                  EnumDeclListL(
                    EnumDeclListL(
                      EnumDeclItem(
                        EnumDeclDefNoVal(
                         NULA
                        ) [EnumDeclDefNoVal]
                      ) [EnumDeclItem]
                      EnumDeclDefNoVal(
                       JEDAN
                      ) [EnumDeclDefNoVal]
                    ) [EnumDeclListL]
                    EnumDeclDefVal(
                     PET
                     5
                    ) [EnumDeclDefVal]
                  ) [EnumDeclListL]
                  EnumDeclDefVal(
                   DESET
                   10
                  ) [EnumDeclDefVal]
                ) [EnumDeclListL]
              ) [EnumDecl]
            ) [GlobalDeclEnum]
          ) [GlobalDeclListL]
          GlobalDeclConst(
            ConstDecl(
              Type(
               int
              ) [Type]
              ConstDeclItem(
                ConstDef(
                 jedan
                  ConstNum(
                   1
                  ) [ConstNum]
                ) [ConstDef]
              ) [ConstDeclItem]
            ) [ConstDecl]
          ) [GlobalDeclConst]
        ) [GlobalDeclListL]
        GlobalDeclConst(
          ConstDecl(
            Type(
             int
            ) [Type]
            ConstDeclItem(
              ConstDef(
               pet
                ConstNum(
                 5
                ) [ConstNum]
              ) [ConstDef]
            ) [ConstDeclItem]
          ) [ConstDecl]
        ) [GlobalDeclConst]
      ) [GlobalDeclListL]
      GlobalDeclVar(
        GlobalVarDecl(
          Type(
           int
          ) [Type]
          GlobalVarDeclItem(
            GlobalVarDeclDefOk(
              VarDeclDefineArray(
               niz
              ) [VarDeclDefineArray]
            ) [GlobalVarDeclDefOk]
          ) [GlobalVarDeclItem]
        ) [GlobalVarDecl]
      ) [GlobalDeclVar]
    ) [GlobalDeclListL]
    GlobalDeclVar(
      GlobalVarDecl(
        Type(
         char
        ) [Type]
        GlobalVarDeclItem(
          GlobalVarDeclDefOk(
            VarDeclDefineArray(
             nizch
            ) [VarDeclDefineArray]
          ) [GlobalVarDeclDefOk]
        ) [GlobalVarDeclItem]
      ) [GlobalVarDecl]
    ) [GlobalDeclVar]
  ) [GlobalDeclListL]
  MethodDecl(
    MethodSignature(
      VoidableType(
      ) [VoidableType]
     main
    ) [MethodSignature]
    VarMethodDeclList_NoEps(
      VarMethodDeclList_NoEps(
        VarMethodDeclList_Eps(
        ) [VarMethodDeclList_Eps]
        VarDecl(
          Type(
           int
          ) [Type]
          VarDeclListL(
            VarDeclItem(
              VarDeclDefineSingle(
               bodovi
              ) [VarDeclDefineSingle]
            ) [VarDeclItem]
            VarDeclDefineSingle(
             x
            ) [VarDeclDefineSingle]
          ) [VarDeclListL]
        ) [VarDecl]
      ) [VarMethodDeclList_NoEps]
      VarDecl(
        Type(
         Broj
        ) [Type]
        VarDeclListL(
          VarDeclItem(
            VarDeclDefineSingle(
             nula
            ) [VarDeclDefineSingle]
          ) [VarDeclItem]
          VarDeclDefineSingle(
           jedan
          ) [VarDeclDefineSingle]
        ) [VarDeclListL]
      ) [VarDecl]
    ) [VarMethodDeclList_NoEps]
    StatementList_NoEps(
      StatementList_NoEps(
        StatementList_NoEps(
          StatementList_NoEps(
            StatementList_NoEps(
              StatementList_NoEps(
                StatementList_Eps(
                ) [StatementList_Eps]
                StatementDes(
                  DesignStatAssignment(
                    DesIdent(
                     nula
                    ) [DesIdent]
                    AssignementExpr(
                      TermExpr(
                        TermFact(
                          FactorDesign(
                            DesEnum(
                             Broj
                             NULA
                            ) [DesEnum]
                          ) [FactorDesign]
                        ) [TermFact]
                      ) [TermExpr]
                    ) [AssignementExpr]
                  ) [DesignStatAssignment]
                ) [StatementDes]
              ) [StatementList_NoEps]
              StatementDes(
                DesignStatAssignment(
                  DesIdent(
                   jedan
                  ) [DesIdent]
                  AssignementExpr(
                    TermExpr(
                      TermFact(
                        FactorDesign(
                          DesEnum(
                           Broj
                           JEDAN
                          ) [DesEnum]
                        ) [FactorDesign]
                      ) [TermFact]
                    ) [TermExpr]
                  ) [AssignementExpr]
                ) [DesignStatAssignment]
              ) [StatementDes]
            ) [StatementList_NoEps]
            StatementDes(
              DesignStatAssignment(
                DesIdent(
                 bodovi
                ) [DesIdent]
                AssignementExpr(
                  TermExpr(
                    TermFact(
                      FactorConst(
                        ConstNum(
                         7
                        ) [ConstNum]
                      ) [FactorConst]
                    ) [TermFact]
                  ) [TermExpr]
                ) [AssignementExpr]
              ) [DesignStatAssignment]
            ) [StatementDes]
          ) [StatementList_NoEps]
          StatementDes(
            DesignStatAssignment(
              DesIdent(
               x
              ) [DesIdent]
              AssignementExpr(
                TermExpr(
                  TermFact(
                    FactorConst(
                      ConstNum(
                       5
                      ) [ConstNum]
                    ) [FactorConst]
                  ) [TermFact]
                ) [TermExpr]
              ) [AssignementExpr]
            ) [DesignStatAssignment]
          ) [StatementDes]
        ) [StatementList_NoEps]
        StatementDes(
          DesignStatAssignment(
            DesIdent(
             bodovi
            ) [DesIdent]
            AssignementExpr(
              AddopExp(
                AddopExp(
                  TermExpr(
                    TermFact(
                      FactorConst(
                        ConstNum(
                         2
                        ) [ConstNum]
                      ) [FactorConst]
                    ) [TermFact]
                  ) [TermExpr]
                  Addop_Plus(
                  ) [Addop_Plus]
                  TermMulop(
                    TermFact(
                      FactorDesign(
                        DesIdent(
                         x
                        ) [DesIdent]
                      ) [FactorDesign]
                    ) [TermFact]
                    Mulop_Et(
                    ) [Mulop_Et]
                    FactorDesign(
                      DesIdent(
                       bodovi
                      ) [DesIdent]
                    ) [FactorDesign]
                  ) [TermMulop]
                ) [AddopExp]
                Addop_Minus(
                ) [Addop_Minus]
                TermMulop(
                  TermFact(
                    FactorConst(
                      ConstNum(
                       5
                      ) [ConstNum]
                    ) [FactorConst]
                  ) [TermFact]
                  Mulop_Mul(
                  ) [Mulop_Mul]
                  FactorConst(
                    ConstNum(
                     6
                    ) [ConstNum]
                  ) [FactorConst]
                ) [TermMulop]
              ) [AddopExp]
            ) [AssignementExpr]
          ) [DesignStatAssignment]
        ) [StatementDes]
      ) [StatementList_NoEps]
      StatPrint(
        TermExpr(
          TermFact(
            FactorDesign(
              DesIdent(
               bodovi
              ) [DesIdent]
            ) [FactorDesign]
          ) [TermFact]
        ) [TermExpr]
      ) [StatPrint]
    ) [StatementList_NoEps]
  ) [MethodDecl]
) [Program]
INFO  12:35:54,597 - ===============SEMANTICKA OBRADA====================
INFO  12:35:54,602 - Deklarisan novi enum tip Broj na liniji 5
INFO  12:35:54,602 - Deklarisana konstanta Broj.NULA unutar enuma Broj na liniji 5
INFO  12:35:54,602 - Deklarisana konstanta Broj.JEDAN unutar enuma Broj na liniji 5
INFO  12:35:54,602 - Deklarisana konstanta Broj.PET unutar enuma Broj na liniji 5
INFO  12:35:54,602 - Deklarisana konstanta Broj.DESET unutar enuma Broj na liniji 5
INFO  12:35:54,603 - Deklarisana konstanta 'jedan' na liniji 7
INFO  12:35:54,603 - Deklarisana konstanta 'pet' na liniji 8
INFO  12:35:54,603 - Deklarisana promenljiva niza 'niz' tipa 1 na liniji 10
INFO  12:35:54,603 - Deklarisana promenljiva niza 'nizch' tipa 2 na liniji 11
INFO  12:35:54,603 - Obradjuje se funkcija main na liniji 14
INFO  12:35:54,603 - Deklarisana promenljiva 'bodovi' tipa int na liniji 15
INFO  12:35:54,603 - Deklarisana promenljiva 'x' tipa int na liniji 15
INFO  12:35:54,604 - Deklarisana promenljiva 'nula' tipa Broj na liniji 16
INFO  12:35:54,604 - Deklarisana promenljiva 'jedan' tipa Broj na liniji 16
INFO  12:35:54,604 - Izvresna dodela vrednosti
INFO  12:35:54,604 - Izvresna dodela vrednosti
INFO  12:35:54,605 - Izvresna dodela vrednosti
INFO  12:35:54,605 - Print funkcija na liniji 27
INFO  12:35:54,605 -  Print count calls = 1
INFO  12:35:54,605 -  Deklarisanih promenljivih ima = 6
INFO  12:35:54,614 - 
INFO  12:35:54,614 - Parsiranje uspesno zavrseno!
