INFO  18:38:09,185 - Compiling source file: C:\Users\ikadr\Desktop\PP\Projekat\Rad\workspace\MJCompiler\test\program.mj
INFO  18:38:09,262 - #2 program
INFO  18:38:09,262 - #28 test301
INFO  18:38:09,263 - #9 enum
INFO  18:38:09,266 - #28 Broj
INFO  18:38:09,266 - #17 {
INFO  18:38:09,267 - #28 NULA
INFO  18:38:09,267 - #12 ,
INFO  18:38:09,268 - #28 JEDAN
INFO  18:38:09,268 - #12 ,
INFO  18:38:09,268 - #28 PET
INFO  18:38:09,268 - #11 =
INFO  18:38:09,268 - #27 5
INFO  18:38:09,268 - #12 ,
INFO  18:38:09,269 - #28 DESET
INFO  18:38:09,269 - #11 =
INFO  18:38:09,269 - #27 10
INFO  18:38:09,269 - #18 }
INFO  18:38:09,269 - #8 const
INFO  18:38:09,271 - #28 int
INFO  18:38:09,271 - #28 jedan
INFO  18:38:09,273 - #11 =
INFO  18:38:09,273 - #27 1
INFO  18:38:09,273 - #10 ;
INFO  18:38:09,275 - #8 const
INFO  18:38:09,277 - #28 int
INFO  18:38:09,277 - #28 pet
INFO  18:38:09,278 - #11 =
INFO  18:38:09,278 - #27 5
INFO  18:38:09,278 - #10 ;
INFO  18:38:09,278 - #28 int
INFO  18:38:09,278 - #28 a
INFO  18:38:09,279 - #11 =
ERROR 18:38:09,279 - 
Sintaksna greska na liniji 10
INFO  18:38:09,279 - #27 5
INFO  18:38:09,279 - #10 ;
INFO  18:38:09,279 - #28 int
INFO  18:38:09,280 - #28 niz
INFO  18:38:09,281 - #15 [
INFO  18:38:09,281 - Oporavak od greske u definiciji globalne promenljive na liniji 10
INFO  18:38:09,284 - #16 ]
INFO  18:38:09,284 - #10 ;
INFO  18:38:09,285 - #28 char
INFO  18:38:09,285 - #28 nizch
INFO  18:38:09,285 - #15 [
INFO  18:38:09,285 - #16 ]
INFO  18:38:09,285 - #10 ;
INFO  18:38:09,285 - #17 {
INFO  18:38:09,285 - #6 void
INFO  18:38:09,286 - #28 main
INFO  18:38:09,287 - #13 (
INFO  18:38:09,288 - #14 )
INFO  18:38:09,288 - #28 int
INFO  18:38:09,291 - #28 bodovi
INFO  18:38:09,291 - #10 ;
INFO  18:38:09,292 - #28 Broj
INFO  18:38:09,294 - #28 nula
INFO  18:38:09,294 - #12 ,
INFO  18:38:09,294 - #28 jedan
INFO  18:38:09,294 - #10 ;
INFO  18:38:09,294 - #17 {
INFO  18:38:09,295 - #28 nula
INFO  18:38:09,296 - #11 =
INFO  18:38:09,297 - #28 Broj
INFO  18:38:09,297 - #19 .
INFO  18:38:09,297 - #28 NULA
INFO  18:38:09,297 - #10 ;
INFO  18:38:09,298 - #28 jedan
INFO  18:38:09,299 - #11 =
INFO  18:38:09,299 - #28 Broj
INFO  18:38:09,299 - #19 .
INFO  18:38:09,299 - #28 JEDAN
INFO  18:38:09,300 - #10 ;
INFO  18:38:09,300 - #28 bodovi
INFO  18:38:09,300 - #11 =
INFO  18:38:09,300 - #27 0
INFO  18:38:09,300 - #10 ;
INFO  18:38:09,301 - #28 bodovi
INFO  18:38:09,301 - #20 ++
INFO  18:38:09,301 - #10 ;
INFO  18:38:09,301 - #28 bodovi
INFO  18:38:09,301 - #11 =
INFO  18:38:09,301 - #28 bodovi
INFO  18:38:09,302 - #23 +
INFO  18:38:09,302 - #28 jedan
INFO  18:38:09,305 - #10 ;
INFO  18:38:09,306 - #28 bodovi
INFO  18:38:09,306 - #11 =
INFO  18:38:09,306 - #28 bodovi
INFO  18:38:09,306 - #24 *
INFO  18:38:09,307 - #28 pet
INFO  18:38:09,309 - #10 ;
INFO  18:38:09,310 - #28 bodovi
INFO  18:38:09,310 - #21 --
INFO  18:38:09,310 - #10 ;
INFO  18:38:09,311 - #4 print
INFO  18:38:09,311 - #13 (
INFO  18:38:09,311 - #28 bodovi
INFO  18:38:09,311 - #14 )
INFO  18:38:09,311 - #10 ;
INFO  18:38:09,311 - #28 niz
INFO  18:38:09,312 - #11 =
INFO  18:38:09,312 - #5 new
INFO  18:38:09,312 - #28 int
INFO  18:38:09,312 - #15 [
INFO  18:38:09,313 - #27 2
INFO  18:38:09,313 - #16 ]
INFO  18:38:09,313 - #10 ;
INFO  18:38:09,314 - #28 niz
INFO  18:38:09,314 - #15 [
INFO  18:38:09,316 - #28 nula
INFO  18:38:09,316 - #16 ]
INFO  18:38:09,316 - #11 =
INFO  18:38:09,317 - #28 pet
INFO  18:38:09,317 - #10 ;
INFO  18:38:09,317 - #28 niz
INFO  18:38:09,317 - #15 [
INFO  18:38:09,317 - #27 1
INFO  18:38:09,318 - #16 ]
INFO  18:38:09,318 - #11 =
INFO  18:38:09,319 - #28 Broj
INFO  18:38:09,320 - #19 .
INFO  18:38:09,321 - #28 DESET
INFO  18:38:09,321 - #10 ;
INFO  18:38:09,323 - #28 bodovi
INFO  18:38:09,323 - #11 =
INFO  18:38:09,323 - #28 niz
INFO  18:38:09,325 - #15 [
INFO  18:38:09,325 - #27 1
INFO  18:38:09,325 - #16 ]
INFO  18:38:09,325 - #25 /
INFO  18:38:09,325 - #28 niz
INFO  18:38:09,327 - #15 [
INFO  18:38:09,333 - #27 0
INFO  18:38:09,334 - #16 ]
INFO  18:38:09,334 - #10 ;
INFO  18:38:09,334 - #4 print
INFO  18:38:09,334 - #13 (
INFO  18:38:09,334 - #28 bodovi
INFO  18:38:09,334 - #14 )
INFO  18:38:09,334 - #10 ;
INFO  18:38:09,334 - #4 print
INFO  18:38:09,335 - #13 (
INFO  18:38:09,335 - #28 niz
INFO  18:38:09,335 - #15 [
INFO  18:38:09,335 - #28 Broj
INFO  18:38:09,335 - #19 .
INFO  18:38:09,335 - #28 JEDAN
INFO  18:38:09,335 - #16 ]
INFO  18:38:09,335 - #14 )
INFO  18:38:09,335 - #10 ;
INFO  18:38:09,335 - #28 nizch
INFO  18:38:09,335 - #11 =
INFO  18:38:09,336 - #5 new
INFO  18:38:09,336 - #28 char
INFO  18:38:09,336 - #15 [
INFO  18:38:09,336 - #27 3
INFO  18:38:09,337 - #16 ]
INFO  18:38:09,337 - #10 ;
INFO  18:38:09,337 - #28 nizch
INFO  18:38:09,337 - #15 [
INFO  18:38:09,338 - #27 0
INFO  18:38:09,338 - #16 ]
INFO  18:38:09,338 - #11 =
INFO  18:38:09,338 - #29 a
INFO  18:38:09,338 - #10 ;
INFO  18:38:09,338 - #28 nizch
INFO  18:38:09,339 - #15 [
INFO  18:38:09,339 - #28 jedan
INFO  18:38:09,339 - #16 ]
INFO  18:38:09,339 - #11 =
INFO  18:38:09,339 - #29 b
INFO  18:38:09,339 - #10 ;
INFO  18:38:09,339 - #28 nizch
INFO  18:38:09,340 - #15 [
INFO  18:38:09,340 - #28 pet
INFO  18:38:09,340 - #22 -
INFO  18:38:09,340 - #27 3
INFO  18:38:09,341 - #16 ]
INFO  18:38:09,341 - #11 =
INFO  18:38:09,342 - #29 c
INFO  18:38:09,342 - #10 ;
INFO  18:38:09,342 - #4 print
INFO  18:38:09,342 - #13 (
INFO  18:38:09,342 - #28 nizch
INFO  18:38:09,342 - #15 [
INFO  18:38:09,342 - #27 2
INFO  18:38:09,342 - #22 -
INFO  18:38:09,342 - #27 1
INFO  18:38:09,342 - #16 ]
INFO  18:38:09,342 - #14 )
INFO  18:38:09,342 - #10 ;
INFO  18:38:09,343 - #4 print
INFO  18:38:09,343 - #13 (
INFO  18:38:09,343 - #28 nizch
INFO  18:38:09,343 - #15 [
INFO  18:38:09,343 - #28 jedan
INFO  18:38:09,343 - #24 *
INFO  18:38:09,343 - #27 2
INFO  18:38:09,344 - #16 ]
INFO  18:38:09,344 - #14 )
INFO  18:38:09,344 - #10 ;
INFO  18:38:09,344 - #28 bodovi
INFO  18:38:09,344 - #11 =
INFO  18:38:09,344 - #28 bodovi
INFO  18:38:09,344 - #23 +
INFO  18:38:09,344 - #13 (
INFO  18:38:09,344 - #13 (
INFO  18:38:09,344 - #28 pet
INFO  18:38:09,344 - #24 *
INFO  18:38:09,344 - #28 jedan
INFO  18:38:09,344 - #22 -
INFO  18:38:09,344 - #27 1
INFO  18:38:09,345 - #14 )
INFO  18:38:09,345 - #24 *
INFO  18:38:09,345 - #27 2
INFO  18:38:09,345 - #22 -
INFO  18:38:09,345 - #13 (
INFO  18:38:09,345 - #27 3
INFO  18:38:09,345 - #26 %
INFO  18:38:09,345 - #27 2
INFO  18:38:09,347 - #23 +
INFO  18:38:09,347 - #27 3
INFO  18:38:09,347 - #24 *
INFO  18:38:09,347 - #27 2
INFO  18:38:09,347 - #22 -
INFO  18:38:09,347 - #27 3
INFO  18:38:09,347 - #14 )
INFO  18:38:09,347 - #22 -
INFO  18:38:09,348 - #28 Broj
INFO  18:38:09,348 - #19 .
INFO  18:38:09,348 - #28 JEDAN
INFO  18:38:09,348 - #24 *
INFO  18:38:09,348 - #27 0
INFO  18:38:09,348 - #14 )
INFO  18:38:09,348 - #10 ;
INFO  18:38:09,348 - #4 print
INFO  18:38:09,348 - #13 (
INFO  18:38:09,348 - #28 bodovi
INFO  18:38:09,348 - #14 )
INFO  18:38:09,348 - #10 ;
INFO  18:38:09,348 - #3 read
INFO  18:38:09,349 - #13 (
INFO  18:38:09,349 - #28 bodovi
INFO  18:38:09,349 - #14 )
INFO  18:38:09,349 - #10 ;
INFO  18:38:09,349 - #28 bodovi
INFO  18:38:09,349 - #11 =
INFO  18:38:09,349 - #28 bodovi
INFO  18:38:09,349 - #23 +
INFO  18:38:09,349 - #27 1
INFO  18:38:09,349 - #10 ;
INFO  18:38:09,349 - #4 print
INFO  18:38:09,349 - #13 (
INFO  18:38:09,349 - #28 bodovi
INFO  18:38:09,350 - #14 )
INFO  18:38:09,350 - #10 ;
INFO  18:38:09,350 - #18 }
INFO  18:38:09,350 - #18 }
INFO  18:38:09,381 - Program(
  ProgName(
   test301
  ) [ProgName]
  GlobalDeclListL(
    GlobalDeclListL(
      GlobalDeclListL(
        GlobalDeclListL(
          GlobalDeclListL(
            GlobalDeclListL(
              GlobalDeclListEps(
              ) [GlobalDeclListEps]
              GlobalDeclEnum(
                EnumDecl(
                  EnumName(
                   Broj
                  ) [EnumName]
                  EnumDeclListL(
                    EnumDeclListL(
                      EnumDeclListL(
                        EnumDeclItem(
                          EnumDeclDefNoVal(
                           NULA
                          ) [EnumDeclDefNoVal]
                        ) [EnumDeclItem]
                        EnumDeclDefNoVal(
                         JEDAN
                        ) [EnumDeclDefNoVal]
                      ) [EnumDeclListL]
                      EnumDeclDefVal(
                       PET
                       5
                      ) [EnumDeclDefVal]
                    ) [EnumDeclListL]
                    EnumDeclDefVal(
                     DESET
                     10
                    ) [EnumDeclDefVal]
                  ) [EnumDeclListL]
                ) [EnumDecl]
              ) [GlobalDeclEnum]
            ) [GlobalDeclListL]
            GlobalDeclConst(
              ConstDecl(
                Type(
                 int
                ) [Type]
                ConstDeclItem(
                  ConstDef(
                   jedan
                    ConstNum(
                     1
                    ) [ConstNum]
                  ) [ConstDef]
                ) [ConstDeclItem]
              ) [ConstDecl]
            ) [GlobalDeclConst]
          ) [GlobalDeclListL]
          GlobalDeclConst(
            ConstDecl(
              Type(
               int
              ) [Type]
              ConstDeclItem(
                ConstDef(
                 pet
                  ConstNum(
                   5
                  ) [ConstNum]
                ) [ConstDef]
              ) [ConstDeclItem]
            ) [ConstDecl]
          ) [GlobalDeclConst]
        ) [GlobalDeclListL]
        GlobalDeclVar(
          GlobalVarDecl(
            Type(
             int
            ) [Type]
            GlobalVarDeclItem(
              GlobalVarDeclDefError(
              ) [GlobalVarDeclDefError]
            ) [GlobalVarDeclItem]
          ) [GlobalVarDecl]
        ) [GlobalDeclVar]
      ) [GlobalDeclListL]
      GlobalDeclVar(
        GlobalVarDecl(
          Type(
           int
          ) [Type]
          GlobalVarDeclItem(
            GlobalVarDeclDefOk(
              VarDeclDefineArray(
               niz
              ) [VarDeclDefineArray]
            ) [GlobalVarDeclDefOk]
          ) [GlobalVarDeclItem]
        ) [GlobalVarDecl]
      ) [GlobalDeclVar]
    ) [GlobalDeclListL]
    GlobalDeclVar(
      GlobalVarDecl(
        Type(
         char
        ) [Type]
        GlobalVarDeclItem(
          GlobalVarDeclDefOk(
            VarDeclDefineArray(
             nizch
            ) [VarDeclDefineArray]
          ) [GlobalVarDeclDefOk]
        ) [GlobalVarDeclItem]
      ) [GlobalVarDecl]
    ) [GlobalDeclVar]
  ) [GlobalDeclListL]
  MethodDecl(
    MethodSignature(
      VoidableType(
      ) [VoidableType]
     main
    ) [MethodSignature]
    VarMethodDeclList_NoEps(
      VarMethodDeclList_NoEps(
        VarMethodDeclList_Eps(
        ) [VarMethodDeclList_Eps]
        VarDecl(
          Type(
           int
          ) [Type]
          VarDeclItem(
            VarDeclDefineSingle(
             bodovi
            ) [VarDeclDefineSingle]
          ) [VarDeclItem]
        ) [VarDecl]
      ) [VarMethodDeclList_NoEps]
      VarDecl(
        Type(
         Broj
        ) [Type]
        VarDeclListL(
          VarDeclItem(
            VarDeclDefineSingle(
             nula
            ) [VarDeclDefineSingle]
          ) [VarDeclItem]
          VarDeclDefineSingle(
           jedan
          ) [VarDeclDefineSingle]
        ) [VarDeclListL]
      ) [VarDecl]
    ) [VarMethodDeclList_NoEps]
    StatementList_NoEps(
      StatementList_NoEps(
        StatementList_NoEps(
          StatementList_NoEps(
            StatementList_NoEps(
              StatementList_NoEps(
                StatementList_NoEps(
                  StatementList_NoEps(
                    StatementList_NoEps(
                      StatementList_NoEps(
                        StatementList_NoEps(
                          StatementList_NoEps(
                            StatementList_NoEps(
                              StatementList_NoEps(
                                StatementList_NoEps(
                                  StatementList_NoEps(
                                    StatementList_NoEps(
                                      StatementList_NoEps(
                                        StatementList_NoEps(
                                          StatementList_NoEps(
                                            StatementList_NoEps(
                                              StatementList_NoEps(
                                                StatementList_NoEps(
                                                  StatementList_NoEps(
                                                    StatementList_NoEps(
                                                      StatementList_Eps(
                                                      ) [StatementList_Eps]
                                                      StatementDes(
                                                        DesignStatAssignment(
                                                          DesIdent(
                                                           nula
                                                          ) [DesIdent]
                                                          AssignementExpr(
                                                            TermExpr(
                                                              TermFact(
                                                                FactorDesign(
                                                                  DesEnum(
                                                                   Broj
                                                                   NULA
                                                                  ) [DesEnum]
                                                                ) [FactorDesign]
                                                              ) [TermFact]
                                                            ) [TermExpr]
                                                          ) [AssignementExpr]
                                                        ) [DesignStatAssignment]
                                                      ) [StatementDes]
                                                    ) [StatementList_NoEps]
                                                    StatementDes(
                                                      DesignStatAssignment(
                                                        DesIdent(
                                                         jedan
                                                        ) [DesIdent]
                                                        AssignementExpr(
                                                          TermExpr(
                                                            TermFact(
                                                              FactorDesign(
                                                                DesEnum(
                                                                 Broj
                                                                 JEDAN
                                                                ) [DesEnum]
                                                              ) [FactorDesign]
                                                            ) [TermFact]
                                                          ) [TermExpr]
                                                        ) [AssignementExpr]
                                                      ) [DesignStatAssignment]
                                                    ) [StatementDes]
                                                  ) [StatementList_NoEps]
                                                  StatementDes(
                                                    DesignStatAssignment(
                                                      DesIdent(
                                                       bodovi
                                                      ) [DesIdent]
                                                      AssignementExpr(
                                                        TermExpr(
                                                          TermFact(
                                                            FactorConst(
                                                              ConstNum(
                                                               0
                                                              ) [ConstNum]
                                                            ) [FactorConst]
                                                          ) [TermFact]
                                                        ) [TermExpr]
                                                      ) [AssignementExpr]
                                                    ) [DesignStatAssignment]
                                                  ) [StatementDes]
                                                ) [StatementList_NoEps]
                                                StatementDes(
                                                  DesignStatInc(
                                                    DesIdent(
                                                     bodovi
                                                    ) [DesIdent]
                                                  ) [DesignStatInc]
                                                ) [StatementDes]
                                              ) [StatementList_NoEps]
                                              StatementDes(
                                                DesignStatAssignment(
                                                  DesIdent(
                                                   bodovi
                                                  ) [DesIdent]
                                                  AssignementExpr(
                                                    AddopExp(
                                                      TermExpr(
                                                        TermFact(
                                                          FactorDesign(
                                                            DesIdent(
                                                             bodovi
                                                            ) [DesIdent]
                                                          ) [FactorDesign]
                                                        ) [TermFact]
                                                      ) [TermExpr]
                                                      Addop_Plus(
                                                      ) [Addop_Plus]
                                                      TermFact(
                                                        FactorDesign(
                                                          DesIdent(
                                                           jedan
                                                          ) [DesIdent]
                                                        ) [FactorDesign]
                                                      ) [TermFact]
                                                    ) [AddopExp]
                                                  ) [AssignementExpr]
                                                ) [DesignStatAssignment]
                                              ) [StatementDes]
                                            ) [StatementList_NoEps]
                                            StatementDes(
                                              DesignStatAssignment(
                                                DesIdent(
                                                 bodovi
                                                ) [DesIdent]
                                                AssignementExpr(
                                                  TermExpr(
                                                    TermMulop(
                                                      TermFact(
                                                        FactorDesign(
                                                          DesIdent(
                                                           bodovi
                                                          ) [DesIdent]
                                                        ) [FactorDesign]
                                                      ) [TermFact]
                                                      Mulop_Mul(
                                                      ) [Mulop_Mul]
                                                      FactorDesign(
                                                        DesIdent(
                                                         pet
                                                        ) [DesIdent]
                                                      ) [FactorDesign]
                                                    ) [TermMulop]
                                                  ) [TermExpr]
                                                ) [AssignementExpr]
                                              ) [DesignStatAssignment]
                                            ) [StatementDes]
                                          ) [StatementList_NoEps]
                                          StatementDes(
                                            DesignStatDec(
                                              DesIdent(
                                               bodovi
                                              ) [DesIdent]
                                            ) [DesignStatDec]
                                          ) [StatementDes]
                                        ) [StatementList_NoEps]
                                        StatPrint(
                                          TermExpr(
                                            TermFact(
                                              FactorDesign(
                                                DesIdent(
                                                 bodovi
                                                ) [DesIdent]
                                              ) [FactorDesign]
                                            ) [TermFact]
                                          ) [TermExpr]
                                        ) [StatPrint]
                                      ) [StatementList_NoEps]
                                      StatementDes(
                                        DesignStatAssignment(
                                          DesIdent(
                                           niz
                                          ) [DesIdent]
                                          AssignementExpr(
                                            TermExpr(
                                              TermFact(
                                                FactorNewArr(
                                                  Type(
                                                   int
                                                  ) [Type]
                                                  TermExpr(
                                                    TermFact(
                                                      FactorConst(
                                                        ConstNum(
                                                         2
                                                        ) [ConstNum]
                                                      ) [FactorConst]
                                                    ) [TermFact]
                                                  ) [TermExpr]
                                                ) [FactorNewArr]
                                              ) [TermFact]
                                            ) [TermExpr]
                                          ) [AssignementExpr]
                                        ) [DesignStatAssignment]
                                      ) [StatementDes]
                                    ) [StatementList_NoEps]
                                    StatementDes(
                                      DesignStatAssignment(
                                        DesArr(
                                          ArrayName(
                                           niz
                                          ) [ArrayName]
                                          TermExpr(
                                            TermFact(
                                              FactorDesign(
                                                DesIdent(
                                                 nula
                                                ) [DesIdent]
                                              ) [FactorDesign]
                                            ) [TermFact]
                                          ) [TermExpr]
                                        ) [DesArr]
                                        AssignementExpr(
                                          TermExpr(
                                            TermFact(
                                              FactorDesign(
                                                DesIdent(
                                                 pet
                                                ) [DesIdent]
                                              ) [FactorDesign]
                                            ) [TermFact]
                                          ) [TermExpr]
                                        ) [AssignementExpr]
                                      ) [DesignStatAssignment]
                                    ) [StatementDes]
                                  ) [StatementList_NoEps]
                                  StatementDes(
                                    DesignStatAssignment(
                                      DesArr(
                                        ArrayName(
                                         niz
                                        ) [ArrayName]
                                        TermExpr(
                                          TermFact(
                                            FactorConst(
                                              ConstNum(
                                               1
                                              ) [ConstNum]
                                            ) [FactorConst]
                                          ) [TermFact]
                                        ) [TermExpr]
                                      ) [DesArr]
                                      AssignementExpr(
                                        TermExpr(
                                          TermFact(
                                            FactorDesign(
                                              DesEnum(
                                               Broj
                                               DESET
                                              ) [DesEnum]
                                            ) [FactorDesign]
                                          ) [TermFact]
                                        ) [TermExpr]
                                      ) [AssignementExpr]
                                    ) [DesignStatAssignment]
                                  ) [StatementDes]
                                ) [StatementList_NoEps]
                                StatementDes(
                                  DesignStatAssignment(
                                    DesIdent(
                                     bodovi
                                    ) [DesIdent]
                                    AssignementExpr(
                                      TermExpr(
                                        TermMulop(
                                          TermFact(
                                            FactorDesign(
                                              DesArr(
                                                ArrayName(
                                                 niz
                                                ) [ArrayName]
                                                TermExpr(
                                                  TermFact(
                                                    FactorConst(
                                                      ConstNum(
                                                       1
                                                      ) [ConstNum]
                                                    ) [FactorConst]
                                                  ) [TermFact]
                                                ) [TermExpr]
                                              ) [DesArr]
                                            ) [FactorDesign]
                                          ) [TermFact]
                                          Mulop_Div(
                                          ) [Mulop_Div]
                                          FactorDesign(
                                            DesArr(
                                              ArrayName(
                                               niz
                                              ) [ArrayName]
                                              TermExpr(
                                                TermFact(
                                                  FactorConst(
                                                    ConstNum(
                                                     0
                                                    ) [ConstNum]
                                                  ) [FactorConst]
                                                ) [TermFact]
                                              ) [TermExpr]
                                            ) [DesArr]
                                          ) [FactorDesign]
                                        ) [TermMulop]
                                      ) [TermExpr]
                                    ) [AssignementExpr]
                                  ) [DesignStatAssignment]
                                ) [StatementDes]
                              ) [StatementList_NoEps]
                              StatPrint(
                                TermExpr(
                                  TermFact(
                                    FactorDesign(
                                      DesIdent(
                                       bodovi
                                      ) [DesIdent]
                                    ) [FactorDesign]
                                  ) [TermFact]
                                ) [TermExpr]
                              ) [StatPrint]
                            ) [StatementList_NoEps]
                            StatPrint(
                              TermExpr(
                                TermFact(
                                  FactorDesign(
                                    DesArr(
                                      ArrayName(
                                       niz
                                      ) [ArrayName]
                                      TermExpr(
                                        TermFact(
                                          FactorDesign(
                                            DesEnum(
                                             Broj
                                             JEDAN
                                            ) [DesEnum]
                                          ) [FactorDesign]
                                        ) [TermFact]
                                      ) [TermExpr]
                                    ) [DesArr]
                                  ) [FactorDesign]
                                ) [TermFact]
                              ) [TermExpr]
                            ) [StatPrint]
                          ) [StatementList_NoEps]
                          StatementDes(
                            DesignStatAssignment(
                              DesIdent(
                               nizch
                              ) [DesIdent]
                              AssignementExpr(
                                TermExpr(
                                  TermFact(
                                    FactorNewArr(
                                      Type(
                                       char
                                      ) [Type]
                                      TermExpr(
                                        TermFact(
                                          FactorConst(
                                            ConstNum(
                                             3
                                            ) [ConstNum]
                                          ) [FactorConst]
                                        ) [TermFact]
                                      ) [TermExpr]
                                    ) [FactorNewArr]
                                  ) [TermFact]
                                ) [TermExpr]
                              ) [AssignementExpr]
                            ) [DesignStatAssignment]
                          ) [StatementDes]
                        ) [StatementList_NoEps]
                        StatementDes(
                          DesignStatAssignment(
                            DesArr(
                              ArrayName(
                               nizch
                              ) [ArrayName]
                              TermExpr(
                                TermFact(
                                  FactorConst(
                                    ConstNum(
                                     0
                                    ) [ConstNum]
                                  ) [FactorConst]
                                ) [TermFact]
                              ) [TermExpr]
                            ) [DesArr]
                            AssignementExpr(
                              TermExpr(
                                TermFact(
                                  FactorConst(
                                    ConstChar(
                                     a
                                    ) [ConstChar]
                                  ) [FactorConst]
                                ) [TermFact]
                              ) [TermExpr]
                            ) [AssignementExpr]
                          ) [DesignStatAssignment]
                        ) [StatementDes]
                      ) [StatementList_NoEps]
                      StatementDes(
                        DesignStatAssignment(
                          DesArr(
                            ArrayName(
                             nizch
                            ) [ArrayName]
                            TermExpr(
                              TermFact(
                                FactorDesign(
                                  DesIdent(
                                   jedan
                                  ) [DesIdent]
                                ) [FactorDesign]
                              ) [TermFact]
                            ) [TermExpr]
                          ) [DesArr]
                          AssignementExpr(
                            TermExpr(
                              TermFact(
                                FactorConst(
                                  ConstChar(
                                   b
                                  ) [ConstChar]
                                ) [FactorConst]
                              ) [TermFact]
                            ) [TermExpr]
                          ) [AssignementExpr]
                        ) [DesignStatAssignment]
                      ) [StatementDes]
                    ) [StatementList_NoEps]
                    StatementDes(
                      DesignStatAssignment(
                        DesArr(
                          ArrayName(
                           nizch
                          ) [ArrayName]
                          AddopExp(
                            TermExpr(
                              TermFact(
                                FactorDesign(
                                  DesIdent(
                                   pet
                                  ) [DesIdent]
                                ) [FactorDesign]
                              ) [TermFact]
                            ) [TermExpr]
                            Addop_Minus(
                            ) [Addop_Minus]
                            TermFact(
                              FactorConst(
                                ConstNum(
                                 3
                                ) [ConstNum]
                              ) [FactorConst]
                            ) [TermFact]
                          ) [AddopExp]
                        ) [DesArr]
                        AssignementExpr(
                          TermExpr(
                            TermFact(
                              FactorConst(
                                ConstChar(
                                 c
                                ) [ConstChar]
                              ) [FactorConst]
                            ) [TermFact]
                          ) [TermExpr]
                        ) [AssignementExpr]
                      ) [DesignStatAssignment]
                    ) [StatementDes]
                  ) [StatementList_NoEps]
                  StatPrint(
                    TermExpr(
                      TermFact(
                        FactorDesign(
                          DesArr(
                            ArrayName(
                             nizch
                            ) [ArrayName]
                            AddopExp(
                              TermExpr(
                                TermFact(
                                  FactorConst(
                                    ConstNum(
                                     2
                                    ) [ConstNum]
                                  ) [FactorConst]
                                ) [TermFact]
                              ) [TermExpr]
                              Addop_Minus(
                              ) [Addop_Minus]
                              TermFact(
                                FactorConst(
                                  ConstNum(
                                   1
                                  ) [ConstNum]
                                ) [FactorConst]
                              ) [TermFact]
                            ) [AddopExp]
                          ) [DesArr]
                        ) [FactorDesign]
                      ) [TermFact]
                    ) [TermExpr]
                  ) [StatPrint]
                ) [StatementList_NoEps]
                StatPrint(
                  TermExpr(
                    TermFact(
                      FactorDesign(
                        DesArr(
                          ArrayName(
                           nizch
                          ) [ArrayName]
                          TermExpr(
                            TermMulop(
                              TermFact(
                                FactorDesign(
                                  DesIdent(
                                   jedan
                                  ) [DesIdent]
                                ) [FactorDesign]
                              ) [TermFact]
                              Mulop_Mul(
                              ) [Mulop_Mul]
                              FactorConst(
                                ConstNum(
                                 2
                                ) [ConstNum]
                              ) [FactorConst]
                            ) [TermMulop]
                          ) [TermExpr]
                        ) [DesArr]
                      ) [FactorDesign]
                    ) [TermFact]
                  ) [TermExpr]
                ) [StatPrint]
              ) [StatementList_NoEps]
              StatementDes(
                DesignStatAssignment(
                  DesIdent(
                   bodovi
                  ) [DesIdent]
                  AssignementExpr(
                    AddopExp(
                      TermExpr(
                        TermFact(
                          FactorDesign(
                            DesIdent(
                             bodovi
                            ) [DesIdent]
                          ) [FactorDesign]
                        ) [TermFact]
                      ) [TermExpr]
                      Addop_Plus(
                      ) [Addop_Plus]
                      TermFact(
                        FactorExpr(
                          AddopExp(
                            AddopExp(
                              TermExpr(
                                TermMulop(
                                  TermFact(
                                    FactorExpr(
                                      AddopExp(
                                        TermExpr(
                                          TermMulop(
                                            TermFact(
                                              FactorDesign(
                                                DesIdent(
                                                 pet
                                                ) [DesIdent]
                                              ) [FactorDesign]
                                            ) [TermFact]
                                            Mulop_Mul(
                                            ) [Mulop_Mul]
                                            FactorDesign(
                                              DesIdent(
                                               jedan
                                              ) [DesIdent]
                                            ) [FactorDesign]
                                          ) [TermMulop]
                                        ) [TermExpr]
                                        Addop_Minus(
                                        ) [Addop_Minus]
                                        TermFact(
                                          FactorConst(
                                            ConstNum(
                                             1
                                            ) [ConstNum]
                                          ) [FactorConst]
                                        ) [TermFact]
                                      ) [AddopExp]
                                    ) [FactorExpr]
                                  ) [TermFact]
                                  Mulop_Mul(
                                  ) [Mulop_Mul]
                                  FactorConst(
                                    ConstNum(
                                     2
                                    ) [ConstNum]
                                  ) [FactorConst]
                                ) [TermMulop]
                              ) [TermExpr]
                              Addop_Minus(
                              ) [Addop_Minus]
                              TermFact(
                                FactorExpr(
                                  AddopExp(
                                    AddopExp(
                                      TermExpr(
                                        TermMulop(
                                          TermFact(
                                            FactorConst(
                                              ConstNum(
                                               3
                                              ) [ConstNum]
                                            ) [FactorConst]
                                          ) [TermFact]
                                          Mulop_Mod(
                                          ) [Mulop_Mod]
                                          FactorConst(
                                            ConstNum(
                                             2
                                            ) [ConstNum]
                                          ) [FactorConst]
                                        ) [TermMulop]
                                      ) [TermExpr]
                                      Addop_Plus(
                                      ) [Addop_Plus]
                                      TermMulop(
                                        TermFact(
                                          FactorConst(
                                            ConstNum(
                                             3
                                            ) [ConstNum]
                                          ) [FactorConst]
                                        ) [TermFact]
                                        Mulop_Mul(
                                        ) [Mulop_Mul]
                                        FactorConst(
                                          ConstNum(
                                           2
                                          ) [ConstNum]
                                        ) [FactorConst]
                                      ) [TermMulop]
                                    ) [AddopExp]
                                    Addop_Minus(
                                    ) [Addop_Minus]
                                    TermFact(
                                      FactorConst(
                                        ConstNum(
                                         3
                                        ) [ConstNum]
                                      ) [FactorConst]
                                    ) [TermFact]
                                  ) [AddopExp]
                                ) [FactorExpr]
                              ) [TermFact]
                            ) [AddopExp]
                            Addop_Minus(
                            ) [Addop_Minus]
                            TermMulop(
                              TermFact(
                                FactorDesign(
                                  DesEnum(
                                   Broj
                                   JEDAN
                                  ) [DesEnum]
                                ) [FactorDesign]
                              ) [TermFact]
                              Mulop_Mul(
                              ) [Mulop_Mul]
                              FactorConst(
                                ConstNum(
                                 0
                                ) [ConstNum]
                              ) [FactorConst]
                            ) [TermMulop]
                          ) [AddopExp]
                        ) [FactorExpr]
                      ) [TermFact]
                    ) [AddopExp]
                  ) [AssignementExpr]
                ) [DesignStatAssignment]
              ) [StatementDes]
            ) [StatementList_NoEps]
            StatPrint(
              TermExpr(
                TermFact(
                  FactorDesign(
                    DesIdent(
                     bodovi
                    ) [DesIdent]
                  ) [FactorDesign]
                ) [TermFact]
              ) [TermExpr]
            ) [StatPrint]
          ) [StatementList_NoEps]
          StatRead(
            DesIdent(
             bodovi
            ) [DesIdent]
          ) [StatRead]
        ) [StatementList_NoEps]
        StatementDes(
          DesignStatAssignment(
            DesIdent(
             bodovi
            ) [DesIdent]
            AssignementExpr(
              AddopExp(
                TermExpr(
                  TermFact(
                    FactorDesign(
                      DesIdent(
                       bodovi
                      ) [DesIdent]
                    ) [FactorDesign]
                  ) [TermFact]
                ) [TermExpr]
                Addop_Plus(
                ) [Addop_Plus]
                TermFact(
                  FactorConst(
                    ConstNum(
                     1
                    ) [ConstNum]
                  ) [FactorConst]
                ) [TermFact]
              ) [AddopExp]
            ) [AssignementExpr]
          ) [DesignStatAssignment]
        ) [StatementDes]
      ) [StatementList_NoEps]
      StatPrint(
        TermExpr(
          TermFact(
            FactorDesign(
              DesIdent(
               bodovi
              ) [DesIdent]
            ) [FactorDesign]
          ) [TermFact]
        ) [TermExpr]
      ) [StatPrint]
    ) [StatementList_NoEps]
  ) [MethodDecl]
) [Program]
INFO  18:38:09,398 - ===================================
INFO  18:38:09,413 - Deklarisan novi enum tip Broj na liniji 5
INFO  18:38:09,414 - Deklarisana konstanta Broj.NULA unutar enuma Broj na liniji 5
INFO  18:38:09,414 - Deklarisana konstanta Broj.JEDAN unutar enuma Broj na liniji 5
INFO  18:38:09,414 - Deklarisana konstanta Broj.PET unutar enuma Broj na liniji 5
INFO  18:38:09,414 - Deklarisana konstanta Broj.DESET unutar enuma Broj na liniji 5
INFO  18:38:09,414 - Deklarisana konstanta 'jedan' na liniji 7
INFO  18:38:09,414 - Deklarisana konstanta 'pet' na liniji 8
INFO  18:38:09,415 - Deklarisana promenljiva niza niz tipa 1 na liniji 12
INFO  18:38:09,415 - Deklarisana promenljiva niza nizch tipa 2 na liniji 13
INFO  18:38:09,415 - Obradjuje se funkcija main na liniji 16
INFO  18:38:09,415 - Deklarisana promenljiva bodovi tipa 1 na liniji 17
INFO  18:38:09,415 - Deklarisana promenljiva nula tipa 6 na liniji 19
INFO  18:38:09,415 - Deklarisana promenljiva jedan tipa 6 na liniji 19
INFO  18:38:09,416 - Dodeljenja vrednost: 1 je design,1 je assign
INFO  18:38:09,416 - Inkrementirana vrednost
INFO  18:38:09,416 - Dodeljenja vrednost: 1 je design,1 je assign
INFO  18:38:09,416 - Dodeljenja vrednost: 1 je design,1 je assign
INFO  18:38:09,416 - Dekrementirana vrednost
INFO  18:38:09,416 - Print funkcija na liniji 29
INFO  18:38:09,417 - Dodeljenja vrednost: 1 je design,1 je assign
INFO  18:38:09,417 - Print funkcija na liniji 36
INFO  18:38:09,417 - Print funkcija na liniji 37
INFO  18:38:09,417 - Print funkcija na liniji 44
INFO  18:38:09,417 - Print funkcija na liniji 45
INFO  18:38:09,417 - Dodeljenja vrednost: 1 je design,1 je assign
INFO  18:38:09,418 - Print funkcija na liniji 49
INFO  18:38:09,418 - Read funkcija na liniji 52
INFO  18:38:09,418 - Dodeljenja vrednost: 1 je design,1 je assign
INFO  18:38:09,418 - Print funkcija na liniji 54
INFO  18:38:09,418 -  Print count calls = 7
INFO  18:38:09,418 -  Deklarisanih promenljivih ima = 6
ERROR 18:38:09,419 - Parsiranje NIJE uspesno zavrseno!
