INFO  15:32:43,640 - Compiling source file: C:\Users\ikadr\Desktop\PP\Projekat\Rad\workspace\MJCompiler\test\program.mj
INFO  15:32:43,708 - #2 program
INFO  15:32:43,708 - #28 test301
INFO  15:32:43,708 - #17 {
INFO  15:32:43,711 - #6 void
INFO  15:32:43,711 - #28 main
INFO  15:32:43,713 - #13 (
INFO  15:32:43,713 - #14 )
INFO  15:32:43,713 - #28 int
INFO  15:32:43,715 - #28 niz
INFO  15:32:43,716 - #15 [
INFO  15:32:43,716 - #16 ]
INFO  15:32:43,717 - #10 ;
INFO  15:32:43,717 - #17 {
INFO  15:32:43,718 - #28 niz
INFO  15:32:43,719 - #11 =
INFO  15:32:43,720 - #5 new
INFO  15:32:43,720 - #28 int
INFO  15:32:43,720 - #15 [
INFO  15:32:43,720 - #27 2
INFO  15:32:43,720 - #16 ]
INFO  15:32:43,721 - #10 ;
INFO  15:32:43,722 - #18 }
INFO  15:32:43,722 - #18 }
INFO  15:32:43,739 - Program(
  ProgName(
   test301
  ) [ProgName]
  GlobalDeclListEps(
  ) [GlobalDeclListEps]
  MethodDecl(
    MethodSignature(
      VoidableType(
      ) [VoidableType]
     main
    ) [MethodSignature]
    VarMethodDeclList_NoEps(
      VarMethodDeclList_Eps(
      ) [VarMethodDeclList_Eps]
      VarDecl(
        Type(
         int
        ) [Type]
        VarDeclItem(
          VarDeclDefineArray(
           niz
          ) [VarDeclDefineArray]
        ) [VarDeclItem]
      ) [VarDecl]
    ) [VarMethodDeclList_NoEps]
    StatementList_NoEps(
      StatementList_Eps(
      ) [StatementList_Eps]
      StatementDes(
        DesignStatAssignment(
          DesIdent(
           niz
          ) [DesIdent]
          AssignementExpr(
            TermExpr(
              TermFact(
                FactorNewArr(
                  Type(
                   int
                  ) [Type]
                  TermExpr(
                    TermFact(
                      FactorConst(
                        ConstNum(
                         2
                        ) [ConstNum]
                      ) [FactorConst]
                    ) [TermFact]
                  ) [TermExpr]
                ) [FactorNewArr]
              ) [TermFact]
            ) [TermExpr]
          ) [AssignementExpr]
        ) [DesignStatAssignment]
      ) [StatementDes]
    ) [StatementList_NoEps]
  ) [MethodDecl]
) [Program]
INFO  15:32:43,739 - ===================================
INFO  15:32:43,743 - Obradjuje se funkcija main na liniji 9
INFO  15:32:43,743 - Deklarisana promenljiva niza niz tipa 1 na liniji 10
INFO  15:32:43,744 -  Print count calls = 0
INFO  15:32:43,744 -  Deklarisanih promenljivih ima = 0
INFO  15:32:43,754 - GENERATOR:3
INFO  15:32:43,754 - Parsiranje uspesno zavrseno!
