INFO  09:42:03,251 - Compiling source file: C:\Users\ikadr\Desktop\PP\Projekat\Rad\workspace\MJCompiler\test\program.mj
INFO  09:42:03,263 - #2 program
INFO  09:42:03,263 - #27 MJProgram
INFO  09:42:03,269 - #27 int
INFO  09:42:03,269 - #27 x
INFO  09:42:03,269 - #9 ;
INFO  09:42:03,269 - #27 char
INFO  09:42:03,269 - #27 y
INFO  09:42:03,269 - #9 ;
INFO  09:42:03,269 - #27 bool
INFO  09:42:03,269 - #27 z
INFO  09:42:03,269 - #9 ;
INFO  09:42:03,269 - #16 {
INFO  09:42:03,269 - #27 int
INFO  09:42:03,269 - #27 main
INFO  09:42:03,269 - #12 (
INFO  09:42:03,269 - #13 )
INFO  09:42:03,269 - #16 {
INFO  09:42:03,269 - #27 z
INFO  09:42:03,271 - #10 =
INFO  09:42:03,271 - #30 true
INFO  09:42:03,271 - #9 ;
INFO  09:42:03,291 - #27 y
INFO  09:42:03,291 - #10 =
INFO  09:42:03,291 - #27 ascas
INFO  09:42:03,291 - #9 ;
INFO  09:42:03,298 - #17 }
INFO  09:42:03,298 - #17 }
