INFO  19:15:30,756 - Compiling source file: C:\Users\ikadr\Desktop\PP\Projekat\Rad\workspace\MJCompiler\test\program.mj
INFO  19:15:30,818 - #2 program
INFO  19:15:30,818 - #28 test301
INFO  19:15:30,818 - #9 enum
INFO  19:15:30,834 - #28 Broj
INFO  19:15:30,834 - #17 {
INFO  19:15:30,834 - #28 NULA
INFO  19:15:30,834 - #12 ,
INFO  19:15:30,834 - #28 JEDAN
INFO  19:15:30,834 - #12 ,
INFO  19:15:30,834 - #28 PET
INFO  19:15:30,834 - #11 =
INFO  19:15:30,834 - #27 5
INFO  19:15:30,834 - #12 ,
INFO  19:15:30,834 - #28 DESET
INFO  19:15:30,834 - #11 =
INFO  19:15:30,834 - #27 10
INFO  19:15:30,834 - #18 }
INFO  19:15:30,834 - #8 const
INFO  19:15:30,834 - #28 int
INFO  19:15:30,834 - #28 jedan
INFO  19:15:30,834 - #11 =
INFO  19:15:30,834 - #27 1
INFO  19:15:30,834 - #10 ;
INFO  19:15:30,834 - #8 const
INFO  19:15:30,834 - #28 int
INFO  19:15:30,834 - #28 pet
INFO  19:15:30,834 - #11 =
INFO  19:15:30,834 - #27 5
INFO  19:15:30,834 - #10 ;
INFO  19:15:30,834 - #8 const
INFO  19:15:30,834 - #28 char
INFO  19:15:30,834 - #28 znak
INFO  19:15:30,834 - #11 =
INFO  19:15:30,834 - #29 a
INFO  19:15:30,834 - #10 ;
INFO  19:15:30,834 - #28 int
INFO  19:15:30,834 - #28 niz
INFO  19:15:30,834 - #15 [
INFO  19:15:30,834 - #16 ]
INFO  19:15:30,834 - #10 ;
INFO  19:15:30,834 - #28 char
INFO  19:15:30,834 - #28 nizch
INFO  19:15:30,834 - #15 [
INFO  19:15:30,834 - #16 ]
INFO  19:15:30,834 - #10 ;
INFO  19:15:30,834 - #17 {
INFO  19:15:30,834 - #6 void
INFO  19:15:30,834 - #28 main
INFO  19:15:30,834 - #13 (
INFO  19:15:30,834 - #14 )
INFO  19:15:30,834 - #28 int
INFO  19:15:30,849 - #28 bodovi
INFO  19:15:30,849 - #10 ;
INFO  19:15:30,849 - #28 Broj
INFO  19:15:30,849 - #28 nula
INFO  19:15:30,849 - #12 ,
INFO  19:15:30,849 - #28 jedan
INFO  19:15:30,849 - #10 ;
INFO  19:15:30,849 - #17 {
INFO  19:15:30,849 - #28 nula
INFO  19:15:30,849 - #11 =
INFO  19:15:30,849 - #28 Broj
INFO  19:15:30,849 - #19 .
ERROR 19:15:30,849 - 
Sintaksna greska na liniji 19
INFO  19:15:30,849 - #28 NULA
INFO  19:15:30,849 - #10 ;
INFO  19:15:30,849 - #28 jedan
INFO  19:15:30,849 - #11 =
INFO  19:15:30,849 - #28 Broj
INFO  19:15:30,849 - Oporavak od greske u konstrukciji iskaza dodele na liniji 1
INFO  19:15:30,849 - #19 .
ERROR 19:15:30,849 - 
Sintaksna greska na liniji 20
INFO  19:15:30,849 - #28 JEDAN
INFO  19:15:30,849 - #10 ;
INFO  19:15:30,849 - #28 bodovi
INFO  19:15:30,849 - #11 =
INFO  19:15:30,849 - #27 0
INFO  19:15:30,849 - Oporavak od greske u konstrukciji iskaza dodele na liniji 1
INFO  19:15:30,849 - #10 ;
INFO  19:15:30,849 - #28 bodovi
ERROR 19:15:30,849 - 
Sintaksna greska na liniji 23
INFO  19:15:30,849 - #20 ++
INFO  19:15:30,849 - #10 ;
INFO  19:15:30,849 - #28 bodovi
INFO  19:15:30,849 - #11 =
INFO  19:15:30,849 - #28 bodovi
INFO  19:15:30,849 - Oporavak od greske u konstrukciji iskaza dodele na liniji 1
INFO  19:15:30,849 - #23 +
INFO  19:15:30,849 - #28 jedan
INFO  19:15:30,865 - #10 ;
INFO  19:15:30,865 - #28 bodovi
INFO  19:15:30,865 - #11 =
INFO  19:15:30,865 - #28 bodovi
INFO  19:15:30,865 - #24 *
INFO  19:15:30,865 - #28 pet
INFO  19:15:30,865 - #10 ;
INFO  19:15:30,865 - #28 bodovi
INFO  19:15:30,865 - #21 --
INFO  19:15:30,865 - #10 ;
INFO  19:15:30,865 - #4 print
INFO  19:15:30,865 - #13 (
INFO  19:15:30,865 - #28 bodovi
INFO  19:15:30,865 - #14 )
INFO  19:15:30,865 - #10 ;
INFO  19:15:30,865 - #28 niz
INFO  19:15:30,865 - #11 =
INFO  19:15:30,865 - #5 new
INFO  19:15:30,865 - #28 int
INFO  19:15:30,865 - #15 [
INFO  19:15:30,865 - #27 2
INFO  19:15:30,865 - #16 ]
ERROR 19:15:30,865 - 
Sintaksna greska na liniji 30
INFO  19:15:30,865 - #10 ;
INFO  19:15:30,865 - #28 niz
INFO  19:15:30,865 - #15 [
INFO  19:15:30,865 - #28 nula
INFO  19:15:30,865 - #16 ]
INFO  19:15:30,865 - #11 =
INFO  19:15:30,865 - #28 pet
INFO  19:15:30,865 - #10 ;
INFO  19:15:30,865 - #28 niz
INFO  19:15:30,865 - #15 [
INFO  19:15:30,865 - #27 1
INFO  19:15:30,865 - #16 ]
INFO  19:15:30,865 - #11 =
INFO  19:15:30,865 - #28 Broj
INFO  19:15:30,865 - #19 .
INFO  19:15:30,865 - #28 DESET
INFO  19:15:30,865 - #10 ;
INFO  19:15:30,865 - #28 bodovi
INFO  19:15:30,865 - #11 =
INFO  19:15:30,865 - #28 niz
INFO  19:15:30,865 - Oporavak od greske u konstrukciji iskaza dodele na liniji 1
INFO  19:15:30,865 - #15 [
ERROR 19:15:30,865 - 
Sintaksna greska na liniji 33
INFO  19:15:30,865 - #27 1
INFO  19:15:30,865 - #16 ]
INFO  19:15:30,865 - #25 /
INFO  19:15:30,865 - #28 niz
INFO  19:15:30,865 - #15 [
INFO  19:15:30,865 - #27 0
INFO  19:15:30,865 - #16 ]
INFO  19:15:30,865 - #10 ;
INFO  19:15:30,865 - #4 print
INFO  19:15:30,865 - #13 (
INFO  19:15:30,865 - #28 bodovi
INFO  19:15:30,865 - Oporavak od greske u konstrukciji iskaza dodele na liniji 1
INFO  19:15:30,880 - #14 )
INFO  19:15:30,880 - #10 ;
INFO  19:15:30,880 - #4 print
INFO  19:15:30,880 - #13 (
INFO  19:15:30,880 - #28 niz
INFO  19:15:30,880 - #15 [
ERROR 19:15:30,880 - 
Sintaksna greska na liniji 35
INFO  19:15:30,880 - #28 Broj
INFO  19:15:30,880 - #19 .
INFO  19:15:30,880 - #28 JEDAN
INFO  19:15:30,880 - #16 ]
INFO  19:15:30,880 - #14 )
INFO  19:15:30,880 - #10 ;
INFO  19:15:30,880 - #28 nizch
INFO  19:15:30,880 - #11 =
INFO  19:15:30,880 - #5 new
INFO  19:15:30,880 - Oporavak od greske u konstrukciji iskaza dodele na liniji 1
INFO  19:15:30,880 - #28 char
INFO  19:15:30,880 - #15 [
INFO  19:15:30,880 - #27 3
INFO  19:15:30,880 - #16 ]
ERROR 19:15:30,880 - 
Sintaksna greska na liniji 38
INFO  19:15:30,880 - #10 ;
INFO  19:15:30,880 - #28 nizch
INFO  19:15:30,880 - #15 [
INFO  19:15:30,880 - #27 0
INFO  19:15:30,880 - #16 ]
INFO  19:15:30,880 - #11 =
INFO  19:15:30,880 - #29 a
INFO  19:15:30,880 - #10 ;
INFO  19:15:30,880 - #28 nizch
INFO  19:15:30,880 - #15 [
INFO  19:15:30,880 - #28 jedan
INFO  19:15:30,880 - #16 ]
INFO  19:15:30,880 - #11 =
INFO  19:15:30,880 - #29 b
INFO  19:15:30,880 - #10 ;
INFO  19:15:30,880 - #28 nizch
INFO  19:15:30,880 - #15 [
INFO  19:15:30,880 - #28 pet
INFO  19:15:30,880 - #22 -
INFO  19:15:30,880 - #27 3
INFO  19:15:30,880 - #16 ]
INFO  19:15:30,880 - #11 =
INFO  19:15:30,880 - #29 c
INFO  19:15:30,880 - #10 ;
INFO  19:15:30,880 - #4 print
INFO  19:15:30,896 - #13 (
INFO  19:15:30,896 - #28 nizch
INFO  19:15:30,896 - Oporavak od greske u konstrukciji iskaza dodele na liniji 1
INFO  19:15:30,896 - #15 [
ERROR 19:15:30,896 - 
Sintaksna greska na liniji 42
INFO  19:15:30,896 - #27 2
INFO  19:15:30,896 - #22 -
INFO  19:15:30,896 - #27 1
INFO  19:15:30,896 - #16 ]
INFO  19:15:30,896 - #14 )
INFO  19:15:30,896 - #10 ;
INFO  19:15:30,896 - #4 print
INFO  19:15:30,896 - #13 (
INFO  19:15:30,896 - #28 nizch
INFO  19:15:30,896 - Oporavak od greske u konstrukciji iskaza dodele na liniji 1
INFO  19:15:30,896 - #15 [
ERROR 19:15:30,896 - 
Sintaksna greska na liniji 43
INFO  19:15:30,896 - #28 jedan
INFO  19:15:30,896 - #24 *
INFO  19:15:30,896 - #27 2
INFO  19:15:30,896 - #16 ]
INFO  19:15:30,896 - #14 )
INFO  19:15:30,896 - #10 ;
INFO  19:15:30,896 - #28 bodovi
INFO  19:15:30,896 - #11 =
INFO  19:15:30,896 - #28 bodovi
INFO  19:15:30,896 - Oporavak od greske u konstrukciji iskaza dodele na liniji 1
INFO  19:15:30,896 - #23 +
INFO  19:15:30,896 - #13 (
INFO  19:15:30,896 - #13 (
INFO  19:15:30,896 - #28 pet
INFO  19:15:30,896 - #24 *
INFO  19:15:30,896 - #28 jedan
INFO  19:15:30,896 - #22 -
INFO  19:15:30,896 - #27 1
INFO  19:15:30,896 - #14 )
ERROR 19:15:30,896 - 
Sintaksna greska na liniji 46
INFO  19:15:30,896 - #24 *
INFO  19:15:30,896 - #27 2
INFO  19:15:30,896 - #22 -
INFO  19:15:30,896 - #13 (
INFO  19:15:30,896 - #27 3
INFO  19:15:30,896 - #26 %
INFO  19:15:30,896 - #27 2
INFO  19:15:30,896 - #23 +
INFO  19:15:30,896 - #27 3
INFO  19:15:30,896 - #24 *
INFO  19:15:30,896 - #27 2
INFO  19:15:30,896 - #22 -
INFO  19:15:30,896 - #27 3
INFO  19:15:30,896 - #14 )
INFO  19:15:30,896 - #22 -
INFO  19:15:30,896 - #28 Broj
INFO  19:15:30,896 - #19 .
INFO  19:15:30,896 - #28 JEDAN
INFO  19:15:30,896 - #24 *
INFO  19:15:30,896 - #27 0
INFO  19:15:30,896 - #14 )
INFO  19:15:30,896 - #10 ;
INFO  19:15:30,896 - #4 print
INFO  19:15:30,896 - #13 (
INFO  19:15:30,896 - #28 bodovi
INFO  19:15:30,896 - Oporavak od greske u konstrukciji iskaza dodele na liniji 1
INFO  19:15:30,896 - #14 )
INFO  19:15:30,896 - #10 ;
INFO  19:15:30,896 - #3 read
INFO  19:15:30,896 - #13 (
INFO  19:15:30,896 - #28 bodovi
INFO  19:15:30,896 - #14 )
INFO  19:15:30,896 - #10 ;
INFO  19:15:30,896 - #28 bodovi
INFO  19:15:30,896 - #11 =
INFO  19:15:30,896 - #28 bodovi
INFO  19:15:30,896 - #23 +
INFO  19:15:30,896 - #27 1
INFO  19:15:30,896 - #10 ;
INFO  19:15:30,896 - #4 print
ERROR 19:15:30,896 - 
Sintaksna greska na liniji 52
INFO  19:15:30,896 - #13 (
INFO  19:15:30,896 - #28 bodovi
INFO  19:15:30,896 - #14 )
INFO  19:15:30,896 - #10 ;
INFO  19:15:30,896 - #18 }
INFO  19:15:30,896 - #18 }
INFO  19:15:30,896 - Oporavak od greske u konstrukciji iskaza dodele na liniji 1
INFO  19:15:30,912 - Program(
  ProgName(
   test301
  ) [ProgName]
  GlobalDeclListL(
    GlobalDeclListL(
      GlobalDeclListL(
        GlobalDeclListL(
          GlobalDeclListL(
            GlobalDeclListL(
              GlobalDeclListEps(
              ) [GlobalDeclListEps]
              GlobalDeclEnum(
                EnumDecl(
                 Broj
                  EnumDeclListL(
                    EnumDeclListL(
                      EnumDeclListL(
                        EnumDeclItem(
                          EnumDeclDefNoVal(
                           NULA
                          ) [EnumDeclDefNoVal]
                        ) [EnumDeclItem]
                        EnumDeclDefNoVal(
                         JEDAN
                        ) [EnumDeclDefNoVal]
                      ) [EnumDeclListL]
                      EnumDeclDefVal(
                       PET
                       5
                      ) [EnumDeclDefVal]
                    ) [EnumDeclListL]
                    EnumDeclDefVal(
                     DESET
                     10
                    ) [EnumDeclDefVal]
                  ) [EnumDeclListL]
                ) [EnumDecl]
              ) [GlobalDeclEnum]
            ) [GlobalDeclListL]
            GlobalDeclConst(
              ConstDeclSingle(
                Type(
                 int
                ) [Type]
               jedan
                ConstNum(
                 1
                ) [ConstNum]
              ) [ConstDeclSingle]
            ) [GlobalDeclConst]
          ) [GlobalDeclListL]
          GlobalDeclConst(
            ConstDeclSingle(
              Type(
               int
              ) [Type]
             pet
              ConstNum(
               5
              ) [ConstNum]
            ) [ConstDeclSingle]
          ) [GlobalDeclConst]
        ) [GlobalDeclListL]
        GlobalDeclConst(
          ConstDeclSingle(
            Type(
             char
            ) [Type]
           znak
            ConstChar(
             a
            ) [ConstChar]
          ) [ConstDeclSingle]
        ) [GlobalDeclConst]
      ) [GlobalDeclListL]
      GlobalDeclVar(
        GlobalVarDecl(
          Type(
           int
          ) [Type]
          GlobalVarDeclItem(
            GlobalVarDeclDefOk(
              VarDeclDefineArray(
               niz
              ) [VarDeclDefineArray]
            ) [GlobalVarDeclDefOk]
          ) [GlobalVarDeclItem]
        ) [GlobalVarDecl]
      ) [GlobalDeclVar]
    ) [GlobalDeclListL]
    GlobalDeclVar(
      GlobalVarDecl(
        Type(
         char
        ) [Type]
        GlobalVarDeclItem(
          GlobalVarDeclDefOk(
            VarDeclDefineArray(
             nizch
            ) [VarDeclDefineArray]
          ) [GlobalVarDeclDefOk]
        ) [GlobalVarDeclItem]
      ) [GlobalVarDecl]
    ) [GlobalDeclVar]
  ) [GlobalDeclListL]
  MethodDecl(
    MethodSignature(
      VoidableType(
      ) [VoidableType]
     main
    ) [MethodSignature]
    VarMethodDeclList_NoEps(
      VarMethodDeclList_NoEps(
        VarMethodDeclList_Eps(
        ) [VarMethodDeclList_Eps]
        VarDecl(
          Type(
           int
          ) [Type]
          VarDeclItem(
            VarDeclDefineSingle(
             bodovi
            ) [VarDeclDefineSingle]
          ) [VarDeclItem]
        ) [VarDecl]
      ) [VarMethodDeclList_NoEps]
      VarDecl(
        Type(
         Broj
        ) [Type]
        VarDeclListL(
          VarDeclItem(
            VarDeclDefineSingle(
             nula
            ) [VarDeclDefineSingle]
          ) [VarDeclItem]
          VarDeclDefineSingle(
           jedan
          ) [VarDeclDefineSingle]
        ) [VarDeclListL]
      ) [VarDecl]
    ) [VarMethodDeclList_NoEps]
    StatementList_NoEps(
      StatementList_NoEps(
        StatementList_NoEps(
          StatementList_NoEps(
            StatementList_NoEps(
              StatementList_NoEps(
                StatementList_NoEps(
                  StatementList_NoEps(
                    StatementList_NoEps(
                      StatementList_NoEps(
                        StatementList_NoEps(
                          StatementList_NoEps(
                            StatementList_NoEps(
                              StatementList_NoEps(
                                StatementList_NoEps(
                                  StatementList_NoEps(
                                    StatementList_NoEps(
                                      StatementList_NoEps(
                                        StatementList_Eps(
                                        ) [StatementList_Eps]
                                        StatementDes(
                                          AssignementExprError(
                                          ) [AssignementExprError]
                                        ) [StatementDes]
                                      ) [StatementList_NoEps]
                                      StatementDes(
                                        AssignementExprError(
                                        ) [AssignementExprError]
                                      ) [StatementDes]
                                    ) [StatementList_NoEps]
                                    StatementDes(
                                      AssignementExprError(
                                      ) [AssignementExprError]
                                    ) [StatementDes]
                                  ) [StatementList_NoEps]
                                  StatementDes(
                                    DesignStatAssignment(
                                      Des(
                                       bodovi
                                      ) [Des]
                                      AddopExp(
                                        TermExpr(
                                          TermFact(
                                            FactorDesign(
                                              Des(
                                               bodovi
                                              ) [Des]
                                            ) [FactorDesign]
                                          ) [TermFact]
                                        ) [TermExpr]
                                        Addop(
                                        ) [Addop]
                                        TermFact(
                                          FactorDesign(
                                            Des(
                                             jedan
                                            ) [Des]
                                          ) [FactorDesign]
                                        ) [TermFact]
                                      ) [AddopExp]
                                    ) [DesignStatAssignment]
                                  ) [StatementDes]
                                ) [StatementList_NoEps]
                                StatementDes(
                                  DesignStatAssignment(
                                    Des(
                                     bodovi
                                    ) [Des]
                                    TermExpr(
                                      TermMulop(
                                        TermFact(
                                          FactorDesign(
                                            Des(
                                             bodovi
                                            ) [Des]
                                          ) [FactorDesign]
                                        ) [TermFact]
                                        Mulop(
                                        ) [Mulop]
                                        FactorDesign(
                                          Des(
                                           pet
                                          ) [Des]
                                        ) [FactorDesign]
                                      ) [TermMulop]
                                    ) [TermExpr]
                                  ) [DesignStatAssignment]
                                ) [StatementDes]
                              ) [StatementList_NoEps]
                              StatementDes(
                                DesignStatDec(
                                  Des(
                                   bodovi
                                  ) [Des]
                                ) [DesignStatDec]
                              ) [StatementDes]
                            ) [StatementList_NoEps]
                            StatPrint(
                              TermExpr(
                                TermFact(
                                  FactorDesign(
                                    Des(
                                     bodovi
                                    ) [Des]
                                  ) [FactorDesign]
                                ) [TermFact]
                              ) [TermExpr]
                            ) [StatPrint]
                          ) [StatementList_NoEps]
                          StatementDes(
                            AssignementExprError(
                            ) [AssignementExprError]
                          ) [StatementDes]
                        ) [StatementList_NoEps]
                        StatementDes(
                          AssignementExprError(
                          ) [AssignementExprError]
                        ) [StatementDes]
                      ) [StatementList_NoEps]
                      StatPrint(
                        TermExpr(
                          TermFact(
                            FactorDesign(
                              Des(
                               bodovi
                              ) [Des]
                            ) [FactorDesign]
                          ) [TermFact]
                        ) [TermExpr]
                      ) [StatPrint]
                    ) [StatementList_NoEps]
                    StatementDes(
                      AssignementExprError(
                      ) [AssignementExprError]
                    ) [StatementDes]
                  ) [StatementList_NoEps]
                  StatementDes(
                    AssignementExprError(
                    ) [AssignementExprError]
                  ) [StatementDes]
                ) [StatementList_NoEps]
                StatementDes(
                  AssignementExprError(
                  ) [AssignementExprError]
                ) [StatementDes]
              ) [StatementList_NoEps]
              StatementDes(
                AssignementExprError(
                ) [AssignementExprError]
              ) [StatementDes]
            ) [StatementList_NoEps]
            StatementDes(
              AssignementExprError(
              ) [AssignementExprError]
            ) [StatementDes]
          ) [StatementList_NoEps]
          StatPrint(
            TermExpr(
              TermFact(
                FactorDesign(
                  Des(
                   bodovi
                  ) [Des]
                ) [FactorDesign]
              ) [TermFact]
            ) [TermExpr]
          ) [StatPrint]
        ) [StatementList_NoEps]
        StatRead(
          Des(
           bodovi
          ) [Des]
        ) [StatRead]
      ) [StatementList_NoEps]
      StatementDes(
        AssignementExprError(
        ) [AssignementExprError]
      ) [StatementDes]
    ) [StatementList_NoEps]
  ) [MethodDecl]
) [Program]
INFO  19:15:30,912 - ===================================
