INFO  16:41:01,658 - Compiling source file: C:\Users\ikadr\Desktop\PP\Projekat\Rad\workspace\MJCompiler\test\program.mj
INFO  16:41:01,724 - #2 program
INFO  16:41:01,724 - #28 test301
INFO  16:41:01,724 - #8 const
INFO  16:41:01,726 - #28 int
INFO  16:41:01,726 - #28 jedan
INFO  16:41:01,727 - #11 =
INFO  16:41:01,728 - #27 1
INFO  16:41:01,728 - #10 ;
INFO  16:41:01,730 - #8 const
INFO  16:41:01,731 - #28 int
INFO  16:41:01,731 - #28 pet
INFO  16:41:01,731 - #11 =
INFO  16:41:01,731 - #27 5
INFO  16:41:01,731 - #10 ;
INFO  16:41:01,731 - #28 int
INFO  16:41:01,732 - #28 niz
INFO  16:41:01,732 - #15 [
INFO  16:41:01,732 - #16 ]
INFO  16:41:01,732 - #10 ;
INFO  16:41:01,732 - #28 char
INFO  16:41:01,734 - #28 nizch
INFO  16:41:01,735 - #15 [
INFO  16:41:01,735 - #16 ]
INFO  16:41:01,735 - #10 ;
INFO  16:41:01,735 - #17 {
INFO  16:41:01,735 - #6 void
INFO  16:41:01,735 - #28 main
INFO  16:41:01,736 - #13 (
INFO  16:41:01,736 - #14 )
INFO  16:41:01,736 - #28 int
INFO  16:41:01,738 - #28 bodovi
INFO  16:41:01,738 - #10 ;
INFO  16:41:01,738 - #28 char
INFO  16:41:01,739 - #28 a
INFO  16:41:01,739 - #10 ;
INFO  16:41:01,739 - #28 bool
INFO  16:41:01,740 - #28 b
INFO  16:41:01,740 - #10 ;
INFO  16:41:01,740 - #17 {
INFO  16:41:01,740 - #28 b
INFO  16:41:01,741 - #11 =
INFO  16:41:01,741 - #30 true
INFO  16:41:01,741 - #10 ;
INFO  16:41:01,742 - #4 print
INFO  16:41:01,743 - #13 (
INFO  16:41:01,743 - #28 b
INFO  16:41:01,743 - #14 )
INFO  16:41:01,743 - #10 ;
INFO  16:41:01,743 - #28 bodovi
INFO  16:41:01,743 - #11 =
INFO  16:41:01,744 - #27 5
INFO  16:41:01,744 - #10 ;
INFO  16:41:01,744 - #4 print
INFO  16:41:01,744 - #13 (
INFO  16:41:01,744 - #28 bodovi
INFO  16:41:01,744 - #14 )
INFO  16:41:01,745 - #10 ;
INFO  16:41:01,746 - #4 print
INFO  16:41:01,747 - #13 (
INFO  16:41:01,747 - #29 b
INFO  16:41:01,747 - #12 ,
INFO  16:41:01,747 - #27 3
INFO  16:41:01,748 - #14 )
INFO  16:41:01,748 - #10 ;
INFO  16:41:01,748 - #4 print
INFO  16:41:01,748 - #13 (
INFO  16:41:01,748 - #29 r
INFO  16:41:01,748 - #12 ,
INFO  16:41:01,753 - #27 1
INFO  16:41:01,753 - #14 )
INFO  16:41:01,753 - #10 ;
INFO  16:41:01,753 - #4 print
INFO  16:41:01,754 - #13 (
INFO  16:41:01,754 - #29 o
INFO  16:41:01,754 - #12 ,
INFO  16:41:01,754 - #27 1
INFO  16:41:01,754 - #14 )
INFO  16:41:01,754 - #10 ;
INFO  16:41:01,754 - #4 print
INFO  16:41:01,754 - #13 (
INFO  16:41:01,754 - #29 j
INFO  16:41:01,754 - #12 ,
INFO  16:41:01,755 - #27 1
INFO  16:41:01,755 - #14 )
INFO  16:41:01,755 - #10 ;
INFO  16:41:01,755 - #4 print
INFO  16:41:01,755 - #13 (
INFO  16:41:01,755 - #29 :
INFO  16:41:01,756 - #12 ,
INFO  16:41:01,756 - #27 1
INFO  16:41:01,756 - #14 )
INFO  16:41:01,756 - #10 ;
INFO  16:41:01,756 - #3 read
INFO  16:41:01,756 - #13 (
INFO  16:41:01,756 - #28 bodovi
INFO  16:41:01,757 - #14 )
INFO  16:41:01,757 - #10 ;
INFO  16:41:01,757 - #28 bodovi
INFO  16:41:01,758 - #11 =
INFO  16:41:01,758 - #28 bodovi
INFO  16:41:01,758 - #23 +
INFO  16:41:01,758 - #27 1
INFO  16:41:01,760 - #10 ;
INFO  16:41:01,761 - #4 print
INFO  16:41:01,761 - #13 (
INFO  16:41:01,761 - #28 bodovi
INFO  16:41:01,761 - #14 )
INFO  16:41:01,761 - #10 ;
INFO  16:41:01,761 - #4 print
INFO  16:41:01,761 - #13 (
INFO  16:41:01,762 - #29 c
INFO  16:41:01,762 - #12 ,
INFO  16:41:01,762 - #27 3
INFO  16:41:01,762 - #14 )
INFO  16:41:01,763 - #10 ;
INFO  16:41:01,763 - #4 print
INFO  16:41:01,763 - #13 (
INFO  16:41:01,763 - #29 h
INFO  16:41:01,763 - #12 ,
INFO  16:41:01,763 - #27 1
INFO  16:41:01,763 - #14 )
INFO  16:41:01,763 - #10 ;
INFO  16:41:01,763 - #4 print
INFO  16:41:01,764 - #13 (
INFO  16:41:01,764 - #29 a
INFO  16:41:01,764 - #12 ,
INFO  16:41:01,764 - #27 1
INFO  16:41:01,764 - #14 )
INFO  16:41:01,764 - #10 ;
INFO  16:41:01,764 - #4 print
INFO  16:41:01,764 - #13 (
INFO  16:41:01,764 - #29 r
INFO  16:41:01,764 - #12 ,
INFO  16:41:01,765 - #27 1
INFO  16:41:01,765 - #14 )
INFO  16:41:01,765 - #10 ;
INFO  16:41:01,765 - #4 print
INFO  16:41:01,765 - #13 (
INFO  16:41:01,765 - #29 :
INFO  16:41:01,765 - #12 ,
INFO  16:41:01,765 - #27 1
INFO  16:41:01,765 - #14 )
INFO  16:41:01,765 - #10 ;
INFO  16:41:01,765 - #3 read
INFO  16:41:01,765 - #13 (
INFO  16:41:01,765 - #28 a
INFO  16:41:01,765 - #14 )
INFO  16:41:01,766 - #10 ;
INFO  16:41:01,766 - #4 print
INFO  16:41:01,766 - #13 (
INFO  16:41:01,766 - #28 a
INFO  16:41:01,766 - #14 )
INFO  16:41:01,766 - #10 ;
INFO  16:41:01,766 - #18 }
INFO  16:41:01,766 - #18 }
INFO  16:41:01,789 - Program(
  ProgName(
   test301
  ) [ProgName]
  GlobalDeclListL(
    GlobalDeclListL(
      GlobalDeclListL(
        GlobalDeclListL(
          GlobalDeclListEps(
          ) [GlobalDeclListEps]
          GlobalDeclConst(
            ConstDecl(
              Type(
               int
              ) [Type]
              ConstDeclItem(
                ConstDef(
                 jedan
                  ConstNum(
                   1
                  ) [ConstNum]
                ) [ConstDef]
              ) [ConstDeclItem]
            ) [ConstDecl]
          ) [GlobalDeclConst]
        ) [GlobalDeclListL]
        GlobalDeclConst(
          ConstDecl(
            Type(
             int
            ) [Type]
            ConstDeclItem(
              ConstDef(
               pet
                ConstNum(
                 5
                ) [ConstNum]
              ) [ConstDef]
            ) [ConstDeclItem]
          ) [ConstDecl]
        ) [GlobalDeclConst]
      ) [GlobalDeclListL]
      GlobalDeclVar(
        GlobalVarDecl(
          Type(
           int
          ) [Type]
          GlobalVarDeclItem(
            GlobalVarDeclDefOk(
              VarDeclDefineArray(
               niz
              ) [VarDeclDefineArray]
            ) [GlobalVarDeclDefOk]
          ) [GlobalVarDeclItem]
        ) [GlobalVarDecl]
      ) [GlobalDeclVar]
    ) [GlobalDeclListL]
    GlobalDeclVar(
      GlobalVarDecl(
        Type(
         char
        ) [Type]
        GlobalVarDeclItem(
          GlobalVarDeclDefOk(
            VarDeclDefineArray(
             nizch
            ) [VarDeclDefineArray]
          ) [GlobalVarDeclDefOk]
        ) [GlobalVarDeclItem]
      ) [GlobalVarDecl]
    ) [GlobalDeclVar]
  ) [GlobalDeclListL]
  MethodDecl(
    MethodSignature(
      VoidableType(
      ) [VoidableType]
     main
    ) [MethodSignature]
    VarMethodDeclList_NoEps(
      VarMethodDeclList_NoEps(
        VarMethodDeclList_NoEps(
          VarMethodDeclList_Eps(
          ) [VarMethodDeclList_Eps]
          VarDecl(
            Type(
             int
            ) [Type]
            VarDeclItem(
              VarDeclDefineSingle(
               bodovi
              ) [VarDeclDefineSingle]
            ) [VarDeclItem]
          ) [VarDecl]
        ) [VarMethodDeclList_NoEps]
        VarDecl(
          Type(
           char
          ) [Type]
          VarDeclItem(
            VarDeclDefineSingle(
             a
            ) [VarDeclDefineSingle]
          ) [VarDeclItem]
        ) [VarDecl]
      ) [VarMethodDeclList_NoEps]
      VarDecl(
        Type(
         bool
        ) [Type]
        VarDeclItem(
          VarDeclDefineSingle(
           b
          ) [VarDeclDefineSingle]
        ) [VarDeclItem]
      ) [VarDecl]
    ) [VarMethodDeclList_NoEps]
    StatementList_NoEps(
      StatementList_NoEps(
        StatementList_NoEps(
          StatementList_NoEps(
            StatementList_NoEps(
              StatementList_NoEps(
                StatementList_NoEps(
                  StatementList_NoEps(
                    StatementList_NoEps(
                      StatementList_NoEps(
                        StatementList_NoEps(
                          StatementList_NoEps(
                            StatementList_NoEps(
                              StatementList_NoEps(
                                StatementList_NoEps(
                                  StatementList_NoEps(
                                    StatementList_NoEps(
                                      StatementList_NoEps(
                                        StatementList_NoEps(
                                          StatementList_Eps(
                                          ) [StatementList_Eps]
                                          StatementDes(
                                            DesignStatAssignment(
                                              DesIdent(
                                               b
                                              ) [DesIdent]
                                              AssignementExpr(
                                                TermExpr(
                                                  TermFact(
                                                    FactorConst(
                                                      ConstBool(
                                                       true
                                                      ) [ConstBool]
                                                    ) [FactorConst]
                                                  ) [TermFact]
                                                ) [TermExpr]
                                              ) [AssignementExpr]
                                            ) [DesignStatAssignment]
                                          ) [StatementDes]
                                        ) [StatementList_NoEps]
                                        StatPrint(
                                          TermExpr(
                                            TermFact(
                                              FactorDesign(
                                                DesIdent(
                                                 b
                                                ) [DesIdent]
                                              ) [FactorDesign]
                                            ) [TermFact]
                                          ) [TermExpr]
                                        ) [StatPrint]
                                      ) [StatementList_NoEps]
                                      StatementDes(
                                        DesignStatAssignment(
                                          DesIdent(
                                           bodovi
                                          ) [DesIdent]
                                          AssignementExpr(
                                            TermExpr(
                                              TermFact(
                                                FactorConst(
                                                  ConstNum(
                                                   5
                                                  ) [ConstNum]
                                                ) [FactorConst]
                                              ) [TermFact]
                                            ) [TermExpr]
                                          ) [AssignementExpr]
                                        ) [DesignStatAssignment]
                                      ) [StatementDes]
                                    ) [StatementList_NoEps]
                                    StatPrint(
                                      TermExpr(
                                        TermFact(
                                          FactorDesign(
                                            DesIdent(
                                             bodovi
                                            ) [DesIdent]
                                          ) [FactorDesign]
                                        ) [TermFact]
                                      ) [TermExpr]
                                    ) [StatPrint]
                                  ) [StatementList_NoEps]
                                  StatPrintParam(
                                    TermExpr(
                                      TermFact(
                                        FactorConst(
                                          ConstChar(
                                           b
                                          ) [ConstChar]
                                        ) [FactorConst]
                                      ) [TermFact]
                                    ) [TermExpr]
                                   3
                                  ) [StatPrintParam]
                                ) [StatementList_NoEps]
                                StatPrintParam(
                                  TermExpr(
                                    TermFact(
                                      FactorConst(
                                        ConstChar(
                                         r
                                        ) [ConstChar]
                                      ) [FactorConst]
                                    ) [TermFact]
                                  ) [TermExpr]
                                 1
                                ) [StatPrintParam]
                              ) [StatementList_NoEps]
                              StatPrintParam(
                                TermExpr(
                                  TermFact(
                                    FactorConst(
                                      ConstChar(
                                       o
                                      ) [ConstChar]
                                    ) [FactorConst]
                                  ) [TermFact]
                                ) [TermExpr]
                               1
                              ) [StatPrintParam]
                            ) [StatementList_NoEps]
                            StatPrintParam(
                              TermExpr(
                                TermFact(
                                  FactorConst(
                                    ConstChar(
                                     j
                                    ) [ConstChar]
                                  ) [FactorConst]
                                ) [TermFact]
                              ) [TermExpr]
                             1
                            ) [StatPrintParam]
                          ) [StatementList_NoEps]
                          StatPrintParam(
                            TermExpr(
                              TermFact(
                                FactorConst(
                                  ConstChar(
                                   :
                                  ) [ConstChar]
                                ) [FactorConst]
                              ) [TermFact]
                            ) [TermExpr]
                           1
                          ) [StatPrintParam]
                        ) [StatementList_NoEps]
                        StatRead(
                          DesIdent(
                           bodovi
                          ) [DesIdent]
                        ) [StatRead]
                      ) [StatementList_NoEps]
                      StatementDes(
                        DesignStatAssignment(
                          DesIdent(
                           bodovi
                          ) [DesIdent]
                          AssignementExpr(
                            AddopExp(
                              TermExpr(
                                TermFact(
                                  FactorDesign(
                                    DesIdent(
                                     bodovi
                                    ) [DesIdent]
                                  ) [FactorDesign]
                                ) [TermFact]
                              ) [TermExpr]
                              Addop_Plus(
                              ) [Addop_Plus]
                              TermFact(
                                FactorConst(
                                  ConstNum(
                                   1
                                  ) [ConstNum]
                                ) [FactorConst]
                              ) [TermFact]
                            ) [AddopExp]
                          ) [AssignementExpr]
                        ) [DesignStatAssignment]
                      ) [StatementDes]
                    ) [StatementList_NoEps]
                    StatPrint(
                      TermExpr(
                        TermFact(
                          FactorDesign(
                            DesIdent(
                             bodovi
                            ) [DesIdent]
                          ) [FactorDesign]
                        ) [TermFact]
                      ) [TermExpr]
                    ) [StatPrint]
                  ) [StatementList_NoEps]
                  StatPrintParam(
                    TermExpr(
                      TermFact(
                        FactorConst(
                          ConstChar(
                           c
                          ) [ConstChar]
                        ) [FactorConst]
                      ) [TermFact]
                    ) [TermExpr]
                   3
                  ) [StatPrintParam]
                ) [StatementList_NoEps]
                StatPrintParam(
                  TermExpr(
                    TermFact(
                      FactorConst(
                        ConstChar(
                         h
                        ) [ConstChar]
                      ) [FactorConst]
                    ) [TermFact]
                  ) [TermExpr]
                 1
                ) [StatPrintParam]
              ) [StatementList_NoEps]
              StatPrintParam(
                TermExpr(
                  TermFact(
                    FactorConst(
                      ConstChar(
                       a
                      ) [ConstChar]
                    ) [FactorConst]
                  ) [TermFact]
                ) [TermExpr]
               1
              ) [StatPrintParam]
            ) [StatementList_NoEps]
            StatPrintParam(
              TermExpr(
                TermFact(
                  FactorConst(
                    ConstChar(
                     r
                    ) [ConstChar]
                  ) [FactorConst]
                ) [TermFact]
              ) [TermExpr]
             1
            ) [StatPrintParam]
          ) [StatementList_NoEps]
          StatPrintParam(
            TermExpr(
              TermFact(
                FactorConst(
                  ConstChar(
                   :
                  ) [ConstChar]
                ) [FactorConst]
              ) [TermFact]
            ) [TermExpr]
           1
          ) [StatPrintParam]
        ) [StatementList_NoEps]
        StatRead(
          DesIdent(
           a
          ) [DesIdent]
        ) [StatRead]
      ) [StatementList_NoEps]
      StatPrint(
        TermExpr(
          TermFact(
            FactorDesign(
              DesIdent(
               a
              ) [DesIdent]
            ) [FactorDesign]
          ) [TermFact]
        ) [TermExpr]
      ) [StatPrint]
    ) [StatementList_NoEps]
  ) [MethodDecl]
) [Program]
INFO  16:41:01,790 - ===================================
INFO  16:41:01,796 - Deklarisana konstanta 'jedan' na liniji 5
INFO  16:41:01,797 - Deklarisana konstanta 'pet' na liniji 6
INFO  16:41:01,797 - Deklarisana promenljiva niza niz tipa 1 na liniji 7
INFO  16:41:01,797 - Deklarisana promenljiva niza nizch tipa 2 na liniji 8
INFO  16:41:01,797 - Obradjuje se funkcija main na liniji 11
INFO  16:41:01,797 - Deklarisana promenljiva bodovi tipa 1 na liniji 12
INFO  16:41:01,797 - Deklarisana promenljiva a tipa 2 na liniji 13
INFO  16:41:01,797 - Deklarisana promenljiva b tipa 5 na liniji 14
INFO  16:41:01,798 - Dodeljenja vrednost: 5 je design,5 je assign
INFO  16:41:01,798 - Print funkcija na liniji 17
INFO  16:41:01,798 - Dodeljenja vrednost: 1 je design,1 je assign
INFO  16:41:01,798 - Print funkcija na liniji 20
INFO  16:41:01,798 - Print funkcija na liniji 21
INFO  16:41:01,798 - Print funkcija na liniji 21
INFO  16:41:01,798 - Print funkcija na liniji 21
INFO  16:41:01,798 - Print funkcija na liniji 21
INFO  16:41:01,798 - Print funkcija na liniji 21
INFO  16:41:01,798 - Read funkcija na liniji 22
INFO  16:41:01,798 - Dodeljenja vrednost: 1 je design,1 je assign
INFO  16:41:01,798 - Print funkcija na liniji 24
INFO  16:41:01,798 - Print funkcija na liniji 26
INFO  16:41:01,798 - Print funkcija na liniji 26
INFO  16:41:01,799 - Print funkcija na liniji 26
INFO  16:41:01,799 - Print funkcija na liniji 26
INFO  16:41:01,799 - Print funkcija na liniji 26
INFO  16:41:01,799 - Read funkcija na liniji 27
INFO  16:41:01,799 - Print funkcija na liniji 28
INFO  16:41:01,799 -  Print count calls = 14
INFO  16:41:01,799 -  Deklarisanih promenljivih ima = 5
INFO  16:41:01,809 - USAO
INFO  16:41:01,809 - Parsiranje uspesno zavrseno!
