INFO  18:51:46,516 - Compiling source file: C:\Users\ikadr\Desktop\PP\Projekat\Rad\workspace\MJCompiler\test\program.mj
INFO  18:51:46,582 - #2 program
INFO  18:51:46,582 - #28 prvi
INFO  18:51:46,582 - #9 enum
INFO  18:51:46,584 - #28 Broj
INFO  18:51:46,584 - #17 {
INFO  18:51:46,585 - #28 NULA
INFO  18:51:46,585 - #12 ,
INFO  18:51:46,586 - #28 JEDAN
INFO  18:51:46,586 - #12 ,
INFO  18:51:46,586 - #28 PET
INFO  18:51:46,586 - #11 =
INFO  18:51:46,586 - #27 5
INFO  18:51:46,586 - #12 ,
INFO  18:51:46,587 - #28 DESET
INFO  18:51:46,587 - #11 =
INFO  18:51:46,587 - #27 10
INFO  18:51:46,587 - #18 }
INFO  18:51:46,587 - #9 enum
INFO  18:51:46,588 - #28 Oblik
INFO  18:51:46,588 - #17 {
INFO  18:51:46,589 - #28 KOCKA
INFO  18:51:46,624 - #12 ,
INFO  18:51:46,624 - #28 KVADAR
INFO  18:51:46,624 - #11 =
INFO  18:51:46,624 - #27 5
INFO  18:51:46,624 - #12 ,
INFO  18:51:46,625 - #28 KUPA
INFO  18:51:46,625 - #18 }
INFO  18:51:46,625 - #28 int
INFO  18:51:46,626 - #28 bodovi
INFO  18:51:46,629 - #10 ;
INFO  18:51:46,630 - #17 {
INFO  18:51:46,634 - #6 void
INFO  18:51:46,634 - #28 main
INFO  18:51:46,638 - #13 (
INFO  18:51:46,638 - #14 )
INFO  18:51:46,638 - #28 Broj
INFO  18:51:46,643 - #28 nula
INFO  18:51:46,644 - #12 ,
INFO  18:51:46,644 - #28 jedan
INFO  18:51:46,644 - #10 ;
INFO  18:51:46,645 - #28 Oblik
INFO  18:51:46,649 - #28 ob
INFO  18:51:46,649 - #10 ;
INFO  18:51:46,649 - #17 {
INFO  18:51:46,650 - #28 ob
INFO  18:51:46,651 - #11 =
INFO  18:51:46,651 - #28 Oblik
INFO  18:51:46,651 - #19 .
INFO  18:51:46,651 - #28 KUPA
INFO  18:51:46,651 - #10 ;
INFO  18:51:46,652 - #4 print
INFO  18:51:46,652 - #13 (
INFO  18:51:46,652 - #28 ob
INFO  18:51:46,652 - #14 )
INFO  18:51:46,653 - #10 ;
INFO  18:51:46,653 - #28 nula
INFO  18:51:46,653 - #11 =
INFO  18:51:46,653 - #28 Broj
INFO  18:51:46,653 - #19 .
INFO  18:51:46,653 - #28 NULA
INFO  18:51:46,653 - #10 ;
INFO  18:51:46,654 - #28 jedan
INFO  18:51:46,654 - #11 =
INFO  18:51:46,654 - #28 Broj
INFO  18:51:46,654 - #19 .
INFO  18:51:46,655 - #28 JEDAN
INFO  18:51:46,655 - #10 ;
INFO  18:51:46,655 - #28 bodovi
INFO  18:51:46,655 - #11 =
INFO  18:51:46,657 - #27 0
INFO  18:51:46,657 - #10 ;
INFO  18:51:46,658 - #28 bodovi
INFO  18:51:46,658 - #20 ++
INFO  18:51:46,658 - #10 ;
INFO  18:51:46,658 - #28 jedan
INFO  18:51:46,658 - #11 =
INFO  18:51:46,658 - #28 Broj
INFO  18:51:46,658 - #19 .
INFO  18:51:46,659 - #28 PET
INFO  18:51:46,659 - #10 ;
INFO  18:51:46,659 - #4 print
INFO  18:51:46,659 - #13 (
INFO  18:51:46,659 - #28 bodovi
INFO  18:51:46,660 - #14 )
INFO  18:51:46,660 - #10 ;
INFO  18:51:46,660 - #4 print
INFO  18:51:46,660 - #13 (
INFO  18:51:46,660 - #28 jedan
INFO  18:51:46,660 - #14 )
INFO  18:51:46,661 - #10 ;
INFO  18:51:46,661 - #28 bodovi
INFO  18:51:46,661 - #11 =
INFO  18:51:46,661 - #28 bodovi
INFO  18:51:46,662 - #23 +
INFO  18:51:46,662 - #28 jedan
INFO  18:51:46,664 - #10 ;
INFO  18:51:46,664 - #4 print
INFO  18:51:46,664 - #13 (
INFO  18:51:46,665 - #28 bodovi
INFO  18:51:46,665 - #14 )
INFO  18:51:46,665 - #10 ;
INFO  18:51:46,665 - #28 bodovi
INFO  18:51:46,665 - #11 =
INFO  18:51:46,665 - #28 bodovi
INFO  18:51:46,665 - #23 +
INFO  18:51:46,666 - #13 (
INFO  18:51:46,666 - #13 (
INFO  18:51:46,666 - #28 jedan
INFO  18:51:46,666 - #24 *
INFO  18:51:46,666 - #28 jedan
INFO  18:51:46,668 - #22 -
INFO  18:51:46,669 - #27 1
INFO  18:51:46,671 - #14 )
INFO  18:51:46,672 - #24 *
INFO  18:51:46,673 - #27 2
INFO  18:51:46,673 - #22 -
INFO  18:51:46,673 - #13 (
INFO  18:51:46,673 - #27 3
INFO  18:51:46,673 - #26 %
INFO  18:51:46,673 - #27 2
INFO  18:51:46,675 - #23 +
INFO  18:51:46,675 - #27 3
INFO  18:51:46,675 - #24 *
INFO  18:51:46,675 - #27 2
INFO  18:51:46,675 - #22 -
INFO  18:51:46,675 - #27 3
INFO  18:51:46,675 - #14 )
INFO  18:51:46,676 - #22 -
INFO  18:51:46,676 - #28 Broj
INFO  18:51:46,676 - #19 .
INFO  18:51:46,676 - #28 JEDAN
INFO  18:51:46,682 - #24 *
INFO  18:51:46,682 - #27 2
INFO  18:51:46,682 - #14 )
INFO  18:51:46,682 - #10 ;
INFO  18:51:46,683 - #4 print
INFO  18:51:46,683 - #13 (
INFO  18:51:46,683 - #28 bodovi
INFO  18:51:46,683 - #14 )
INFO  18:51:46,683 - #10 ;
INFO  18:51:46,683 - #18 }
INFO  18:51:46,683 - #18 }
INFO  18:51:46,700 - Program(
  ProgName(
   prvi
  ) [ProgName]
  GlobalDeclListL(
    GlobalDeclListL(
      GlobalDeclListL(
        GlobalDeclListEps(
        ) [GlobalDeclListEps]
        GlobalDeclEnum(
          EnumDecl(
            EnumName(
             Broj
            ) [EnumName]
            EnumDeclListL(
              EnumDeclListL(
                EnumDeclListL(
                  EnumDeclItem(
                    EnumDeclDefNoVal(
                     NULA
                    ) [EnumDeclDefNoVal]
                  ) [EnumDeclItem]
                  EnumDeclDefNoVal(
                   JEDAN
                  ) [EnumDeclDefNoVal]
                ) [EnumDeclListL]
                EnumDeclDefVal(
                 PET
                 5
                ) [EnumDeclDefVal]
              ) [EnumDeclListL]
              EnumDeclDefVal(
               DESET
               10
              ) [EnumDeclDefVal]
            ) [EnumDeclListL]
          ) [EnumDecl]
        ) [GlobalDeclEnum]
      ) [GlobalDeclListL]
      GlobalDeclEnum(
        EnumDecl(
          EnumName(
           Oblik
          ) [EnumName]
          EnumDeclListL(
            EnumDeclListL(
              EnumDeclItem(
                EnumDeclDefNoVal(
                 KOCKA
                ) [EnumDeclDefNoVal]
              ) [EnumDeclItem]
              EnumDeclDefVal(
               KVADAR
               5
              ) [EnumDeclDefVal]
            ) [EnumDeclListL]
            EnumDeclDefNoVal(
             KUPA
            ) [EnumDeclDefNoVal]
          ) [EnumDeclListL]
        ) [EnumDecl]
      ) [GlobalDeclEnum]
    ) [GlobalDeclListL]
    GlobalDeclVar(
      GlobalVarDecl(
        Type(
         int
        ) [Type]
        GlobalVarDeclItem(
          GlobalVarDeclDefOk(
            VarDeclDefineSingle(
             bodovi
            ) [VarDeclDefineSingle]
          ) [GlobalVarDeclDefOk]
        ) [GlobalVarDeclItem]
      ) [GlobalVarDecl]
    ) [GlobalDeclVar]
  ) [GlobalDeclListL]
  MethodDecl(
    MethodSignature(
      VoidableType(
      ) [VoidableType]
     main
    ) [MethodSignature]
    VarMethodDeclList_NoEps(
      VarMethodDeclList_NoEps(
        VarMethodDeclList_Eps(
        ) [VarMethodDeclList_Eps]
        VarDecl(
          Type(
           Broj
          ) [Type]
          VarDeclListL(
            VarDeclItem(
              VarDeclDefineSingle(
               nula
              ) [VarDeclDefineSingle]
            ) [VarDeclItem]
            VarDeclDefineSingle(
             jedan
            ) [VarDeclDefineSingle]
          ) [VarDeclListL]
        ) [VarDecl]
      ) [VarMethodDeclList_NoEps]
      VarDecl(
        Type(
         Oblik
        ) [Type]
        VarDeclItem(
          VarDeclDefineSingle(
           ob
          ) [VarDeclDefineSingle]
        ) [VarDeclItem]
      ) [VarDecl]
    ) [VarMethodDeclList_NoEps]
    StatementList_NoEps(
      StatementList_NoEps(
        StatementList_NoEps(
          StatementList_NoEps(
            StatementList_NoEps(
              StatementList_NoEps(
                StatementList_NoEps(
                  StatementList_NoEps(
                    StatementList_NoEps(
                      StatementList_NoEps(
                        StatementList_NoEps(
                          StatementList_NoEps(
                            StatementList_NoEps(
                              StatementList_Eps(
                              ) [StatementList_Eps]
                              StatementDes(
                                DesignStatAssignment(
                                  DesIdent(
                                   ob
                                  ) [DesIdent]
                                  AssignementExpr(
                                    TermExpr(
                                      TermFact(
                                        FactorDesign(
                                          DesEnum(
                                           Oblik
                                           KUPA
                                          ) [DesEnum]
                                        ) [FactorDesign]
                                      ) [TermFact]
                                    ) [TermExpr]
                                  ) [AssignementExpr]
                                ) [DesignStatAssignment]
                              ) [StatementDes]
                            ) [StatementList_NoEps]
                            StatPrint(
                              TermExpr(
                                TermFact(
                                  FactorDesign(
                                    DesIdent(
                                     ob
                                    ) [DesIdent]
                                  ) [FactorDesign]
                                ) [TermFact]
                              ) [TermExpr]
                            ) [StatPrint]
                          ) [StatementList_NoEps]
                          StatementDes(
                            DesignStatAssignment(
                              DesIdent(
                               nula
                              ) [DesIdent]
                              AssignementExpr(
                                TermExpr(
                                  TermFact(
                                    FactorDesign(
                                      DesEnum(
                                       Broj
                                       NULA
                                      ) [DesEnum]
                                    ) [FactorDesign]
                                  ) [TermFact]
                                ) [TermExpr]
                              ) [AssignementExpr]
                            ) [DesignStatAssignment]
                          ) [StatementDes]
                        ) [StatementList_NoEps]
                        StatementDes(
                          DesignStatAssignment(
                            DesIdent(
                             jedan
                            ) [DesIdent]
                            AssignementExpr(
                              TermExpr(
                                TermFact(
                                  FactorDesign(
                                    DesEnum(
                                     Broj
                                     JEDAN
                                    ) [DesEnum]
                                  ) [FactorDesign]
                                ) [TermFact]
                              ) [TermExpr]
                            ) [AssignementExpr]
                          ) [DesignStatAssignment]
                        ) [StatementDes]
                      ) [StatementList_NoEps]
                      StatementDes(
                        DesignStatAssignment(
                          DesIdent(
                           bodovi
                          ) [DesIdent]
                          AssignementExpr(
                            TermExpr(
                              TermFact(
                                FactorConst(
                                  ConstNum(
                                   0
                                  ) [ConstNum]
                                ) [FactorConst]
                              ) [TermFact]
                            ) [TermExpr]
                          ) [AssignementExpr]
                        ) [DesignStatAssignment]
                      ) [StatementDes]
                    ) [StatementList_NoEps]
                    StatementDes(
                      DesignStatInc(
                        DesIdent(
                         bodovi
                        ) [DesIdent]
                      ) [DesignStatInc]
                    ) [StatementDes]
                  ) [StatementList_NoEps]
                  StatementDes(
                    DesignStatAssignment(
                      DesIdent(
                       jedan
                      ) [DesIdent]
                      AssignementExpr(
                        TermExpr(
                          TermFact(
                            FactorDesign(
                              DesEnum(
                               Broj
                               PET
                              ) [DesEnum]
                            ) [FactorDesign]
                          ) [TermFact]
                        ) [TermExpr]
                      ) [AssignementExpr]
                    ) [DesignStatAssignment]
                  ) [StatementDes]
                ) [StatementList_NoEps]
                StatPrint(
                  TermExpr(
                    TermFact(
                      FactorDesign(
                        DesIdent(
                         bodovi
                        ) [DesIdent]
                      ) [FactorDesign]
                    ) [TermFact]
                  ) [TermExpr]
                ) [StatPrint]
              ) [StatementList_NoEps]
              StatPrint(
                TermExpr(
                  TermFact(
                    FactorDesign(
                      DesIdent(
                       jedan
                      ) [DesIdent]
                    ) [FactorDesign]
                  ) [TermFact]
                ) [TermExpr]
              ) [StatPrint]
            ) [StatementList_NoEps]
            StatementDes(
              DesignStatAssignment(
                DesIdent(
                 bodovi
                ) [DesIdent]
                AssignementExpr(
                  AddopExp(
                    TermExpr(
                      TermFact(
                        FactorDesign(
                          DesIdent(
                           bodovi
                          ) [DesIdent]
                        ) [FactorDesign]
                      ) [TermFact]
                    ) [TermExpr]
                    Addop_Plus(
                    ) [Addop_Plus]
                    TermFact(
                      FactorDesign(
                        DesIdent(
                         jedan
                        ) [DesIdent]
                      ) [FactorDesign]
                    ) [TermFact]
                  ) [AddopExp]
                ) [AssignementExpr]
              ) [DesignStatAssignment]
            ) [StatementDes]
          ) [StatementList_NoEps]
          StatPrint(
            TermExpr(
              TermFact(
                FactorDesign(
                  DesIdent(
                   bodovi
                  ) [DesIdent]
                ) [FactorDesign]
              ) [TermFact]
            ) [TermExpr]
          ) [StatPrint]
        ) [StatementList_NoEps]
        StatementDes(
          DesignStatAssignment(
            DesIdent(
             bodovi
            ) [DesIdent]
            AssignementExpr(
              AddopExp(
                TermExpr(
                  TermFact(
                    FactorDesign(
                      DesIdent(
                       bodovi
                      ) [DesIdent]
                    ) [FactorDesign]
                  ) [TermFact]
                ) [TermExpr]
                Addop_Plus(
                ) [Addop_Plus]
                TermFact(
                  FactorExpr(
                    AddopExp(
                      AddopExp(
                        TermExpr(
                          TermMulop(
                            TermFact(
                              FactorExpr(
                                AddopExp(
                                  TermExpr(
                                    TermMulop(
                                      TermFact(
                                        FactorDesign(
                                          DesIdent(
                                           jedan
                                          ) [DesIdent]
                                        ) [FactorDesign]
                                      ) [TermFact]
                                      Mulop_Mul(
                                      ) [Mulop_Mul]
                                      FactorDesign(
                                        DesIdent(
                                         jedan
                                        ) [DesIdent]
                                      ) [FactorDesign]
                                    ) [TermMulop]
                                  ) [TermExpr]
                                  Addop_Minus(
                                  ) [Addop_Minus]
                                  TermFact(
                                    FactorConst(
                                      ConstNum(
                                       1
                                      ) [ConstNum]
                                    ) [FactorConst]
                                  ) [TermFact]
                                ) [AddopExp]
                              ) [FactorExpr]
                            ) [TermFact]
                            Mulop_Mul(
                            ) [Mulop_Mul]
                            FactorConst(
                              ConstNum(
                               2
                              ) [ConstNum]
                            ) [FactorConst]
                          ) [TermMulop]
                        ) [TermExpr]
                        Addop_Minus(
                        ) [Addop_Minus]
                        TermFact(
                          FactorExpr(
                            AddopExp(
                              AddopExp(
                                TermExpr(
                                  TermMulop(
                                    TermFact(
                                      FactorConst(
                                        ConstNum(
                                         3
                                        ) [ConstNum]
                                      ) [FactorConst]
                                    ) [TermFact]
                                    Mulop_Mod(
                                    ) [Mulop_Mod]
                                    FactorConst(
                                      ConstNum(
                                       2
                                      ) [ConstNum]
                                    ) [FactorConst]
                                  ) [TermMulop]
                                ) [TermExpr]
                                Addop_Plus(
                                ) [Addop_Plus]
                                TermMulop(
                                  TermFact(
                                    FactorConst(
                                      ConstNum(
                                       3
                                      ) [ConstNum]
                                    ) [FactorConst]
                                  ) [TermFact]
                                  Mulop_Mul(
                                  ) [Mulop_Mul]
                                  FactorConst(
                                    ConstNum(
                                     2
                                    ) [ConstNum]
                                  ) [FactorConst]
                                ) [TermMulop]
                              ) [AddopExp]
                              Addop_Minus(
                              ) [Addop_Minus]
                              TermFact(
                                FactorConst(
                                  ConstNum(
                                   3
                                  ) [ConstNum]
                                ) [FactorConst]
                              ) [TermFact]
                            ) [AddopExp]
                          ) [FactorExpr]
                        ) [TermFact]
                      ) [AddopExp]
                      Addop_Minus(
                      ) [Addop_Minus]
                      TermMulop(
                        TermFact(
                          FactorDesign(
                            DesEnum(
                             Broj
                             JEDAN
                            ) [DesEnum]
                          ) [FactorDesign]
                        ) [TermFact]
                        Mulop_Mul(
                        ) [Mulop_Mul]
                        FactorConst(
                          ConstNum(
                           2
                          ) [ConstNum]
                        ) [FactorConst]
                      ) [TermMulop]
                    ) [AddopExp]
                  ) [FactorExpr]
                ) [TermFact]
              ) [AddopExp]
            ) [AssignementExpr]
          ) [DesignStatAssignment]
        ) [StatementDes]
      ) [StatementList_NoEps]
      StatPrint(
        TermExpr(
          TermFact(
            FactorDesign(
              DesIdent(
               bodovi
              ) [DesIdent]
            ) [FactorDesign]
          ) [TermFact]
        ) [TermExpr]
      ) [StatPrint]
    ) [StatementList_NoEps]
  ) [MethodDecl]
) [Program]
INFO  18:51:46,701 - ===================================
INFO  18:51:46,706 - Deklarisan novi enum tip Broj na liniji 3
INFO  18:51:46,706 - Deklarisana konstanta NULA unutar enuma Broj na liniji 3
INFO  18:51:46,706 - Deklarisana konstanta JEDAN unutar enuma Broj na liniji 3
INFO  18:51:46,706 - Deklarisana konstanta PET unutar enuma Broj na liniji 3
INFO  18:51:46,706 - Deklarisana konstanta DESET unutar enuma Broj na liniji 3
INFO  18:51:46,706 - Deklarisan novi enum tip Oblik na liniji 4
INFO  18:51:46,706 - Deklarisana konstanta KOCKA unutar enuma Oblik na liniji 4
INFO  18:51:46,706 - Deklarisana konstanta KVADAR unutar enuma Oblik na liniji 4
INFO  18:51:46,706 - Deklarisana konstanta KUPA unutar enuma Oblik na liniji 4
INFO  18:51:46,706 - Deklarisana promenljiva bodovi tipa 1 na liniji 5
INFO  18:51:46,706 - Obradjuje se funkcija main na liniji 8
INFO  18:51:46,707 - Deklarisana promenljiva nula tipa 6 na liniji 9
INFO  18:51:46,707 - Deklarisana promenljiva jedan tipa 6 na liniji 9
INFO  18:51:46,707 - Deklarisana promenljiva ob tipa 6 na liniji 10
INFO  18:51:46,708 - Print funkcija na liniji 13
INFO  18:51:46,708 - Dodeljenja vrednost: 1 je design,1 je assign
INFO  18:51:46,708 - Inkrementirana vrednost
INFO  18:51:46,708 - Print funkcija na liniji 20
INFO  18:51:46,708 - Print funkcija na liniji 21
INFO  18:51:46,708 - Dodeljenja vrednost: 1 je design,1 je assign
INFO  18:51:46,708 - Print funkcija na liniji 23
INFO  18:51:46,708 - Dodeljenja vrednost: 1 je design,1 je assign
INFO  18:51:46,708 - Print funkcija na liniji 26
INFO  18:51:46,708 -  Print count calls = 5
INFO  18:51:46,708 -  Deklarisanih promenljivih ima = 5
INFO  18:51:46,725 - 
INFO  18:51:46,725 - Parsiranje uspesno zavrseno!
