INFO  17:20:08,836 - Compiling source file: C:\Users\ikadr\Desktop\PP\Projekat\Rad\workspace\MJCompiler\test\program.mj
INFO  17:20:08,912 - #2 program
INFO  17:20:08,912 - #28 test301
INFO  17:20:08,912 - #28 int
INFO  17:20:08,914 - #28 x
INFO  17:20:08,915 - #10 ;
INFO  17:20:08,916 - #17 {
INFO  17:20:08,917 - #6 void
INFO  17:20:08,917 - #28 main
INFO  17:20:08,918 - #13 (
INFO  17:20:08,918 - #14 )
INFO  17:20:08,918 - #17 {
INFO  17:20:08,921 - #28 x
INFO  17:20:08,922 - #11 =
INFO  17:20:08,923 - #27 1
INFO  17:20:08,923 - #10 ;
INFO  17:20:08,923 - #18 }
INFO  17:20:08,924 - #18 }
INFO  17:20:08,940 - Program(
  ProgName(
   test301
  ) [ProgName]
  GlobalDeclListL(
    GlobalDeclListEps(
    ) [GlobalDeclListEps]
    GlobalDeclVar(
      GlobalVarDecl(
        Type(
         int
        ) [Type]
        GlobalVarDeclItem(
          GlobalVarDeclDefOk(
            VarDeclDefineSingle(
             x
            ) [VarDeclDefineSingle]
          ) [GlobalVarDeclDefOk]
        ) [GlobalVarDeclItem]
      ) [GlobalVarDecl]
    ) [GlobalDeclVar]
  ) [GlobalDeclListL]
  MethodDecl(
    MethodSignature(
      VoidableType(
      ) [VoidableType]
     main
    ) [MethodSignature]
    VarMethodDeclList_Eps(
    ) [VarMethodDeclList_Eps]
    StatementList_NoEps(
      StatementList_Eps(
      ) [StatementList_Eps]
      StatementDes(
        DesignStatAssignment(
          DesIdent(
           x
          ) [DesIdent]
          AssignementExpr(
            TermExpr(
              TermFact(
                FactorConst(
                  ConstNum(
                   1
                  ) [ConstNum]
                ) [FactorConst]
              ) [TermFact]
            ) [TermExpr]
          ) [AssignementExpr]
        ) [DesignStatAssignment]
      ) [StatementDes]
    ) [StatementList_NoEps]
  ) [MethodDecl]
) [Program]
INFO  17:20:08,941 - ===================================
INFO  17:20:08,945 - Deklarisana promenljiva x tipa 1 na liniji 6
INFO  17:20:08,945 - Obradjuje se funkcija main na liniji 9
INFO  17:20:08,945 - Dodeljenja vrednost: 1 je design,1 je assign
INFO  17:20:08,945 -  Print count calls = 0
INFO  17:20:08,945 -  Deklarisanih promenljivih ima = 1
INFO  17:20:08,955 - GENERATOR:1
INFO  17:20:08,955 - Parsiranje uspesno zavrseno!
