INFO  19:05:18,521 - Compiling source file: C:\Users\ikadr\Desktop\PP\Projekat\Rad\workspace\MJCompiler\test\program.mj
INFO  19:05:18,590 - #2 program
INFO  19:05:18,590 - #28 test301
INFO  19:05:18,590 - #17 {
INFO  19:05:18,590 - #6 void
INFO  19:05:18,590 - #28 main
INFO  19:05:18,590 - #13 (
INFO  19:05:18,590 - #14 )
INFO  19:05:18,590 - #17 {
INFO  19:05:18,590 - #18 }
INFO  19:05:18,590 - #18 }
INFO  19:05:18,605 - Program(
  ProgName(
   test301
  ) [ProgName]
  GlobalDeclListEps(
  ) [GlobalDeclListEps]
  MethodDecl(
    MethodSignature(
      VoidableType(
      ) [VoidableType]
     main
    ) [MethodSignature]
    VarMethodDeclList_Eps(
    ) [VarMethodDeclList_Eps]
    StatementList_Eps(
    ) [StatementList_Eps]
  ) [MethodDecl]
) [Program]
INFO  19:05:18,652 - ===================================
INFO  19:05:18,652 - Obradjuje se funkcija main na liniji 8
INFO  19:05:18,652 -  Print count calls = 0
INFO  19:05:18,652 -  Deklarisanih promenljivih ima = 0
INFO  19:05:18,652 - Parsiranje uspesno zavrseno!
