INFO  17:17:22,912 - Compiling source file: C:\Users\ikadr\Desktop\PP\Projekat\Rad\workspace\MJCompiler\test\program.mj
INFO  17:17:22,974 - #2 program
INFO  17:17:22,974 - #28 test301
INFO  17:17:22,974 - #9 enum
INFO  17:17:22,974 - #28 Broj
INFO  17:17:22,974 - #17 {
INFO  17:17:22,974 - #28 NULA
INFO  17:17:22,974 - #12 ,
INFO  17:17:22,974 - #28 JEDAN
INFO  17:17:22,974 - #12 ,
INFO  17:17:22,974 - #28 PET
INFO  17:17:22,974 - #11 =
INFO  17:17:22,974 - #27 5
INFO  17:17:22,974 - #12 ,
INFO  17:17:22,974 - #28 DESET
INFO  17:17:22,974 - #11 =
INFO  17:17:22,974 - #27 10
INFO  17:17:22,974 - #18 }
INFO  17:17:22,974 - #8 const
INFO  17:17:22,974 - #28 int
INFO  17:17:22,974 - #28 jedan
INFO  17:17:22,974 - #11 =
INFO  17:17:22,990 - #27 1
INFO  17:17:22,990 - #10 ;
INFO  17:17:22,990 - #8 const
INFO  17:17:22,996 - #28 int
INFO  17:17:22,996 - #28 pet
INFO  17:17:22,996 - #11 =
INFO  17:17:22,996 - #27 5
INFO  17:17:22,996 - #10 ;
INFO  17:17:22,996 - #28 int
INFO  17:17:22,996 - #28 niz
INFO  17:17:22,996 - #15 [
INFO  17:17:22,996 - #16 ]
INFO  17:17:22,996 - #10 ;
INFO  17:17:22,996 - #28 char
INFO  17:17:22,996 - #28 nizch
INFO  17:17:22,996 - #15 [
INFO  17:17:22,996 - #16 ]
INFO  17:17:22,996 - #10 ;
INFO  17:17:22,996 - #17 {
INFO  17:17:22,996 - #6 void
INFO  17:17:22,996 - #28 main
INFO  17:17:22,996 - #13 (
INFO  17:17:22,996 - #14 )
INFO  17:17:22,996 - #28 int
INFO  17:17:22,996 - #28 bodovi
INFO  17:17:22,996 - #10 ;
INFO  17:17:22,996 - #28 Broj
INFO  17:17:22,996 - #28 nula
INFO  17:17:22,996 - #12 ,
INFO  17:17:22,996 - #28 jedan
INFO  17:17:22,996 - #10 ;
INFO  17:17:22,996 - #17 {
INFO  17:17:22,996 - #28 nula
INFO  17:17:22,996 - #11 =
INFO  17:17:22,996 - #28 Broj
INFO  17:17:22,996 - #19 .
INFO  17:17:22,996 - #28 NULA
INFO  17:17:22,996 - #10 ;
INFO  17:17:22,996 - #28 jedan
INFO  17:17:22,996 - #11 =
INFO  17:17:22,996 - #28 Broj
INFO  17:17:22,996 - #19 .
INFO  17:17:23,012 - #28 JEDAN
INFO  17:17:23,012 - #10 ;
INFO  17:17:23,012 - #28 bodovi
INFO  17:17:23,012 - #11 =
INFO  17:17:23,012 - #27 0
INFO  17:17:23,012 - #10 ;
INFO  17:17:23,012 - #28 bodovi
INFO  17:17:23,012 - #20 ++
INFO  17:17:23,012 - #10 ;
INFO  17:17:23,012 - #28 bodovi
INFO  17:17:23,012 - #11 =
INFO  17:17:23,012 - #28 bodovi
INFO  17:17:23,012 - #23 +
INFO  17:17:23,012 - #28 jedan
INFO  17:17:23,012 - #10 ;
INFO  17:17:23,012 - #28 bodovi
INFO  17:17:23,012 - #11 =
INFO  17:17:23,012 - #28 bodovi
INFO  17:17:23,012 - #24 *
INFO  17:17:23,012 - #28 pet
INFO  17:17:23,012 - #10 ;
INFO  17:17:23,012 - #28 bodovi
INFO  17:17:23,012 - #21 --
INFO  17:17:23,012 - #10 ;
INFO  17:17:23,012 - #4 print
INFO  17:17:23,012 - #13 (
INFO  17:17:23,012 - #28 bodovi
INFO  17:17:23,012 - #14 )
INFO  17:17:23,012 - #10 ;
INFO  17:17:23,012 - #28 niz
INFO  17:17:23,012 - #11 =
INFO  17:17:23,012 - #5 new
INFO  17:17:23,012 - #28 int
INFO  17:17:23,012 - #15 [
INFO  17:17:23,012 - #27 2
INFO  17:17:23,012 - #16 ]
INFO  17:17:23,012 - #10 ;
INFO  17:17:23,012 - #28 niz
INFO  17:17:23,012 - #15 [
INFO  17:17:23,012 - #28 nula
INFO  17:17:23,012 - #16 ]
INFO  17:17:23,012 - #11 =
INFO  17:17:23,012 - #28 pet
INFO  17:17:23,012 - #10 ;
INFO  17:17:23,012 - #28 niz
INFO  17:17:23,012 - #15 [
INFO  17:17:23,012 - #27 1
INFO  17:17:23,012 - #16 ]
INFO  17:17:23,012 - #11 =
INFO  17:17:23,012 - #28 Broj
INFO  17:17:23,012 - #19 .
INFO  17:17:23,012 - #28 DESET
INFO  17:17:23,012 - #10 ;
INFO  17:17:23,012 - #28 bodovi
INFO  17:17:23,012 - #11 =
INFO  17:17:23,012 - #28 niz
INFO  17:17:23,012 - #15 [
INFO  17:17:23,012 - #27 1
INFO  17:17:23,012 - #16 ]
INFO  17:17:23,012 - #25 /
INFO  17:17:23,012 - #28 niz
INFO  17:17:23,012 - #15 [
INFO  17:17:23,012 - #27 0
INFO  17:17:23,012 - #16 ]
INFO  17:17:23,012 - #10 ;
INFO  17:17:23,012 - #4 print
INFO  17:17:23,012 - #13 (
INFO  17:17:23,012 - #28 bodovi
INFO  17:17:23,012 - #14 )
INFO  17:17:23,012 - #10 ;
INFO  17:17:23,012 - #4 print
INFO  17:17:23,028 - #13 (
INFO  17:17:23,028 - #28 niz
INFO  17:17:23,028 - #15 [
INFO  17:17:23,028 - #28 Broj
INFO  17:17:23,028 - #19 .
INFO  17:17:23,028 - #28 JEDAN
INFO  17:17:23,028 - #16 ]
INFO  17:17:23,028 - #14 )
INFO  17:17:23,028 - #10 ;
INFO  17:17:23,028 - #28 nizch
INFO  17:17:23,028 - #11 =
INFO  17:17:23,028 - #5 new
INFO  17:17:23,028 - #28 char
INFO  17:17:23,028 - #15 [
INFO  17:17:23,028 - #27 3
INFO  17:17:23,028 - #16 ]
INFO  17:17:23,028 - #10 ;
INFO  17:17:23,028 - #28 nizch
INFO  17:17:23,028 - #15 [
INFO  17:17:23,028 - #27 0
INFO  17:17:23,028 - #16 ]
INFO  17:17:23,028 - #11 =
INFO  17:17:23,028 - #29 a
INFO  17:17:23,028 - #10 ;
INFO  17:17:23,028 - #28 nizch
INFO  17:17:23,028 - #15 [
INFO  17:17:23,028 - #28 jedan
INFO  17:17:23,028 - #16 ]
INFO  17:17:23,028 - #11 =
INFO  17:17:23,028 - #29 b
INFO  17:17:23,028 - #10 ;
INFO  17:17:23,028 - #28 nizch
INFO  17:17:23,028 - #15 [
INFO  17:17:23,028 - #28 pet
INFO  17:17:23,028 - #22 -
INFO  17:17:23,028 - #27 3
INFO  17:17:23,028 - #16 ]
INFO  17:17:23,028 - #11 =
INFO  17:17:23,028 - #29 c
INFO  17:17:23,028 - #10 ;
INFO  17:17:23,028 - #4 print
INFO  17:17:23,028 - #13 (
INFO  17:17:23,028 - #28 nizch
INFO  17:17:23,028 - #15 [
INFO  17:17:23,028 - #27 2
INFO  17:17:23,028 - #22 -
INFO  17:17:23,028 - #27 1
INFO  17:17:23,028 - #16 ]
INFO  17:17:23,028 - #14 )
INFO  17:17:23,028 - #10 ;
INFO  17:17:23,028 - #4 print
INFO  17:17:23,028 - #13 (
INFO  17:17:23,028 - #28 nizch
INFO  17:17:23,028 - #15 [
INFO  17:17:23,028 - #28 jedan
INFO  17:17:23,028 - #24 *
INFO  17:17:23,028 - #27 2
INFO  17:17:23,028 - #16 ]
INFO  17:17:23,028 - #14 )
INFO  17:17:23,028 - #10 ;
INFO  17:17:23,028 - #28 bodovi
INFO  17:17:23,028 - #11 =
INFO  17:17:23,028 - #28 bodovi
INFO  17:17:23,028 - #23 +
INFO  17:17:23,028 - #13 (
INFO  17:17:23,028 - #13 (
INFO  17:17:23,028 - #28 pet
INFO  17:17:23,028 - #24 *
INFO  17:17:23,028 - #28 jedan
INFO  17:17:23,028 - #22 -
INFO  17:17:23,028 - #27 1
INFO  17:17:23,028 - #14 )
INFO  17:17:23,028 - #24 *
INFO  17:17:23,028 - #27 2
INFO  17:17:23,028 - #22 -
INFO  17:17:23,028 - #13 (
INFO  17:17:23,028 - #27 3
INFO  17:17:23,028 - #26 %
INFO  17:17:23,028 - #27 2
INFO  17:17:23,028 - #23 +
INFO  17:17:23,028 - #27 3
INFO  17:17:23,028 - #24 *
INFO  17:17:23,028 - #27 2
INFO  17:17:23,028 - #22 -
INFO  17:17:23,028 - #27 3
INFO  17:17:23,043 - #14 )
INFO  17:17:23,043 - #22 -
INFO  17:17:23,043 - #28 Broj
INFO  17:17:23,043 - #19 .
INFO  17:17:23,043 - #28 JEDAN
INFO  17:17:23,043 - #24 *
INFO  17:17:23,043 - #27 0
INFO  17:17:23,043 - #14 )
INFO  17:17:23,043 - #10 ;
INFO  17:17:23,043 - #4 print
INFO  17:17:23,043 - #13 (
INFO  17:17:23,043 - #28 bodovi
INFO  17:17:23,043 - #14 )
INFO  17:17:23,043 - #10 ;
INFO  17:17:23,043 - #3 read
INFO  17:17:23,043 - #13 (
INFO  17:17:23,043 - #28 bodovi
INFO  17:17:23,043 - #14 )
INFO  17:17:23,043 - #10 ;
INFO  17:17:23,043 - #28 bodovi
INFO  17:17:23,043 - #11 =
INFO  17:17:23,043 - #28 bodovi
INFO  17:17:23,043 - #23 +
INFO  17:17:23,043 - #27 1
INFO  17:17:23,043 - #10 ;
INFO  17:17:23,043 - #4 print
INFO  17:17:23,043 - #13 (
INFO  17:17:23,043 - #28 bodovi
INFO  17:17:23,043 - #14 )
INFO  17:17:23,043 - #10 ;
INFO  17:17:23,043 - #18 }
INFO  17:17:23,043 - #18 }
INFO  17:17:23,059 - Program(
 test301
  GlobalDeclListL(
    GlobalDeclListL(
      GlobalDeclListL(
        GlobalDeclListL(
          GlobalDeclListL(
            GlobalDeclListEps(
            ) [GlobalDeclListEps]
            GlobalDeclEnum(
              EnumDecl(
               Broj
                EnumDeclListL(
                  EnumDeclListL(
                    EnumDeclListL(
                      EnumDeclItem(
                        EnumDeclDefNoVal(
                         NULA
                        ) [EnumDeclDefNoVal]
                      ) [EnumDeclItem]
                      EnumDeclDefNoVal(
                       JEDAN
                      ) [EnumDeclDefNoVal]
                    ) [EnumDeclListL]
                    EnumDeclDefVal(
                     PET
                     5
                    ) [EnumDeclDefVal]
                  ) [EnumDeclListL]
                  EnumDeclDefVal(
                   DESET
                   10
                  ) [EnumDeclDefVal]
                ) [EnumDeclListL]
              ) [EnumDecl]
            ) [GlobalDeclEnum]
          ) [GlobalDeclListL]
          GlobalDeclConst(
            ConstDecl(
              Type(
               int
              ) [Type]
              ConstDeclItem(
                ConstDef(
                 jedan
                  ConstNum(
                   1
                  ) [ConstNum]
                ) [ConstDef]
              ) [ConstDeclItem]
            ) [ConstDecl]
          ) [GlobalDeclConst]
        ) [GlobalDeclListL]
        GlobalDeclConst(
          ConstDecl(
            Type(
             int
            ) [Type]
            ConstDeclItem(
              ConstDef(
               pet
                ConstNum(
                 5
                ) [ConstNum]
              ) [ConstDef]
            ) [ConstDeclItem]
          ) [ConstDecl]
        ) [GlobalDeclConst]
      ) [GlobalDeclListL]
      GlobalDeclVar(
        GlobalVarDecl(
          Type(
           int
          ) [Type]
          GlobalVarDeclItem(
            GlobalVarDeclDefOk(
              VarDeclDefineArray(
               niz
              ) [VarDeclDefineArray]
            ) [GlobalVarDeclDefOk]
          ) [GlobalVarDeclItem]
        ) [GlobalVarDecl]
      ) [GlobalDeclVar]
    ) [GlobalDeclListL]
    GlobalDeclVar(
      GlobalVarDecl(
        Type(
         char
        ) [Type]
        GlobalVarDeclItem(
          GlobalVarDeclDefOk(
            VarDeclDefineArray(
             nizch
            ) [VarDeclDefineArray]
          ) [GlobalVarDeclDefOk]
        ) [GlobalVarDeclItem]
      ) [GlobalVarDecl]
    ) [GlobalDeclVar]
  ) [GlobalDeclListL]
  MethodDecl(
    MethodSignature(
      VoidableType_Void(
      ) [VoidableType_Void]
     main
    ) [MethodSignature]
    VarMethodDeclList_NoEps(
      VarMethodDeclList_NoEps(
        VarMethodDeclList_Eps(
        ) [VarMethodDeclList_Eps]
        VarDecl(
          Type(
           int
          ) [Type]
          VarDeclItem(
            VarDeclDefineSingle(
             bodovi
            ) [VarDeclDefineSingle]
          ) [VarDeclItem]
        ) [VarDecl]
      ) [VarMethodDeclList_NoEps]
      VarDecl(
        Type(
         Broj
        ) [Type]
        VarDeclListL(
          VarDeclItem(
            VarDeclDefineSingle(
             nula
            ) [VarDeclDefineSingle]
          ) [VarDeclItem]
          VarDeclDefineSingle(
           jedan
          ) [VarDeclDefineSingle]
        ) [VarDeclListL]
      ) [VarDecl]
    ) [VarMethodDeclList_NoEps]
    StatementList_NoEps(
      StatementList_NoEps(
        StatementList_NoEps(
          StatementList_NoEps(
            StatementList_NoEps(
              StatementList_NoEps(
                StatementList_NoEps(
                  StatementList_NoEps(
                    StatementList_NoEps(
                      StatementList_NoEps(
                        StatementList_NoEps(
                          StatementList_NoEps(
                            StatementList_NoEps(
                              StatementList_NoEps(
                                StatementList_NoEps(
                                  StatementList_NoEps(
                                    StatementList_NoEps(
                                      StatementList_NoEps(
                                        StatementList_NoEps(
                                          StatementList_NoEps(
                                            StatementList_NoEps(
                                              StatementList_NoEps(
                                                StatementList_NoEps(
                                                  StatementList_NoEps(
                                                    StatementList_NoEps(
                                                      StatementList_Eps(
                                                      ) [StatementList_Eps]
                                                      StatementDes(
                                                        DesignStatAssignment(
                                                          Designator(
                                                           nula
                                                            DesDerived1(
                                                            ) [DesDerived1]
                                                          ) [Designator]
                                                          TermExpr(
                                                            TermFact(
                                                              FactorDesign(
                                                                Designator(
                                                                 Broj
                                                                  DesEnum(
                                                                   NULA
                                                                  ) [DesEnum]
                                                                ) [Designator]
                                                              ) [FactorDesign]
                                                            ) [TermFact]
                                                          ) [TermExpr]
                                                        ) [DesignStatAssignment]
                                                      ) [StatementDes]
                                                    ) [StatementList_NoEps]
                                                    StatementDes(
                                                      DesignStatAssignment(
                                                        Designator(
                                                         jedan
                                                          DesDerived1(
                                                          ) [DesDerived1]
                                                        ) [Designator]
                                                        TermExpr(
                                                          TermFact(
                                                            FactorDesign(
                                                              Designator(
                                                               Broj
                                                                DesEnum(
                                                                 JEDAN
                                                                ) [DesEnum]
                                                              ) [Designator]
                                                            ) [FactorDesign]
                                                          ) [TermFact]
                                                        ) [TermExpr]
                                                      ) [DesignStatAssignment]
                                                    ) [StatementDes]
                                                  ) [StatementList_NoEps]
                                                  StatementDes(
                                                    DesignStatAssignment(
                                                      Designator(
                                                       bodovi
                                                        DesDerived1(
                                                        ) [DesDerived1]
                                                      ) [Designator]
                                                      TermExpr(
                                                        TermFact(
                                                          FactorConst(
                                                            ConstNum(
                                                             0
                                                            ) [ConstNum]
                                                          ) [FactorConst]
                                                        ) [TermFact]
                                                      ) [TermExpr]
                                                    ) [DesignStatAssignment]
                                                  ) [StatementDes]
                                                ) [StatementList_NoEps]
                                                StatementDes(
                                                  DesignStatInc(
                                                    Designator(
                                                     bodovi
                                                      DesDerived1(
                                                      ) [DesDerived1]
                                                    ) [Designator]
                                                  ) [DesignStatInc]
                                                ) [StatementDes]
                                              ) [StatementList_NoEps]
                                              StatementDes(
                                                DesignStatAssignment(
                                                  Designator(
                                                   bodovi
                                                    DesDerived1(
                                                    ) [DesDerived1]
                                                  ) [Designator]
                                                  AddopExp(
                                                    TermExpr(
                                                      TermFact(
                                                        FactorDesign(
                                                          Designator(
                                                           bodovi
                                                            DesDerived1(
                                                            ) [DesDerived1]
                                                          ) [Designator]
                                                        ) [FactorDesign]
                                                      ) [TermFact]
                                                    ) [TermExpr]
                                                    Addop(
                                                    ) [Addop]
                                                    TermFact(
                                                      FactorDesign(
                                                        Designator(
                                                         jedan
                                                          DesDerived1(
                                                          ) [DesDerived1]
                                                        ) [Designator]
                                                      ) [FactorDesign]
                                                    ) [TermFact]
                                                  ) [AddopExp]
                                                ) [DesignStatAssignment]
                                              ) [StatementDes]
                                            ) [StatementList_NoEps]
                                            StatementDes(
                                              DesignStatAssignment(
                                                Designator(
                                                 bodovi
                                                  DesDerived1(
                                                  ) [DesDerived1]
                                                ) [Designator]
                                                TermExpr(
                                                  TermMulop(
                                                    TermFact(
                                                      FactorDesign(
                                                        Designator(
                                                         bodovi
                                                          DesDerived1(
                                                          ) [DesDerived1]
                                                        ) [Designator]
                                                      ) [FactorDesign]
                                                    ) [TermFact]
                                                    Mulop(
                                                    ) [Mulop]
                                                    FactorDesign(
                                                      Designator(
                                                       pet
                                                        DesDerived1(
                                                        ) [DesDerived1]
                                                      ) [Designator]
                                                    ) [FactorDesign]
                                                  ) [TermMulop]
                                                ) [TermExpr]
                                              ) [DesignStatAssignment]
                                            ) [StatementDes]
                                          ) [StatementList_NoEps]
                                          StatementDes(
                                            DesignStatDec(
                                              Designator(
                                               bodovi
                                                DesDerived1(
                                                ) [DesDerived1]
                                              ) [Designator]
                                            ) [DesignStatDec]
                                          ) [StatementDes]
                                        ) [StatementList_NoEps]
                                        StatPrint(
                                          TermExpr(
                                            TermFact(
                                              FactorDesign(
                                                Designator(
                                                 bodovi
                                                  DesDerived1(
                                                  ) [DesDerived1]
                                                ) [Designator]
                                              ) [FactorDesign]
                                            ) [TermFact]
                                          ) [TermExpr]
                                        ) [StatPrint]
                                      ) [StatementList_NoEps]
                                      StatementDes(
                                        DesignStatAssignment(
                                          Designator(
                                           niz
                                            DesDerived1(
                                            ) [DesDerived1]
                                          ) [Designator]
                                          TermExpr(
                                            TermFact(
                                              FactorNewConst(
                                                Type(
                                                 int
                                                ) [Type]
                                                TermExpr(
                                                  TermFact(
                                                    FactorConst(
                                                      ConstNum(
                                                       2
                                                      ) [ConstNum]
                                                    ) [FactorConst]
                                                  ) [TermFact]
                                                ) [TermExpr]
                                              ) [FactorNewConst]
                                            ) [TermFact]
                                          ) [TermExpr]
                                        ) [DesignStatAssignment]
                                      ) [StatementDes]
                                    ) [StatementList_NoEps]
                                    StatementDes(
                                      DesignStatAssignment(
                                        Designator(
                                         niz
                                          DesExpr(
                                            TermExpr(
                                              TermFact(
                                                FactorDesign(
                                                  Designator(
                                                   nula
                                                    DesDerived1(
                                                    ) [DesDerived1]
                                                  ) [Designator]
                                                ) [FactorDesign]
                                              ) [TermFact]
                                            ) [TermExpr]
                                          ) [DesExpr]
                                        ) [Designator]
                                        TermExpr(
                                          TermFact(
                                            FactorDesign(
                                              Designator(
                                               pet
                                                DesDerived1(
                                                ) [DesDerived1]
                                              ) [Designator]
                                            ) [FactorDesign]
                                          ) [TermFact]
                                        ) [TermExpr]
                                      ) [DesignStatAssignment]
                                    ) [StatementDes]
                                  ) [StatementList_NoEps]
                                  StatementDes(
                                    DesignStatAssignment(
                                      Designator(
                                       niz
                                        DesExpr(
                                          TermExpr(
                                            TermFact(
                                              FactorConst(
                                                ConstNum(
                                                 1
                                                ) [ConstNum]
                                              ) [FactorConst]
                                            ) [TermFact]
                                          ) [TermExpr]
                                        ) [DesExpr]
                                      ) [Designator]
                                      TermExpr(
                                        TermFact(
                                          FactorDesign(
                                            Designator(
                                             Broj
                                              DesEnum(
                                               DESET
                                              ) [DesEnum]
                                            ) [Designator]
                                          ) [FactorDesign]
                                        ) [TermFact]
                                      ) [TermExpr]
                                    ) [DesignStatAssignment]
                                  ) [StatementDes]
                                ) [StatementList_NoEps]
                                StatementDes(
                                  DesignStatAssignment(
                                    Designator(
                                     bodovi
                                      DesDerived1(
                                      ) [DesDerived1]
                                    ) [Designator]
                                    TermExpr(
                                      TermMulop(
                                        TermFact(
                                          FactorDesign(
                                            Designator(
                                             niz
                                              DesExpr(
                                                TermExpr(
                                                  TermFact(
                                                    FactorConst(
                                                      ConstNum(
                                                       1
                                                      ) [ConstNum]
                                                    ) [FactorConst]
                                                  ) [TermFact]
                                                ) [TermExpr]
                                              ) [DesExpr]
                                            ) [Designator]
                                          ) [FactorDesign]
                                        ) [TermFact]
                                        Divop(
                                        ) [Divop]
                                        FactorDesign(
                                          Designator(
                                           niz
                                            DesExpr(
                                              TermExpr(
                                                TermFact(
                                                  FactorConst(
                                                    ConstNum(
                                                     0
                                                    ) [ConstNum]
                                                  ) [FactorConst]
                                                ) [TermFact]
                                              ) [TermExpr]
                                            ) [DesExpr]
                                          ) [Designator]
                                        ) [FactorDesign]
                                      ) [TermMulop]
                                    ) [TermExpr]
                                  ) [DesignStatAssignment]
                                ) [StatementDes]
                              ) [StatementList_NoEps]
                              StatPrint(
                                TermExpr(
                                  TermFact(
                                    FactorDesign(
                                      Designator(
                                       bodovi
                                        DesDerived1(
                                        ) [DesDerived1]
                                      ) [Designator]
                                    ) [FactorDesign]
                                  ) [TermFact]
                                ) [TermExpr]
                              ) [StatPrint]
                            ) [StatementList_NoEps]
                            StatPrint(
                              TermExpr(
                                TermFact(
                                  FactorDesign(
                                    Designator(
                                     niz
                                      DesExpr(
                                        TermExpr(
                                          TermFact(
                                            FactorDesign(
                                              Designator(
                                               Broj
                                                DesEnum(
                                                 JEDAN
                                                ) [DesEnum]
                                              ) [Designator]
                                            ) [FactorDesign]
                                          ) [TermFact]
                                        ) [TermExpr]
                                      ) [DesExpr]
                                    ) [Designator]
                                  ) [FactorDesign]
                                ) [TermFact]
                              ) [TermExpr]
                            ) [StatPrint]
                          ) [StatementList_NoEps]
                          StatementDes(
                            DesignStatAssignment(
                              Designator(
                               nizch
                                DesDerived1(
                                ) [DesDerived1]
                              ) [Designator]
                              TermExpr(
                                TermFact(
                                  FactorNewConst(
                                    Type(
                                     char
                                    ) [Type]
                                    TermExpr(
                                      TermFact(
                                        FactorConst(
                                          ConstNum(
                                           3
                                          ) [ConstNum]
                                        ) [FactorConst]
                                      ) [TermFact]
                                    ) [TermExpr]
                                  ) [FactorNewConst]
                                ) [TermFact]
                              ) [TermExpr]
                            ) [DesignStatAssignment]
                          ) [StatementDes]
                        ) [StatementList_NoEps]
                        StatementDes(
                          DesignStatAssignment(
                            Designator(
                             nizch
                              DesExpr(
                                TermExpr(
                                  TermFact(
                                    FactorConst(
                                      ConstNum(
                                       0
                                      ) [ConstNum]
                                    ) [FactorConst]
                                  ) [TermFact]
                                ) [TermExpr]
                              ) [DesExpr]
                            ) [Designator]
                            TermExpr(
                              TermFact(
                                FactorConst(
                                  ConstChar(
                                   a
                                  ) [ConstChar]
                                ) [FactorConst]
                              ) [TermFact]
                            ) [TermExpr]
                          ) [DesignStatAssignment]
                        ) [StatementDes]
                      ) [StatementList_NoEps]
                      StatementDes(
                        DesignStatAssignment(
                          Designator(
                           nizch
                            DesExpr(
                              TermExpr(
                                TermFact(
                                  FactorDesign(
                                    Designator(
                                     jedan
                                      DesDerived1(
                                      ) [DesDerived1]
                                    ) [Designator]
                                  ) [FactorDesign]
                                ) [TermFact]
                              ) [TermExpr]
                            ) [DesExpr]
                          ) [Designator]
                          TermExpr(
                            TermFact(
                              FactorConst(
                                ConstChar(
                                 b
                                ) [ConstChar]
                              ) [FactorConst]
                            ) [TermFact]
                          ) [TermExpr]
                        ) [DesignStatAssignment]
                      ) [StatementDes]
                    ) [StatementList_NoEps]
                    StatementDes(
                      DesignStatAssignment(
                        Designator(
                         nizch
                          DesExpr(
                            AddopExp(
                              TermExpr(
                                TermFact(
                                  FactorDesign(
                                    Designator(
                                     pet
                                      DesDerived1(
                                      ) [DesDerived1]
                                    ) [Designator]
                                  ) [FactorDesign]
                                ) [TermFact]
                              ) [TermExpr]
                              Subop(
                              ) [Subop]
                              TermFact(
                                FactorConst(
                                  ConstNum(
                                   3
                                  ) [ConstNum]
                                ) [FactorConst]
                              ) [TermFact]
                            ) [AddopExp]
                          ) [DesExpr]
                        ) [Designator]
                        TermExpr(
                          TermFact(
                            FactorConst(
                              ConstChar(
                               c
                              ) [ConstChar]
                            ) [FactorConst]
                          ) [TermFact]
                        ) [TermExpr]
                      ) [DesignStatAssignment]
                    ) [StatementDes]
                  ) [StatementList_NoEps]
                  StatPrint(
                    TermExpr(
                      TermFact(
                        FactorDesign(
                          Designator(
                           nizch
                            DesExpr(
                              AddopExp(
                                TermExpr(
                                  TermFact(
                                    FactorConst(
                                      ConstNum(
                                       2
                                      ) [ConstNum]
                                    ) [FactorConst]
                                  ) [TermFact]
                                ) [TermExpr]
                                Subop(
                                ) [Subop]
                                TermFact(
                                  FactorConst(
                                    ConstNum(
                                     1
                                    ) [ConstNum]
                                  ) [FactorConst]
                                ) [TermFact]
                              ) [AddopExp]
                            ) [DesExpr]
                          ) [Designator]
                        ) [FactorDesign]
                      ) [TermFact]
                    ) [TermExpr]
                  ) [StatPrint]
                ) [StatementList_NoEps]
                StatPrint(
                  TermExpr(
                    TermFact(
                      FactorDesign(
                        Designator(
                         nizch
                          DesExpr(
                            TermExpr(
                              TermMulop(
                                TermFact(
                                  FactorDesign(
                                    Designator(
                                     jedan
                                      DesDerived1(
                                      ) [DesDerived1]
                                    ) [Designator]
                                  ) [FactorDesign]
                                ) [TermFact]
                                Mulop(
                                ) [Mulop]
                                FactorConst(
                                  ConstNum(
                                   2
                                  ) [ConstNum]
                                ) [FactorConst]
                              ) [TermMulop]
                            ) [TermExpr]
                          ) [DesExpr]
                        ) [Designator]
                      ) [FactorDesign]
                    ) [TermFact]
                  ) [TermExpr]
                ) [StatPrint]
              ) [StatementList_NoEps]
              StatementDes(
                DesignStatAssignment(
                  Designator(
                   bodovi
                    DesDerived1(
                    ) [DesDerived1]
                  ) [Designator]
                  AddopExp(
                    TermExpr(
                      TermFact(
                        FactorDesign(
                          Designator(
                           bodovi
                            DesDerived1(
                            ) [DesDerived1]
                          ) [Designator]
                        ) [FactorDesign]
                      ) [TermFact]
                    ) [TermExpr]
                    Addop(
                    ) [Addop]
                    TermFact(
                      FactorExpr(
                        AddopExp(
                          AddopExp(
                            TermExpr(
                              TermMulop(
                                TermFact(
                                  FactorExpr(
                                    AddopExp(
                                      TermExpr(
                                        TermMulop(
                                          TermFact(
                                            FactorDesign(
                                              Designator(
                                               pet
                                                DesDerived1(
                                                ) [DesDerived1]
                                              ) [Designator]
                                            ) [FactorDesign]
                                          ) [TermFact]
                                          Mulop(
                                          ) [Mulop]
                                          FactorDesign(
                                            Designator(
                                             jedan
                                              DesDerived1(
                                              ) [DesDerived1]
                                            ) [Designator]
                                          ) [FactorDesign]
                                        ) [TermMulop]
                                      ) [TermExpr]
                                      Subop(
                                      ) [Subop]
                                      TermFact(
                                        FactorConst(
                                          ConstNum(
                                           1
                                          ) [ConstNum]
                                        ) [FactorConst]
                                      ) [TermFact]
                                    ) [AddopExp]
                                  ) [FactorExpr]
                                ) [TermFact]
                                Mulop(
                                ) [Mulop]
                                FactorConst(
                                  ConstNum(
                                   2
                                  ) [ConstNum]
                                ) [FactorConst]
                              ) [TermMulop]
                            ) [TermExpr]
                            Subop(
                            ) [Subop]
                            TermFact(
                              FactorExpr(
                                AddopExp(
                                  AddopExp(
                                    TermExpr(
                                      TermMulop(
                                        TermFact(
                                          FactorConst(
                                            ConstNum(
                                             3
                                            ) [ConstNum]
                                          ) [FactorConst]
                                        ) [TermFact]
                                        Modop(
                                        ) [Modop]
                                        FactorConst(
                                          ConstNum(
                                           2
                                          ) [ConstNum]
                                        ) [FactorConst]
                                      ) [TermMulop]
                                    ) [TermExpr]
                                    Addop(
                                    ) [Addop]
                                    TermMulop(
                                      TermFact(
                                        FactorConst(
                                          ConstNum(
                                           3
                                          ) [ConstNum]
                                        ) [FactorConst]
                                      ) [TermFact]
                                      Mulop(
                                      ) [Mulop]
                                      FactorConst(
                                        ConstNum(
                                         2
                                        ) [ConstNum]
                                      ) [FactorConst]
                                    ) [TermMulop]
                                  ) [AddopExp]
                                  Subop(
                                  ) [Subop]
                                  TermFact(
                                    FactorConst(
                                      ConstNum(
                                       3
                                      ) [ConstNum]
                                    ) [FactorConst]
                                  ) [TermFact]
                                ) [AddopExp]
                              ) [FactorExpr]
                            ) [TermFact]
                          ) [AddopExp]
                          Subop(
                          ) [Subop]
                          TermMulop(
                            TermFact(
                              FactorDesign(
                                Designator(
                                 Broj
                                  DesEnum(
                                   JEDAN
                                  ) [DesEnum]
                                ) [Designator]
                              ) [FactorDesign]
                            ) [TermFact]
                            Mulop(
                            ) [Mulop]
                            FactorConst(
                              ConstNum(
                               0
                              ) [ConstNum]
                            ) [FactorConst]
                          ) [TermMulop]
                        ) [AddopExp]
                      ) [FactorExpr]
                    ) [TermFact]
                  ) [AddopExp]
                ) [DesignStatAssignment]
              ) [StatementDes]
            ) [StatementList_NoEps]
            StatPrint(
              TermExpr(
                TermFact(
                  FactorDesign(
                    Designator(
                     bodovi
                      DesDerived1(
                      ) [DesDerived1]
                    ) [Designator]
                  ) [FactorDesign]
                ) [TermFact]
              ) [TermExpr]
            ) [StatPrint]
          ) [StatementList_NoEps]
          StatRead(
            Designator(
             bodovi
              DesDerived1(
              ) [DesDerived1]
            ) [Designator]
          ) [StatRead]
        ) [StatementList_NoEps]
        StatementDes(
          DesignStatAssignment(
            Designator(
             bodovi
              DesDerived1(
              ) [DesDerived1]
            ) [Designator]
            AddopExp(
              TermExpr(
                TermFact(
                  FactorDesign(
                    Designator(
                     bodovi
                      DesDerived1(
                      ) [DesDerived1]
                    ) [Designator]
                  ) [FactorDesign]
                ) [TermFact]
              ) [TermExpr]
              Addop(
              ) [Addop]
              TermFact(
                FactorConst(
                  ConstNum(
                   1
                  ) [ConstNum]
                ) [FactorConst]
              ) [TermFact]
            ) [AddopExp]
          ) [DesignStatAssignment]
        ) [StatementDes]
      ) [StatementList_NoEps]
      StatPrint(
        TermExpr(
          TermFact(
            FactorDesign(
              Designator(
               bodovi
                DesDerived1(
                ) [DesDerived1]
              ) [Designator]
            ) [FactorDesign]
          ) [TermFact]
        ) [TermExpr]
      ) [StatPrint]
    ) [StatementList_NoEps]
  ) [MethodDecl]
) [Program]
INFO  17:17:23,059 - ===================================
INFO  17:17:23,059 -  Print count calls = 7
INFO  17:17:23,059 -  Deklarisanih promenljivih ima = 2
