INFO  20:55:27,892 - Compiling source file: C:\Users\ikadr\Desktop\PP\Projekat\Rad\workspace\MJCompiler\test\program.mj
INFO  20:55:27,957 - #2 program
INFO  20:55:27,957 - #28 test301
INFO  20:55:27,957 - #9 enum
INFO  20:55:27,959 - #28 Broj
INFO  20:55:27,959 - #17 {
INFO  20:55:27,959 - #28 NULA
INFO  20:55:27,959 - #12 ,
INFO  20:55:27,960 - #28 JEDAN
INFO  20:55:27,960 - #12 ,
INFO  20:55:27,960 - #28 PET
INFO  20:55:27,960 - #11 =
INFO  20:55:27,960 - #27 5
INFO  20:55:27,960 - #12 ,
INFO  20:55:27,960 - #28 DESET
INFO  20:55:27,961 - #11 =
INFO  20:55:27,961 - #27 10
INFO  20:55:27,961 - #18 }
INFO  20:55:27,961 - #8 const
INFO  20:55:27,962 - #28 int
INFO  20:55:27,962 - #28 jedan
INFO  20:55:27,963 - #11 =
INFO  20:55:28,037 - #27 1
INFO  20:55:28,037 - #10 ;
INFO  20:55:28,041 - #8 const
INFO  20:55:28,050 - #28 int
INFO  20:55:28,050 - #28 pet
INFO  20:55:28,051 - #11 =
INFO  20:55:28,052 - #27 5
INFO  20:55:28,052 - #10 ;
INFO  20:55:28,052 - #28 int
INFO  20:55:28,053 - #28 niz
INFO  20:55:28,054 - #15 [
INFO  20:55:28,054 - #16 ]
INFO  20:55:28,054 - #10 ;
INFO  20:55:28,056 - #28 char
INFO  20:55:28,060 - #28 nizch
INFO  20:55:28,060 - #15 [
INFO  20:55:28,061 - #16 ]
INFO  20:55:28,061 - #10 ;
INFO  20:55:28,061 - #17 {
INFO  20:55:28,061 - #6 void
INFO  20:55:28,061 - #28 main
INFO  20:55:28,063 - #13 (
INFO  20:55:28,063 - #14 )
INFO  20:55:28,063 - #28 int
INFO  20:55:28,065 - #28 bodovi
INFO  20:55:28,065 - #10 ;
INFO  20:55:28,066 - #28 Broj
INFO  20:55:28,067 - #28 nula
INFO  20:55:28,067 - #12 ,
INFO  20:55:28,067 - #28 jedan
INFO  20:55:28,067 - #10 ;
INFO  20:55:28,067 - #28 bool
INFO  20:55:28,068 - #28 proba
INFO  20:55:28,068 - #10 ;
INFO  20:55:28,068 - #17 {
INFO  20:55:28,068 - #28 bodovi
INFO  20:55:28,070 - #11 =
INFO  20:55:28,072 - #27 0
INFO  20:55:28,072 - #10 ;
INFO  20:55:28,073 - #28 bodovi
INFO  20:55:28,073 - #20 ++
INFO  20:55:28,073 - #10 ;
INFO  20:55:28,074 - #18 }
INFO  20:55:28,074 - #18 }
INFO  20:55:28,092 - Program(
  ProgName(
   test301
  ) [ProgName]
  GlobalDeclListL(
    GlobalDeclListL(
      GlobalDeclListL(
        GlobalDeclListL(
          GlobalDeclListL(
            GlobalDeclListEps(
            ) [GlobalDeclListEps]
            GlobalDeclEnum(
              EnumDecl(
               Broj
                EnumDeclListL(
                  EnumDeclListL(
                    EnumDeclListL(
                      EnumDeclItem(
                        EnumDeclDefNoVal(
                         NULA
                        ) [EnumDeclDefNoVal]
                      ) [EnumDeclItem]
                      EnumDeclDefNoVal(
                       JEDAN
                      ) [EnumDeclDefNoVal]
                    ) [EnumDeclListL]
                    EnumDeclDefVal(
                     PET
                     5
                    ) [EnumDeclDefVal]
                  ) [EnumDeclListL]
                  EnumDeclDefVal(
                   DESET
                   10
                  ) [EnumDeclDefVal]
                ) [EnumDeclListL]
              ) [EnumDecl]
            ) [GlobalDeclEnum]
          ) [GlobalDeclListL]
          GlobalDeclConst(
            ConstDecl(
              Type(
               int
              ) [Type]
              ConstDeclItem(
                ConstDef(
                 jedan
                  ConstNum(
                   1
                  ) [ConstNum]
                ) [ConstDef]
              ) [ConstDeclItem]
            ) [ConstDecl]
          ) [GlobalDeclConst]
        ) [GlobalDeclListL]
        GlobalDeclConst(
          ConstDecl(
            Type(
             int
            ) [Type]
            ConstDeclItem(
              ConstDef(
               pet
                ConstNum(
                 5
                ) [ConstNum]
              ) [ConstDef]
            ) [ConstDeclItem]
          ) [ConstDecl]
        ) [GlobalDeclConst]
      ) [GlobalDeclListL]
      GlobalDeclVar(
        GlobalVarDecl(
          Type(
           int
          ) [Type]
          GlobalVarDeclItem(
            GlobalVarDeclDefOk(
              VarDeclDefineArray(
               niz
              ) [VarDeclDefineArray]
            ) [GlobalVarDeclDefOk]
          ) [GlobalVarDeclItem]
        ) [GlobalVarDecl]
      ) [GlobalDeclVar]
    ) [GlobalDeclListL]
    GlobalDeclVar(
      GlobalVarDecl(
        Type(
         char
        ) [Type]
        GlobalVarDeclItem(
          GlobalVarDeclDefOk(
            VarDeclDefineArray(
             nizch
            ) [VarDeclDefineArray]
          ) [GlobalVarDeclDefOk]
        ) [GlobalVarDeclItem]
      ) [GlobalVarDecl]
    ) [GlobalDeclVar]
  ) [GlobalDeclListL]
  MethodDecl(
    MethodSignature(
      VoidableType(
      ) [VoidableType]
     main
    ) [MethodSignature]
    VarMethodDeclList_NoEps(
      VarMethodDeclList_NoEps(
        VarMethodDeclList_NoEps(
          VarMethodDeclList_Eps(
          ) [VarMethodDeclList_Eps]
          VarDecl(
            Type(
             int
            ) [Type]
            VarDeclItem(
              VarDeclDefineSingle(
               bodovi
              ) [VarDeclDefineSingle]
            ) [VarDeclItem]
          ) [VarDecl]
        ) [VarMethodDeclList_NoEps]
        VarDecl(
          Type(
           Broj
          ) [Type]
          VarDeclListL(
            VarDeclItem(
              VarDeclDefineSingle(
               nula
              ) [VarDeclDefineSingle]
            ) [VarDeclItem]
            VarDeclDefineSingle(
             jedan
            ) [VarDeclDefineSingle]
          ) [VarDeclListL]
        ) [VarDecl]
      ) [VarMethodDeclList_NoEps]
      VarDecl(
        Type(
         bool
        ) [Type]
        VarDeclItem(
          VarDeclDefineSingle(
           proba
          ) [VarDeclDefineSingle]
        ) [VarDeclItem]
      ) [VarDecl]
    ) [VarMethodDeclList_NoEps]
    StatementList_NoEps(
      StatementList_NoEps(
        StatementList_Eps(
        ) [StatementList_Eps]
        StatementDes(
          DesignStatAssignment(
            Designator(
             bodovi
              DesDerived1(
              ) [DesDerived1]
            ) [Designator]
            AssignementExpr(
              TermExpr(
                TermFact(
                  FactorConst(
                    ConstNum(
                     0
                    ) [ConstNum]
                  ) [FactorConst]
                ) [TermFact]
              ) [TermExpr]
            ) [AssignementExpr]
          ) [DesignStatAssignment]
        ) [StatementDes]
      ) [StatementList_NoEps]
      StatementDes(
        DesignStatInc(
          Designator(
           bodovi
            DesDerived1(
            ) [DesDerived1]
          ) [Designator]
        ) [DesignStatInc]
      ) [StatementDes]
    ) [StatementList_NoEps]
  ) [MethodDecl]
) [Program]
INFO  20:55:28,093 - ===================================
INFO  20:55:28,098 - Deklarisan novi enum tip Broj na liniji 5
INFO  20:55:28,104 - Deklarisana konstanta 'jedan' na liniji 7
INFO  20:55:28,104 - Deklarisana konstanta 'pet' na liniji 8
INFO  20:55:28,104 - Deklarisana promenljiva niza niz na liniji 10
INFO  20:55:28,105 - Deklarisana promenljiva niza nizch na liniji 11
INFO  20:55:28,105 - Obradjuje se funkcija main na liniji 14
INFO  20:55:28,105 - Deklarisana promenljiva bodovi tipa 1 na liniji 15
INFO  20:55:28,105 - Deklarisana promenljiva nula tipa 6 na liniji 16
INFO  20:55:28,105 - Deklarisana promenljiva jedan tipa 6 na liniji 16
INFO  20:55:28,105 - Deklarisana promenljiva proba tipa 5 na liniji 17
INFO  20:55:28,106 - Dodeljenja vrednost AssignementExpr(
  TermExpr(
    TermFact(
      FactorConst(
        ConstNum(
         0
        ) [ConstNum]
      ) [FactorConst]
    ) [TermFact]
  ) [TermExpr]
) [AssignementExpr]/n
INFO  20:55:28,106 -  Print count calls = 0
INFO  20:55:28,106 -  Deklarisanih promenljivih ima = 10
INFO  20:55:28,108 - Parsiranje uspesno zavrseno!
