INFO  14:03:34,691 - Compiling source file: C:\Users\ikadr\Desktop\PP\Projekat\Rad\workspace\MJCompiler\test\program.mj
INFO  14:03:34,692 - ===============SINTAKSNA OBRADA====================
INFO  14:03:34,767 - #2 program
INFO  14:03:34,768 - #28 test301
INFO  14:03:34,768 - #9 enum
INFO  14:03:34,770 - #28 Broj
INFO  14:03:34,770 - #17 {
INFO  14:03:34,772 - #28 NULA
INFO  14:03:34,773 - #12 ,
INFO  14:03:34,773 - #28 JEDAN
INFO  14:03:34,773 - #12 ,
INFO  14:03:34,774 - #28 PET
INFO  14:03:34,774 - #11 =
INFO  14:03:34,774 - #27 5
INFO  14:03:34,774 - #12 ,
INFO  14:03:34,774 - #28 DESET
INFO  14:03:34,775 - #11 =
INFO  14:03:34,775 - #27 10
INFO  14:03:34,775 - #18 }
INFO  14:03:34,775 - #8 const
INFO  14:03:34,777 - #28 int
INFO  14:03:34,777 - #28 jedan
INFO  14:03:34,778 - #11 =
INFO  14:03:34,778 - #27 1
INFO  14:03:34,779 - #10 ;
INFO  14:03:34,780 - #8 const
INFO  14:03:34,781 - #28 int
INFO  14:03:34,782 - #28 pet
INFO  14:03:34,782 - #11 =
INFO  14:03:34,782 - #27 5
INFO  14:03:34,782 - #10 ;
INFO  14:03:34,782 - #28 int
INFO  14:03:34,782 - #28 niz
INFO  14:03:34,782 - #15 [
INFO  14:03:34,782 - #16 ]
INFO  14:03:34,783 - #10 ;
INFO  14:03:34,783 - #28 char
INFO  14:03:34,784 - #28 nizch
INFO  14:03:34,784 - #15 [
INFO  14:03:34,785 - #16 ]
INFO  14:03:34,785 - #10 ;
INFO  14:03:34,785 - #17 {
INFO  14:03:34,785 - #6 void
INFO  14:03:34,785 - #28 main
INFO  14:03:34,786 - #13 (
INFO  14:03:34,787 - #14 )
INFO  14:03:34,787 - #28 int
INFO  14:03:34,790 - #28 bodovi
INFO  14:03:34,790 - #10 ;
INFO  14:03:34,790 - #28 Broj
INFO  14:03:34,792 - #28 nula
INFO  14:03:34,792 - #12 ,
INFO  14:03:34,792 - #28 jedan
INFO  14:03:34,792 - #10 ;
INFO  14:03:34,792 - #17 {
INFO  14:03:34,792 - #28 nula
INFO  14:03:34,794 - #11 =
INFO  14:03:34,794 - #28 Broj
INFO  14:03:34,794 - #19 .
INFO  14:03:34,794 - #28 NULA
INFO  14:03:34,794 - #10 ;
INFO  14:03:34,795 - #28 jedan
INFO  14:03:34,795 - #11 =
INFO  14:03:34,795 - #28 Broj
INFO  14:03:34,796 - #19 .
INFO  14:03:34,796 - #28 JEDAN
INFO  14:03:34,796 - #10 ;
INFO  14:03:34,796 - #28 bodovi
INFO  14:03:34,796 - #11 =
INFO  14:03:34,796 - #27 0
INFO  14:03:34,796 - #10 ;
INFO  14:03:34,797 - #28 bodovi
INFO  14:03:34,797 - #20 ++
INFO  14:03:34,797 - #10 ;
INFO  14:03:34,797 - #28 bodovi
INFO  14:03:34,797 - #11 =
INFO  14:03:34,797 - #28 bodovi
INFO  14:03:34,797 - #23 +
INFO  14:03:34,797 - #28 jedan
INFO  14:03:34,800 - #10 ;
INFO  14:03:34,800 - #28 bodovi
INFO  14:03:34,800 - #11 =
INFO  14:03:34,800 - #28 bodovi
INFO  14:03:34,801 - #24 *
INFO  14:03:34,801 - #28 pet
INFO  14:03:34,803 - #10 ;
INFO  14:03:34,803 - #28 bodovi
INFO  14:03:34,803 - #21 --
INFO  14:03:34,803 - #10 ;
INFO  14:03:34,803 - #4 print
INFO  14:03:34,804 - #13 (
INFO  14:03:34,804 - #28 bodovi
INFO  14:03:34,804 - #14 )
INFO  14:03:34,804 - #10 ;
INFO  14:03:34,804 - #28 niz
INFO  14:03:34,804 - #11 =
INFO  14:03:34,804 - #5 new
INFO  14:03:34,804 - #28 int
INFO  14:03:34,804 - #15 [
INFO  14:03:34,805 - #27 2
INFO  14:03:34,805 - #16 ]
INFO  14:03:34,805 - #10 ;
INFO  14:03:34,805 - #28 niz
INFO  14:03:34,805 - #15 [
INFO  14:03:34,807 - #28 nula
INFO  14:03:34,807 - #16 ]
INFO  14:03:34,807 - #11 =
INFO  14:03:34,807 - #28 pet
INFO  14:03:34,807 - #10 ;
INFO  14:03:34,807 - #28 niz
INFO  14:03:34,807 - #15 [
INFO  14:03:34,808 - #27 1
INFO  14:03:34,808 - #16 ]
INFO  14:03:34,808 - #11 =
INFO  14:03:34,808 - #28 Broj
INFO  14:03:34,808 - #19 .
INFO  14:03:34,808 - #28 DESET
INFO  14:03:34,808 - #10 ;
INFO  14:03:34,808 - #28 bodovi
INFO  14:03:34,808 - #11 =
INFO  14:03:34,808 - #28 niz
INFO  14:03:34,808 - #15 [
INFO  14:03:34,808 - #27 1
INFO  14:03:34,808 - #16 ]
INFO  14:03:34,809 - #25 /
INFO  14:03:34,809 - #28 niz
INFO  14:03:34,810 - #15 [
INFO  14:03:34,810 - #27 0
INFO  14:03:34,810 - #16 ]
INFO  14:03:34,810 - #10 ;
INFO  14:03:34,810 - #4 print
INFO  14:03:34,810 - #13 (
INFO  14:03:34,810 - #28 bodovi
INFO  14:03:34,815 - #14 )
INFO  14:03:34,815 - #10 ;
INFO  14:03:34,815 - #4 print
INFO  14:03:34,815 - #13 (
INFO  14:03:34,815 - #28 niz
INFO  14:03:34,815 - #15 [
INFO  14:03:34,815 - #28 Broj
INFO  14:03:34,815 - #19 .
INFO  14:03:34,815 - #28 JEDAN
INFO  14:03:34,815 - #16 ]
INFO  14:03:34,815 - #14 )
INFO  14:03:34,815 - #10 ;
INFO  14:03:34,815 - #28 nizch
INFO  14:03:34,815 - #11 =
INFO  14:03:34,815 - #5 new
INFO  14:03:34,816 - #28 char
INFO  14:03:34,816 - #15 [
INFO  14:03:34,816 - #27 3
INFO  14:03:34,816 - #16 ]
INFO  14:03:34,816 - #10 ;
INFO  14:03:34,816 - #28 nizch
INFO  14:03:34,816 - #15 [
INFO  14:03:34,816 - #27 0
INFO  14:03:34,816 - #16 ]
INFO  14:03:34,816 - #11 =
INFO  14:03:34,816 - #29 a
INFO  14:03:34,816 - #10 ;
INFO  14:03:34,817 - #28 nizch
INFO  14:03:34,817 - #15 [
INFO  14:03:34,817 - #28 jedan
INFO  14:03:34,817 - #16 ]
INFO  14:03:34,817 - #11 =
INFO  14:03:34,817 - #29 b
INFO  14:03:34,817 - #10 ;
INFO  14:03:34,817 - #28 nizch
INFO  14:03:34,817 - #15 [
INFO  14:03:34,817 - #28 pet
INFO  14:03:34,818 - #22 -
INFO  14:03:34,818 - #27 3
INFO  14:03:34,819 - #16 ]
INFO  14:03:34,819 - #11 =
INFO  14:03:34,819 - #29 c
INFO  14:03:34,819 - #10 ;
INFO  14:03:34,819 - #4 print
INFO  14:03:34,819 - #13 (
INFO  14:03:34,819 - #28 nizch
INFO  14:03:34,819 - #15 [
INFO  14:03:34,820 - #27 2
INFO  14:03:34,820 - #22 -
INFO  14:03:34,820 - #27 1
INFO  14:03:34,820 - #16 ]
INFO  14:03:34,820 - #14 )
INFO  14:03:34,820 - #10 ;
INFO  14:03:34,820 - #4 print
INFO  14:03:34,820 - #13 (
INFO  14:03:34,820 - #28 nizch
INFO  14:03:34,820 - #15 [
INFO  14:03:34,820 - #28 jedan
INFO  14:03:34,820 - #24 *
INFO  14:03:34,821 - #27 2
INFO  14:03:34,821 - #16 ]
INFO  14:03:34,821 - #14 )
INFO  14:03:34,821 - #10 ;
INFO  14:03:34,821 - #28 bodovi
INFO  14:03:34,821 - #11 =
INFO  14:03:34,821 - #28 bodovi
INFO  14:03:34,821 - #23 +
INFO  14:03:34,821 - #13 (
INFO  14:03:34,821 - #13 (
INFO  14:03:34,821 - #28 pet
INFO  14:03:34,822 - #24 *
INFO  14:03:34,822 - #28 jedan
INFO  14:03:34,822 - #22 -
INFO  14:03:34,822 - #27 1
INFO  14:03:34,822 - #14 )
INFO  14:03:34,822 - #24 *
INFO  14:03:34,822 - #27 2
INFO  14:03:34,822 - #22 -
INFO  14:03:34,822 - #13 (
INFO  14:03:34,823 - #27 3
INFO  14:03:34,823 - #26 %
INFO  14:03:34,823 - #27 2
INFO  14:03:34,824 - #23 +
INFO  14:03:34,824 - #27 3
INFO  14:03:34,824 - #24 *
INFO  14:03:34,824 - #27 2
INFO  14:03:34,824 - #22 -
INFO  14:03:34,824 - #27 3
INFO  14:03:34,825 - #14 )
INFO  14:03:34,825 - #22 -
INFO  14:03:34,825 - #28 Broj
INFO  14:03:34,825 - #19 .
INFO  14:03:34,825 - #28 JEDAN
INFO  14:03:34,825 - #24 *
INFO  14:03:34,825 - #27 0
INFO  14:03:34,825 - #14 )
INFO  14:03:34,825 - #10 ;
INFO  14:03:34,825 - #4 print
INFO  14:03:34,826 - #13 (
INFO  14:03:34,826 - #28 bodovi
INFO  14:03:34,826 - #14 )
INFO  14:03:34,826 - #10 ;
INFO  14:03:34,826 - #3 read
INFO  14:03:34,826 - #13 (
INFO  14:03:34,826 - #28 bodovi
INFO  14:03:34,826 - #14 )
INFO  14:03:34,826 - #10 ;
INFO  14:03:34,826 - #28 bodovi
INFO  14:03:34,826 - #11 =
INFO  14:03:34,826 - #28 bodovi
INFO  14:03:34,827 - #23 +
INFO  14:03:34,827 - #27 1
INFO  14:03:34,827 - #10 ;
INFO  14:03:34,827 - #4 print
INFO  14:03:34,827 - #13 (
INFO  14:03:34,827 - #28 bodovi
INFO  14:03:34,827 - #14 )
INFO  14:03:34,827 - #10 ;
INFO  14:03:34,827 - #18 }
INFO  14:03:34,827 - #18 }
INFO  14:03:34,848 - Program(
  ProgName(
   test301
  ) [ProgName]
  GlobalDeclListL(
    GlobalDeclListL(
      GlobalDeclListL(
        GlobalDeclListL(
          GlobalDeclListL(
            GlobalDeclListEps(
            ) [GlobalDeclListEps]
            GlobalDeclEnum(
              EnumDecl(
                EnumName(
                 Broj
                ) [EnumName]
                EnumDeclListL(
                  EnumDeclListL(
                    EnumDeclListL(
                      EnumDeclItem(
                        EnumDeclDefNoVal(
                         NULA
                        ) [EnumDeclDefNoVal]
                      ) [EnumDeclItem]
                      EnumDeclDefNoVal(
                       JEDAN
                      ) [EnumDeclDefNoVal]
                    ) [EnumDeclListL]
                    EnumDeclDefVal(
                     PET
                     5
                    ) [EnumDeclDefVal]
                  ) [EnumDeclListL]
                  EnumDeclDefVal(
                   DESET
                   10
                  ) [EnumDeclDefVal]
                ) [EnumDeclListL]
              ) [EnumDecl]
            ) [GlobalDeclEnum]
          ) [GlobalDeclListL]
          GlobalDeclConst(
            ConstDecl(
              Type(
               int
              ) [Type]
              ConstDeclItem(
                ConstDef(
                 jedan
                  ConstNum(
                   1
                  ) [ConstNum]
                ) [ConstDef]
              ) [ConstDeclItem]
            ) [ConstDecl]
          ) [GlobalDeclConst]
        ) [GlobalDeclListL]
        GlobalDeclConst(
          ConstDecl(
            Type(
             int
            ) [Type]
            ConstDeclItem(
              ConstDef(
               pet
                ConstNum(
                 5
                ) [ConstNum]
              ) [ConstDef]
            ) [ConstDeclItem]
          ) [ConstDecl]
        ) [GlobalDeclConst]
      ) [GlobalDeclListL]
      GlobalDeclVar(
        GlobalVarDecl(
          Type(
           int
          ) [Type]
          GlobalVarDeclItem(
            GlobalVarDeclDefOk(
              VarDeclDefineArray(
               niz
              ) [VarDeclDefineArray]
            ) [GlobalVarDeclDefOk]
          ) [GlobalVarDeclItem]
        ) [GlobalVarDecl]
      ) [GlobalDeclVar]
    ) [GlobalDeclListL]
    GlobalDeclVar(
      GlobalVarDecl(
        Type(
         char
        ) [Type]
        GlobalVarDeclItem(
          GlobalVarDeclDefOk(
            VarDeclDefineArray(
             nizch
            ) [VarDeclDefineArray]
          ) [GlobalVarDeclDefOk]
        ) [GlobalVarDeclItem]
      ) [GlobalVarDecl]
    ) [GlobalDeclVar]
  ) [GlobalDeclListL]
  MethodDecl(
    MethodSignature(
      VoidableType(
      ) [VoidableType]
     main
    ) [MethodSignature]
    VarMethodDeclList_NoEps(
      VarMethodDeclList_NoEps(
        VarMethodDeclList_Eps(
        ) [VarMethodDeclList_Eps]
        VarDecl(
          Type(
           int
          ) [Type]
          VarDeclItem(
            VarDeclDefineSingle(
             bodovi
            ) [VarDeclDefineSingle]
          ) [VarDeclItem]
        ) [VarDecl]
      ) [VarMethodDeclList_NoEps]
      VarDecl(
        Type(
         Broj
        ) [Type]
        VarDeclListL(
          VarDeclItem(
            VarDeclDefineSingle(
             nula
            ) [VarDeclDefineSingle]
          ) [VarDeclItem]
          VarDeclDefineSingle(
           jedan
          ) [VarDeclDefineSingle]
        ) [VarDeclListL]
      ) [VarDecl]
    ) [VarMethodDeclList_NoEps]
    StatementList_NoEps(
      StatementList_NoEps(
        StatementList_NoEps(
          StatementList_NoEps(
            StatementList_NoEps(
              StatementList_NoEps(
                StatementList_NoEps(
                  StatementList_NoEps(
                    StatementList_NoEps(
                      StatementList_NoEps(
                        StatementList_NoEps(
                          StatementList_NoEps(
                            StatementList_NoEps(
                              StatementList_NoEps(
                                StatementList_NoEps(
                                  StatementList_NoEps(
                                    StatementList_NoEps(
                                      StatementList_NoEps(
                                        StatementList_NoEps(
                                          StatementList_NoEps(
                                            StatementList_NoEps(
                                              StatementList_NoEps(
                                                StatementList_NoEps(
                                                  StatementList_NoEps(
                                                    StatementList_NoEps(
                                                      StatementList_Eps(
                                                      ) [StatementList_Eps]
                                                      StatementDes(
                                                        DesignStatAssignment(
                                                          DesIdent(
                                                           nula
                                                          ) [DesIdent]
                                                          AssignementExpr(
                                                            TermExpr(
                                                              TermFact(
                                                                FactorDesign(
                                                                  DesEnum(
                                                                   Broj
                                                                   NULA
                                                                  ) [DesEnum]
                                                                ) [FactorDesign]
                                                              ) [TermFact]
                                                            ) [TermExpr]
                                                          ) [AssignementExpr]
                                                        ) [DesignStatAssignment]
                                                      ) [StatementDes]
                                                    ) [StatementList_NoEps]
                                                    StatementDes(
                                                      DesignStatAssignment(
                                                        DesIdent(
                                                         jedan
                                                        ) [DesIdent]
                                                        AssignementExpr(
                                                          TermExpr(
                                                            TermFact(
                                                              FactorDesign(
                                                                DesEnum(
                                                                 Broj
                                                                 JEDAN
                                                                ) [DesEnum]
                                                              ) [FactorDesign]
                                                            ) [TermFact]
                                                          ) [TermExpr]
                                                        ) [AssignementExpr]
                                                      ) [DesignStatAssignment]
                                                    ) [StatementDes]
                                                  ) [StatementList_NoEps]
                                                  StatementDes(
                                                    DesignStatAssignment(
                                                      DesIdent(
                                                       bodovi
                                                      ) [DesIdent]
                                                      AssignementExpr(
                                                        TermExpr(
                                                          TermFact(
                                                            FactorConst(
                                                              ConstNum(
                                                               0
                                                              ) [ConstNum]
                                                            ) [FactorConst]
                                                          ) [TermFact]
                                                        ) [TermExpr]
                                                      ) [AssignementExpr]
                                                    ) [DesignStatAssignment]
                                                  ) [StatementDes]
                                                ) [StatementList_NoEps]
                                                StatementDes(
                                                  DesignStatInc(
                                                    DesIdent(
                                                     bodovi
                                                    ) [DesIdent]
                                                  ) [DesignStatInc]
                                                ) [StatementDes]
                                              ) [StatementList_NoEps]
                                              StatementDes(
                                                DesignStatAssignment(
                                                  DesIdent(
                                                   bodovi
                                                  ) [DesIdent]
                                                  AssignementExpr(
                                                    AddopExp(
                                                      TermExpr(
                                                        TermFact(
                                                          FactorDesign(
                                                            DesIdent(
                                                             bodovi
                                                            ) [DesIdent]
                                                          ) [FactorDesign]
                                                        ) [TermFact]
                                                      ) [TermExpr]
                                                      Addop_Plus(
                                                      ) [Addop_Plus]
                                                      TermFact(
                                                        FactorDesign(
                                                          DesIdent(
                                                           jedan
                                                          ) [DesIdent]
                                                        ) [FactorDesign]
                                                      ) [TermFact]
                                                    ) [AddopExp]
                                                  ) [AssignementExpr]
                                                ) [DesignStatAssignment]
                                              ) [StatementDes]
                                            ) [StatementList_NoEps]
                                            StatementDes(
                                              DesignStatAssignment(
                                                DesIdent(
                                                 bodovi
                                                ) [DesIdent]
                                                AssignementExpr(
                                                  TermExpr(
                                                    TermMulop(
                                                      TermFact(
                                                        FactorDesign(
                                                          DesIdent(
                                                           bodovi
                                                          ) [DesIdent]
                                                        ) [FactorDesign]
                                                      ) [TermFact]
                                                      Mulop_Mul(
                                                      ) [Mulop_Mul]
                                                      FactorDesign(
                                                        DesIdent(
                                                         pet
                                                        ) [DesIdent]
                                                      ) [FactorDesign]
                                                    ) [TermMulop]
                                                  ) [TermExpr]
                                                ) [AssignementExpr]
                                              ) [DesignStatAssignment]
                                            ) [StatementDes]
                                          ) [StatementList_NoEps]
                                          StatementDes(
                                            DesignStatDec(
                                              DesIdent(
                                               bodovi
                                              ) [DesIdent]
                                            ) [DesignStatDec]
                                          ) [StatementDes]
                                        ) [StatementList_NoEps]
                                        StatPrint(
                                          TermExpr(
                                            TermFact(
                                              FactorDesign(
                                                DesIdent(
                                                 bodovi
                                                ) [DesIdent]
                                              ) [FactorDesign]
                                            ) [TermFact]
                                          ) [TermExpr]
                                        ) [StatPrint]
                                      ) [StatementList_NoEps]
                                      StatementDes(
                                        DesignStatAssignment(
                                          DesIdent(
                                           niz
                                          ) [DesIdent]
                                          AssignementExpr(
                                            TermExpr(
                                              TermFact(
                                                FactorNewArr(
                                                  Type(
                                                   int
                                                  ) [Type]
                                                  TermExpr(
                                                    TermFact(
                                                      FactorConst(
                                                        ConstNum(
                                                         2
                                                        ) [ConstNum]
                                                      ) [FactorConst]
                                                    ) [TermFact]
                                                  ) [TermExpr]
                                                ) [FactorNewArr]
                                              ) [TermFact]
                                            ) [TermExpr]
                                          ) [AssignementExpr]
                                        ) [DesignStatAssignment]
                                      ) [StatementDes]
                                    ) [StatementList_NoEps]
                                    StatementDes(
                                      DesignStatAssignment(
                                        DesArr(
                                          ArrayName(
                                           niz
                                          ) [ArrayName]
                                          TermExpr(
                                            TermFact(
                                              FactorDesign(
                                                DesIdent(
                                                 nula
                                                ) [DesIdent]
                                              ) [FactorDesign]
                                            ) [TermFact]
                                          ) [TermExpr]
                                        ) [DesArr]
                                        AssignementExpr(
                                          TermExpr(
                                            TermFact(
                                              FactorDesign(
                                                DesIdent(
                                                 pet
                                                ) [DesIdent]
                                              ) [FactorDesign]
                                            ) [TermFact]
                                          ) [TermExpr]
                                        ) [AssignementExpr]
                                      ) [DesignStatAssignment]
                                    ) [StatementDes]
                                  ) [StatementList_NoEps]
                                  StatementDes(
                                    DesignStatAssignment(
                                      DesArr(
                                        ArrayName(
                                         niz
                                        ) [ArrayName]
                                        TermExpr(
                                          TermFact(
                                            FactorConst(
                                              ConstNum(
                                               1
                                              ) [ConstNum]
                                            ) [FactorConst]
                                          ) [TermFact]
                                        ) [TermExpr]
                                      ) [DesArr]
                                      AssignementExpr(
                                        TermExpr(
                                          TermFact(
                                            FactorDesign(
                                              DesEnum(
                                               Broj
                                               DESET
                                              ) [DesEnum]
                                            ) [FactorDesign]
                                          ) [TermFact]
                                        ) [TermExpr]
                                      ) [AssignementExpr]
                                    ) [DesignStatAssignment]
                                  ) [StatementDes]
                                ) [StatementList_NoEps]
                                StatementDes(
                                  DesignStatAssignment(
                                    DesIdent(
                                     bodovi
                                    ) [DesIdent]
                                    AssignementExpr(
                                      TermExpr(
                                        TermMulop(
                                          TermFact(
                                            FactorDesign(
                                              DesArr(
                                                ArrayName(
                                                 niz
                                                ) [ArrayName]
                                                TermExpr(
                                                  TermFact(
                                                    FactorConst(
                                                      ConstNum(
                                                       1
                                                      ) [ConstNum]
                                                    ) [FactorConst]
                                                  ) [TermFact]
                                                ) [TermExpr]
                                              ) [DesArr]
                                            ) [FactorDesign]
                                          ) [TermFact]
                                          Mulop_Div(
                                          ) [Mulop_Div]
                                          FactorDesign(
                                            DesArr(
                                              ArrayName(
                                               niz
                                              ) [ArrayName]
                                              TermExpr(
                                                TermFact(
                                                  FactorConst(
                                                    ConstNum(
                                                     0
                                                    ) [ConstNum]
                                                  ) [FactorConst]
                                                ) [TermFact]
                                              ) [TermExpr]
                                            ) [DesArr]
                                          ) [FactorDesign]
                                        ) [TermMulop]
                                      ) [TermExpr]
                                    ) [AssignementExpr]
                                  ) [DesignStatAssignment]
                                ) [StatementDes]
                              ) [StatementList_NoEps]
                              StatPrint(
                                TermExpr(
                                  TermFact(
                                    FactorDesign(
                                      DesIdent(
                                       bodovi
                                      ) [DesIdent]
                                    ) [FactorDesign]
                                  ) [TermFact]
                                ) [TermExpr]
                              ) [StatPrint]
                            ) [StatementList_NoEps]
                            StatPrint(
                              TermExpr(
                                TermFact(
                                  FactorDesign(
                                    DesArr(
                                      ArrayName(
                                       niz
                                      ) [ArrayName]
                                      TermExpr(
                                        TermFact(
                                          FactorDesign(
                                            DesEnum(
                                             Broj
                                             JEDAN
                                            ) [DesEnum]
                                          ) [FactorDesign]
                                        ) [TermFact]
                                      ) [TermExpr]
                                    ) [DesArr]
                                  ) [FactorDesign]
                                ) [TermFact]
                              ) [TermExpr]
                            ) [StatPrint]
                          ) [StatementList_NoEps]
                          StatementDes(
                            DesignStatAssignment(
                              DesIdent(
                               nizch
                              ) [DesIdent]
                              AssignementExpr(
                                TermExpr(
                                  TermFact(
                                    FactorNewArr(
                                      Type(
                                       char
                                      ) [Type]
                                      TermExpr(
                                        TermFact(
                                          FactorConst(
                                            ConstNum(
                                             3
                                            ) [ConstNum]
                                          ) [FactorConst]
                                        ) [TermFact]
                                      ) [TermExpr]
                                    ) [FactorNewArr]
                                  ) [TermFact]
                                ) [TermExpr]
                              ) [AssignementExpr]
                            ) [DesignStatAssignment]
                          ) [StatementDes]
                        ) [StatementList_NoEps]
                        StatementDes(
                          DesignStatAssignment(
                            DesArr(
                              ArrayName(
                               nizch
                              ) [ArrayName]
                              TermExpr(
                                TermFact(
                                  FactorConst(
                                    ConstNum(
                                     0
                                    ) [ConstNum]
                                  ) [FactorConst]
                                ) [TermFact]
                              ) [TermExpr]
                            ) [DesArr]
                            AssignementExpr(
                              TermExpr(
                                TermFact(
                                  FactorConst(
                                    ConstChar(
                                     a
                                    ) [ConstChar]
                                  ) [FactorConst]
                                ) [TermFact]
                              ) [TermExpr]
                            ) [AssignementExpr]
                          ) [DesignStatAssignment]
                        ) [StatementDes]
                      ) [StatementList_NoEps]
                      StatementDes(
                        DesignStatAssignment(
                          DesArr(
                            ArrayName(
                             nizch
                            ) [ArrayName]
                            TermExpr(
                              TermFact(
                                FactorDesign(
                                  DesIdent(
                                   jedan
                                  ) [DesIdent]
                                ) [FactorDesign]
                              ) [TermFact]
                            ) [TermExpr]
                          ) [DesArr]
                          AssignementExpr(
                            TermExpr(
                              TermFact(
                                FactorConst(
                                  ConstChar(
                                   b
                                  ) [ConstChar]
                                ) [FactorConst]
                              ) [TermFact]
                            ) [TermExpr]
                          ) [AssignementExpr]
                        ) [DesignStatAssignment]
                      ) [StatementDes]
                    ) [StatementList_NoEps]
                    StatementDes(
                      DesignStatAssignment(
                        DesArr(
                          ArrayName(
                           nizch
                          ) [ArrayName]
                          AddopExp(
                            TermExpr(
                              TermFact(
                                FactorDesign(
                                  DesIdent(
                                   pet
                                  ) [DesIdent]
                                ) [FactorDesign]
                              ) [TermFact]
                            ) [TermExpr]
                            Addop_Minus(
                            ) [Addop_Minus]
                            TermFact(
                              FactorConst(
                                ConstNum(
                                 3
                                ) [ConstNum]
                              ) [FactorConst]
                            ) [TermFact]
                          ) [AddopExp]
                        ) [DesArr]
                        AssignementExpr(
                          TermExpr(
                            TermFact(
                              FactorConst(
                                ConstChar(
                                 c
                                ) [ConstChar]
                              ) [FactorConst]
                            ) [TermFact]
                          ) [TermExpr]
                        ) [AssignementExpr]
                      ) [DesignStatAssignment]
                    ) [StatementDes]
                  ) [StatementList_NoEps]
                  StatPrint(
                    TermExpr(
                      TermFact(
                        FactorDesign(
                          DesArr(
                            ArrayName(
                             nizch
                            ) [ArrayName]
                            AddopExp(
                              TermExpr(
                                TermFact(
                                  FactorConst(
                                    ConstNum(
                                     2
                                    ) [ConstNum]
                                  ) [FactorConst]
                                ) [TermFact]
                              ) [TermExpr]
                              Addop_Minus(
                              ) [Addop_Minus]
                              TermFact(
                                FactorConst(
                                  ConstNum(
                                   1
                                  ) [ConstNum]
                                ) [FactorConst]
                              ) [TermFact]
                            ) [AddopExp]
                          ) [DesArr]
                        ) [FactorDesign]
                      ) [TermFact]
                    ) [TermExpr]
                  ) [StatPrint]
                ) [StatementList_NoEps]
                StatPrint(
                  TermExpr(
                    TermFact(
                      FactorDesign(
                        DesArr(
                          ArrayName(
                           nizch
                          ) [ArrayName]
                          TermExpr(
                            TermMulop(
                              TermFact(
                                FactorDesign(
                                  DesIdent(
                                   jedan
                                  ) [DesIdent]
                                ) [FactorDesign]
                              ) [TermFact]
                              Mulop_Mul(
                              ) [Mulop_Mul]
                              FactorConst(
                                ConstNum(
                                 2
                                ) [ConstNum]
                              ) [FactorConst]
                            ) [TermMulop]
                          ) [TermExpr]
                        ) [DesArr]
                      ) [FactorDesign]
                    ) [TermFact]
                  ) [TermExpr]
                ) [StatPrint]
              ) [StatementList_NoEps]
              StatementDes(
                DesignStatAssignment(
                  DesIdent(
                   bodovi
                  ) [DesIdent]
                  AssignementExpr(
                    AddopExp(
                      TermExpr(
                        TermFact(
                          FactorDesign(
                            DesIdent(
                             bodovi
                            ) [DesIdent]
                          ) [FactorDesign]
                        ) [TermFact]
                      ) [TermExpr]
                      Addop_Plus(
                      ) [Addop_Plus]
                      TermFact(
                        FactorExpr(
                          AddopExp(
                            AddopExp(
                              TermExpr(
                                TermMulop(
                                  TermFact(
                                    FactorExpr(
                                      AddopExp(
                                        TermExpr(
                                          TermMulop(
                                            TermFact(
                                              FactorDesign(
                                                DesIdent(
                                                 pet
                                                ) [DesIdent]
                                              ) [FactorDesign]
                                            ) [TermFact]
                                            Mulop_Mul(
                                            ) [Mulop_Mul]
                                            FactorDesign(
                                              DesIdent(
                                               jedan
                                              ) [DesIdent]
                                            ) [FactorDesign]
                                          ) [TermMulop]
                                        ) [TermExpr]
                                        Addop_Minus(
                                        ) [Addop_Minus]
                                        TermFact(
                                          FactorConst(
                                            ConstNum(
                                             1
                                            ) [ConstNum]
                                          ) [FactorConst]
                                        ) [TermFact]
                                      ) [AddopExp]
                                    ) [FactorExpr]
                                  ) [TermFact]
                                  Mulop_Mul(
                                  ) [Mulop_Mul]
                                  FactorConst(
                                    ConstNum(
                                     2
                                    ) [ConstNum]
                                  ) [FactorConst]
                                ) [TermMulop]
                              ) [TermExpr]
                              Addop_Minus(
                              ) [Addop_Minus]
                              TermFact(
                                FactorExpr(
                                  AddopExp(
                                    AddopExp(
                                      TermExpr(
                                        TermMulop(
                                          TermFact(
                                            FactorConst(
                                              ConstNum(
                                               3
                                              ) [ConstNum]
                                            ) [FactorConst]
                                          ) [TermFact]
                                          Mulop_Mod(
                                          ) [Mulop_Mod]
                                          FactorConst(
                                            ConstNum(
                                             2
                                            ) [ConstNum]
                                          ) [FactorConst]
                                        ) [TermMulop]
                                      ) [TermExpr]
                                      Addop_Plus(
                                      ) [Addop_Plus]
                                      TermMulop(
                                        TermFact(
                                          FactorConst(
                                            ConstNum(
                                             3
                                            ) [ConstNum]
                                          ) [FactorConst]
                                        ) [TermFact]
                                        Mulop_Mul(
                                        ) [Mulop_Mul]
                                        FactorConst(
                                          ConstNum(
                                           2
                                          ) [ConstNum]
                                        ) [FactorConst]
                                      ) [TermMulop]
                                    ) [AddopExp]
                                    Addop_Minus(
                                    ) [Addop_Minus]
                                    TermFact(
                                      FactorConst(
                                        ConstNum(
                                         3
                                        ) [ConstNum]
                                      ) [FactorConst]
                                    ) [TermFact]
                                  ) [AddopExp]
                                ) [FactorExpr]
                              ) [TermFact]
                            ) [AddopExp]
                            Addop_Minus(
                            ) [Addop_Minus]
                            TermMulop(
                              TermFact(
                                FactorDesign(
                                  DesEnum(
                                   Broj
                                   JEDAN
                                  ) [DesEnum]
                                ) [FactorDesign]
                              ) [TermFact]
                              Mulop_Mul(
                              ) [Mulop_Mul]
                              FactorConst(
                                ConstNum(
                                 0
                                ) [ConstNum]
                              ) [FactorConst]
                            ) [TermMulop]
                          ) [AddopExp]
                        ) [FactorExpr]
                      ) [TermFact]
                    ) [AddopExp]
                  ) [AssignementExpr]
                ) [DesignStatAssignment]
              ) [StatementDes]
            ) [StatementList_NoEps]
            StatPrint(
              TermExpr(
                TermFact(
                  FactorDesign(
                    DesIdent(
                     bodovi
                    ) [DesIdent]
                  ) [FactorDesign]
                ) [TermFact]
              ) [TermExpr]
            ) [StatPrint]
          ) [StatementList_NoEps]
          StatRead(
            DesIdent(
             bodovi
            ) [DesIdent]
          ) [StatRead]
        ) [StatementList_NoEps]
        StatementDes(
          DesignStatAssignment(
            DesIdent(
             bodovi
            ) [DesIdent]
            AssignementExpr(
              AddopExp(
                TermExpr(
                  TermFact(
                    FactorDesign(
                      DesIdent(
                       bodovi
                      ) [DesIdent]
                    ) [FactorDesign]
                  ) [TermFact]
                ) [TermExpr]
                Addop_Plus(
                ) [Addop_Plus]
                TermFact(
                  FactorConst(
                    ConstNum(
                     1
                    ) [ConstNum]
                  ) [FactorConst]
                ) [TermFact]
              ) [AddopExp]
            ) [AssignementExpr]
          ) [DesignStatAssignment]
        ) [StatementDes]
      ) [StatementList_NoEps]
      StatPrint(
        TermExpr(
          TermFact(
            FactorDesign(
              DesIdent(
               bodovi
              ) [DesIdent]
            ) [FactorDesign]
          ) [TermFact]
        ) [TermExpr]
      ) [StatPrint]
    ) [StatementList_NoEps]
  ) [MethodDecl]
) [Program]
INFO  14:03:34,859 - ===============SEMANTICKA OBRADA====================
INFO  14:03:34,867 - Deklarisan novi enum tip Broj na liniji 5
INFO  14:03:34,871 - Deklarisana konstanta Broj.NULA unutar enuma Broj na liniji 5
INFO  14:03:34,871 - Deklarisana konstanta Broj.JEDAN unutar enuma Broj na liniji 5
INFO  14:03:34,873 - Deklarisana konstanta Broj.PET unutar enuma Broj na liniji 5
INFO  14:03:34,873 - Deklarisana konstanta Broj.DESET unutar enuma Broj na liniji 5
INFO  14:03:34,873 - Deklarisana konstanta 'jedan' na liniji 7
INFO  14:03:34,873 - Deklarisana konstanta 'pet' na liniji 8
INFO  14:03:34,873 - Deklarisana promenljiva niza niz tipa 1 na liniji 10
INFO  14:03:34,873 - Deklarisana promenljiva niza nizch tipa 2 na liniji 11
INFO  14:03:34,874 - Obradjuje se funkcija main na liniji 14
INFO  14:03:34,874 - Deklarisana promenljiva bodovi tipa 1 na liniji 15
INFO  14:03:34,874 - Deklarisana promenljiva nula tipa 6 na liniji 16
INFO  14:03:34,874 - Deklarisana promenljiva jedan tipa 6 na liniji 16
INFO  14:03:34,875 - Dodeljenja vrednost: 1 je design,1 je assign
INFO  14:03:34,875 - Inkrementirana vrednost
INFO  14:03:34,875 - Dodeljenja vrednost: 1 je design,1 je assign
INFO  14:03:34,875 - Dodeljenja vrednost: 1 je design,1 je assign
INFO  14:03:34,875 - Dekrementirana vrednost
INFO  14:03:34,875 - Print funkcija na liniji 26
INFO  14:03:34,876 - Dodeljenja vrednost: 1 je design,1 je assign
INFO  14:03:34,876 - Print funkcija na liniji 33
INFO  14:03:34,876 - Print funkcija na liniji 34
INFO  14:03:34,876 - Print funkcija na liniji 41
INFO  14:03:34,876 - Print funkcija na liniji 42
INFO  14:03:34,876 - Dodeljenja vrednost: 1 je design,1 je assign
INFO  14:03:34,876 - Print funkcija na liniji 46
INFO  14:03:34,877 - Read funkcija na liniji 49
INFO  14:03:34,877 - Dodeljenja vrednost: 1 je design,1 je assign
INFO  14:03:34,877 - Print funkcija na liniji 51
INFO  14:03:34,877 -  Print count calls = 7
INFO  14:03:34,877 -  Deklarisanih promenljivih ima = 5
INFO  14:03:34,889 - 
INFO  14:03:34,890 - Parsiranje uspesno zavrseno!
