INFO  18:42:17,449 - Compiling source file: C:\Users\ikadr\Desktop\PP\Projekat\Rad\workspace\MJCompiler\test\program.mj
INFO  18:42:17,519 - #2 program
INFO  18:42:17,520 - #28 test301
INFO  18:42:17,520 - #28 int
INFO  18:42:17,523 - #28 niz
INFO  18:42:17,524 - #15 [
INFO  18:42:17,524 - #16 ]
INFO  18:42:17,524 - #10 ;
INFO  18:42:17,525 - #17 {
INFO  18:42:17,526 - #6 void
INFO  18:42:17,526 - #28 main
INFO  18:42:17,527 - #13 (
INFO  18:42:17,527 - #14 )
INFO  18:42:17,527 - #17 {
INFO  18:42:17,529 - #28 niz
INFO  18:42:17,531 - #11 =
INFO  18:42:17,533 - #5 new
INFO  18:42:17,533 - #28 int
INFO  18:42:17,533 - #15 [
INFO  18:42:17,533 - #27 2
INFO  18:42:17,533 - #16 ]
INFO  18:42:17,534 - #10 ;
INFO  18:42:17,537 - #28 niz
INFO  18:42:17,537 - #15 [
INFO  18:42:17,537 - #27 1
INFO  18:42:17,538 - #16 ]
INFO  18:42:17,538 - #11 =
INFO  18:42:17,539 - #27 5
INFO  18:42:17,539 - #10 ;
INFO  18:42:17,539 - #18 }
INFO  18:42:17,539 - #18 }
INFO  18:42:17,553 - Program(
  ProgName(
   test301
  ) [ProgName]
  GlobalDeclListL(
    GlobalDeclListEps(
    ) [GlobalDeclListEps]
    GlobalDeclVar(
      GlobalVarDecl(
        Type(
         int
        ) [Type]
        GlobalVarDeclItem(
          GlobalVarDeclDefOk(
            VarDeclDefineArray(
             niz
            ) [VarDeclDefineArray]
          ) [GlobalVarDeclDefOk]
        ) [GlobalVarDeclItem]
      ) [GlobalVarDecl]
    ) [GlobalDeclVar]
  ) [GlobalDeclListL]
  MethodDecl(
    MethodSignature(
      VoidableType(
      ) [VoidableType]
     main
    ) [MethodSignature]
    VarMethodDeclList_Eps(
    ) [VarMethodDeclList_Eps]
    StatementList_NoEps(
      StatementList_NoEps(
        StatementList_Eps(
        ) [StatementList_Eps]
        StatementDes(
          DesignStatAssignment(
            Designator(
              ArrayInd(
              ) [ArrayInd]
             niz
              DesDerived1(
              ) [DesDerived1]
            ) [Designator]
            AssignementExpr(
              TermExpr(
                TermFact(
                  FactorNewArr(
                    Type(
                     int
                    ) [Type]
                    TermExpr(
                      TermFact(
                        FactorConst(
                          ConstNum(
                           2
                          ) [ConstNum]
                        ) [FactorConst]
                      ) [TermFact]
                    ) [TermExpr]
                  ) [FactorNewArr]
                ) [TermFact]
              ) [TermExpr]
            ) [AssignementExpr]
          ) [DesignStatAssignment]
        ) [StatementDes]
      ) [StatementList_NoEps]
      StatementDes(
        DesignStatAssignment(
          Designator(
            ArrayInd(
            ) [ArrayInd]
           niz
            DesArr(
              TermExpr(
                TermFact(
                  FactorConst(
                    ConstNum(
                     1
                    ) [ConstNum]
                  ) [FactorConst]
                ) [TermFact]
              ) [TermExpr]
            ) [DesArr]
          ) [Designator]
          AssignementExpr(
            TermExpr(
              TermFact(
                FactorConst(
                  ConstNum(
                   5
                  ) [ConstNum]
                ) [FactorConst]
              ) [TermFact]
            ) [TermExpr]
          ) [AssignementExpr]
        ) [DesignStatAssignment]
      ) [StatementDes]
    ) [StatementList_NoEps]
  ) [MethodDecl]
) [Program]
INFO  18:42:17,554 - ===================================
INFO  18:42:17,558 - Deklarisana promenljiva niza niz tipa 1 na liniji 6
INFO  18:42:17,559 - Obradjuje se funkcija main na liniji 8
INFO  18:42:17,559 - kind niza u newArr je3, a elemenata 1
INFO  18:42:17,559 -  Print count calls = 0
INFO  18:42:17,559 -  Deklarisanih promenljivih ima = 0
INFO  18:42:17,568 - Parsiranje uspesno zavrseno!
INFO  18:42:17,568 - GENERATOR:elem
