INFO  16:01:44,431 - Compiling source file: C:\Users\ikadr\Desktop\PP\Projekat\Rad\workspace\MJCompiler\test\program.mj
INFO  16:01:44,495 - #2 program
INFO  16:01:44,495 - #28 test301
INFO  16:01:44,495 - #9 enum
INFO  16:01:44,497 - #28 Broj
INFO  16:01:44,497 - #17 {
INFO  16:01:44,497 - #28 NULA
INFO  16:01:44,497 - #12 ,
INFO  16:01:44,498 - #28 JEDAN
INFO  16:01:44,498 - #12 ,
INFO  16:01:44,498 - #28 PET
INFO  16:01:44,498 - #11 =
INFO  16:01:44,498 - #27 5
INFO  16:01:44,498 - #12 ,
INFO  16:01:44,499 - #28 DESET
INFO  16:01:44,499 - #11 =
INFO  16:01:44,499 - #27 10
INFO  16:01:44,499 - #18 }
INFO  16:01:44,499 - #8 const
INFO  16:01:44,500 - #28 int
INFO  16:01:44,500 - #28 jedan
INFO  16:01:44,501 - #11 =
INFO  16:01:44,542 - #27 1
INFO  16:01:44,542 - #10 ;
INFO  16:01:44,544 - #8 const
INFO  16:01:44,545 - #28 int
INFO  16:01:44,545 - #28 pet
INFO  16:01:44,546 - #11 =
INFO  16:01:44,546 - #27 5
INFO  16:01:44,546 - #10 ;
INFO  16:01:44,546 - #28 int
INFO  16:01:44,546 - #28 niz
INFO  16:01:44,546 - #15 [
INFO  16:01:44,546 - #16 ]
INFO  16:01:44,546 - #10 ;
INFO  16:01:44,547 - #28 char
INFO  16:01:44,548 - #28 nizch
INFO  16:01:44,548 - #15 [
INFO  16:01:44,548 - #16 ]
INFO  16:01:44,548 - #10 ;
INFO  16:01:44,548 - #17 {
INFO  16:01:44,548 - #6 void
INFO  16:01:44,549 - #28 main
INFO  16:01:44,550 - #13 (
INFO  16:01:44,550 - #14 )
INFO  16:01:44,550 - #28 int
INFO  16:01:44,552 - #28 bodovi
INFO  16:01:44,552 - #10 ;
INFO  16:01:44,552 - #28 Broj
INFO  16:01:44,553 - #28 nula
INFO  16:01:44,554 - #12 ,
INFO  16:01:44,554 - #28 jedan
INFO  16:01:44,554 - #10 ;
INFO  16:01:44,554 - #17 {
INFO  16:01:44,554 - #28 nula
INFO  16:01:44,556 - #11 =
INFO  16:01:44,556 - #28 Broj
INFO  16:01:44,556 - #19 .
INFO  16:01:44,556 - #28 NULA
INFO  16:01:44,557 - #10 ;
INFO  16:01:44,557 - #28 jedan
INFO  16:01:44,558 - #11 =
INFO  16:01:44,558 - #28 Broj
INFO  16:01:44,558 - #19 .
INFO  16:01:44,558 - #28 JEDAN
INFO  16:01:44,558 - #10 ;
INFO  16:01:44,559 - #28 bodovi
INFO  16:01:44,559 - #11 =
INFO  16:01:44,559 - #27 0
INFO  16:01:44,560 - #10 ;
INFO  16:01:44,560 - #28 bodovi
INFO  16:01:44,560 - #20 ++
INFO  16:01:44,560 - #10 ;
INFO  16:01:44,560 - #28 bodovi
INFO  16:01:44,561 - #11 =
INFO  16:01:44,561 - #28 bodovi
INFO  16:01:44,561 - #23 +
INFO  16:01:44,561 - #28 jedan
INFO  16:01:44,563 - #10 ;
INFO  16:01:44,563 - #28 bodovi
INFO  16:01:44,563 - #11 =
INFO  16:01:44,564 - #28 bodovi
INFO  16:01:44,564 - #24 *
INFO  16:01:44,564 - #28 pet
INFO  16:01:44,566 - #10 ;
INFO  16:01:44,566 - #28 bodovi
INFO  16:01:44,567 - #21 --
INFO  16:01:44,567 - #10 ;
INFO  16:01:44,567 - #4 print
INFO  16:01:44,567 - #13 (
INFO  16:01:44,567 - #28 bodovi
INFO  16:01:44,567 - #14 )
INFO  16:01:44,567 - #10 ;
INFO  16:01:44,567 - #28 niz
INFO  16:01:44,568 - #11 =
INFO  16:01:44,568 - #5 new
INFO  16:01:44,568 - #28 int
INFO  16:01:44,568 - #15 [
INFO  16:01:44,568 - #27 2
INFO  16:01:44,568 - #16 ]
INFO  16:01:44,568 - #10 ;
INFO  16:01:44,569 - #28 niz
INFO  16:01:44,569 - #15 [
INFO  16:01:44,570 - #28 nula
INFO  16:01:44,570 - #16 ]
INFO  16:01:44,570 - #11 =
INFO  16:01:44,571 - #28 pet
INFO  16:01:44,571 - #10 ;
INFO  16:01:44,571 - #28 niz
INFO  16:01:44,571 - #15 [
INFO  16:01:44,571 - #27 1
INFO  16:01:44,571 - #16 ]
INFO  16:01:44,571 - #11 =
INFO  16:01:44,571 - #28 Broj
INFO  16:01:44,571 - #19 .
INFO  16:01:44,571 - #28 DESET
INFO  16:01:44,572 - #10 ;
INFO  16:01:44,572 - #28 bodovi
INFO  16:01:44,572 - #11 =
INFO  16:01:44,572 - #28 niz
INFO  16:01:44,572 - #15 [
INFO  16:01:44,572 - #27 1
INFO  16:01:44,572 - #16 ]
INFO  16:01:44,572 - #25 /
INFO  16:01:44,572 - #28 niz
INFO  16:01:44,574 - #15 [
INFO  16:01:44,574 - #27 0
INFO  16:01:44,574 - #16 ]
INFO  16:01:44,574 - #10 ;
INFO  16:01:44,574 - #4 print
INFO  16:01:44,574 - #13 (
INFO  16:01:44,574 - #28 bodovi
INFO  16:01:44,574 - #14 )
INFO  16:01:44,579 - #10 ;
INFO  16:01:44,579 - #4 print
INFO  16:01:44,579 - #13 (
INFO  16:01:44,579 - #28 niz
INFO  16:01:44,579 - #15 [
INFO  16:01:44,579 - #28 Broj
INFO  16:01:44,579 - #19 .
INFO  16:01:44,579 - #28 JEDAN
INFO  16:01:44,579 - #16 ]
INFO  16:01:44,579 - #14 )
INFO  16:01:44,579 - #10 ;
INFO  16:01:44,580 - #28 nizch
INFO  16:01:44,580 - #11 =
INFO  16:01:44,580 - #5 new
INFO  16:01:44,580 - #28 char
INFO  16:01:44,580 - #15 [
INFO  16:01:44,580 - #27 3
INFO  16:01:44,580 - #16 ]
INFO  16:01:44,580 - #10 ;
INFO  16:01:44,580 - #28 nizch
INFO  16:01:44,580 - #15 [
INFO  16:01:44,580 - #27 0
INFO  16:01:44,580 - #16 ]
INFO  16:01:44,580 - #11 =
INFO  16:01:44,581 - #29 a
INFO  16:01:44,581 - #10 ;
INFO  16:01:44,581 - #28 nizch
INFO  16:01:44,581 - #15 [
INFO  16:01:44,581 - #28 jedan
INFO  16:01:44,581 - #16 ]
INFO  16:01:44,581 - #11 =
INFO  16:01:44,581 - #29 b
INFO  16:01:44,581 - #10 ;
INFO  16:01:44,581 - #28 nizch
INFO  16:01:44,581 - #15 [
INFO  16:01:44,582 - #28 pet
INFO  16:01:44,582 - #22 -
INFO  16:01:44,582 - #27 3
INFO  16:01:44,583 - #16 ]
INFO  16:01:44,583 - #11 =
INFO  16:01:44,583 - #29 c
INFO  16:01:44,583 - #10 ;
INFO  16:01:44,583 - #4 print
INFO  16:01:44,583 - #13 (
INFO  16:01:44,584 - #28 nizch
INFO  16:01:44,584 - #15 [
INFO  16:01:44,584 - #27 2
INFO  16:01:44,584 - #22 -
INFO  16:01:44,584 - #27 1
INFO  16:01:44,584 - #16 ]
INFO  16:01:44,584 - #14 )
INFO  16:01:44,584 - #10 ;
INFO  16:01:44,585 - #4 print
INFO  16:01:44,585 - #13 (
INFO  16:01:44,585 - #28 nizch
INFO  16:01:44,585 - #15 [
INFO  16:01:44,585 - #28 jedan
INFO  16:01:44,585 - #24 *
INFO  16:01:44,585 - #27 2
INFO  16:01:44,585 - #16 ]
INFO  16:01:44,585 - #14 )
INFO  16:01:44,585 - #10 ;
INFO  16:01:44,585 - #28 bodovi
INFO  16:01:44,585 - #11 =
INFO  16:01:44,585 - #28 bodovi
INFO  16:01:44,586 - #23 +
INFO  16:01:44,586 - #13 (
INFO  16:01:44,586 - #13 (
INFO  16:01:44,586 - #28 pet
INFO  16:01:44,586 - #24 *
INFO  16:01:44,586 - #28 jedan
INFO  16:01:44,586 - #22 -
INFO  16:01:44,586 - #27 1
INFO  16:01:44,586 - #14 )
INFO  16:01:44,586 - #24 *
INFO  16:01:44,587 - #27 2
INFO  16:01:44,587 - #22 -
INFO  16:01:44,587 - #13 (
INFO  16:01:44,587 - #27 3
INFO  16:01:44,587 - #26 %
INFO  16:01:44,587 - #27 2
INFO  16:01:44,588 - #23 +
INFO  16:01:44,589 - #27 3
INFO  16:01:44,589 - #24 *
INFO  16:01:44,589 - #27 2
INFO  16:01:44,589 - #22 -
INFO  16:01:44,589 - #27 3
INFO  16:01:44,589 - #14 )
INFO  16:01:44,589 - #22 -
INFO  16:01:44,590 - #28 Broj
INFO  16:01:44,590 - #19 .
INFO  16:01:44,590 - #28 JEDAN
INFO  16:01:44,590 - #24 *
INFO  16:01:44,590 - #27 0
INFO  16:01:44,590 - #14 )
INFO  16:01:44,590 - #10 ;
INFO  16:01:44,590 - #4 print
INFO  16:01:44,590 - #13 (
INFO  16:01:44,590 - #28 bodovi
INFO  16:01:44,590 - #14 )
INFO  16:01:44,591 - #10 ;
INFO  16:01:44,591 - #3 read
INFO  16:01:44,591 - #13 (
INFO  16:01:44,591 - #28 bodovi
INFO  16:01:44,591 - #14 )
INFO  16:01:44,591 - #10 ;
INFO  16:01:44,591 - #28 bodovi
INFO  16:01:44,591 - #11 =
INFO  16:01:44,591 - #28 bodovi
INFO  16:01:44,591 - #23 +
INFO  16:01:44,591 - #27 1
INFO  16:01:44,592 - #10 ;
INFO  16:01:44,592 - #4 print
INFO  16:01:44,592 - #13 (
INFO  16:01:44,592 - #28 bodovi
INFO  16:01:44,592 - #14 )
INFO  16:01:44,592 - #10 ;
INFO  16:01:44,592 - #18 }
INFO  16:01:44,592 - #18 }
INFO  16:01:44,615 - Program(
  ProgName(
   test301
  ) [ProgName]
  GlobalDeclListL(
    GlobalDeclListL(
      GlobalDeclListL(
        GlobalDeclListL(
          GlobalDeclListL(
            GlobalDeclListEps(
            ) [GlobalDeclListEps]
            GlobalDeclEnum(
              EnumDecl(
               Broj
                EnumDeclListL(
                  EnumDeclListL(
                    EnumDeclListL(
                      EnumDeclItem(
                        EnumDeclDefNoVal(
                         NULA
                        ) [EnumDeclDefNoVal]
                      ) [EnumDeclItem]
                      EnumDeclDefNoVal(
                       JEDAN
                      ) [EnumDeclDefNoVal]
                    ) [EnumDeclListL]
                    EnumDeclDefVal(
                     PET
                     5
                    ) [EnumDeclDefVal]
                  ) [EnumDeclListL]
                  EnumDeclDefVal(
                   DESET
                   10
                  ) [EnumDeclDefVal]
                ) [EnumDeclListL]
              ) [EnumDecl]
            ) [GlobalDeclEnum]
          ) [GlobalDeclListL]
          GlobalDeclConst(
            ConstDecl(
              Type(
               int
              ) [Type]
              ConstDeclItem(
                ConstDef(
                 jedan
                  ConstNum(
                   1
                  ) [ConstNum]
                ) [ConstDef]
              ) [ConstDeclItem]
            ) [ConstDecl]
          ) [GlobalDeclConst]
        ) [GlobalDeclListL]
        GlobalDeclConst(
          ConstDecl(
            Type(
             int
            ) [Type]
            ConstDeclItem(
              ConstDef(
               pet
                ConstNum(
                 5
                ) [ConstNum]
              ) [ConstDef]
            ) [ConstDeclItem]
          ) [ConstDecl]
        ) [GlobalDeclConst]
      ) [GlobalDeclListL]
      GlobalDeclVar(
        GlobalVarDecl(
          Type(
           int
          ) [Type]
          GlobalVarDeclItem(
            GlobalVarDeclDefOk(
              VarDeclDefineArray(
               niz
              ) [VarDeclDefineArray]
            ) [GlobalVarDeclDefOk]
          ) [GlobalVarDeclItem]
        ) [GlobalVarDecl]
      ) [GlobalDeclVar]
    ) [GlobalDeclListL]
    GlobalDeclVar(
      GlobalVarDecl(
        Type(
         char
        ) [Type]
        GlobalVarDeclItem(
          GlobalVarDeclDefOk(
            VarDeclDefineArray(
             nizch
            ) [VarDeclDefineArray]
          ) [GlobalVarDeclDefOk]
        ) [GlobalVarDeclItem]
      ) [GlobalVarDecl]
    ) [GlobalDeclVar]
  ) [GlobalDeclListL]
  MethodDecl(
    MethodSignature(
      VoidableType(
      ) [VoidableType]
     main
    ) [MethodSignature]
    VarMethodDeclList_NoEps(
      VarMethodDeclList_NoEps(
        VarMethodDeclList_Eps(
        ) [VarMethodDeclList_Eps]
        VarDecl(
          Type(
           int
          ) [Type]
          VarDeclItem(
            VarDeclDefineSingle(
             bodovi
            ) [VarDeclDefineSingle]
          ) [VarDeclItem]
        ) [VarDecl]
      ) [VarMethodDeclList_NoEps]
      VarDecl(
        Type(
         Broj
        ) [Type]
        VarDeclListL(
          VarDeclItem(
            VarDeclDefineSingle(
             nula
            ) [VarDeclDefineSingle]
          ) [VarDeclItem]
          VarDeclDefineSingle(
           jedan
          ) [VarDeclDefineSingle]
        ) [VarDeclListL]
      ) [VarDecl]
    ) [VarMethodDeclList_NoEps]
    StatementList_NoEps(
      StatementList_NoEps(
        StatementList_NoEps(
          StatementList_NoEps(
            StatementList_NoEps(
              StatementList_NoEps(
                StatementList_NoEps(
                  StatementList_NoEps(
                    StatementList_NoEps(
                      StatementList_NoEps(
                        StatementList_NoEps(
                          StatementList_NoEps(
                            StatementList_NoEps(
                              StatementList_NoEps(
                                StatementList_NoEps(
                                  StatementList_NoEps(
                                    StatementList_NoEps(
                                      StatementList_NoEps(
                                        StatementList_NoEps(
                                          StatementList_NoEps(
                                            StatementList_NoEps(
                                              StatementList_NoEps(
                                                StatementList_NoEps(
                                                  StatementList_NoEps(
                                                    StatementList_NoEps(
                                                      StatementList_Eps(
                                                      ) [StatementList_Eps]
                                                      StatementDes(
                                                        DesignStatAssignment(
                                                          DesIdent(
                                                           nula
                                                          ) [DesIdent]
                                                          AssignementExpr(
                                                            TermExpr(
                                                              TermFact(
                                                                FactorDesign(
                                                                  DesEnum(
                                                                   Broj
                                                                   NULA
                                                                  ) [DesEnum]
                                                                ) [FactorDesign]
                                                              ) [TermFact]
                                                            ) [TermExpr]
                                                          ) [AssignementExpr]
                                                        ) [DesignStatAssignment]
                                                      ) [StatementDes]
                                                    ) [StatementList_NoEps]
                                                    StatementDes(
                                                      DesignStatAssignment(
                                                        DesIdent(
                                                         jedan
                                                        ) [DesIdent]
                                                        AssignementExpr(
                                                          TermExpr(
                                                            TermFact(
                                                              FactorDesign(
                                                                DesEnum(
                                                                 Broj
                                                                 JEDAN
                                                                ) [DesEnum]
                                                              ) [FactorDesign]
                                                            ) [TermFact]
                                                          ) [TermExpr]
                                                        ) [AssignementExpr]
                                                      ) [DesignStatAssignment]
                                                    ) [StatementDes]
                                                  ) [StatementList_NoEps]
                                                  StatementDes(
                                                    DesignStatAssignment(
                                                      DesIdent(
                                                       bodovi
                                                      ) [DesIdent]
                                                      AssignementExpr(
                                                        TermExpr(
                                                          TermFact(
                                                            FactorConst(
                                                              ConstNum(
                                                               0
                                                              ) [ConstNum]
                                                            ) [FactorConst]
                                                          ) [TermFact]
                                                        ) [TermExpr]
                                                      ) [AssignementExpr]
                                                    ) [DesignStatAssignment]
                                                  ) [StatementDes]
                                                ) [StatementList_NoEps]
                                                StatementDes(
                                                  DesignStatInc(
                                                    DesIdent(
                                                     bodovi
                                                    ) [DesIdent]
                                                  ) [DesignStatInc]
                                                ) [StatementDes]
                                              ) [StatementList_NoEps]
                                              StatementDes(
                                                DesignStatAssignment(
                                                  DesIdent(
                                                   bodovi
                                                  ) [DesIdent]
                                                  AssignementExpr(
                                                    AddopExp(
                                                      TermExpr(
                                                        TermFact(
                                                          FactorDesign(
                                                            DesIdent(
                                                             bodovi
                                                            ) [DesIdent]
                                                          ) [FactorDesign]
                                                        ) [TermFact]
                                                      ) [TermExpr]
                                                      Addop_Plus(
                                                      ) [Addop_Plus]
                                                      TermFact(
                                                        FactorDesign(
                                                          DesIdent(
                                                           jedan
                                                          ) [DesIdent]
                                                        ) [FactorDesign]
                                                      ) [TermFact]
                                                    ) [AddopExp]
                                                  ) [AssignementExpr]
                                                ) [DesignStatAssignment]
                                              ) [StatementDes]
                                            ) [StatementList_NoEps]
                                            StatementDes(
                                              DesignStatAssignment(
                                                DesIdent(
                                                 bodovi
                                                ) [DesIdent]
                                                AssignementExpr(
                                                  TermExpr(
                                                    TermMulop(
                                                      TermFact(
                                                        FactorDesign(
                                                          DesIdent(
                                                           bodovi
                                                          ) [DesIdent]
                                                        ) [FactorDesign]
                                                      ) [TermFact]
                                                      Mulop_Mul(
                                                      ) [Mulop_Mul]
                                                      FactorDesign(
                                                        DesIdent(
                                                         pet
                                                        ) [DesIdent]
                                                      ) [FactorDesign]
                                                    ) [TermMulop]
                                                  ) [TermExpr]
                                                ) [AssignementExpr]
                                              ) [DesignStatAssignment]
                                            ) [StatementDes]
                                          ) [StatementList_NoEps]
                                          StatementDes(
                                            DesignStatDec(
                                              DesIdent(
                                               bodovi
                                              ) [DesIdent]
                                            ) [DesignStatDec]
                                          ) [StatementDes]
                                        ) [StatementList_NoEps]
                                        StatPrint(
                                          TermExpr(
                                            TermFact(
                                              FactorDesign(
                                                DesIdent(
                                                 bodovi
                                                ) [DesIdent]
                                              ) [FactorDesign]
                                            ) [TermFact]
                                          ) [TermExpr]
                                        ) [StatPrint]
                                      ) [StatementList_NoEps]
                                      StatementDes(
                                        DesignStatAssignment(
                                          DesIdent(
                                           niz
                                          ) [DesIdent]
                                          AssignementExpr(
                                            TermExpr(
                                              TermFact(
                                                FactorNewArr(
                                                  Type(
                                                   int
                                                  ) [Type]
                                                  TermExpr(
                                                    TermFact(
                                                      FactorConst(
                                                        ConstNum(
                                                         2
                                                        ) [ConstNum]
                                                      ) [FactorConst]
                                                    ) [TermFact]
                                                  ) [TermExpr]
                                                ) [FactorNewArr]
                                              ) [TermFact]
                                            ) [TermExpr]
                                          ) [AssignementExpr]
                                        ) [DesignStatAssignment]
                                      ) [StatementDes]
                                    ) [StatementList_NoEps]
                                    StatementDes(
                                      DesignStatAssignment(
                                        DesArr(
                                          ArrayName(
                                           niz
                                          ) [ArrayName]
                                          TermExpr(
                                            TermFact(
                                              FactorDesign(
                                                DesIdent(
                                                 nula
                                                ) [DesIdent]
                                              ) [FactorDesign]
                                            ) [TermFact]
                                          ) [TermExpr]
                                        ) [DesArr]
                                        AssignementExpr(
                                          TermExpr(
                                            TermFact(
                                              FactorDesign(
                                                DesIdent(
                                                 pet
                                                ) [DesIdent]
                                              ) [FactorDesign]
                                            ) [TermFact]
                                          ) [TermExpr]
                                        ) [AssignementExpr]
                                      ) [DesignStatAssignment]
                                    ) [StatementDes]
                                  ) [StatementList_NoEps]
                                  StatementDes(
                                    DesignStatAssignment(
                                      DesArr(
                                        ArrayName(
                                         niz
                                        ) [ArrayName]
                                        TermExpr(
                                          TermFact(
                                            FactorConst(
                                              ConstNum(
                                               1
                                              ) [ConstNum]
                                            ) [FactorConst]
                                          ) [TermFact]
                                        ) [TermExpr]
                                      ) [DesArr]
                                      AssignementExpr(
                                        TermExpr(
                                          TermFact(
                                            FactorDesign(
                                              DesEnum(
                                               Broj
                                               DESET
                                              ) [DesEnum]
                                            ) [FactorDesign]
                                          ) [TermFact]
                                        ) [TermExpr]
                                      ) [AssignementExpr]
                                    ) [DesignStatAssignment]
                                  ) [StatementDes]
                                ) [StatementList_NoEps]
                                StatementDes(
                                  DesignStatAssignment(
                                    DesIdent(
                                     bodovi
                                    ) [DesIdent]
                                    AssignementExpr(
                                      TermExpr(
                                        TermMulop(
                                          TermFact(
                                            FactorDesign(
                                              DesArr(
                                                ArrayName(
                                                 niz
                                                ) [ArrayName]
                                                TermExpr(
                                                  TermFact(
                                                    FactorConst(
                                                      ConstNum(
                                                       1
                                                      ) [ConstNum]
                                                    ) [FactorConst]
                                                  ) [TermFact]
                                                ) [TermExpr]
                                              ) [DesArr]
                                            ) [FactorDesign]
                                          ) [TermFact]
                                          Mulop_Div(
                                          ) [Mulop_Div]
                                          FactorDesign(
                                            DesArr(
                                              ArrayName(
                                               niz
                                              ) [ArrayName]
                                              TermExpr(
                                                TermFact(
                                                  FactorConst(
                                                    ConstNum(
                                                     0
                                                    ) [ConstNum]
                                                  ) [FactorConst]
                                                ) [TermFact]
                                              ) [TermExpr]
                                            ) [DesArr]
                                          ) [FactorDesign]
                                        ) [TermMulop]
                                      ) [TermExpr]
                                    ) [AssignementExpr]
                                  ) [DesignStatAssignment]
                                ) [StatementDes]
                              ) [StatementList_NoEps]
                              StatPrint(
                                TermExpr(
                                  TermFact(
                                    FactorDesign(
                                      DesIdent(
                                       bodovi
                                      ) [DesIdent]
                                    ) [FactorDesign]
                                  ) [TermFact]
                                ) [TermExpr]
                              ) [StatPrint]
                            ) [StatementList_NoEps]
                            StatPrint(
                              TermExpr(
                                TermFact(
                                  FactorDesign(
                                    DesArr(
                                      ArrayName(
                                       niz
                                      ) [ArrayName]
                                      TermExpr(
                                        TermFact(
                                          FactorDesign(
                                            DesEnum(
                                             Broj
                                             JEDAN
                                            ) [DesEnum]
                                          ) [FactorDesign]
                                        ) [TermFact]
                                      ) [TermExpr]
                                    ) [DesArr]
                                  ) [FactorDesign]
                                ) [TermFact]
                              ) [TermExpr]
                            ) [StatPrint]
                          ) [StatementList_NoEps]
                          StatementDes(
                            DesignStatAssignment(
                              DesIdent(
                               nizch
                              ) [DesIdent]
                              AssignementExpr(
                                TermExpr(
                                  TermFact(
                                    FactorNewArr(
                                      Type(
                                       char
                                      ) [Type]
                                      TermExpr(
                                        TermFact(
                                          FactorConst(
                                            ConstNum(
                                             3
                                            ) [ConstNum]
                                          ) [FactorConst]
                                        ) [TermFact]
                                      ) [TermExpr]
                                    ) [FactorNewArr]
                                  ) [TermFact]
                                ) [TermExpr]
                              ) [AssignementExpr]
                            ) [DesignStatAssignment]
                          ) [StatementDes]
                        ) [StatementList_NoEps]
                        StatementDes(
                          DesignStatAssignment(
                            DesArr(
                              ArrayName(
                               nizch
                              ) [ArrayName]
                              TermExpr(
                                TermFact(
                                  FactorConst(
                                    ConstNum(
                                     0
                                    ) [ConstNum]
                                  ) [FactorConst]
                                ) [TermFact]
                              ) [TermExpr]
                            ) [DesArr]
                            AssignementExpr(
                              TermExpr(
                                TermFact(
                                  FactorConst(
                                    ConstChar(
                                     a
                                    ) [ConstChar]
                                  ) [FactorConst]
                                ) [TermFact]
                              ) [TermExpr]
                            ) [AssignementExpr]
                          ) [DesignStatAssignment]
                        ) [StatementDes]
                      ) [StatementList_NoEps]
                      StatementDes(
                        DesignStatAssignment(
                          DesArr(
                            ArrayName(
                             nizch
                            ) [ArrayName]
                            TermExpr(
                              TermFact(
                                FactorDesign(
                                  DesIdent(
                                   jedan
                                  ) [DesIdent]
                                ) [FactorDesign]
                              ) [TermFact]
                            ) [TermExpr]
                          ) [DesArr]
                          AssignementExpr(
                            TermExpr(
                              TermFact(
                                FactorConst(
                                  ConstChar(
                                   b
                                  ) [ConstChar]
                                ) [FactorConst]
                              ) [TermFact]
                            ) [TermExpr]
                          ) [AssignementExpr]
                        ) [DesignStatAssignment]
                      ) [StatementDes]
                    ) [StatementList_NoEps]
                    StatementDes(
                      DesignStatAssignment(
                        DesArr(
                          ArrayName(
                           nizch
                          ) [ArrayName]
                          AddopExp(
                            TermExpr(
                              TermFact(
                                FactorDesign(
                                  DesIdent(
                                   pet
                                  ) [DesIdent]
                                ) [FactorDesign]
                              ) [TermFact]
                            ) [TermExpr]
                            Addop_Minus(
                            ) [Addop_Minus]
                            TermFact(
                              FactorConst(
                                ConstNum(
                                 3
                                ) [ConstNum]
                              ) [FactorConst]
                            ) [TermFact]
                          ) [AddopExp]
                        ) [DesArr]
                        AssignementExpr(
                          TermExpr(
                            TermFact(
                              FactorConst(
                                ConstChar(
                                 c
                                ) [ConstChar]
                              ) [FactorConst]
                            ) [TermFact]
                          ) [TermExpr]
                        ) [AssignementExpr]
                      ) [DesignStatAssignment]
                    ) [StatementDes]
                  ) [StatementList_NoEps]
                  StatPrint(
                    TermExpr(
                      TermFact(
                        FactorDesign(
                          DesArr(
                            ArrayName(
                             nizch
                            ) [ArrayName]
                            AddopExp(
                              TermExpr(
                                TermFact(
                                  FactorConst(
                                    ConstNum(
                                     2
                                    ) [ConstNum]
                                  ) [FactorConst]
                                ) [TermFact]
                              ) [TermExpr]
                              Addop_Minus(
                              ) [Addop_Minus]
                              TermFact(
                                FactorConst(
                                  ConstNum(
                                   1
                                  ) [ConstNum]
                                ) [FactorConst]
                              ) [TermFact]
                            ) [AddopExp]
                          ) [DesArr]
                        ) [FactorDesign]
                      ) [TermFact]
                    ) [TermExpr]
                  ) [StatPrint]
                ) [StatementList_NoEps]
                StatPrint(
                  TermExpr(
                    TermFact(
                      FactorDesign(
                        DesArr(
                          ArrayName(
                           nizch
                          ) [ArrayName]
                          TermExpr(
                            TermMulop(
                              TermFact(
                                FactorDesign(
                                  DesIdent(
                                   jedan
                                  ) [DesIdent]
                                ) [FactorDesign]
                              ) [TermFact]
                              Mulop_Mul(
                              ) [Mulop_Mul]
                              FactorConst(
                                ConstNum(
                                 2
                                ) [ConstNum]
                              ) [FactorConst]
                            ) [TermMulop]
                          ) [TermExpr]
                        ) [DesArr]
                      ) [FactorDesign]
                    ) [TermFact]
                  ) [TermExpr]
                ) [StatPrint]
              ) [StatementList_NoEps]
              StatementDes(
                DesignStatAssignment(
                  DesIdent(
                   bodovi
                  ) [DesIdent]
                  AssignementExpr(
                    AddopExp(
                      TermExpr(
                        TermFact(
                          FactorDesign(
                            DesIdent(
                             bodovi
                            ) [DesIdent]
                          ) [FactorDesign]
                        ) [TermFact]
                      ) [TermExpr]
                      Addop_Plus(
                      ) [Addop_Plus]
                      TermFact(
                        FactorExpr(
                          AddopExp(
                            AddopExp(
                              TermExpr(
                                TermMulop(
                                  TermFact(
                                    FactorExpr(
                                      AddopExp(
                                        TermExpr(
                                          TermMulop(
                                            TermFact(
                                              FactorDesign(
                                                DesIdent(
                                                 pet
                                                ) [DesIdent]
                                              ) [FactorDesign]
                                            ) [TermFact]
                                            Mulop_Mul(
                                            ) [Mulop_Mul]
                                            FactorDesign(
                                              DesIdent(
                                               jedan
                                              ) [DesIdent]
                                            ) [FactorDesign]
                                          ) [TermMulop]
                                        ) [TermExpr]
                                        Addop_Minus(
                                        ) [Addop_Minus]
                                        TermFact(
                                          FactorConst(
                                            ConstNum(
                                             1
                                            ) [ConstNum]
                                          ) [FactorConst]
                                        ) [TermFact]
                                      ) [AddopExp]
                                    ) [FactorExpr]
                                  ) [TermFact]
                                  Mulop_Mul(
                                  ) [Mulop_Mul]
                                  FactorConst(
                                    ConstNum(
                                     2
                                    ) [ConstNum]
                                  ) [FactorConst]
                                ) [TermMulop]
                              ) [TermExpr]
                              Addop_Minus(
                              ) [Addop_Minus]
                              TermFact(
                                FactorExpr(
                                  AddopExp(
                                    AddopExp(
                                      TermExpr(
                                        TermMulop(
                                          TermFact(
                                            FactorConst(
                                              ConstNum(
                                               3
                                              ) [ConstNum]
                                            ) [FactorConst]
                                          ) [TermFact]
                                          Mulop_Mod(
                                          ) [Mulop_Mod]
                                          FactorConst(
                                            ConstNum(
                                             2
                                            ) [ConstNum]
                                          ) [FactorConst]
                                        ) [TermMulop]
                                      ) [TermExpr]
                                      Addop_Plus(
                                      ) [Addop_Plus]
                                      TermMulop(
                                        TermFact(
                                          FactorConst(
                                            ConstNum(
                                             3
                                            ) [ConstNum]
                                          ) [FactorConst]
                                        ) [TermFact]
                                        Mulop_Mul(
                                        ) [Mulop_Mul]
                                        FactorConst(
                                          ConstNum(
                                           2
                                          ) [ConstNum]
                                        ) [FactorConst]
                                      ) [TermMulop]
                                    ) [AddopExp]
                                    Addop_Minus(
                                    ) [Addop_Minus]
                                    TermFact(
                                      FactorConst(
                                        ConstNum(
                                         3
                                        ) [ConstNum]
                                      ) [FactorConst]
                                    ) [TermFact]
                                  ) [AddopExp]
                                ) [FactorExpr]
                              ) [TermFact]
                            ) [AddopExp]
                            Addop_Minus(
                            ) [Addop_Minus]
                            TermMulop(
                              TermFact(
                                FactorDesign(
                                  DesEnum(
                                   Broj
                                   JEDAN
                                  ) [DesEnum]
                                ) [FactorDesign]
                              ) [TermFact]
                              Mulop_Mul(
                              ) [Mulop_Mul]
                              FactorConst(
                                ConstNum(
                                 0
                                ) [ConstNum]
                              ) [FactorConst]
                            ) [TermMulop]
                          ) [AddopExp]
                        ) [FactorExpr]
                      ) [TermFact]
                    ) [AddopExp]
                  ) [AssignementExpr]
                ) [DesignStatAssignment]
              ) [StatementDes]
            ) [StatementList_NoEps]
            StatPrint(
              TermExpr(
                TermFact(
                  FactorDesign(
                    DesIdent(
                     bodovi
                    ) [DesIdent]
                  ) [FactorDesign]
                ) [TermFact]
              ) [TermExpr]
            ) [StatPrint]
          ) [StatementList_NoEps]
          StatRead(
            DesIdent(
             bodovi
            ) [DesIdent]
          ) [StatRead]
        ) [StatementList_NoEps]
        StatementDes(
          DesignStatAssignment(
            DesIdent(
             bodovi
            ) [DesIdent]
            AssignementExpr(
              AddopExp(
                TermExpr(
                  TermFact(
                    FactorDesign(
                      DesIdent(
                       bodovi
                      ) [DesIdent]
                    ) [FactorDesign]
                  ) [TermFact]
                ) [TermExpr]
                Addop_Plus(
                ) [Addop_Plus]
                TermFact(
                  FactorConst(
                    ConstNum(
                     1
                    ) [ConstNum]
                  ) [FactorConst]
                ) [TermFact]
              ) [AddopExp]
            ) [AssignementExpr]
          ) [DesignStatAssignment]
        ) [StatementDes]
      ) [StatementList_NoEps]
      StatPrint(
        TermExpr(
          TermFact(
            FactorDesign(
              DesIdent(
               bodovi
              ) [DesIdent]
            ) [FactorDesign]
          ) [TermFact]
        ) [TermExpr]
      ) [StatPrint]
    ) [StatementList_NoEps]
  ) [MethodDecl]
) [Program]
INFO  16:01:44,620 - ===================================
INFO  16:01:44,625 - Deklarisan novi enum tip Broj na liniji 5
INFO  16:01:44,626 - Deklarisana konstanta 'jedan' na liniji 7
INFO  16:01:44,626 - Deklarisana konstanta 'pet' na liniji 8
INFO  16:01:44,626 - Deklarisana promenljiva niza niz tipa 1 na liniji 10
INFO  16:01:44,627 - Deklarisana promenljiva niza nizch tipa 2 na liniji 11
INFO  16:01:44,627 - Obradjuje se funkcija main na liniji 14
INFO  16:01:44,627 - Deklarisana promenljiva bodovi tipa 1 na liniji 15
INFO  16:01:44,627 - Deklarisana promenljiva nula tipa 6 na liniji 16
INFO  16:01:44,627 - Deklarisana promenljiva jedan tipa 6 na liniji 16
INFO  16:01:44,627 - USAO nula
INFO  16:01:44,627 - Dodeljenja vrednost enuma promenljivoj enuma
INFO  16:01:44,628 - USAO jedan
INFO  16:01:44,628 - Dodeljenja vrednost enuma promenljivoj enuma
INFO  16:01:44,628 - USAO bodovi
INFO  16:01:44,628 - Dodeljenja vrednost: 1 je design,1 je assign
INFO  16:01:44,628 - Inkrementirana vrednost
INFO  16:01:44,628 - USAO bodovi
INFO  16:01:44,628 - Dodeljenja vrednost: 1 je design,1 je assign
INFO  16:01:44,628 - termMulop je 1
INFO  16:01:44,628 - USAO bodovi
INFO  16:01:44,628 - Dodeljenja vrednost: 1 je design,1 je assign
INFO  16:01:44,628 - Dekrementirana vrednost
INFO  16:01:44,629 - kind niza u newArr je3, a elemenata 1
INFO  16:01:44,629 - USAO niz
INFO  16:01:44,629 - ime niza je niz na liniji 29
INFO  16:01:44,629 - elem niza je niz na liniji 29
INFO  16:01:44,629 - USAO niz
INFO  16:01:44,629 - USAO 6
INFO  16:01:44,629 - Indeks je enum, dodela je int
INFO  16:01:44,629 - ime niza je niz na liniji 30
INFO  16:01:44,629 - elem niza je niz na liniji 30
INFO  16:01:44,629 - USAO niz
INFO  16:01:44,629 - USAO 1
INFO  16:01:44,630 - ime niza je niz na liniji 31
INFO  16:01:44,630 - elem niza je niz na liniji 31
INFO  16:01:44,630 - ime niza je niz na liniji 31
INFO  16:01:44,630 - elem niza je niz na liniji 31
INFO  16:01:44,630 - termMulop je 1
INFO  16:01:44,630 - USAO bodovi
INFO  16:01:44,630 - Dodeljenja vrednost: 1 je design,1 je assign
INFO  16:01:44,630 - ime niza je niz na liniji 33
INFO  16:01:44,630 - elem niza je niz na liniji 33
INFO  16:01:44,630 - kind niza u newArr je3, a elemenata 2
INFO  16:01:44,630 - USAO nizch
INFO  16:01:44,630 - ime niza je nizch na liniji 37
INFO  16:01:44,630 - elem niza je nizch na liniji 37
INFO  16:01:44,631 - USAO nizch
INFO  16:01:44,631 - USAO 1
ERROR 16:01:44,631 -  OVDE Greska: nekompatibilni tipovi u dodeli na liniji 37
ERROR 16:01:44,631 - 1 je kind designatora, 2 je kind assignmenta
INFO  16:01:44,631 - ime niza je nizch na liniji 38
INFO  16:01:44,631 - elem niza je nizch na liniji 38
INFO  16:01:44,631 - USAO nizch
INFO  16:01:44,631 - USAO 6
ERROR 16:01:44,631 -  OVDE Greska: nekompatibilni tipovi u dodeli na liniji 38
ERROR 16:01:44,631 - 6 je kind designatora, 2 je kind assignmenta
INFO  16:01:44,631 - ime niza je nizch na liniji 39
INFO  16:01:44,631 - elem niza je nizch na liniji 39
INFO  16:01:44,631 - USAO nizch
INFO  16:01:44,632 - USAO 1
ERROR 16:01:44,632 -  OVDE Greska: nekompatibilni tipovi u dodeli na liniji 39
ERROR 16:01:44,632 - 1 je kind designatora, 2 je kind assignmenta
INFO  16:01:44,632 - ime niza je nizch na liniji 40
INFO  16:01:44,632 - elem niza je nizch na liniji 40
INFO  16:01:44,632 - ime niza je nizch na liniji 41
INFO  16:01:44,632 - termMulop je 1
INFO  16:01:44,632 - elem niza je nizch na liniji 41
INFO  16:01:44,632 - termMulop je 1
INFO  16:01:44,633 - termMulop je 1
INFO  16:01:44,633 - termMulop je 1
INFO  16:01:44,633 - termMulop je 1
INFO  16:01:44,633 - termMulop je 1
INFO  16:01:44,633 - USAO bodovi
INFO  16:01:44,633 - Dodeljenja vrednost: 1 je design,1 je assign
INFO  16:01:44,633 - USAO bodovi
INFO  16:01:44,633 - Dodeljenja vrednost: 1 je design,1 je assign
INFO  16:01:44,633 -  Print count calls = 7
INFO  16:01:44,633 -  Deklarisanih promenljivih ima = 3
ERROR 16:01:44,635 - Parsiranje NIJE uspesno zavrseno!
