INFO  20:12:22,871 - Compiling source file: C:\Users\ikadr\Desktop\PP\Projekat\Rad\workspace\MJCompiler\test\program.mj
INFO  20:12:22,933 - #2 program
INFO  20:12:22,933 - #28 test301
INFO  20:12:22,933 - #9 enum
INFO  20:12:22,933 - #28 Broj
INFO  20:12:22,933 - #17 {
INFO  20:12:22,933 - #28 NULA
INFO  20:12:22,933 - #12 ,
INFO  20:12:22,933 - #28 JEDAN
INFO  20:12:22,933 - #12 ,
INFO  20:12:22,933 - #28 PET
INFO  20:12:22,933 - #11 =
INFO  20:12:22,933 - #27 5
INFO  20:12:22,933 - #12 ,
INFO  20:12:22,933 - #28 DESET
INFO  20:12:22,933 - #11 =
INFO  20:12:22,933 - #27 10
INFO  20:12:22,933 - #18 }
INFO  20:12:22,933 - #8 const
INFO  20:12:22,933 - #28 int
INFO  20:12:22,933 - #28 jedan
INFO  20:12:22,933 - #11 =
INFO  20:12:22,933 - #27 1
INFO  20:12:22,933 - #10 ;
INFO  20:12:22,933 - #8 const
INFO  20:12:22,933 - #28 int
INFO  20:12:22,933 - #28 pet
INFO  20:12:22,933 - #11 =
INFO  20:12:22,933 - #27 5
INFO  20:12:22,933 - #10 ;
INFO  20:12:22,933 - #28 int
INFO  20:12:22,933 - #28 niz
INFO  20:12:22,933 - #15 [
INFO  20:12:22,933 - #16 ]
INFO  20:12:22,933 - #10 ;
INFO  20:12:22,933 - #28 char
INFO  20:12:22,933 - #28 nizch
INFO  20:12:22,949 - #15 [
INFO  20:12:22,949 - #16 ]
INFO  20:12:22,949 - #10 ;
INFO  20:12:22,949 - #17 {
INFO  20:12:22,949 - #6 void
INFO  20:12:22,949 - #28 main
INFO  20:12:22,949 - #13 (
INFO  20:12:22,949 - #14 )
INFO  20:12:22,949 - #28 int
INFO  20:12:22,949 - #28 bodovi
INFO  20:12:22,949 - #10 ;
INFO  20:12:22,949 - #28 Broj
INFO  20:12:22,949 - #28 nula
INFO  20:12:22,949 - #12 ,
INFO  20:12:22,949 - #28 jedan
INFO  20:12:22,949 - #10 ;
INFO  20:12:22,949 - #17 {
INFO  20:12:22,949 - #28 nula
INFO  20:12:22,949 - #11 =
INFO  20:12:22,949 - #28 Broj
INFO  20:12:22,949 - #19 .
INFO  20:12:22,949 - #28 NULA
INFO  20:12:22,949 - #10 ;
INFO  20:12:22,949 - #28 jedan
INFO  20:12:22,949 - #11 =
INFO  20:12:22,949 - #28 Broj
INFO  20:12:22,949 - #19 .
INFO  20:12:22,949 - #28 JEDAN
INFO  20:12:22,949 - #10 ;
INFO  20:12:22,949 - #28 bodovi
INFO  20:12:22,949 - #11 =
INFO  20:12:22,949 - #27 0
INFO  20:12:22,949 - #10 ;
INFO  20:12:22,949 - #28 bodovi
ERROR 20:12:22,949 - 
Sintaksna greska na liniji 22
INFO  20:12:22,949 - #20 ++
INFO  20:12:22,949 - #10 ;
INFO  20:12:22,949 - #28 bodovi
INFO  20:12:22,949 - #11 =
INFO  20:12:22,949 - #28 bodovi
INFO  20:12:22,949 - Oporavak od greske u konstrukciji iskaza dodele na liniji 1
INFO  20:12:22,949 - #23 +
INFO  20:12:22,949 - #28 jedan
INFO  20:12:22,964 - #10 ;
INFO  20:12:22,964 - #28 bodovi
INFO  20:12:22,964 - #11 =
INFO  20:12:22,964 - #28 bodovi
INFO  20:12:22,964 - #24 *
INFO  20:12:22,964 - #28 pet
INFO  20:12:22,964 - #10 ;
INFO  20:12:22,964 - #28 bodovi
INFO  20:12:22,964 - #21 --
INFO  20:12:22,964 - #10 ;
INFO  20:12:22,964 - #4 print
INFO  20:12:22,964 - #13 (
INFO  20:12:22,964 - #28 bodovi
INFO  20:12:22,964 - #14 )
INFO  20:12:22,964 - #10 ;
INFO  20:12:22,964 - #28 niz
INFO  20:12:22,964 - #11 =
INFO  20:12:22,964 - #5 new
INFO  20:12:22,964 - #28 int
INFO  20:12:22,964 - #15 [
INFO  20:12:22,964 - #27 2
INFO  20:12:22,964 - #16 ]
ERROR 20:12:22,964 - 
Sintaksna greska na liniji 29
INFO  20:12:22,964 - #10 ;
INFO  20:12:22,964 - #28 niz
INFO  20:12:22,964 - #15 [
INFO  20:12:22,964 - #28 nula
INFO  20:12:22,964 - Oporavak od greske u konstrukciji iskaza dodele na liniji 1
INFO  20:12:22,964 - #16 ]
INFO  20:12:22,964 - #11 =
INFO  20:12:22,964 - #28 pet
INFO  20:12:22,964 - #10 ;
INFO  20:12:22,964 - #28 niz
INFO  20:12:22,964 - #15 [
INFO  20:12:22,964 - #27 1
INFO  20:12:22,964 - #16 ]
ERROR 20:12:22,964 - 
Sintaksna greska na liniji 31
INFO  20:12:22,964 - #11 =
INFO  20:12:22,964 - #28 Broj
INFO  20:12:22,964 - #19 .
INFO  20:12:22,964 - #28 DESET
INFO  20:12:22,964 - #10 ;
INFO  20:12:22,964 - #28 bodovi
INFO  20:12:22,964 - #11 =
INFO  20:12:22,964 - #28 niz
INFO  20:12:22,964 - Oporavak od greske u konstrukciji iskaza dodele na liniji 1
INFO  20:12:22,964 - #15 [
INFO  20:12:22,964 - #27 1
INFO  20:12:22,964 - #16 ]
ERROR 20:12:22,964 - 
Sintaksna greska na liniji 32
INFO  20:12:22,964 - #25 /
INFO  20:12:22,964 - #28 niz
INFO  20:12:22,964 - #15 [
INFO  20:12:22,964 - #27 0
INFO  20:12:22,964 - #16 ]
INFO  20:12:22,964 - #10 ;
INFO  20:12:22,964 - #4 print
INFO  20:12:22,964 - #13 (
INFO  20:12:22,964 - #28 bodovi
INFO  20:12:22,964 - Oporavak od greske u konstrukciji iskaza dodele na liniji 1
INFO  20:12:22,964 - #14 )
INFO  20:12:22,964 - #10 ;
INFO  20:12:22,964 - #4 print
INFO  20:12:22,964 - #13 (
INFO  20:12:22,964 - #28 niz
INFO  20:12:22,964 - #15 [
INFO  20:12:22,964 - #28 Broj
INFO  20:12:22,964 - #19 .
INFO  20:12:22,964 - #28 JEDAN
INFO  20:12:22,964 - #16 ]
INFO  20:12:22,964 - #14 )
INFO  20:12:22,964 - #10 ;
INFO  20:12:22,964 - #28 nizch
INFO  20:12:22,964 - #11 =
INFO  20:12:22,964 - #5 new
INFO  20:12:22,980 - #28 char
INFO  20:12:22,980 - #15 [
INFO  20:12:22,980 - #27 3
INFO  20:12:22,980 - #16 ]
ERROR 20:12:22,980 - 
Sintaksna greska na liniji 37
INFO  20:12:22,980 - #10 ;
INFO  20:12:22,980 - #28 nizch
INFO  20:12:22,980 - #15 [
INFO  20:12:22,980 - #27 0
INFO  20:12:22,980 - Oporavak od greske u konstrukciji iskaza dodele na liniji 1
INFO  20:12:22,980 - #16 ]
ERROR 20:12:22,980 - 
Sintaksna greska na liniji 38
INFO  20:12:22,980 - #11 =
INFO  20:12:22,980 - #29 a
INFO  20:12:22,980 - #10 ;
INFO  20:12:22,980 - #28 nizch
INFO  20:12:22,980 - #15 [
INFO  20:12:22,980 - #28 jedan
INFO  20:12:22,980 - Oporavak od greske u konstrukciji iskaza dodele na liniji 1
INFO  20:12:22,980 - #16 ]
INFO  20:12:22,980 - #11 =
INFO  20:12:22,980 - #29 b
INFO  20:12:22,980 - #10 ;
INFO  20:12:22,980 - #28 nizch
ERROR 20:12:22,980 - 
Sintaksna greska na liniji 40
INFO  20:12:22,980 - #15 [
INFO  20:12:22,980 - #28 pet
INFO  20:12:22,980 - #22 -
INFO  20:12:22,980 - #27 3
INFO  20:12:22,980 - #16 ]
INFO  20:12:22,980 - #11 =
INFO  20:12:22,980 - #29 c
INFO  20:12:22,980 - #10 ;
INFO  20:12:22,980 - #4 print
INFO  20:12:22,980 - #13 (
INFO  20:12:22,980 - #28 nizch
INFO  20:12:22,980 - Oporavak od greske u konstrukciji iskaza dodele na liniji 1
INFO  20:12:22,980 - #15 [
INFO  20:12:22,980 - #27 2
INFO  20:12:22,980 - #22 -
ERROR 20:12:22,980 - 
Sintaksna greska na liniji 41
INFO  20:12:22,980 - #27 1
INFO  20:12:22,980 - #16 ]
INFO  20:12:22,980 - #14 )
INFO  20:12:22,980 - #10 ;
INFO  20:12:22,980 - #4 print
INFO  20:12:22,980 - #13 (
INFO  20:12:22,980 - #28 nizch
INFO  20:12:22,980 - Oporavak od greske u konstrukciji iskaza dodele na liniji 1
INFO  20:12:22,980 - #15 [
INFO  20:12:22,980 - #28 jedan
INFO  20:12:22,980 - #24 *
INFO  20:12:22,980 - #27 2
INFO  20:12:22,980 - #16 ]
ERROR 20:12:22,980 - 
Sintaksna greska na liniji 42
INFO  20:12:22,980 - #14 )
INFO  20:12:22,980 - #10 ;
INFO  20:12:22,980 - #28 bodovi
INFO  20:12:22,980 - #11 =
INFO  20:12:22,980 - #28 bodovi
INFO  20:12:22,980 - Oporavak od greske u konstrukciji iskaza dodele na liniji 1
INFO  20:12:22,980 - #23 +
INFO  20:12:22,980 - #13 (
INFO  20:12:22,980 - #13 (
INFO  20:12:22,980 - #28 pet
INFO  20:12:22,980 - #24 *
INFO  20:12:22,980 - #28 jedan
INFO  20:12:22,980 - #22 -
INFO  20:12:22,980 - #27 1
INFO  20:12:22,980 - #14 )
ERROR 20:12:22,980 - 
Sintaksna greska na liniji 45
INFO  20:12:22,980 - #24 *
INFO  20:12:22,980 - #27 2
INFO  20:12:22,980 - #22 -
INFO  20:12:22,980 - #13 (
INFO  20:12:22,980 - #27 3
INFO  20:12:22,980 - #26 %
INFO  20:12:22,980 - #27 2
INFO  20:12:22,980 - #23 +
INFO  20:12:22,980 - #27 3
INFO  20:12:22,980 - #24 *
INFO  20:12:22,980 - #27 2
INFO  20:12:22,980 - #22 -
INFO  20:12:22,980 - #27 3
INFO  20:12:22,980 - #14 )
INFO  20:12:22,980 - #22 -
INFO  20:12:22,980 - #28 Broj
INFO  20:12:22,980 - #19 .
INFO  20:12:22,980 - #28 JEDAN
INFO  20:12:22,980 - #24 *
INFO  20:12:22,980 - #27 0
INFO  20:12:22,980 - #14 )
INFO  20:12:22,980 - #10 ;
INFO  20:12:22,980 - #4 print
INFO  20:12:22,980 - #13 (
INFO  20:12:22,980 - #28 bodovi
INFO  20:12:22,980 - Oporavak od greske u konstrukciji iskaza dodele na liniji 1
INFO  20:12:22,980 - #14 )
INFO  20:12:22,980 - #10 ;
INFO  20:12:22,980 - #3 read
INFO  20:12:22,980 - #13 (
INFO  20:12:22,980 - #28 bodovi
INFO  20:12:22,980 - #14 )
INFO  20:12:22,980 - #10 ;
INFO  20:12:22,980 - #28 bodovi
INFO  20:12:22,980 - #11 =
INFO  20:12:22,980 - #28 bodovi
INFO  20:12:22,980 - #23 +
INFO  20:12:22,980 - #27 1
INFO  20:12:22,980 - #10 ;
INFO  20:12:22,980 - #4 print
ERROR 20:12:22,980 - 
Sintaksna greska na liniji 51
INFO  20:12:22,980 - #13 (
INFO  20:12:22,980 - #28 bodovi
INFO  20:12:22,980 - #14 )
INFO  20:12:22,980 - #10 ;
INFO  20:12:22,980 - #18 }
INFO  20:12:22,980 - #18 }
INFO  20:12:22,980 - Oporavak od greske u konstrukciji iskaza dodele na liniji 1
INFO  20:12:23,011 - Program(
  ProgName(
   test301
  ) [ProgName]
  GlobalDeclListL(
    GlobalDeclListL(
      GlobalDeclListL(
        GlobalDeclListL(
          GlobalDeclListL(
            GlobalDeclListEps(
            ) [GlobalDeclListEps]
            GlobalDeclEnum(
              EnumDecl(
               Broj
                EnumDeclListL(
                  EnumDeclListL(
                    EnumDeclListL(
                      EnumDeclItem(
                        EnumDeclDefNoVal(
                         NULA
                        ) [EnumDeclDefNoVal]
                      ) [EnumDeclItem]
                      EnumDeclDefNoVal(
                       JEDAN
                      ) [EnumDeclDefNoVal]
                    ) [EnumDeclListL]
                    EnumDeclDefVal(
                     PET
                     5
                    ) [EnumDeclDefVal]
                  ) [EnumDeclListL]
                  EnumDeclDefVal(
                   DESET
                   10
                  ) [EnumDeclDefVal]
                ) [EnumDeclListL]
              ) [EnumDecl]
            ) [GlobalDeclEnum]
          ) [GlobalDeclListL]
          GlobalDeclConst(
            ConstDeclSingle(
              Type(
               int
              ) [Type]
             jedan
              ConstNum(
               1
              ) [ConstNum]
            ) [ConstDeclSingle]
          ) [GlobalDeclConst]
        ) [GlobalDeclListL]
        GlobalDeclConst(
          ConstDeclSingle(
            Type(
             int
            ) [Type]
           pet
            ConstNum(
             5
            ) [ConstNum]
          ) [ConstDeclSingle]
        ) [GlobalDeclConst]
      ) [GlobalDeclListL]
      GlobalDeclVar(
        GlobalVarDecl(
          Type(
           int
          ) [Type]
          GlobalVarDeclItem(
            GlobalVarDeclDefOk(
              VarDeclDefineArray(
               niz
              ) [VarDeclDefineArray]
            ) [GlobalVarDeclDefOk]
          ) [GlobalVarDeclItem]
        ) [GlobalVarDecl]
      ) [GlobalDeclVar]
    ) [GlobalDeclListL]
    GlobalDeclVar(
      GlobalVarDecl(
        Type(
         char
        ) [Type]
        GlobalVarDeclItem(
          GlobalVarDeclDefOk(
            VarDeclDefineArray(
             nizch
            ) [VarDeclDefineArray]
          ) [GlobalVarDeclDefOk]
        ) [GlobalVarDeclItem]
      ) [GlobalVarDecl]
    ) [GlobalDeclVar]
  ) [GlobalDeclListL]
  MethodDecl(
    MethodSignature(
      VoidableType(
      ) [VoidableType]
     main
    ) [MethodSignature]
    VarMethodDeclList_NoEps(
      VarMethodDeclList_NoEps(
        VarMethodDeclList_Eps(
        ) [VarMethodDeclList_Eps]
        VarDecl(
          Type(
           int
          ) [Type]
          VarDeclItem(
            VarDeclDefineSingle(
             bodovi
            ) [VarDeclDefineSingle]
          ) [VarDeclItem]
        ) [VarDecl]
      ) [VarMethodDeclList_NoEps]
      VarDecl(
        Type(
         Broj
        ) [Type]
        VarDeclListL(
          VarDeclItem(
            VarDeclDefineSingle(
             nula
            ) [VarDeclDefineSingle]
          ) [VarDeclItem]
          VarDeclDefineSingle(
           jedan
          ) [VarDeclDefineSingle]
        ) [VarDeclListL]
      ) [VarDecl]
    ) [VarMethodDeclList_NoEps]
    StatementList_NoEps(
      StatementList_NoEps(
        StatementList_NoEps(
          StatementList_NoEps(
            StatementList_NoEps(
              StatementList_NoEps(
                StatementList_NoEps(
                  StatementList_NoEps(
                    StatementList_NoEps(
                      StatementList_NoEps(
                        StatementList_NoEps(
                          StatementList_NoEps(
                            StatementList_NoEps(
                              StatementList_NoEps(
                                StatementList_NoEps(
                                  StatementList_NoEps(
                                    StatementList_NoEps(
                                      StatementList_NoEps(
                                        StatementList_NoEps(
                                          StatementList_NoEps(
                                            StatementList_NoEps(
                                              StatementList_NoEps(
                                                StatementList_Eps(
                                                ) [StatementList_Eps]
                                                StatementDes(
                                                  DesignStatAssignment(
                                                    Designator(
                                                     nula
                                                      DesDerived1(
                                                      ) [DesDerived1]
                                                    ) [Designator]
                                                    TermExpr(
                                                      TermFact(
                                                        FactorDesign(
                                                          Designator(
                                                           Broj
                                                            DesEnum(
                                                             NULA
                                                            ) [DesEnum]
                                                          ) [Designator]
                                                        ) [FactorDesign]
                                                      ) [TermFact]
                                                    ) [TermExpr]
                                                  ) [DesignStatAssignment]
                                                ) [StatementDes]
                                              ) [StatementList_NoEps]
                                              StatementDes(
                                                DesignStatAssignment(
                                                  Designator(
                                                   jedan
                                                    DesDerived1(
                                                    ) [DesDerived1]
                                                  ) [Designator]
                                                  TermExpr(
                                                    TermFact(
                                                      FactorDesign(
                                                        Designator(
                                                         Broj
                                                          DesEnum(
                                                           JEDAN
                                                          ) [DesEnum]
                                                        ) [Designator]
                                                      ) [FactorDesign]
                                                    ) [TermFact]
                                                  ) [TermExpr]
                                                ) [DesignStatAssignment]
                                              ) [StatementDes]
                                            ) [StatementList_NoEps]
                                            StatementDes(
                                              AssignementExprError(
                                              ) [AssignementExprError]
                                            ) [StatementDes]
                                          ) [StatementList_NoEps]
                                          StatementDes(
                                            DesignStatAssignment(
                                              Designator(
                                               bodovi
                                                DesDerived1(
                                                ) [DesDerived1]
                                              ) [Designator]
                                              AddopExp(
                                                TermExpr(
                                                  TermFact(
                                                    FactorDesign(
                                                      Designator(
                                                       bodovi
                                                        DesDerived1(
                                                        ) [DesDerived1]
                                                      ) [Designator]
                                                    ) [FactorDesign]
                                                  ) [TermFact]
                                                ) [TermExpr]
                                                Addop(
                                                ) [Addop]
                                                TermFact(
                                                  FactorDesign(
                                                    Designator(
                                                     jedan
                                                      DesDerived1(
                                                      ) [DesDerived1]
                                                    ) [Designator]
                                                  ) [FactorDesign]
                                                ) [TermFact]
                                              ) [AddopExp]
                                            ) [DesignStatAssignment]
                                          ) [StatementDes]
                                        ) [StatementList_NoEps]
                                        StatementDes(
                                          DesignStatAssignment(
                                            Designator(
                                             bodovi
                                              DesDerived1(
                                              ) [DesDerived1]
                                            ) [Designator]
                                            TermExpr(
                                              TermMulop(
                                                TermFact(
                                                  FactorDesign(
                                                    Designator(
                                                     bodovi
                                                      DesDerived1(
                                                      ) [DesDerived1]
                                                    ) [Designator]
                                                  ) [FactorDesign]
                                                ) [TermFact]
                                                Mulop(
                                                ) [Mulop]
                                                FactorDesign(
                                                  Designator(
                                                   pet
                                                    DesDerived1(
                                                    ) [DesDerived1]
                                                  ) [Designator]
                                                ) [FactorDesign]
                                              ) [TermMulop]
                                            ) [TermExpr]
                                          ) [DesignStatAssignment]
                                        ) [StatementDes]
                                      ) [StatementList_NoEps]
                                      StatementDes(
                                        DesignStatDec(
                                          Designator(
                                           bodovi
                                            DesDerived1(
                                            ) [DesDerived1]
                                          ) [Designator]
                                        ) [DesignStatDec]
                                      ) [StatementDes]
                                    ) [StatementList_NoEps]
                                    StatPrint(
                                      TermExpr(
                                        TermFact(
                                          FactorDesign(
                                            Designator(
                                             bodovi
                                              DesDerived1(
                                              ) [DesDerived1]
                                            ) [Designator]
                                          ) [FactorDesign]
                                        ) [TermFact]
                                      ) [TermExpr]
                                    ) [StatPrint]
                                  ) [StatementList_NoEps]
                                  StatementDes(
                                    AssignementExprError(
                                    ) [AssignementExprError]
                                  ) [StatementDes]
                                ) [StatementList_NoEps]
                                StatementDes(
                                  DesignStatAssignment(
                                    Designator(
                                     niz
                                      DesExpr(
                                        TermExpr(
                                          TermFact(
                                            FactorDesign(
                                              Designator(
                                               nula
                                                DesDerived1(
                                                ) [DesDerived1]
                                              ) [Designator]
                                            ) [FactorDesign]
                                          ) [TermFact]
                                        ) [TermExpr]
                                      ) [DesExpr]
                                    ) [Designator]
                                    TermExpr(
                                      TermFact(
                                        FactorDesign(
                                          Designator(
                                           pet
                                            DesDerived1(
                                            ) [DesDerived1]
                                          ) [Designator]
                                        ) [FactorDesign]
                                      ) [TermFact]
                                    ) [TermExpr]
                                  ) [DesignStatAssignment]
                                ) [StatementDes]
                              ) [StatementList_NoEps]
                              StatementDes(
                                AssignementExprError(
                                ) [AssignementExprError]
                              ) [StatementDes]
                            ) [StatementList_NoEps]
                            StatementDes(
                              AssignementExprError(
                              ) [AssignementExprError]
                            ) [StatementDes]
                          ) [StatementList_NoEps]
                          StatPrint(
                            TermExpr(
                              TermFact(
                                FactorDesign(
                                  Designator(
                                   bodovi
                                    DesDerived1(
                                    ) [DesDerived1]
                                  ) [Designator]
                                ) [FactorDesign]
                              ) [TermFact]
                            ) [TermExpr]
                          ) [StatPrint]
                        ) [StatementList_NoEps]
                        StatPrint(
                          TermExpr(
                            TermFact(
                              FactorDesign(
                                Designator(
                                 niz
                                  DesExpr(
                                    TermExpr(
                                      TermFact(
                                        FactorDesign(
                                          Designator(
                                           Broj
                                            DesEnum(
                                             JEDAN
                                            ) [DesEnum]
                                          ) [Designator]
                                        ) [FactorDesign]
                                      ) [TermFact]
                                    ) [TermExpr]
                                  ) [DesExpr]
                                ) [Designator]
                              ) [FactorDesign]
                            ) [TermFact]
                          ) [TermExpr]
                        ) [StatPrint]
                      ) [StatementList_NoEps]
                      StatementDes(
                        AssignementExprError(
                        ) [AssignementExprError]
                      ) [StatementDes]
                    ) [StatementList_NoEps]
                    StatementDes(
                      AssignementExprError(
                      ) [AssignementExprError]
                    ) [StatementDes]
                  ) [StatementList_NoEps]
                  StatementDes(
                    AssignementExprError(
                    ) [AssignementExprError]
                  ) [StatementDes]
                ) [StatementList_NoEps]
                StatementDes(
                  AssignementExprError(
                  ) [AssignementExprError]
                ) [StatementDes]
              ) [StatementList_NoEps]
              StatementDes(
                AssignementExprError(
                ) [AssignementExprError]
              ) [StatementDes]
            ) [StatementList_NoEps]
            StatementDes(
              AssignementExprError(
              ) [AssignementExprError]
            ) [StatementDes]
          ) [StatementList_NoEps]
          StatPrint(
            TermExpr(
              TermFact(
                FactorDesign(
                  Designator(
                   bodovi
                    DesDerived1(
                    ) [DesDerived1]
                  ) [Designator]
                ) [FactorDesign]
              ) [TermFact]
            ) [TermExpr]
          ) [StatPrint]
        ) [StatementList_NoEps]
        StatRead(
          Designator(
           bodovi
            DesDerived1(
            ) [DesDerived1]
          ) [Designator]
        ) [StatRead]
      ) [StatementList_NoEps]
      StatementDes(
        AssignementExprError(
        ) [AssignementExprError]
      ) [StatementDes]
    ) [StatementList_NoEps]
  ) [MethodDecl]
) [Program]
INFO  20:12:23,011 - ===================================
