INFO  00:50:32,319 - Compiling source file: C:\Users\ikadr\Desktop\PP\Projekat\Rad\workspace\MJCompiler\test\program.mj
INFO  00:50:32,382 - #2 program
INFO  00:50:32,382 - #28 test301
INFO  00:50:32,382 - #9 enum
INFO  00:50:32,384 - #28 Broj
INFO  00:50:32,384 - #17 {
INFO  00:50:32,385 - #28 NULA
INFO  00:50:32,385 - #12 ,
INFO  00:50:32,385 - #28 JEDAN
INFO  00:50:32,385 - #12 ,
INFO  00:50:32,385 - #28 PET
INFO  00:50:32,386 - #11 =
INFO  00:50:32,386 - #27 5
INFO  00:50:32,386 - #12 ,
INFO  00:50:32,386 - #28 DESET
INFO  00:50:32,386 - #11 =
INFO  00:50:32,386 - #27 10
INFO  00:50:32,386 - #18 }
INFO  00:50:32,387 - #28 int
INFO  00:50:32,388 - #28 niz
INFO  00:50:32,389 - #15 [
INFO  00:50:32,389 - #16 ]
INFO  00:50:32,391 - #10 ;
INFO  00:50:32,392 - #17 {
INFO  00:50:32,393 - #6 void
INFO  00:50:32,393 - #28 main
INFO  00:50:32,394 - #13 (
INFO  00:50:32,394 - #14 )
INFO  00:50:32,394 - #28 int
INFO  00:50:32,396 - #28 x
INFO  00:50:32,396 - #10 ;
INFO  00:50:32,397 - #17 {
INFO  00:50:32,398 - #28 x
INFO  00:50:32,399 - #11 =
INFO  00:50:32,401 - #27 7
INFO  00:50:32,401 - #10 ;
INFO  00:50:32,402 - #28 niz
INFO  00:50:32,402 - #11 =
INFO  00:50:32,402 - #5 new
INFO  00:50:32,402 - #28 int
INFO  00:50:32,402 - #15 [
INFO  00:50:32,402 - #27 2
INFO  00:50:32,402 - #16 ]
INFO  00:50:32,403 - #10 ;
INFO  00:50:32,403 - #28 niz
INFO  00:50:32,403 - #15 [
INFO  00:50:32,403 - #28 x
INFO  00:50:32,403 - #16 ]
INFO  00:50:32,403 - #11 =
INFO  00:50:32,404 - #27 5
INFO  00:50:32,404 - #10 ;
INFO  00:50:32,404 - #4 print
INFO  00:50:32,404 - #13 (
INFO  00:50:32,404 - #29 a
INFO  00:50:32,404 - #14 )
INFO  00:50:32,405 - #10 ;
INFO  00:50:32,405 - #4 print
INFO  00:50:32,405 - #13 (
INFO  00:50:32,405 - #28 x
INFO  00:50:32,405 - #14 )
INFO  00:50:32,405 - #10 ;
INFO  00:50:32,405 - #18 }
INFO  00:50:32,405 - #18 }
INFO  00:50:32,422 - Program(
  ProgName(
   test301
  ) [ProgName]
  GlobalDeclListL(
    GlobalDeclListL(
      GlobalDeclListEps(
      ) [GlobalDeclListEps]
      GlobalDeclEnum(
        EnumDecl(
         Broj
          EnumDeclListL(
            EnumDeclListL(
              EnumDeclListL(
                EnumDeclItem(
                  EnumDeclDefNoVal(
                   NULA
                  ) [EnumDeclDefNoVal]
                ) [EnumDeclItem]
                EnumDeclDefNoVal(
                 JEDAN
                ) [EnumDeclDefNoVal]
              ) [EnumDeclListL]
              EnumDeclDefVal(
               PET
               5
              ) [EnumDeclDefVal]
            ) [EnumDeclListL]
            EnumDeclDefVal(
             DESET
             10
            ) [EnumDeclDefVal]
          ) [EnumDeclListL]
        ) [EnumDecl]
      ) [GlobalDeclEnum]
    ) [GlobalDeclListL]
    GlobalDeclVar(
      GlobalVarDecl(
        Type(
         int
        ) [Type]
        GlobalVarDeclItem(
          GlobalVarDeclDefOk(
            VarDeclDefineArray(
             niz
            ) [VarDeclDefineArray]
          ) [GlobalVarDeclDefOk]
        ) [GlobalVarDeclItem]
      ) [GlobalVarDecl]
    ) [GlobalDeclVar]
  ) [GlobalDeclListL]
  MethodDecl(
    MethodSignature(
      VoidableType(
      ) [VoidableType]
     main
    ) [MethodSignature]
    VarMethodDeclList_NoEps(
      VarMethodDeclList_Eps(
      ) [VarMethodDeclList_Eps]
      VarDecl(
        Type(
         int
        ) [Type]
        VarDeclItem(
          VarDeclDefineSingle(
           x
          ) [VarDeclDefineSingle]
        ) [VarDeclItem]
      ) [VarDecl]
    ) [VarMethodDeclList_NoEps]
    StatementList_NoEps(
      StatementList_NoEps(
        StatementList_NoEps(
          StatementList_NoEps(
            StatementList_NoEps(
              StatementList_Eps(
              ) [StatementList_Eps]
              StatementDes(
                DesignStatAssignment(
                  Designator(
                   x
                    DesDerived1(
                    ) [DesDerived1]
                  ) [Designator]
                  AssignementExpr(
                    TermExpr(
                      TermFact(
                        FactorConst(
                          ConstNum(
                           7
                          ) [ConstNum]
                        ) [FactorConst]
                      ) [TermFact]
                    ) [TermExpr]
                  ) [AssignementExpr]
                ) [DesignStatAssignment]
              ) [StatementDes]
            ) [StatementList_NoEps]
            StatementDes(
              DesignStatAssignment(
                Designator(
                 niz
                  DesDerived1(
                  ) [DesDerived1]
                ) [Designator]
                AssignementExpr(
                  TermExpr(
                    TermFact(
                      FactorNewArr(
                        Type(
                         int
                        ) [Type]
                        TermExpr(
                          TermFact(
                            FactorConst(
                              ConstNum(
                               2
                              ) [ConstNum]
                            ) [FactorConst]
                          ) [TermFact]
                        ) [TermExpr]
                      ) [FactorNewArr]
                    ) [TermFact]
                  ) [TermExpr]
                ) [AssignementExpr]
              ) [DesignStatAssignment]
            ) [StatementDes]
          ) [StatementList_NoEps]
          StatementDes(
            DesignStatAssignment(
              Designator(
               niz
                DesArr(
                  TermExpr(
                    TermFact(
                      FactorDesign(
                        Designator(
                         x
                          DesDerived1(
                          ) [DesDerived1]
                        ) [Designator]
                      ) [FactorDesign]
                    ) [TermFact]
                  ) [TermExpr]
                ) [DesArr]
              ) [Designator]
              AssignementExpr(
                TermExpr(
                  TermFact(
                    FactorConst(
                      ConstNum(
                       5
                      ) [ConstNum]
                    ) [FactorConst]
                  ) [TermFact]
                ) [TermExpr]
              ) [AssignementExpr]
            ) [DesignStatAssignment]
          ) [StatementDes]
        ) [StatementList_NoEps]
        StatPrint(
          TermExpr(
            TermFact(
              FactorConst(
                ConstChar(
                 a
                ) [ConstChar]
              ) [FactorConst]
            ) [TermFact]
          ) [TermExpr]
        ) [StatPrint]
      ) [StatementList_NoEps]
      StatPrint(
        TermExpr(
          TermFact(
            FactorDesign(
              Designator(
               x
                DesDerived1(
                ) [DesDerived1]
              ) [Designator]
            ) [FactorDesign]
          ) [TermFact]
        ) [TermExpr]
      ) [StatPrint]
    ) [StatementList_NoEps]
  ) [MethodDecl]
) [Program]
INFO  00:50:32,422 - ===================================
INFO  00:50:32,426 - Deklarisan novi enum tip Broj na liniji 5
INFO  00:50:32,426 - Deklarisana promenljiva niza niz tipa 1 na liniji 6
INFO  00:50:32,427 - Obradjuje se funkcija main na liniji 8
INFO  00:50:32,431 - Deklarisana promenljiva x tipa 1 na liniji 9
INFO  00:50:32,431 - Dodeljenja vrednost: 1 je design,1 je assign
INFO  00:50:32,431 - Dodeljenja vrednost: 1 je design,1 je assign
INFO  00:50:32,431 - Dodeljenja vrednost: 1 je design,1 je assign
INFO  00:50:32,432 -  Print count calls = 2
INFO  00:50:32,432 -  Deklarisanih promenljivih ima = 5
