INFO  11:51:54,852 - Compiling source file: C:\Users\ikadr\Desktop\PP\Projekat\Rad\workspace\MJCompiler\test\program.mj
INFO  11:51:54,961 - #2 program
INFO  11:51:54,961 - #28 test301
INFO  11:51:54,961 - #9 enum
INFO  11:51:54,961 - #28 Broj
INFO  11:51:54,961 - #17 {
INFO  11:51:54,961 - #28 NULA
INFO  11:51:54,961 - #12 ,
INFO  11:51:54,961 - #28 JEDAN
INFO  11:51:54,961 - #12 ,
INFO  11:51:54,961 - #28 PET
INFO  11:51:54,961 - #11 =
INFO  11:51:54,961 - #27 5
INFO  11:51:54,961 - #12 ,
INFO  11:51:54,977 - #28 DESET
INFO  11:51:54,977 - #11 =
INFO  11:51:54,977 - #27 10
INFO  11:51:54,977 - #18 }
INFO  11:51:54,977 - #8 const
INFO  11:51:54,977 - #28 int
INFO  11:51:54,977 - #28 jedan
INFO  11:51:54,977 - #11 =
INFO  11:51:54,977 - #27 1
INFO  11:51:54,977 - #10 ;
INFO  11:51:54,977 - #8 const
INFO  11:51:54,977 - #28 int
INFO  11:51:54,977 - #28 pet
INFO  11:51:54,977 - #11 =
INFO  11:51:54,977 - #27 5
INFO  11:51:54,977 - #10 ;
INFO  11:51:54,977 - #28 int
INFO  11:51:54,977 - #28 niz
INFO  11:51:54,977 - #15 [
INFO  11:51:54,977 - #16 ]
INFO  11:51:54,977 - #10 ;
INFO  11:51:54,977 - #28 char
INFO  11:51:54,977 - #28 nizch
INFO  11:51:54,977 - #15 [
INFO  11:51:54,977 - #16 ]
INFO  11:51:54,977 - #10 ;
INFO  11:51:54,977 - #17 {
INFO  11:51:54,977 - #6 void
INFO  11:51:54,993 - #28 main
INFO  11:51:54,993 - #13 (
INFO  11:51:54,993 - #14 )
INFO  11:51:54,993 - #28 int
INFO  11:51:54,993 - #28 bodovi
INFO  11:51:54,993 - #10 ;
INFO  11:51:54,993 - #28 Broj
INFO  11:51:54,993 - #28 nula
INFO  11:51:54,993 - #12 ,
INFO  11:51:54,993 - #28 jedan
INFO  11:51:54,993 - #10 ;
INFO  11:51:54,993 - #17 {
INFO  11:51:54,993 - #28 niz
INFO  11:51:54,993 - #11 =
INFO  11:51:54,993 - #5 new
INFO  11:51:54,993 - #28 int
INFO  11:51:54,993 - #15 [
INFO  11:51:54,993 - #27 2
INFO  11:51:54,993 - #16 ]
INFO  11:51:54,993 - #10 ;
INFO  11:51:54,993 - #18 }
INFO  11:51:54,993 - #18 }
INFO  11:51:55,008 - Program(
  ProgName(
   test301
  ) [ProgName]
  GlobalDeclListL(
    GlobalDeclListL(
      GlobalDeclListL(
        GlobalDeclListL(
          GlobalDeclListL(
            GlobalDeclListEps(
            ) [GlobalDeclListEps]
            GlobalDeclEnum(
              EnumDecl(
               Broj
                EnumDeclListL(
                  EnumDeclListL(
                    EnumDeclListL(
                      EnumDeclItem(
                        EnumDeclDefNoVal(
                         NULA
                        ) [EnumDeclDefNoVal]
                      ) [EnumDeclItem]
                      EnumDeclDefNoVal(
                       JEDAN
                      ) [EnumDeclDefNoVal]
                    ) [EnumDeclListL]
                    EnumDeclDefVal(
                     PET
                     5
                    ) [EnumDeclDefVal]
                  ) [EnumDeclListL]
                  EnumDeclDefVal(
                   DESET
                   10
                  ) [EnumDeclDefVal]
                ) [EnumDeclListL]
              ) [EnumDecl]
            ) [GlobalDeclEnum]
          ) [GlobalDeclListL]
          GlobalDeclConst(
            ConstDecl(
              Type(
               int
              ) [Type]
              ConstDeclItem(
                ConstDef(
                 jedan
                  ConstNum(
                   1
                  ) [ConstNum]
                ) [ConstDef]
              ) [ConstDeclItem]
            ) [ConstDecl]
          ) [GlobalDeclConst]
        ) [GlobalDeclListL]
        GlobalDeclConst(
          ConstDecl(
            Type(
             int
            ) [Type]
            ConstDeclItem(
              ConstDef(
               pet
                ConstNum(
                 5
                ) [ConstNum]
              ) [ConstDef]
            ) [ConstDeclItem]
          ) [ConstDecl]
        ) [GlobalDeclConst]
      ) [GlobalDeclListL]
      GlobalDeclVar(
        GlobalVarDecl(
          Type(
           int
          ) [Type]
          GlobalVarDeclItem(
            GlobalVarDeclDefOk(
              VarDeclDefineArray(
               niz
              ) [VarDeclDefineArray]
            ) [GlobalVarDeclDefOk]
          ) [GlobalVarDeclItem]
        ) [GlobalVarDecl]
      ) [GlobalDeclVar]
    ) [GlobalDeclListL]
    GlobalDeclVar(
      GlobalVarDecl(
        Type(
         char
        ) [Type]
        GlobalVarDeclItem(
          GlobalVarDeclDefOk(
            VarDeclDefineArray(
             nizch
            ) [VarDeclDefineArray]
          ) [GlobalVarDeclDefOk]
        ) [GlobalVarDeclItem]
      ) [GlobalVarDecl]
    ) [GlobalDeclVar]
  ) [GlobalDeclListL]
  MethodDecl(
    MethodSignature(
      VoidableType(
      ) [VoidableType]
     main
    ) [MethodSignature]
    VarMethodDeclList_NoEps(
      VarMethodDeclList_NoEps(
        VarMethodDeclList_Eps(
        ) [VarMethodDeclList_Eps]
        VarDecl(
          Type(
           int
          ) [Type]
          VarDeclItem(
            VarDeclDefineSingle(
             bodovi
            ) [VarDeclDefineSingle]
          ) [VarDeclItem]
        ) [VarDecl]
      ) [VarMethodDeclList_NoEps]
      VarDecl(
        Type(
         Broj
        ) [Type]
        VarDeclListL(
          VarDeclItem(
            VarDeclDefineSingle(
             nula
            ) [VarDeclDefineSingle]
          ) [VarDeclItem]
          VarDeclDefineSingle(
           jedan
          ) [VarDeclDefineSingle]
        ) [VarDeclListL]
      ) [VarDecl]
    ) [VarMethodDeclList_NoEps]
    StatementList_NoEps(
      StatementList_Eps(
      ) [StatementList_Eps]
      StatementDes(
        DesignStatAssignment(
          Designator(
           niz
            DesDerived1(
            ) [DesDerived1]
          ) [Designator]
          AssignementExpr(
            TermExpr(
              TermFact(
                FactorNewArr(
                  Type(
                   int
                  ) [Type]
                  TermExpr(
                    TermFact(
                      FactorConst(
                        ConstNum(
                         2
                        ) [ConstNum]
                      ) [FactorConst]
                    ) [TermFact]
                  ) [TermExpr]
                ) [FactorNewArr]
              ) [TermFact]
            ) [TermExpr]
          ) [AssignementExpr]
        ) [DesignStatAssignment]
      ) [StatementDes]
    ) [StatementList_NoEps]
  ) [MethodDecl]
) [Program]
INFO  11:51:55,008 - ===================================
INFO  11:51:55,024 - Deklarisan novi enum tip Broj na liniji 5
INFO  11:51:55,024 - Deklarisana konstanta 'jedan' na liniji 7
INFO  11:51:55,024 - Deklarisana konstanta 'pet' na liniji 8
INFO  11:51:55,024 - Deklarisana promenljiva niza niz tipa 1 na liniji 10
INFO  11:51:55,024 - Deklarisana promenljiva niza nizch tipa 2 na liniji 11
INFO  11:51:55,024 - Obradjuje se funkcija main na liniji 14
INFO  11:51:55,024 - Deklarisana promenljiva bodovi tipa 1 na liniji 15
INFO  11:51:55,024 - Deklarisana promenljiva nula tipa 6 na liniji 16
INFO  11:51:55,024 - Deklarisana promenljiva jedan tipa 6 na liniji 16
INFO  11:51:55,024 - Designator ident je: niz, 3
INFO  11:51:55,024 - kind niza u newArr je3, a elemenata 1
INFO  11:51:55,024 - kind leve strane je: 1, kind desne strane: 1
ERROR 11:51:55,024 - Greska: nekompatabilan tip pri kreiranju novog niza na liniji 21
INFO  11:51:55,024 -  Print count calls = 0
INFO  11:51:55,024 -  Deklarisanih promenljivih ima = 3
ERROR 11:51:55,024 - Parsiranje NIJE uspesno zavrseno!
