INFO  15:55:54,593 - Compiling source file: C:\Users\ikadr\Desktop\PP\Projekat\Rad\workspace\MJCompiler\test\program.mj
INFO  15:55:54,594 - ===============SINTAKSNA OBRADA====================
INFO  15:55:54,670 - #2 program
INFO  15:55:54,671 - #28 test301
INFO  15:55:54,671 - #9 enum
INFO  15:55:54,673 - #28 Broj
INFO  15:55:54,673 - #17 {
INFO  15:55:54,674 - #28 NULA
INFO  15:55:54,674 - #12 ,
INFO  15:55:54,675 - #28 JEDAN
INFO  15:55:54,675 - #12 ,
INFO  15:55:54,675 - #28 PET
INFO  15:55:54,675 - #11 =
INFO  15:55:54,675 - #27 5
INFO  15:55:54,675 - #12 ,
INFO  15:55:54,675 - #28 DESET
INFO  15:55:54,675 - #11 =
INFO  15:55:54,675 - #27 10
INFO  15:55:54,676 - #18 }
INFO  15:55:54,676 - #8 const
INFO  15:55:54,701 - #28 int
INFO  15:55:54,702 - #28 jedan
INFO  15:55:54,703 - #11 =
INFO  15:55:54,703 - #27 1
INFO  15:55:54,703 - #10 ;
INFO  15:55:54,705 - #8 const
INFO  15:55:54,706 - #28 int
INFO  15:55:54,706 - #28 pet
INFO  15:55:54,706 - #11 =
INFO  15:55:54,706 - #27 5
INFO  15:55:54,706 - #10 ;
INFO  15:55:54,707 - #28 int
INFO  15:55:54,707 - #28 niz
INFO  15:55:54,707 - #15 [
INFO  15:55:54,707 - #16 ]
INFO  15:55:54,707 - #10 ;
INFO  15:55:54,707 - #28 char
INFO  15:55:54,708 - #28 nizch
INFO  15:55:54,709 - #15 [
INFO  15:55:54,709 - #16 ]
INFO  15:55:54,709 - #10 ;
INFO  15:55:54,709 - #17 {
INFO  15:55:54,709 - #6 void
INFO  15:55:54,709 - #28 main
INFO  15:55:54,711 - #13 (
INFO  15:55:54,711 - #14 )
INFO  15:55:54,711 - #28 int
INFO  15:55:54,713 - #28 bodovi
INFO  15:55:54,714 - #10 ;
INFO  15:55:54,714 - #28 Broj
INFO  15:55:54,716 - #28 nula
INFO  15:55:54,716 - #12 ,
INFO  15:55:54,716 - #28 jedan
INFO  15:55:54,716 - #10 ;
INFO  15:55:54,716 - #17 {
INFO  15:55:54,717 - #28 nula
INFO  15:55:54,718 - #11 =
INFO  15:55:54,718 - #28 Broj
INFO  15:55:54,718 - #19 .
INFO  15:55:54,718 - #28 NULA
INFO  15:55:54,718 - #10 ;
INFO  15:55:54,719 - #28 jedan
INFO  15:55:54,719 - #11 =
INFO  15:55:54,719 - #28 Broj
INFO  15:55:54,720 - #19 .
INFO  15:55:54,720 - #28 JEDAN
INFO  15:55:54,720 - #10 ;
INFO  15:55:54,720 - #28 bodovi
INFO  15:55:54,720 - #11 =
INFO  15:55:54,720 - #27 0
INFO  15:55:54,720 - #10 ;
INFO  15:55:54,721 - #28 bodovi
INFO  15:55:54,721 - #20 ++
INFO  15:55:54,721 - #10 ;
INFO  15:55:54,721 - #28 bodovi
INFO  15:55:54,721 - #11 =
INFO  15:55:54,722 - #28 bodovi
INFO  15:55:54,722 - #23 +
INFO  15:55:54,722 - #28 jedan
INFO  15:55:54,725 - #10 ;
INFO  15:55:54,726 - #28 bodovi
INFO  15:55:54,726 - #11 =
INFO  15:55:54,726 - #28 bodovi
INFO  15:55:54,728 - #24 *
INFO  15:55:54,728 - #28 pet
INFO  15:55:54,739 - #10 ;
INFO  15:55:54,739 - #28 bodovi
INFO  15:55:54,739 - #21 --
INFO  15:55:54,740 - #10 ;
INFO  15:55:54,740 - #4 print
INFO  15:55:54,740 - #13 (
INFO  15:55:54,740 - #28 bodovi
INFO  15:55:54,740 - #14 )
INFO  15:55:54,741 - #10 ;
INFO  15:55:54,741 - #28 niz
INFO  15:55:54,741 - #11 =
INFO  15:55:54,741 - #5 new
INFO  15:55:54,742 - #28 int
INFO  15:55:54,742 - #15 [
INFO  15:55:54,742 - #27 2
INFO  15:55:54,742 - #16 ]
INFO  15:55:54,742 - #10 ;
INFO  15:55:54,742 - #28 niz
INFO  15:55:54,742 - #15 [
INFO  15:55:54,744 - #28 nula
INFO  15:55:54,744 - #16 ]
INFO  15:55:54,744 - #11 =
INFO  15:55:54,744 - #28 pet
INFO  15:55:54,744 - #10 ;
INFO  15:55:54,745 - #28 niz
INFO  15:55:54,745 - #15 [
INFO  15:55:54,745 - #27 1
INFO  15:55:54,745 - #16 ]
INFO  15:55:54,745 - #11 =
INFO  15:55:54,745 - #28 Broj
INFO  15:55:54,746 - #19 .
INFO  15:55:54,746 - #28 DESET
INFO  15:55:54,746 - #10 ;
INFO  15:55:54,746 - #28 bodovi
INFO  15:55:54,746 - #11 =
INFO  15:55:54,746 - #28 niz
INFO  15:55:54,747 - #15 [
INFO  15:55:54,747 - #27 1
INFO  15:55:54,747 - #16 ]
INFO  15:55:54,747 - #25 /
INFO  15:55:54,747 - #28 niz
INFO  15:55:54,749 - #15 [
INFO  15:55:54,749 - #27 0
INFO  15:55:54,749 - #16 ]
INFO  15:55:54,750 - #10 ;
INFO  15:55:54,750 - #4 print
INFO  15:55:54,750 - #13 (
INFO  15:55:54,750 - #28 bodovi
INFO  15:55:54,757 - #14 )
INFO  15:55:54,757 - #10 ;
INFO  15:55:54,758 - #4 print
INFO  15:55:54,758 - #13 (
INFO  15:55:54,758 - #28 niz
INFO  15:55:54,758 - #15 [
INFO  15:55:54,758 - #28 Broj
INFO  15:55:54,758 - #19 .
INFO  15:55:54,758 - #28 JEDAN
INFO  15:55:54,758 - #16 ]
INFO  15:55:54,758 - #14 )
INFO  15:55:54,758 - #10 ;
INFO  15:55:54,759 - #28 nizch
INFO  15:55:54,759 - #11 =
INFO  15:55:54,759 - #5 new
INFO  15:55:54,759 - #28 char
INFO  15:55:54,759 - #15 [
INFO  15:55:54,759 - #27 3
INFO  15:55:54,759 - #16 ]
INFO  15:55:54,759 - #10 ;
INFO  15:55:54,759 - #28 nizch
INFO  15:55:54,759 - #15 [
INFO  15:55:54,760 - #27 0
INFO  15:55:54,760 - #16 ]
INFO  15:55:54,760 - #11 =
INFO  15:55:54,760 - #29 a
INFO  15:55:54,760 - #10 ;
INFO  15:55:54,760 - #28 nizch
INFO  15:55:54,760 - #15 [
INFO  15:55:54,760 - #28 jedan
INFO  15:55:54,761 - #16 ]
INFO  15:55:54,761 - #11 =
INFO  15:55:54,761 - #29 b
INFO  15:55:54,761 - #10 ;
INFO  15:55:54,761 - #28 nizch
INFO  15:55:54,761 - #15 [
INFO  15:55:54,761 - #28 pet
INFO  15:55:54,761 - #22 -
INFO  15:55:54,762 - #27 3
INFO  15:55:54,763 - #16 ]
INFO  15:55:54,763 - #11 =
INFO  15:55:54,763 - #29 c
INFO  15:55:54,763 - #10 ;
INFO  15:55:54,763 - #4 print
INFO  15:55:54,764 - #13 (
INFO  15:55:54,764 - #28 nizch
INFO  15:55:54,764 - #15 [
INFO  15:55:54,764 - #27 2
INFO  15:55:54,764 - #22 -
INFO  15:55:54,764 - #27 1
INFO  15:55:54,764 - #16 ]
INFO  15:55:54,764 - #14 )
INFO  15:55:54,764 - #10 ;
INFO  15:55:54,764 - #4 print
INFO  15:55:54,764 - #13 (
INFO  15:55:54,765 - #28 nizch
INFO  15:55:54,765 - #15 [
INFO  15:55:54,765 - #28 jedan
INFO  15:55:54,765 - #24 *
INFO  15:55:54,765 - #27 2
INFO  15:55:54,765 - #16 ]
INFO  15:55:54,765 - #14 )
INFO  15:55:54,765 - #10 ;
INFO  15:55:54,765 - #28 bodovi
INFO  15:55:54,766 - #11 =
INFO  15:55:54,766 - #28 bodovi
INFO  15:55:54,766 - #23 +
INFO  15:55:54,766 - #13 (
INFO  15:55:54,766 - #13 (
INFO  15:55:54,766 - #28 pet
INFO  15:55:54,766 - #24 *
INFO  15:55:54,766 - #28 jedan
INFO  15:55:54,766 - #22 -
INFO  15:55:54,766 - #27 1
INFO  15:55:54,766 - #14 )
INFO  15:55:54,767 - #24 *
INFO  15:55:54,767 - #27 2
INFO  15:55:54,767 - #22 -
INFO  15:55:54,767 - #13 (
INFO  15:55:54,767 - #27 3
INFO  15:55:54,767 - #26 %
INFO  15:55:54,767 - #27 2
INFO  15:55:54,768 - #23 +
INFO  15:55:54,769 - #27 3
INFO  15:55:54,769 - #24 *
INFO  15:55:54,769 - #27 2
INFO  15:55:54,769 - #22 -
INFO  15:55:54,770 - #27 3
INFO  15:55:54,770 - #14 )
INFO  15:55:54,770 - #22 -
INFO  15:55:54,771 - #28 Broj
INFO  15:55:54,771 - #19 .
INFO  15:55:54,771 - #28 JEDAN
INFO  15:55:54,771 - #24 *
INFO  15:55:54,771 - #27 0
INFO  15:55:54,771 - #14 )
INFO  15:55:54,771 - #10 ;
INFO  15:55:54,771 - #4 print
INFO  15:55:54,771 - #13 (
INFO  15:55:54,771 - #28 bodovi
INFO  15:55:54,771 - #14 )
INFO  15:55:54,772 - #10 ;
INFO  15:55:54,772 - #3 read
INFO  15:55:54,772 - #13 (
INFO  15:55:54,772 - #28 bodovi
INFO  15:55:54,772 - #14 )
INFO  15:55:54,772 - #10 ;
INFO  15:55:54,772 - #28 bodovi
INFO  15:55:54,772 - #11 =
INFO  15:55:54,772 - #28 bodovi
INFO  15:55:54,772 - #23 +
INFO  15:55:54,773 - #27 1
INFO  15:55:54,773 - #10 ;
INFO  15:55:54,773 - #4 print
INFO  15:55:54,773 - #13 (
INFO  15:55:54,773 - #28 bodovi
INFO  15:55:54,773 - #14 )
INFO  15:55:54,773 - #10 ;
INFO  15:55:54,773 - #18 }
INFO  15:55:54,773 - #18 }
INFO  15:55:54,796 - Program(
  ProgName(
   test301
  ) [ProgName]
  GlobalDeclListL(
    GlobalDeclListL(
      GlobalDeclListL(
        GlobalDeclListL(
          GlobalDeclListL(
            GlobalDeclListEps(
            ) [GlobalDeclListEps]
            GlobalDeclEnum(
              EnumDecl(
                EnumName(
                 Broj
                ) [EnumName]
                EnumDeclListL(
                  EnumDeclListL(
                    EnumDeclListL(
                      EnumDeclItem(
                        EnumDeclDefNoVal(
                         NULA
                        ) [EnumDeclDefNoVal]
                      ) [EnumDeclItem]
                      EnumDeclDefNoVal(
                       JEDAN
                      ) [EnumDeclDefNoVal]
                    ) [EnumDeclListL]
                    EnumDeclDefVal(
                     PET
                     5
                    ) [EnumDeclDefVal]
                  ) [EnumDeclListL]
                  EnumDeclDefVal(
                   DESET
                   10
                  ) [EnumDeclDefVal]
                ) [EnumDeclListL]
              ) [EnumDecl]
            ) [GlobalDeclEnum]
          ) [GlobalDeclListL]
          GlobalDeclConst(
            ConstDecl(
              Type(
               int
              ) [Type]
              ConstDeclItem(
                ConstDef(
                 jedan
                  ConstNum(
                   1
                  ) [ConstNum]
                ) [ConstDef]
              ) [ConstDeclItem]
            ) [ConstDecl]
          ) [GlobalDeclConst]
        ) [GlobalDeclListL]
        GlobalDeclConst(
          ConstDecl(
            Type(
             int
            ) [Type]
            ConstDeclItem(
              ConstDef(
               pet
                ConstNum(
                 5
                ) [ConstNum]
              ) [ConstDef]
            ) [ConstDeclItem]
          ) [ConstDecl]
        ) [GlobalDeclConst]
      ) [GlobalDeclListL]
      GlobalDeclVar(
        GlobalVarDecl(
          Type(
           int
          ) [Type]
          GlobalVarDeclItem(
            GlobalVarDeclDefOk(
              VarDeclDefineArray(
               niz
              ) [VarDeclDefineArray]
            ) [GlobalVarDeclDefOk]
          ) [GlobalVarDeclItem]
        ) [GlobalVarDecl]
      ) [GlobalDeclVar]
    ) [GlobalDeclListL]
    GlobalDeclVar(
      GlobalVarDecl(
        Type(
         char
        ) [Type]
        GlobalVarDeclItem(
          GlobalVarDeclDefOk(
            VarDeclDefineArray(
             nizch
            ) [VarDeclDefineArray]
          ) [GlobalVarDeclDefOk]
        ) [GlobalVarDeclItem]
      ) [GlobalVarDecl]
    ) [GlobalDeclVar]
  ) [GlobalDeclListL]
  MethodDecl(
    MethodSignature(
      VoidableType(
      ) [VoidableType]
     main
    ) [MethodSignature]
    VarMethodDeclList_NoEps(
      VarMethodDeclList_NoEps(
        VarMethodDeclList_Eps(
        ) [VarMethodDeclList_Eps]
        VarDecl(
          Type(
           int
          ) [Type]
          VarDeclItem(
            VarDeclDefineSingle(
             bodovi
            ) [VarDeclDefineSingle]
          ) [VarDeclItem]
        ) [VarDecl]
      ) [VarMethodDeclList_NoEps]
      VarDecl(
        Type(
         Broj
        ) [Type]
        VarDeclListL(
          VarDeclItem(
            VarDeclDefineSingle(
             nula
            ) [VarDeclDefineSingle]
          ) [VarDeclItem]
          VarDeclDefineSingle(
           jedan
          ) [VarDeclDefineSingle]
        ) [VarDeclListL]
      ) [VarDecl]
    ) [VarMethodDeclList_NoEps]
    StatementList_NoEps(
      StatementList_NoEps(
        StatementList_NoEps(
          StatementList_NoEps(
            StatementList_NoEps(
              StatementList_NoEps(
                StatementList_NoEps(
                  StatementList_NoEps(
                    StatementList_NoEps(
                      StatementList_NoEps(
                        StatementList_NoEps(
                          StatementList_NoEps(
                            StatementList_NoEps(
                              StatementList_NoEps(
                                StatementList_NoEps(
                                  StatementList_NoEps(
                                    StatementList_NoEps(
                                      StatementList_NoEps(
                                        StatementList_NoEps(
                                          StatementList_NoEps(
                                            StatementList_NoEps(
                                              StatementList_NoEps(
                                                StatementList_NoEps(
                                                  StatementList_NoEps(
                                                    StatementList_NoEps(
                                                      StatementList_Eps(
                                                      ) [StatementList_Eps]
                                                      StatementDes(
                                                        DesignStatAssignment(
                                                          DesIdent(
                                                           nula
                                                          ) [DesIdent]
                                                          AssignementExpr(
                                                            TermExpr(
                                                              TermFact(
                                                                FactorDesign(
                                                                  DesEnum(
                                                                   Broj
                                                                   NULA
                                                                  ) [DesEnum]
                                                                ) [FactorDesign]
                                                              ) [TermFact]
                                                            ) [TermExpr]
                                                          ) [AssignementExpr]
                                                        ) [DesignStatAssignment]
                                                      ) [StatementDes]
                                                    ) [StatementList_NoEps]
                                                    StatementDes(
                                                      DesignStatAssignment(
                                                        DesIdent(
                                                         jedan
                                                        ) [DesIdent]
                                                        AssignementExpr(
                                                          TermExpr(
                                                            TermFact(
                                                              FactorDesign(
                                                                DesEnum(
                                                                 Broj
                                                                 JEDAN
                                                                ) [DesEnum]
                                                              ) [FactorDesign]
                                                            ) [TermFact]
                                                          ) [TermExpr]
                                                        ) [AssignementExpr]
                                                      ) [DesignStatAssignment]
                                                    ) [StatementDes]
                                                  ) [StatementList_NoEps]
                                                  StatementDes(
                                                    DesignStatAssignment(
                                                      DesIdent(
                                                       bodovi
                                                      ) [DesIdent]
                                                      AssignementExpr(
                                                        TermExpr(
                                                          TermFact(
                                                            FactorConst(
                                                              ConstNum(
                                                               0
                                                              ) [ConstNum]
                                                            ) [FactorConst]
                                                          ) [TermFact]
                                                        ) [TermExpr]
                                                      ) [AssignementExpr]
                                                    ) [DesignStatAssignment]
                                                  ) [StatementDes]
                                                ) [StatementList_NoEps]
                                                StatementDes(
                                                  DesignStatInc(
                                                    DesIdent(
                                                     bodovi
                                                    ) [DesIdent]
                                                  ) [DesignStatInc]
                                                ) [StatementDes]
                                              ) [StatementList_NoEps]
                                              StatementDes(
                                                DesignStatAssignment(
                                                  DesIdent(
                                                   bodovi
                                                  ) [DesIdent]
                                                  AssignementExpr(
                                                    AddopExp(
                                                      TermExpr(
                                                        TermFact(
                                                          FactorDesign(
                                                            DesIdent(
                                                             bodovi
                                                            ) [DesIdent]
                                                          ) [FactorDesign]
                                                        ) [TermFact]
                                                      ) [TermExpr]
                                                      Addop_Plus(
                                                      ) [Addop_Plus]
                                                      TermFact(
                                                        FactorDesign(
                                                          DesIdent(
                                                           jedan
                                                          ) [DesIdent]
                                                        ) [FactorDesign]
                                                      ) [TermFact]
                                                    ) [AddopExp]
                                                  ) [AssignementExpr]
                                                ) [DesignStatAssignment]
                                              ) [StatementDes]
                                            ) [StatementList_NoEps]
                                            StatementDes(
                                              DesignStatAssignment(
                                                DesIdent(
                                                 bodovi
                                                ) [DesIdent]
                                                AssignementExpr(
                                                  TermExpr(
                                                    TermMulop(
                                                      TermFact(
                                                        FactorDesign(
                                                          DesIdent(
                                                           bodovi
                                                          ) [DesIdent]
                                                        ) [FactorDesign]
                                                      ) [TermFact]
                                                      Mulop_Mul(
                                                      ) [Mulop_Mul]
                                                      FactorDesign(
                                                        DesIdent(
                                                         pet
                                                        ) [DesIdent]
                                                      ) [FactorDesign]
                                                    ) [TermMulop]
                                                  ) [TermExpr]
                                                ) [AssignementExpr]
                                              ) [DesignStatAssignment]
                                            ) [StatementDes]
                                          ) [StatementList_NoEps]
                                          StatementDes(
                                            DesignStatDec(
                                              DesIdent(
                                               bodovi
                                              ) [DesIdent]
                                            ) [DesignStatDec]
                                          ) [StatementDes]
                                        ) [StatementList_NoEps]
                                        StatPrint(
                                          TermExpr(
                                            TermFact(
                                              FactorDesign(
                                                DesIdent(
                                                 bodovi
                                                ) [DesIdent]
                                              ) [FactorDesign]
                                            ) [TermFact]
                                          ) [TermExpr]
                                        ) [StatPrint]
                                      ) [StatementList_NoEps]
                                      StatementDes(
                                        DesignStatAssignment(
                                          DesIdent(
                                           niz
                                          ) [DesIdent]
                                          AssignementExpr(
                                            TermExpr(
                                              TermFact(
                                                FactorNewArr(
                                                  Type(
                                                   int
                                                  ) [Type]
                                                  TermExpr(
                                                    TermFact(
                                                      FactorConst(
                                                        ConstNum(
                                                         2
                                                        ) [ConstNum]
                                                      ) [FactorConst]
                                                    ) [TermFact]
                                                  ) [TermExpr]
                                                ) [FactorNewArr]
                                              ) [TermFact]
                                            ) [TermExpr]
                                          ) [AssignementExpr]
                                        ) [DesignStatAssignment]
                                      ) [StatementDes]
                                    ) [StatementList_NoEps]
                                    StatementDes(
                                      DesignStatAssignment(
                                        DesArr(
                                          ArrayName(
                                           niz
                                          ) [ArrayName]
                                          TermExpr(
                                            TermFact(
                                              FactorDesign(
                                                DesIdent(
                                                 nula
                                                ) [DesIdent]
                                              ) [FactorDesign]
                                            ) [TermFact]
                                          ) [TermExpr]
                                        ) [DesArr]
                                        AssignementExpr(
                                          TermExpr(
                                            TermFact(
                                              FactorDesign(
                                                DesIdent(
                                                 pet
                                                ) [DesIdent]
                                              ) [FactorDesign]
                                            ) [TermFact]
                                          ) [TermExpr]
                                        ) [AssignementExpr]
                                      ) [DesignStatAssignment]
                                    ) [StatementDes]
                                  ) [StatementList_NoEps]
                                  StatementDes(
                                    DesignStatAssignment(
                                      DesArr(
                                        ArrayName(
                                         niz
                                        ) [ArrayName]
                                        TermExpr(
                                          TermFact(
                                            FactorConst(
                                              ConstNum(
                                               1
                                              ) [ConstNum]
                                            ) [FactorConst]
                                          ) [TermFact]
                                        ) [TermExpr]
                                      ) [DesArr]
                                      AssignementExpr(
                                        TermExpr(
                                          TermFact(
                                            FactorDesign(
                                              DesEnum(
                                               Broj
                                               DESET
                                              ) [DesEnum]
                                            ) [FactorDesign]
                                          ) [TermFact]
                                        ) [TermExpr]
                                      ) [AssignementExpr]
                                    ) [DesignStatAssignment]
                                  ) [StatementDes]
                                ) [StatementList_NoEps]
                                StatementDes(
                                  DesignStatAssignment(
                                    DesIdent(
                                     bodovi
                                    ) [DesIdent]
                                    AssignementExpr(
                                      TermExpr(
                                        TermMulop(
                                          TermFact(
                                            FactorDesign(
                                              DesArr(
                                                ArrayName(
                                                 niz
                                                ) [ArrayName]
                                                TermExpr(
                                                  TermFact(
                                                    FactorConst(
                                                      ConstNum(
                                                       1
                                                      ) [ConstNum]
                                                    ) [FactorConst]
                                                  ) [TermFact]
                                                ) [TermExpr]
                                              ) [DesArr]
                                            ) [FactorDesign]
                                          ) [TermFact]
                                          Mulop_Div(
                                          ) [Mulop_Div]
                                          FactorDesign(
                                            DesArr(
                                              ArrayName(
                                               niz
                                              ) [ArrayName]
                                              TermExpr(
                                                TermFact(
                                                  FactorConst(
                                                    ConstNum(
                                                     0
                                                    ) [ConstNum]
                                                  ) [FactorConst]
                                                ) [TermFact]
                                              ) [TermExpr]
                                            ) [DesArr]
                                          ) [FactorDesign]
                                        ) [TermMulop]
                                      ) [TermExpr]
                                    ) [AssignementExpr]
                                  ) [DesignStatAssignment]
                                ) [StatementDes]
                              ) [StatementList_NoEps]
                              StatPrint(
                                TermExpr(
                                  TermFact(
                                    FactorDesign(
                                      DesIdent(
                                       bodovi
                                      ) [DesIdent]
                                    ) [FactorDesign]
                                  ) [TermFact]
                                ) [TermExpr]
                              ) [StatPrint]
                            ) [StatementList_NoEps]
                            StatPrint(
                              TermExpr(
                                TermFact(
                                  FactorDesign(
                                    DesArr(
                                      ArrayName(
                                       niz
                                      ) [ArrayName]
                                      TermExpr(
                                        TermFact(
                                          FactorDesign(
                                            DesEnum(
                                             Broj
                                             JEDAN
                                            ) [DesEnum]
                                          ) [FactorDesign]
                                        ) [TermFact]
                                      ) [TermExpr]
                                    ) [DesArr]
                                  ) [FactorDesign]
                                ) [TermFact]
                              ) [TermExpr]
                            ) [StatPrint]
                          ) [StatementList_NoEps]
                          StatementDes(
                            DesignStatAssignment(
                              DesIdent(
                               nizch
                              ) [DesIdent]
                              AssignementExpr(
                                TermExpr(
                                  TermFact(
                                    FactorNewArr(
                                      Type(
                                       char
                                      ) [Type]
                                      TermExpr(
                                        TermFact(
                                          FactorConst(
                                            ConstNum(
                                             3
                                            ) [ConstNum]
                                          ) [FactorConst]
                                        ) [TermFact]
                                      ) [TermExpr]
                                    ) [FactorNewArr]
                                  ) [TermFact]
                                ) [TermExpr]
                              ) [AssignementExpr]
                            ) [DesignStatAssignment]
                          ) [StatementDes]
                        ) [StatementList_NoEps]
                        StatementDes(
                          DesignStatAssignment(
                            DesArr(
                              ArrayName(
                               nizch
                              ) [ArrayName]
                              TermExpr(
                                TermFact(
                                  FactorConst(
                                    ConstNum(
                                     0
                                    ) [ConstNum]
                                  ) [FactorConst]
                                ) [TermFact]
                              ) [TermExpr]
                            ) [DesArr]
                            AssignementExpr(
                              TermExpr(
                                TermFact(
                                  FactorConst(
                                    ConstChar(
                                     a
                                    ) [ConstChar]
                                  ) [FactorConst]
                                ) [TermFact]
                              ) [TermExpr]
                            ) [AssignementExpr]
                          ) [DesignStatAssignment]
                        ) [StatementDes]
                      ) [StatementList_NoEps]
                      StatementDes(
                        DesignStatAssignment(
                          DesArr(
                            ArrayName(
                             nizch
                            ) [ArrayName]
                            TermExpr(
                              TermFact(
                                FactorDesign(
                                  DesIdent(
                                   jedan
                                  ) [DesIdent]
                                ) [FactorDesign]
                              ) [TermFact]
                            ) [TermExpr]
                          ) [DesArr]
                          AssignementExpr(
                            TermExpr(
                              TermFact(
                                FactorConst(
                                  ConstChar(
                                   b
                                  ) [ConstChar]
                                ) [FactorConst]
                              ) [TermFact]
                            ) [TermExpr]
                          ) [AssignementExpr]
                        ) [DesignStatAssignment]
                      ) [StatementDes]
                    ) [StatementList_NoEps]
                    StatementDes(
                      DesignStatAssignment(
                        DesArr(
                          ArrayName(
                           nizch
                          ) [ArrayName]
                          AddopExp(
                            TermExpr(
                              TermFact(
                                FactorDesign(
                                  DesIdent(
                                   pet
                                  ) [DesIdent]
                                ) [FactorDesign]
                              ) [TermFact]
                            ) [TermExpr]
                            Addop_Minus(
                            ) [Addop_Minus]
                            TermFact(
                              FactorConst(
                                ConstNum(
                                 3
                                ) [ConstNum]
                              ) [FactorConst]
                            ) [TermFact]
                          ) [AddopExp]
                        ) [DesArr]
                        AssignementExpr(
                          TermExpr(
                            TermFact(
                              FactorConst(
                                ConstChar(
                                 c
                                ) [ConstChar]
                              ) [FactorConst]
                            ) [TermFact]
                          ) [TermExpr]
                        ) [AssignementExpr]
                      ) [DesignStatAssignment]
                    ) [StatementDes]
                  ) [StatementList_NoEps]
                  StatPrint(
                    TermExpr(
                      TermFact(
                        FactorDesign(
                          DesArr(
                            ArrayName(
                             nizch
                            ) [ArrayName]
                            AddopExp(
                              TermExpr(
                                TermFact(
                                  FactorConst(
                                    ConstNum(
                                     2
                                    ) [ConstNum]
                                  ) [FactorConst]
                                ) [TermFact]
                              ) [TermExpr]
                              Addop_Minus(
                              ) [Addop_Minus]
                              TermFact(
                                FactorConst(
                                  ConstNum(
                                   1
                                  ) [ConstNum]
                                ) [FactorConst]
                              ) [TermFact]
                            ) [AddopExp]
                          ) [DesArr]
                        ) [FactorDesign]
                      ) [TermFact]
                    ) [TermExpr]
                  ) [StatPrint]
                ) [StatementList_NoEps]
                StatPrint(
                  TermExpr(
                    TermFact(
                      FactorDesign(
                        DesArr(
                          ArrayName(
                           nizch
                          ) [ArrayName]
                          TermExpr(
                            TermMulop(
                              TermFact(
                                FactorDesign(
                                  DesIdent(
                                   jedan
                                  ) [DesIdent]
                                ) [FactorDesign]
                              ) [TermFact]
                              Mulop_Mul(
                              ) [Mulop_Mul]
                              FactorConst(
                                ConstNum(
                                 2
                                ) [ConstNum]
                              ) [FactorConst]
                            ) [TermMulop]
                          ) [TermExpr]
                        ) [DesArr]
                      ) [FactorDesign]
                    ) [TermFact]
                  ) [TermExpr]
                ) [StatPrint]
              ) [StatementList_NoEps]
              StatementDes(
                DesignStatAssignment(
                  DesIdent(
                   bodovi
                  ) [DesIdent]
                  AssignementExpr(
                    AddopExp(
                      TermExpr(
                        TermFact(
                          FactorDesign(
                            DesIdent(
                             bodovi
                            ) [DesIdent]
                          ) [FactorDesign]
                        ) [TermFact]
                      ) [TermExpr]
                      Addop_Plus(
                      ) [Addop_Plus]
                      TermFact(
                        FactorExpr(
                          AddopExp(
                            AddopExp(
                              TermExpr(
                                TermMulop(
                                  TermFact(
                                    FactorExpr(
                                      AddopExp(
                                        TermExpr(
                                          TermMulop(
                                            TermFact(
                                              FactorDesign(
                                                DesIdent(
                                                 pet
                                                ) [DesIdent]
                                              ) [FactorDesign]
                                            ) [TermFact]
                                            Mulop_Mul(
                                            ) [Mulop_Mul]
                                            FactorDesign(
                                              DesIdent(
                                               jedan
                                              ) [DesIdent]
                                            ) [FactorDesign]
                                          ) [TermMulop]
                                        ) [TermExpr]
                                        Addop_Minus(
                                        ) [Addop_Minus]
                                        TermFact(
                                          FactorConst(
                                            ConstNum(
                                             1
                                            ) [ConstNum]
                                          ) [FactorConst]
                                        ) [TermFact]
                                      ) [AddopExp]
                                    ) [FactorExpr]
                                  ) [TermFact]
                                  Mulop_Mul(
                                  ) [Mulop_Mul]
                                  FactorConst(
                                    ConstNum(
                                     2
                                    ) [ConstNum]
                                  ) [FactorConst]
                                ) [TermMulop]
                              ) [TermExpr]
                              Addop_Minus(
                              ) [Addop_Minus]
                              TermFact(
                                FactorExpr(
                                  AddopExp(
                                    AddopExp(
                                      TermExpr(
                                        TermMulop(
                                          TermFact(
                                            FactorConst(
                                              ConstNum(
                                               3
                                              ) [ConstNum]
                                            ) [FactorConst]
                                          ) [TermFact]
                                          Mulop_Mod(
                                          ) [Mulop_Mod]
                                          FactorConst(
                                            ConstNum(
                                             2
                                            ) [ConstNum]
                                          ) [FactorConst]
                                        ) [TermMulop]
                                      ) [TermExpr]
                                      Addop_Plus(
                                      ) [Addop_Plus]
                                      TermMulop(
                                        TermFact(
                                          FactorConst(
                                            ConstNum(
                                             3
                                            ) [ConstNum]
                                          ) [FactorConst]
                                        ) [TermFact]
                                        Mulop_Mul(
                                        ) [Mulop_Mul]
                                        FactorConst(
                                          ConstNum(
                                           2
                                          ) [ConstNum]
                                        ) [FactorConst]
                                      ) [TermMulop]
                                    ) [AddopExp]
                                    Addop_Minus(
                                    ) [Addop_Minus]
                                    TermFact(
                                      FactorConst(
                                        ConstNum(
                                         3
                                        ) [ConstNum]
                                      ) [FactorConst]
                                    ) [TermFact]
                                  ) [AddopExp]
                                ) [FactorExpr]
                              ) [TermFact]
                            ) [AddopExp]
                            Addop_Minus(
                            ) [Addop_Minus]
                            TermMulop(
                              TermFact(
                                FactorDesign(
                                  DesEnum(
                                   Broj
                                   JEDAN
                                  ) [DesEnum]
                                ) [FactorDesign]
                              ) [TermFact]
                              Mulop_Mul(
                              ) [Mulop_Mul]
                              FactorConst(
                                ConstNum(
                                 0
                                ) [ConstNum]
                              ) [FactorConst]
                            ) [TermMulop]
                          ) [AddopExp]
                        ) [FactorExpr]
                      ) [TermFact]
                    ) [AddopExp]
                  ) [AssignementExpr]
                ) [DesignStatAssignment]
              ) [StatementDes]
            ) [StatementList_NoEps]
            StatPrint(
              TermExpr(
                TermFact(
                  FactorDesign(
                    DesIdent(
                     bodovi
                    ) [DesIdent]
                  ) [FactorDesign]
                ) [TermFact]
              ) [TermExpr]
            ) [StatPrint]
          ) [StatementList_NoEps]
          StatRead(
            DesIdent(
             bodovi
            ) [DesIdent]
          ) [StatRead]
        ) [StatementList_NoEps]
        StatementDes(
          DesignStatAssignment(
            DesIdent(
             bodovi
            ) [DesIdent]
            AssignementExpr(
              AddopExp(
                TermExpr(
                  TermFact(
                    FactorDesign(
                      DesIdent(
                       bodovi
                      ) [DesIdent]
                    ) [FactorDesign]
                  ) [TermFact]
                ) [TermExpr]
                Addop_Plus(
                ) [Addop_Plus]
                TermFact(
                  FactorConst(
                    ConstNum(
                     1
                    ) [ConstNum]
                  ) [FactorConst]
                ) [TermFact]
              ) [AddopExp]
            ) [AssignementExpr]
          ) [DesignStatAssignment]
        ) [StatementDes]
      ) [StatementList_NoEps]
      StatPrint(
        TermExpr(
          TermFact(
            FactorDesign(
              DesIdent(
               bodovi
              ) [DesIdent]
            ) [FactorDesign]
          ) [TermFact]
        ) [TermExpr]
      ) [StatPrint]
    ) [StatementList_NoEps]
  ) [MethodDecl]
) [Program]
INFO  15:55:54,815 - ===============SEMANTICKA OBRADA====================
INFO  15:55:54,827 - Deklarisan novi enum tip Broj na liniji 5
INFO  15:55:54,829 - Deklarisana konstanta Broj.NULA unutar enuma Broj na liniji 5
INFO  15:55:54,829 - Deklarisana konstanta Broj.JEDAN unutar enuma Broj na liniji 5
INFO  15:55:54,829 - Deklarisana konstanta Broj.PET unutar enuma Broj na liniji 5
INFO  15:55:54,829 - Deklarisana konstanta Broj.DESET unutar enuma Broj na liniji 5
INFO  15:55:54,829 - Deklarisana konstanta 'jedan' na liniji 7
INFO  15:55:54,829 - Deklarisana konstanta 'pet' na liniji 8
INFO  15:55:54,829 - Deklarisana promenljiva niza 'niz' tipa 1 na liniji 10
INFO  15:55:54,830 - Deklarisana promenljiva niza 'nizch' tipa 2 na liniji 11
INFO  15:55:54,830 - Obradjuje se funkcija main na liniji 14
INFO  15:55:54,830 - Deklarisana promenljiva 'bodovi' tipa int na liniji 15
INFO  15:55:54,830 - Deklarisana promenljiva 'nula' tipa Broj na liniji 16
INFO  15:55:54,830 - Deklarisana promenljiva 'jedan' tipa Broj na liniji 16
INFO  15:55:54,831 - Izvresna dodela vrednosti na liniji 18
INFO  15:55:54,831 - Izvresna dodela vrednosti na liniji 19
INFO  15:55:54,831 - Izvresna dodela vrednosti na liniji 21
INFO  15:55:54,832 - Inkrementirana vrednost
INFO  15:55:54,832 - Izvresna dodela vrednosti na liniji 23
INFO  15:55:54,832 - Izvresna dodela vrednosti na liniji 24
INFO  15:55:54,832 - Dekrementirana vrednost
INFO  15:55:54,832 - Print funkcija na liniji 26
INFO  15:55:54,832 - Izvresna dodela vrednosti na liniji 29
INFO  15:55:54,832 - Izvresna dodela vrednosti na liniji 30
INFO  15:55:54,832 - Izvresna dodela vrednosti na liniji 31
INFO  15:55:54,832 - Izvresna dodela vrednosti na liniji 32
INFO  15:55:54,832 - Print funkcija na liniji 33
INFO  15:55:54,832 - Print funkcija na liniji 34
INFO  15:55:54,833 - Izvresna dodela vrednosti na liniji 37
INFO  15:55:54,833 - Izvresna dodela vrednosti na liniji 38
INFO  15:55:54,833 - Izvresna dodela vrednosti na liniji 39
INFO  15:55:54,833 - Izvresna dodela vrednosti na liniji 40
INFO  15:55:54,833 - Print funkcija na liniji 41
INFO  15:55:54,834 - Print funkcija na liniji 42
INFO  15:55:54,834 - Izvresna dodela vrednosti na liniji 45
INFO  15:55:54,834 - Print funkcija na liniji 46
INFO  15:55:54,834 - Read funkcija na liniji 49
INFO  15:55:54,835 - Izvresna dodela vrednosti na liniji 50
INFO  15:55:54,835 - Print funkcija na liniji 51
INFO  15:55:54,835 -  Print poziva ima = 7
INFO  15:55:54,835 -  Deklarisanih promenljivih ima = 5
INFO  15:55:54,847 - 
INFO  15:55:54,847 - Parsiranje uspesno zavrseno!
