INFO  10:55:10,018 - Compiling source file: C:\Users\ikadr\Desktop\PP\Projekat\Rad\workspace\MJCompiler\test\program.mj
INFO  10:55:10,084 - #2 program
INFO  10:55:10,084 - #28 test301
INFO  10:55:10,084 - #9 enum
INFO  10:55:10,086 - #28 Broj
INFO  10:55:10,086 - #17 {
INFO  10:55:10,088 - #28 NULA
INFO  10:55:10,088 - #12 ,
INFO  10:55:10,089 - #28 JEDAN
INFO  10:55:10,089 - #12 ,
INFO  10:55:10,089 - #28 PET
INFO  10:55:10,089 - #11 =
INFO  10:55:10,089 - #27 5
INFO  10:55:10,089 - #12 ,
INFO  10:55:10,090 - #28 DESET
INFO  10:55:10,090 - #11 =
INFO  10:55:10,090 - #27 10
INFO  10:55:10,090 - #18 }
INFO  10:55:10,090 - #8 const
INFO  10:55:10,091 - #28 int
INFO  10:55:10,092 - #28 jedan
INFO  10:55:10,093 - #11 =
INFO  10:55:10,102 - #27 1
INFO  10:55:10,103 - #10 ;
INFO  10:55:10,105 - #8 const
INFO  10:55:10,106 - #28 int
INFO  10:55:10,106 - #28 pet
INFO  10:55:10,107 - #11 =
INFO  10:55:10,107 - #27 5
INFO  10:55:10,107 - #10 ;
INFO  10:55:10,107 - #28 int
INFO  10:55:10,107 - #28 niz
INFO  10:55:10,108 - #15 [
INFO  10:55:10,108 - #16 ]
INFO  10:55:10,108 - #10 ;
INFO  10:55:10,108 - #28 char
INFO  10:55:10,110 - #28 nizch
INFO  10:55:10,110 - #15 [
INFO  10:55:10,110 - #16 ]
INFO  10:55:10,110 - #10 ;
INFO  10:55:10,110 - #17 {
INFO  10:55:10,110 - #6 void
INFO  10:55:10,110 - #28 main
INFO  10:55:10,112 - #13 (
INFO  10:55:10,112 - #14 )
INFO  10:55:10,112 - #28 int
INFO  10:55:10,115 - #28 bodovi
INFO  10:55:10,115 - #12 ,
INFO  10:55:10,116 - #28 x
INFO  10:55:10,116 - #10 ;
INFO  10:55:10,116 - #28 Broj
INFO  10:55:10,118 - #28 nula
INFO  10:55:10,118 - #12 ,
INFO  10:55:10,118 - #28 jedan
INFO  10:55:10,118 - #10 ;
INFO  10:55:10,118 - #17 {
INFO  10:55:10,118 - #28 nula
INFO  10:55:10,120 - #11 =
INFO  10:55:10,120 - #28 Broj
INFO  10:55:10,122 - #19 .
INFO  10:55:10,122 - #28 NULA
INFO  10:55:10,122 - #10 ;
INFO  10:55:10,123 - #28 jedan
INFO  10:55:10,123 - #11 =
INFO  10:55:10,124 - #28 Broj
INFO  10:55:10,124 - #19 .
INFO  10:55:10,124 - #28 JEDAN
INFO  10:55:10,124 - #10 ;
INFO  10:55:10,124 - #28 x
INFO  10:55:10,130 - #11 =
INFO  10:55:10,131 - #22 -
INFO  10:55:10,131 - #27 5
INFO  10:55:10,132 - #10 ;
INFO  10:55:10,132 - #28 bodovi
INFO  10:55:10,132 - #11 =
INFO  10:55:10,132 - #27 0
INFO  10:55:10,132 - #10 ;
INFO  10:55:10,132 - #28 bodovi
INFO  10:55:10,132 - #20 ++
INFO  10:55:10,132 - #10 ;
INFO  10:55:10,132 - #28 bodovi
INFO  10:55:10,133 - #11 =
INFO  10:55:10,133 - #28 bodovi
INFO  10:55:10,133 - #23 +
INFO  10:55:10,133 - #28 jedan
INFO  10:55:10,135 - #10 ;
INFO  10:55:10,136 - #28 bodovi
INFO  10:55:10,136 - #11 =
INFO  10:55:10,136 - #28 bodovi
INFO  10:55:10,136 - #24 *
INFO  10:55:10,136 - #28 pet
INFO  10:55:10,138 - #10 ;
INFO  10:55:10,138 - #28 bodovi
INFO  10:55:10,138 - #21 --
INFO  10:55:10,138 - #10 ;
INFO  10:55:10,138 - #4 print
INFO  10:55:10,139 - #13 (
INFO  10:55:10,139 - #28 bodovi
INFO  10:55:10,139 - #14 )
INFO  10:55:10,139 - #10 ;
INFO  10:55:10,139 - #28 niz
INFO  10:55:10,139 - #11 =
INFO  10:55:10,139 - #5 new
INFO  10:55:10,140 - #28 int
INFO  10:55:10,140 - #15 [
INFO  10:55:10,140 - #27 2
INFO  10:55:10,140 - #16 ]
INFO  10:55:10,140 - #10 ;
INFO  10:55:10,140 - #28 niz
INFO  10:55:10,140 - #15 [
INFO  10:55:10,142 - #28 nula
INFO  10:55:10,142 - #16 ]
INFO  10:55:10,142 - #11 =
INFO  10:55:10,142 - #28 pet
INFO  10:55:10,143 - #10 ;
INFO  10:55:10,143 - #28 niz
INFO  10:55:10,143 - #15 [
INFO  10:55:10,143 - #27 1
INFO  10:55:10,143 - #16 ]
INFO  10:55:10,143 - #11 =
INFO  10:55:10,143 - #28 Broj
INFO  10:55:10,143 - #19 .
INFO  10:55:10,143 - #28 DESET
INFO  10:55:10,143 - #10 ;
INFO  10:55:10,144 - #28 bodovi
INFO  10:55:10,144 - #11 =
INFO  10:55:10,144 - #28 niz
INFO  10:55:10,144 - #15 [
INFO  10:55:10,144 - #27 1
INFO  10:55:10,144 - #16 ]
INFO  10:55:10,144 - #25 /
INFO  10:55:10,144 - #28 niz
INFO  10:55:10,146 - #15 [
INFO  10:55:10,146 - #27 0
INFO  10:55:10,146 - #16 ]
INFO  10:55:10,146 - #10 ;
INFO  10:55:10,146 - #4 print
INFO  10:55:10,146 - #13 (
INFO  10:55:10,146 - #28 bodovi
INFO  10:55:10,146 - #14 )
INFO  10:55:10,146 - #10 ;
INFO  10:55:10,146 - #4 print
INFO  10:55:10,146 - #13 (
INFO  10:55:10,147 - #28 niz
INFO  10:55:10,147 - #15 [
INFO  10:55:10,147 - #28 Broj
INFO  10:55:10,147 - #19 .
INFO  10:55:10,147 - #28 JEDAN
INFO  10:55:10,147 - #16 ]
INFO  10:55:10,147 - #14 )
INFO  10:55:10,147 - #10 ;
INFO  10:55:10,147 - #28 nizch
INFO  10:55:10,147 - #11 =
INFO  10:55:10,147 - #5 new
INFO  10:55:10,147 - #28 char
INFO  10:55:10,148 - #15 [
INFO  10:55:10,148 - #27 3
INFO  10:55:10,148 - #16 ]
INFO  10:55:10,148 - #10 ;
INFO  10:55:10,148 - #28 nizch
INFO  10:55:10,148 - #15 [
INFO  10:55:10,148 - #27 0
INFO  10:55:10,148 - #16 ]
INFO  10:55:10,148 - #11 =
INFO  10:55:10,148 - #29 a
INFO  10:55:10,148 - #10 ;
INFO  10:55:10,148 - #28 nizch
INFO  10:55:10,148 - #15 [
INFO  10:55:10,149 - #28 jedan
INFO  10:55:10,149 - #16 ]
INFO  10:55:10,149 - #11 =
INFO  10:55:10,149 - #29 b
INFO  10:55:10,149 - #10 ;
INFO  10:55:10,149 - #28 nizch
INFO  10:55:10,149 - #15 [
INFO  10:55:10,149 - #28 pet
INFO  10:55:10,149 - #22 -
INFO  10:55:10,150 - #27 3
INFO  10:55:10,151 - #16 ]
INFO  10:55:10,151 - #11 =
INFO  10:55:10,151 - #29 c
INFO  10:55:10,151 - #10 ;
INFO  10:55:10,151 - #4 print
INFO  10:55:10,151 - #13 (
INFO  10:55:10,151 - #28 nizch
INFO  10:55:10,151 - #15 [
INFO  10:55:10,151 - #27 2
INFO  10:55:10,151 - #22 -
INFO  10:55:10,151 - #27 1
INFO  10:55:10,151 - #16 ]
INFO  10:55:10,151 - #14 )
INFO  10:55:10,151 - #10 ;
INFO  10:55:10,152 - #4 print
INFO  10:55:10,152 - #13 (
INFO  10:55:10,152 - #28 nizch
INFO  10:55:10,152 - #15 [
INFO  10:55:10,152 - #28 jedan
INFO  10:55:10,152 - #24 *
INFO  10:55:10,152 - #27 2
INFO  10:55:10,152 - #16 ]
INFO  10:55:10,152 - #14 )
INFO  10:55:10,152 - #10 ;
INFO  10:55:10,153 - #28 bodovi
INFO  10:55:10,153 - #11 =
INFO  10:55:10,153 - #28 bodovi
INFO  10:55:10,153 - #23 +
INFO  10:55:10,153 - #13 (
INFO  10:55:10,153 - #13 (
INFO  10:55:10,153 - #28 pet
INFO  10:55:10,153 - #24 *
INFO  10:55:10,153 - #28 jedan
INFO  10:55:10,153 - #22 -
INFO  10:55:10,153 - #27 1
INFO  10:55:10,153 - #14 )
INFO  10:55:10,154 - #24 *
INFO  10:55:10,154 - #27 2
INFO  10:55:10,154 - #22 -
INFO  10:55:10,154 - #13 (
INFO  10:55:10,154 - #27 3
INFO  10:55:10,154 - #26 %
INFO  10:55:10,154 - #27 2
INFO  10:55:10,155 - #23 +
INFO  10:55:10,155 - #27 3
INFO  10:55:10,155 - #24 *
INFO  10:55:10,156 - #27 2
INFO  10:55:10,156 - #22 -
INFO  10:55:10,156 - #27 3
INFO  10:55:10,156 - #14 )
INFO  10:55:10,156 - #22 -
INFO  10:55:10,156 - #28 Broj
INFO  10:55:10,156 - #19 .
INFO  10:55:10,156 - #28 JEDAN
INFO  10:55:10,156 - #24 *
INFO  10:55:10,156 - #27 0
INFO  10:55:10,156 - #14 )
INFO  10:55:10,156 - #10 ;
INFO  10:55:10,156 - #4 print
INFO  10:55:10,156 - #13 (
INFO  10:55:10,156 - #28 bodovi
INFO  10:55:10,156 - #14 )
INFO  10:55:10,156 - #10 ;
INFO  10:55:10,156 - #3 read
INFO  10:55:10,156 - #13 (
INFO  10:55:10,156 - #28 bodovi
INFO  10:55:10,156 - #14 )
INFO  10:55:10,156 - #10 ;
INFO  10:55:10,156 - #28 bodovi
INFO  10:55:10,157 - #11 =
INFO  10:55:10,157 - #28 bodovi
INFO  10:55:10,157 - #23 +
INFO  10:55:10,157 - #27 1
INFO  10:55:10,157 - #10 ;
INFO  10:55:10,157 - #4 print
INFO  10:55:10,157 - #13 (
INFO  10:55:10,157 - #28 bodovi
INFO  10:55:10,158 - #14 )
INFO  10:55:10,158 - #10 ;
INFO  10:55:10,159 - #18 }
INFO  10:55:10,159 - #18 }
INFO  10:55:10,180 - Program(
  ProgName(
   test301
  ) [ProgName]
  GlobalDeclListL(
    GlobalDeclListL(
      GlobalDeclListL(
        GlobalDeclListL(
          GlobalDeclListL(
            GlobalDeclListEps(
            ) [GlobalDeclListEps]
            GlobalDeclEnum(
              EnumDecl(
                EnumName(
                 Broj
                ) [EnumName]
                EnumDeclListL(
                  EnumDeclListL(
                    EnumDeclListL(
                      EnumDeclItem(
                        EnumDeclDefNoVal(
                         NULA
                        ) [EnumDeclDefNoVal]
                      ) [EnumDeclItem]
                      EnumDeclDefNoVal(
                       JEDAN
                      ) [EnumDeclDefNoVal]
                    ) [EnumDeclListL]
                    EnumDeclDefVal(
                     PET
                     5
                    ) [EnumDeclDefVal]
                  ) [EnumDeclListL]
                  EnumDeclDefVal(
                   DESET
                   10
                  ) [EnumDeclDefVal]
                ) [EnumDeclListL]
              ) [EnumDecl]
            ) [GlobalDeclEnum]
          ) [GlobalDeclListL]
          GlobalDeclConst(
            ConstDecl(
              Type(
               int
              ) [Type]
              ConstDeclItem(
                ConstDef(
                 jedan
                  ConstNum(
                   1
                  ) [ConstNum]
                ) [ConstDef]
              ) [ConstDeclItem]
            ) [ConstDecl]
          ) [GlobalDeclConst]
        ) [GlobalDeclListL]
        GlobalDeclConst(
          ConstDecl(
            Type(
             int
            ) [Type]
            ConstDeclItem(
              ConstDef(
               pet
                ConstNum(
                 5
                ) [ConstNum]
              ) [ConstDef]
            ) [ConstDeclItem]
          ) [ConstDecl]
        ) [GlobalDeclConst]
      ) [GlobalDeclListL]
      GlobalDeclVar(
        GlobalVarDecl(
          Type(
           int
          ) [Type]
          GlobalVarDeclItem(
            GlobalVarDeclDefOk(
              VarDeclDefineArray(
               niz
              ) [VarDeclDefineArray]
            ) [GlobalVarDeclDefOk]
          ) [GlobalVarDeclItem]
        ) [GlobalVarDecl]
      ) [GlobalDeclVar]
    ) [GlobalDeclListL]
    GlobalDeclVar(
      GlobalVarDecl(
        Type(
         char
        ) [Type]
        GlobalVarDeclItem(
          GlobalVarDeclDefOk(
            VarDeclDefineArray(
             nizch
            ) [VarDeclDefineArray]
          ) [GlobalVarDeclDefOk]
        ) [GlobalVarDeclItem]
      ) [GlobalVarDecl]
    ) [GlobalDeclVar]
  ) [GlobalDeclListL]
  MethodDecl(
    MethodSignature(
      VoidableType(
      ) [VoidableType]
     main
    ) [MethodSignature]
    VarMethodDeclList_NoEps(
      VarMethodDeclList_NoEps(
        VarMethodDeclList_Eps(
        ) [VarMethodDeclList_Eps]
        VarDecl(
          Type(
           int
          ) [Type]
          VarDeclListL(
            VarDeclItem(
              VarDeclDefineSingle(
               bodovi
              ) [VarDeclDefineSingle]
            ) [VarDeclItem]
            VarDeclDefineSingle(
             x
            ) [VarDeclDefineSingle]
          ) [VarDeclListL]
        ) [VarDecl]
      ) [VarMethodDeclList_NoEps]
      VarDecl(
        Type(
         Broj
        ) [Type]
        VarDeclListL(
          VarDeclItem(
            VarDeclDefineSingle(
             nula
            ) [VarDeclDefineSingle]
          ) [VarDeclItem]
          VarDeclDefineSingle(
           jedan
          ) [VarDeclDefineSingle]
        ) [VarDeclListL]
      ) [VarDecl]
    ) [VarMethodDeclList_NoEps]
    StatementList_NoEps(
      StatementList_NoEps(
        StatementList_NoEps(
          StatementList_NoEps(
            StatementList_NoEps(
              StatementList_NoEps(
                StatementList_NoEps(
                  StatementList_NoEps(
                    StatementList_NoEps(
                      StatementList_NoEps(
                        StatementList_NoEps(
                          StatementList_NoEps(
                            StatementList_NoEps(
                              StatementList_NoEps(
                                StatementList_NoEps(
                                  StatementList_NoEps(
                                    StatementList_NoEps(
                                      StatementList_NoEps(
                                        StatementList_NoEps(
                                          StatementList_NoEps(
                                            StatementList_NoEps(
                                              StatementList_NoEps(
                                                StatementList_NoEps(
                                                  StatementList_NoEps(
                                                    StatementList_NoEps(
                                                      StatementList_NoEps(
                                                        StatementList_Eps(
                                                        ) [StatementList_Eps]
                                                        StatementDes(
                                                          DesignStatAssignment(
                                                            DesIdent(
                                                             nula
                                                            ) [DesIdent]
                                                            AssignementExpr(
                                                              TermExpr(
                                                                MinusNo(
                                                                ) [MinusNo]
                                                                TermFact(
                                                                  FactorDesign(
                                                                    DesEnum(
                                                                     Broj
                                                                     NULA
                                                                    ) [DesEnum]
                                                                  ) [FactorDesign]
                                                                ) [TermFact]
                                                              ) [TermExpr]
                                                            ) [AssignementExpr]
                                                          ) [DesignStatAssignment]
                                                        ) [StatementDes]
                                                      ) [StatementList_NoEps]
                                                      StatementDes(
                                                        DesignStatAssignment(
                                                          DesIdent(
                                                           jedan
                                                          ) [DesIdent]
                                                          AssignementExpr(
                                                            TermExpr(
                                                              MinusNo(
                                                              ) [MinusNo]
                                                              TermFact(
                                                                FactorDesign(
                                                                  DesEnum(
                                                                   Broj
                                                                   JEDAN
                                                                  ) [DesEnum]
                                                                ) [FactorDesign]
                                                              ) [TermFact]
                                                            ) [TermExpr]
                                                          ) [AssignementExpr]
                                                        ) [DesignStatAssignment]
                                                      ) [StatementDes]
                                                    ) [StatementList_NoEps]
                                                    StatementDes(
                                                      DesignStatAssignment(
                                                        DesIdent(
                                                         x
                                                        ) [DesIdent]
                                                        AssignementExpr(
                                                          TermExpr(
                                                            MinusYes(
                                                            ) [MinusYes]
                                                            TermFact(
                                                              FactorConst(
                                                                ConstNum(
                                                                 5
                                                                ) [ConstNum]
                                                              ) [FactorConst]
                                                            ) [TermFact]
                                                          ) [TermExpr]
                                                        ) [AssignementExpr]
                                                      ) [DesignStatAssignment]
                                                    ) [StatementDes]
                                                  ) [StatementList_NoEps]
                                                  StatementDes(
                                                    DesignStatAssignment(
                                                      DesIdent(
                                                       bodovi
                                                      ) [DesIdent]
                                                      AssignementExpr(
                                                        TermExpr(
                                                          MinusNo(
                                                          ) [MinusNo]
                                                          TermFact(
                                                            FactorConst(
                                                              ConstNum(
                                                               0
                                                              ) [ConstNum]
                                                            ) [FactorConst]
                                                          ) [TermFact]
                                                        ) [TermExpr]
                                                      ) [AssignementExpr]
                                                    ) [DesignStatAssignment]
                                                  ) [StatementDes]
                                                ) [StatementList_NoEps]
                                                StatementDes(
                                                  DesignStatInc(
                                                    DesIdent(
                                                     bodovi
                                                    ) [DesIdent]
                                                  ) [DesignStatInc]
                                                ) [StatementDes]
                                              ) [StatementList_NoEps]
                                              StatementDes(
                                                DesignStatAssignment(
                                                  DesIdent(
                                                   bodovi
                                                  ) [DesIdent]
                                                  AssignementExpr(
                                                    AddopExp(
                                                      TermExpr(
                                                        MinusNo(
                                                        ) [MinusNo]
                                                        TermFact(
                                                          FactorDesign(
                                                            DesIdent(
                                                             bodovi
                                                            ) [DesIdent]
                                                          ) [FactorDesign]
                                                        ) [TermFact]
                                                      ) [TermExpr]
                                                      Addop_Plus(
                                                      ) [Addop_Plus]
                                                      TermFact(
                                                        FactorDesign(
                                                          DesIdent(
                                                           jedan
                                                          ) [DesIdent]
                                                        ) [FactorDesign]
                                                      ) [TermFact]
                                                    ) [AddopExp]
                                                  ) [AssignementExpr]
                                                ) [DesignStatAssignment]
                                              ) [StatementDes]
                                            ) [StatementList_NoEps]
                                            StatementDes(
                                              DesignStatAssignment(
                                                DesIdent(
                                                 bodovi
                                                ) [DesIdent]
                                                AssignementExpr(
                                                  TermExpr(
                                                    MinusNo(
                                                    ) [MinusNo]
                                                    TermMulop(
                                                      TermFact(
                                                        FactorDesign(
                                                          DesIdent(
                                                           bodovi
                                                          ) [DesIdent]
                                                        ) [FactorDesign]
                                                      ) [TermFact]
                                                      Mulop_Mul(
                                                      ) [Mulop_Mul]
                                                      FactorDesign(
                                                        DesIdent(
                                                         pet
                                                        ) [DesIdent]
                                                      ) [FactorDesign]
                                                    ) [TermMulop]
                                                  ) [TermExpr]
                                                ) [AssignementExpr]
                                              ) [DesignStatAssignment]
                                            ) [StatementDes]
                                          ) [StatementList_NoEps]
                                          StatementDes(
                                            DesignStatDec(
                                              DesIdent(
                                               bodovi
                                              ) [DesIdent]
                                            ) [DesignStatDec]
                                          ) [StatementDes]
                                        ) [StatementList_NoEps]
                                        StatPrint(
                                          TermExpr(
                                            MinusNo(
                                            ) [MinusNo]
                                            TermFact(
                                              FactorDesign(
                                                DesIdent(
                                                 bodovi
                                                ) [DesIdent]
                                              ) [FactorDesign]
                                            ) [TermFact]
                                          ) [TermExpr]
                                        ) [StatPrint]
                                      ) [StatementList_NoEps]
                                      StatementDes(
                                        DesignStatAssignment(
                                          DesIdent(
                                           niz
                                          ) [DesIdent]
                                          AssignementExpr(
                                            TermExpr(
                                              MinusNo(
                                              ) [MinusNo]
                                              TermFact(
                                                FactorNewArr(
                                                  Type(
                                                   int
                                                  ) [Type]
                                                  TermExpr(
                                                    MinusNo(
                                                    ) [MinusNo]
                                                    TermFact(
                                                      FactorConst(
                                                        ConstNum(
                                                         2
                                                        ) [ConstNum]
                                                      ) [FactorConst]
                                                    ) [TermFact]
                                                  ) [TermExpr]
                                                ) [FactorNewArr]
                                              ) [TermFact]
                                            ) [TermExpr]
                                          ) [AssignementExpr]
                                        ) [DesignStatAssignment]
                                      ) [StatementDes]
                                    ) [StatementList_NoEps]
                                    StatementDes(
                                      DesignStatAssignment(
                                        DesArr(
                                          ArrayName(
                                           niz
                                          ) [ArrayName]
                                          TermExpr(
                                            MinusNo(
                                            ) [MinusNo]
                                            TermFact(
                                              FactorDesign(
                                                DesIdent(
                                                 nula
                                                ) [DesIdent]
                                              ) [FactorDesign]
                                            ) [TermFact]
                                          ) [TermExpr]
                                        ) [DesArr]
                                        AssignementExpr(
                                          TermExpr(
                                            MinusNo(
                                            ) [MinusNo]
                                            TermFact(
                                              FactorDesign(
                                                DesIdent(
                                                 pet
                                                ) [DesIdent]
                                              ) [FactorDesign]
                                            ) [TermFact]
                                          ) [TermExpr]
                                        ) [AssignementExpr]
                                      ) [DesignStatAssignment]
                                    ) [StatementDes]
                                  ) [StatementList_NoEps]
                                  StatementDes(
                                    DesignStatAssignment(
                                      DesArr(
                                        ArrayName(
                                         niz
                                        ) [ArrayName]
                                        TermExpr(
                                          MinusNo(
                                          ) [MinusNo]
                                          TermFact(
                                            FactorConst(
                                              ConstNum(
                                               1
                                              ) [ConstNum]
                                            ) [FactorConst]
                                          ) [TermFact]
                                        ) [TermExpr]
                                      ) [DesArr]
                                      AssignementExpr(
                                        TermExpr(
                                          MinusNo(
                                          ) [MinusNo]
                                          TermFact(
                                            FactorDesign(
                                              DesEnum(
                                               Broj
                                               DESET
                                              ) [DesEnum]
                                            ) [FactorDesign]
                                          ) [TermFact]
                                        ) [TermExpr]
                                      ) [AssignementExpr]
                                    ) [DesignStatAssignment]
                                  ) [StatementDes]
                                ) [StatementList_NoEps]
                                StatementDes(
                                  DesignStatAssignment(
                                    DesIdent(
                                     bodovi
                                    ) [DesIdent]
                                    AssignementExpr(
                                      TermExpr(
                                        MinusNo(
                                        ) [MinusNo]
                                        TermMulop(
                                          TermFact(
                                            FactorDesign(
                                              DesArr(
                                                ArrayName(
                                                 niz
                                                ) [ArrayName]
                                                TermExpr(
                                                  MinusNo(
                                                  ) [MinusNo]
                                                  TermFact(
                                                    FactorConst(
                                                      ConstNum(
                                                       1
                                                      ) [ConstNum]
                                                    ) [FactorConst]
                                                  ) [TermFact]
                                                ) [TermExpr]
                                              ) [DesArr]
                                            ) [FactorDesign]
                                          ) [TermFact]
                                          Mulop_Div(
                                          ) [Mulop_Div]
                                          FactorDesign(
                                            DesArr(
                                              ArrayName(
                                               niz
                                              ) [ArrayName]
                                              TermExpr(
                                                MinusNo(
                                                ) [MinusNo]
                                                TermFact(
                                                  FactorConst(
                                                    ConstNum(
                                                     0
                                                    ) [ConstNum]
                                                  ) [FactorConst]
                                                ) [TermFact]
                                              ) [TermExpr]
                                            ) [DesArr]
                                          ) [FactorDesign]
                                        ) [TermMulop]
                                      ) [TermExpr]
                                    ) [AssignementExpr]
                                  ) [DesignStatAssignment]
                                ) [StatementDes]
                              ) [StatementList_NoEps]
                              StatPrint(
                                TermExpr(
                                  MinusNo(
                                  ) [MinusNo]
                                  TermFact(
                                    FactorDesign(
                                      DesIdent(
                                       bodovi
                                      ) [DesIdent]
                                    ) [FactorDesign]
                                  ) [TermFact]
                                ) [TermExpr]
                              ) [StatPrint]
                            ) [StatementList_NoEps]
                            StatPrint(
                              TermExpr(
                                MinusNo(
                                ) [MinusNo]
                                TermFact(
                                  FactorDesign(
                                    DesArr(
                                      ArrayName(
                                       niz
                                      ) [ArrayName]
                                      TermExpr(
                                        MinusNo(
                                        ) [MinusNo]
                                        TermFact(
                                          FactorDesign(
                                            DesEnum(
                                             Broj
                                             JEDAN
                                            ) [DesEnum]
                                          ) [FactorDesign]
                                        ) [TermFact]
                                      ) [TermExpr]
                                    ) [DesArr]
                                  ) [FactorDesign]
                                ) [TermFact]
                              ) [TermExpr]
                            ) [StatPrint]
                          ) [StatementList_NoEps]
                          StatementDes(
                            DesignStatAssignment(
                              DesIdent(
                               nizch
                              ) [DesIdent]
                              AssignementExpr(
                                TermExpr(
                                  MinusNo(
                                  ) [MinusNo]
                                  TermFact(
                                    FactorNewArr(
                                      Type(
                                       char
                                      ) [Type]
                                      TermExpr(
                                        MinusNo(
                                        ) [MinusNo]
                                        TermFact(
                                          FactorConst(
                                            ConstNum(
                                             3
                                            ) [ConstNum]
                                          ) [FactorConst]
                                        ) [TermFact]
                                      ) [TermExpr]
                                    ) [FactorNewArr]
                                  ) [TermFact]
                                ) [TermExpr]
                              ) [AssignementExpr]
                            ) [DesignStatAssignment]
                          ) [StatementDes]
                        ) [StatementList_NoEps]
                        StatementDes(
                          DesignStatAssignment(
                            DesArr(
                              ArrayName(
                               nizch
                              ) [ArrayName]
                              TermExpr(
                                MinusNo(
                                ) [MinusNo]
                                TermFact(
                                  FactorConst(
                                    ConstNum(
                                     0
                                    ) [ConstNum]
                                  ) [FactorConst]
                                ) [TermFact]
                              ) [TermExpr]
                            ) [DesArr]
                            AssignementExpr(
                              TermExpr(
                                MinusNo(
                                ) [MinusNo]
                                TermFact(
                                  FactorConst(
                                    ConstChar(
                                     a
                                    ) [ConstChar]
                                  ) [FactorConst]
                                ) [TermFact]
                              ) [TermExpr]
                            ) [AssignementExpr]
                          ) [DesignStatAssignment]
                        ) [StatementDes]
                      ) [StatementList_NoEps]
                      StatementDes(
                        DesignStatAssignment(
                          DesArr(
                            ArrayName(
                             nizch
                            ) [ArrayName]
                            TermExpr(
                              MinusNo(
                              ) [MinusNo]
                              TermFact(
                                FactorDesign(
                                  DesIdent(
                                   jedan
                                  ) [DesIdent]
                                ) [FactorDesign]
                              ) [TermFact]
                            ) [TermExpr]
                          ) [DesArr]
                          AssignementExpr(
                            TermExpr(
                              MinusNo(
                              ) [MinusNo]
                              TermFact(
                                FactorConst(
                                  ConstChar(
                                   b
                                  ) [ConstChar]
                                ) [FactorConst]
                              ) [TermFact]
                            ) [TermExpr]
                          ) [AssignementExpr]
                        ) [DesignStatAssignment]
                      ) [StatementDes]
                    ) [StatementList_NoEps]
                    StatementDes(
                      DesignStatAssignment(
                        DesArr(
                          ArrayName(
                           nizch
                          ) [ArrayName]
                          AddopExp(
                            TermExpr(
                              MinusNo(
                              ) [MinusNo]
                              TermFact(
                                FactorDesign(
                                  DesIdent(
                                   pet
                                  ) [DesIdent]
                                ) [FactorDesign]
                              ) [TermFact]
                            ) [TermExpr]
                            Addop_Minus(
                            ) [Addop_Minus]
                            TermFact(
                              FactorConst(
                                ConstNum(
                                 3
                                ) [ConstNum]
                              ) [FactorConst]
                            ) [TermFact]
                          ) [AddopExp]
                        ) [DesArr]
                        AssignementExpr(
                          TermExpr(
                            MinusNo(
                            ) [MinusNo]
                            TermFact(
                              FactorConst(
                                ConstChar(
                                 c
                                ) [ConstChar]
                              ) [FactorConst]
                            ) [TermFact]
                          ) [TermExpr]
                        ) [AssignementExpr]
                      ) [DesignStatAssignment]
                    ) [StatementDes]
                  ) [StatementList_NoEps]
                  StatPrint(
                    TermExpr(
                      MinusNo(
                      ) [MinusNo]
                      TermFact(
                        FactorDesign(
                          DesArr(
                            ArrayName(
                             nizch
                            ) [ArrayName]
                            AddopExp(
                              TermExpr(
                                MinusNo(
                                ) [MinusNo]
                                TermFact(
                                  FactorConst(
                                    ConstNum(
                                     2
                                    ) [ConstNum]
                                  ) [FactorConst]
                                ) [TermFact]
                              ) [TermExpr]
                              Addop_Minus(
                              ) [Addop_Minus]
                              TermFact(
                                FactorConst(
                                  ConstNum(
                                   1
                                  ) [ConstNum]
                                ) [FactorConst]
                              ) [TermFact]
                            ) [AddopExp]
                          ) [DesArr]
                        ) [FactorDesign]
                      ) [TermFact]
                    ) [TermExpr]
                  ) [StatPrint]
                ) [StatementList_NoEps]
                StatPrint(
                  TermExpr(
                    MinusNo(
                    ) [MinusNo]
                    TermFact(
                      FactorDesign(
                        DesArr(
                          ArrayName(
                           nizch
                          ) [ArrayName]
                          TermExpr(
                            MinusNo(
                            ) [MinusNo]
                            TermMulop(
                              TermFact(
                                FactorDesign(
                                  DesIdent(
                                   jedan
                                  ) [DesIdent]
                                ) [FactorDesign]
                              ) [TermFact]
                              Mulop_Mul(
                              ) [Mulop_Mul]
                              FactorConst(
                                ConstNum(
                                 2
                                ) [ConstNum]
                              ) [FactorConst]
                            ) [TermMulop]
                          ) [TermExpr]
                        ) [DesArr]
                      ) [FactorDesign]
                    ) [TermFact]
                  ) [TermExpr]
                ) [StatPrint]
              ) [StatementList_NoEps]
              StatementDes(
                DesignStatAssignment(
                  DesIdent(
                   bodovi
                  ) [DesIdent]
                  AssignementExpr(
                    AddopExp(
                      TermExpr(
                        MinusNo(
                        ) [MinusNo]
                        TermFact(
                          FactorDesign(
                            DesIdent(
                             bodovi
                            ) [DesIdent]
                          ) [FactorDesign]
                        ) [TermFact]
                      ) [TermExpr]
                      Addop_Plus(
                      ) [Addop_Plus]
                      TermFact(
                        FactorExpr(
                          AddopExp(
                            AddopExp(
                              TermExpr(
                                MinusNo(
                                ) [MinusNo]
                                TermMulop(
                                  TermFact(
                                    FactorExpr(
                                      AddopExp(
                                        TermExpr(
                                          MinusNo(
                                          ) [MinusNo]
                                          TermMulop(
                                            TermFact(
                                              FactorDesign(
                                                DesIdent(
                                                 pet
                                                ) [DesIdent]
                                              ) [FactorDesign]
                                            ) [TermFact]
                                            Mulop_Mul(
                                            ) [Mulop_Mul]
                                            FactorDesign(
                                              DesIdent(
                                               jedan
                                              ) [DesIdent]
                                            ) [FactorDesign]
                                          ) [TermMulop]
                                        ) [TermExpr]
                                        Addop_Minus(
                                        ) [Addop_Minus]
                                        TermFact(
                                          FactorConst(
                                            ConstNum(
                                             1
                                            ) [ConstNum]
                                          ) [FactorConst]
                                        ) [TermFact]
                                      ) [AddopExp]
                                    ) [FactorExpr]
                                  ) [TermFact]
                                  Mulop_Mul(
                                  ) [Mulop_Mul]
                                  FactorConst(
                                    ConstNum(
                                     2
                                    ) [ConstNum]
                                  ) [FactorConst]
                                ) [TermMulop]
                              ) [TermExpr]
                              Addop_Minus(
                              ) [Addop_Minus]
                              TermFact(
                                FactorExpr(
                                  AddopExp(
                                    AddopExp(
                                      TermExpr(
                                        MinusNo(
                                        ) [MinusNo]
                                        TermMulop(
                                          TermFact(
                                            FactorConst(
                                              ConstNum(
                                               3
                                              ) [ConstNum]
                                            ) [FactorConst]
                                          ) [TermFact]
                                          Mulop_Mod(
                                          ) [Mulop_Mod]
                                          FactorConst(
                                            ConstNum(
                                             2
                                            ) [ConstNum]
                                          ) [FactorConst]
                                        ) [TermMulop]
                                      ) [TermExpr]
                                      Addop_Plus(
                                      ) [Addop_Plus]
                                      TermMulop(
                                        TermFact(
                                          FactorConst(
                                            ConstNum(
                                             3
                                            ) [ConstNum]
                                          ) [FactorConst]
                                        ) [TermFact]
                                        Mulop_Mul(
                                        ) [Mulop_Mul]
                                        FactorConst(
                                          ConstNum(
                                           2
                                          ) [ConstNum]
                                        ) [FactorConst]
                                      ) [TermMulop]
                                    ) [AddopExp]
                                    Addop_Minus(
                                    ) [Addop_Minus]
                                    TermFact(
                                      FactorConst(
                                        ConstNum(
                                         3
                                        ) [ConstNum]
                                      ) [FactorConst]
                                    ) [TermFact]
                                  ) [AddopExp]
                                ) [FactorExpr]
                              ) [TermFact]
                            ) [AddopExp]
                            Addop_Minus(
                            ) [Addop_Minus]
                            TermMulop(
                              TermFact(
                                FactorDesign(
                                  DesEnum(
                                   Broj
                                   JEDAN
                                  ) [DesEnum]
                                ) [FactorDesign]
                              ) [TermFact]
                              Mulop_Mul(
                              ) [Mulop_Mul]
                              FactorConst(
                                ConstNum(
                                 0
                                ) [ConstNum]
                              ) [FactorConst]
                            ) [TermMulop]
                          ) [AddopExp]
                        ) [FactorExpr]
                      ) [TermFact]
                    ) [AddopExp]
                  ) [AssignementExpr]
                ) [DesignStatAssignment]
              ) [StatementDes]
            ) [StatementList_NoEps]
            StatPrint(
              TermExpr(
                MinusNo(
                ) [MinusNo]
                TermFact(
                  FactorDesign(
                    DesIdent(
                     bodovi
                    ) [DesIdent]
                  ) [FactorDesign]
                ) [TermFact]
              ) [TermExpr]
            ) [StatPrint]
          ) [StatementList_NoEps]
          StatRead(
            DesIdent(
             bodovi
            ) [DesIdent]
          ) [StatRead]
        ) [StatementList_NoEps]
        StatementDes(
          DesignStatAssignment(
            DesIdent(
             bodovi
            ) [DesIdent]
            AssignementExpr(
              AddopExp(
                TermExpr(
                  MinusNo(
                  ) [MinusNo]
                  TermFact(
                    FactorDesign(
                      DesIdent(
                       bodovi
                      ) [DesIdent]
                    ) [FactorDesign]
                  ) [TermFact]
                ) [TermExpr]
                Addop_Plus(
                ) [Addop_Plus]
                TermFact(
                  FactorConst(
                    ConstNum(
                     1
                    ) [ConstNum]
                  ) [FactorConst]
                ) [TermFact]
              ) [AddopExp]
            ) [AssignementExpr]
          ) [DesignStatAssignment]
        ) [StatementDes]
      ) [StatementList_NoEps]
      StatPrint(
        TermExpr(
          MinusNo(
          ) [MinusNo]
          TermFact(
            FactorDesign(
              DesIdent(
               bodovi
              ) [DesIdent]
            ) [FactorDesign]
          ) [TermFact]
        ) [TermExpr]
      ) [StatPrint]
    ) [StatementList_NoEps]
  ) [MethodDecl]
) [Program]
INFO  10:55:10,183 - ===================================
INFO  10:55:10,188 - Deklarisan novi enum tip Broj na liniji 5
INFO  10:55:10,188 - Deklarisana konstanta Broj.NULA unutar enuma Broj na liniji 5
INFO  10:55:10,188 - Deklarisana konstanta Broj.JEDAN unutar enuma Broj na liniji 5
INFO  10:55:10,188 - Deklarisana konstanta Broj.PET unutar enuma Broj na liniji 5
INFO  10:55:10,188 - Deklarisana konstanta Broj.DESET unutar enuma Broj na liniji 5
INFO  10:55:10,188 - Deklarisana konstanta 'jedan' na liniji 7
INFO  10:55:10,188 - Deklarisana konstanta 'pet' na liniji 8
INFO  10:55:10,189 - Deklarisana promenljiva niza niz tipa 1 na liniji 10
INFO  10:55:10,189 - Deklarisana promenljiva niza nizch tipa 2 na liniji 11
INFO  10:55:10,189 - Obradjuje se funkcija main na liniji 14
INFO  10:55:10,189 - Deklarisana promenljiva bodovi tipa 1 na liniji 15
INFO  10:55:10,189 - Deklarisana promenljiva x tipa 1 na liniji 15
INFO  10:55:10,189 - Deklarisana promenljiva nula tipa 6 na liniji 16
INFO  10:55:10,189 - Deklarisana promenljiva jedan tipa 6 na liniji 16
INFO  10:55:10,190 - Dodeljenja vrednost: 1 je design,1 je assign
INFO  10:55:10,190 - Dodeljenja vrednost: 1 je design,1 je assign
INFO  10:55:10,190 - Inkrementirana vrednost
INFO  10:55:10,190 - Dodeljenja vrednost: 1 je design,1 je assign
INFO  10:55:10,190 - Dodeljenja vrednost: 1 je design,1 je assign
INFO  10:55:10,190 - Dekrementirana vrednost
INFO  10:55:10,190 - Print funkcija na liniji 7
ERROR 10:55:10,190 - Greska: negira se clan koji nije int na liniji 6
INFO  10:55:10,191 - Dodeljenja vrednost: 1 je design,1 je assign
INFO  10:55:10,191 - Print funkcija na liniji 7
INFO  10:55:10,191 - Print funkcija na liniji 7
ERROR 10:55:10,191 - Greska: negira se clan koji nije int na liniji 8
ERROR 10:55:10,191 - Greska: negira se clan koji nije int na liniji 11
ERROR 10:55:10,191 - Greska: negira se clan koji nije int na liniji 15
ERROR 10:55:10,191 - Greska: negira se clan koji nije int na liniji 17
ERROR 10:55:10,191 - Greska: negira se clan koji nije int na liniji 7
INFO  10:55:10,191 - Print funkcija na liniji 7
ERROR 10:55:10,191 - Greska: negira se clan koji nije int na liniji 7
INFO  10:55:10,191 - Print funkcija na liniji 7
INFO  10:55:10,191 - Dodeljenja vrednost: 1 je design,1 je assign
INFO  10:55:10,192 - Print funkcija na liniji 7
INFO  10:55:10,192 - Read funkcija na liniji 49
INFO  10:55:10,192 - Dodeljenja vrednost: 1 je design,1 je assign
INFO  10:55:10,192 - Print funkcija na liniji 7
INFO  10:55:10,192 -  Print count calls = 7
INFO  10:55:10,192 -  Deklarisanih promenljivih ima = 6
ERROR 10:55:10,193 - Parsiranje NIJE uspesno zavrseno!
