INFO  17:29:43,104 - Compiling source file: C:\Users\ikadr\Desktop\PP\Projekat\Rad\workspace\MJCompiler\test\program.mj
INFO  17:29:43,168 - #2 program
INFO  17:29:43,168 - #28 test301
INFO  17:29:43,168 - #17 {
INFO  17:29:43,172 - #6 void
INFO  17:29:43,172 - #28 main
INFO  17:29:43,174 - #13 (
INFO  17:29:43,174 - #14 )
INFO  17:29:43,174 - #28 int
INFO  17:29:43,176 - #28 x
INFO  17:29:43,177 - #12 ,
INFO  17:29:43,177 - #28 y
INFO  17:29:43,177 - #12 ,
INFO  17:29:43,177 - #28 z
INFO  17:29:43,178 - #10 ;
INFO  17:29:43,178 - #17 {
INFO  17:29:43,179 - #28 x
INFO  17:29:43,180 - #11 =
INFO  17:29:43,180 - #27 10
INFO  17:29:43,180 - #10 ;
INFO  17:29:43,181 - #4 print
INFO  17:29:43,181 - #13 (
INFO  17:29:43,182 - #28 x
INFO  17:29:43,182 - #14 )
INFO  17:29:43,182 - #10 ;
INFO  17:29:43,182 - #18 }
INFO  17:29:43,183 - #18 }
INFO  17:29:43,197 - Program(
  ProgName(
   test301
  ) [ProgName]
  GlobalDeclListEps(
  ) [GlobalDeclListEps]
  MethodDecl(
    MethodSignature(
      VoidableType(
      ) [VoidableType]
     main
    ) [MethodSignature]
    VarMethodDeclList_NoEps(
      VarMethodDeclList_Eps(
      ) [VarMethodDeclList_Eps]
      VarDecl(
        Type(
         int
        ) [Type]
        VarDeclListL(
          VarDeclListL(
            VarDeclItem(
              VarDeclDefineSingle(
               x
              ) [VarDeclDefineSingle]
            ) [VarDeclItem]
            VarDeclDefineSingle(
             y
            ) [VarDeclDefineSingle]
          ) [VarDeclListL]
          VarDeclDefineSingle(
           z
          ) [VarDeclDefineSingle]
        ) [VarDeclListL]
      ) [VarDecl]
    ) [VarMethodDeclList_NoEps]
    StatementList_NoEps(
      StatementList_NoEps(
        StatementList_Eps(
        ) [StatementList_Eps]
        StatementDes(
          DesignStatAssignment(
            DesIdent(
             x
            ) [DesIdent]
            AssignementExpr(
              TermExpr(
                TermFact(
                  FactorConst(
                    ConstNum(
                     10
                    ) [ConstNum]
                  ) [FactorConst]
                ) [TermFact]
              ) [TermExpr]
            ) [AssignementExpr]
          ) [DesignStatAssignment]
        ) [StatementDes]
      ) [StatementList_NoEps]
      StatPrint(
        TermExpr(
          TermFact(
            FactorDesign(
              DesIdent(
               x
              ) [DesIdent]
            ) [FactorDesign]
          ) [TermFact]
        ) [TermExpr]
      ) [StatPrint]
    ) [StatementList_NoEps]
  ) [MethodDecl]
) [Program]
INFO  17:29:43,198 - ===================================
INFO  17:29:43,201 - Obradjuje se funkcija main na liniji 8
INFO  17:29:43,201 - Deklarisana promenljiva x tipa 1 na liniji 9
INFO  17:29:43,201 - Deklarisana promenljiva y tipa 1 na liniji 9
INFO  17:29:43,201 - Deklarisana promenljiva z tipa 1 na liniji 9
INFO  17:29:43,202 - Dodeljenja vrednost: 1 je design,1 je assign
INFO  17:29:43,202 -  Print count calls = 1
INFO  17:29:43,202 -  Deklarisanih promenljivih ima = 3
INFO  17:29:43,212 - GENERATOR:design nakon store AssignementExpr(
  TermExpr(
    TermFact(
      FactorConst(
        ConstNum(
         10
        ) [ConstNum]
      ) [FactorConst]
    ) [TermFact]
  ) [TermExpr]
) [AssignementExpr]
INFO  17:29:43,212 - Parsiranje uspesno zavrseno!
