INFO  16:33:20,547 - Compiling source file: C:\Users\ikadr\Desktop\PP\Projekat\Rad\workspace\MJCompiler\test\program.mj
INFO  16:33:20,548 - ===============SINTAKSNA OBRADA====================
INFO  16:33:20,615 - #2 program
INFO  16:33:20,615 - #28 test301
INFO  16:33:20,615 - #17 {
INFO  16:33:20,617 - #6 void
INFO  16:33:20,617 - #28 main
INFO  16:33:20,619 - #13 (
INFO  16:33:20,619 - #14 )
INFO  16:33:20,619 - #28 int
INFO  16:33:20,621 - #28 niz
INFO  16:33:20,622 - #15 [
INFO  16:33:20,622 - #16 ]
INFO  16:33:20,622 - #10 ;
INFO  16:33:20,623 - #17 {
INFO  16:33:20,624 - #28 niz
INFO  16:33:20,625 - #11 =
INFO  16:33:20,625 - #5 new
INFO  16:33:20,625 - #28 int
INFO  16:33:20,625 - #15 [
INFO  16:33:20,625 - #27 2
INFO  16:33:20,626 - #16 ]
INFO  16:33:20,626 - #10 ;
INFO  16:33:20,627 - #28 niz
INFO  16:33:20,627 - #15 [
INFO  16:33:20,628 - #27 1
INFO  16:33:20,629 - #16 ]
INFO  16:33:20,629 - #11 =
INFO  16:33:20,629 - #27 1
INFO  16:33:20,629 - #10 ;
INFO  16:33:20,629 - #18 }
INFO  16:33:20,629 - #18 }
INFO  16:33:20,642 - Program(
  ProgName(
   test301
  ) [ProgName]
  GlobalDeclListEps(
  ) [GlobalDeclListEps]
  MethodDecl(
    MethodSignature(
      VoidableType(
      ) [VoidableType]
     main
    ) [MethodSignature]
    VarMethodDeclList_NoEps(
      VarMethodDeclList_Eps(
      ) [VarMethodDeclList_Eps]
      VarDecl(
        Type(
         int
        ) [Type]
        VarDeclItem(
          VarDeclDefineArray(
           niz
          ) [VarDeclDefineArray]
        ) [VarDeclItem]
      ) [VarDecl]
    ) [VarMethodDeclList_NoEps]
    StatementList_NoEps(
      StatementList_NoEps(
        StatementList_Eps(
        ) [StatementList_Eps]
        StatementDes(
          DesignStatAssignment(
            DesIdent(
             niz
            ) [DesIdent]
            AssignementExpr(
              TermExpr(
                TermFact(
                  FactorNewArr(
                    Type(
                     int
                    ) [Type]
                    TermExpr(
                      TermFact(
                        FactorConst(
                          ConstNum(
                           2
                          ) [ConstNum]
                        ) [FactorConst]
                      ) [TermFact]
                    ) [TermExpr]
                  ) [FactorNewArr]
                ) [TermFact]
              ) [TermExpr]
            ) [AssignementExpr]
          ) [DesignStatAssignment]
        ) [StatementDes]
      ) [StatementList_NoEps]
      StatementDes(
        DesignStatAssignment(
          DesArr(
            ArrayName(
             niz
            ) [ArrayName]
            TermExpr(
              TermFact(
                FactorConst(
                  ConstNum(
                   1
                  ) [ConstNum]
                ) [FactorConst]
              ) [TermFact]
            ) [TermExpr]
          ) [DesArr]
          AssignementExpr(
            TermExpr(
              TermFact(
                FactorConst(
                  ConstNum(
                   1
                  ) [ConstNum]
                ) [FactorConst]
              ) [TermFact]
            ) [TermExpr]
          ) [AssignementExpr]
        ) [DesignStatAssignment]
      ) [StatementDes]
    ) [StatementList_NoEps]
  ) [MethodDecl]
) [Program]
INFO  16:33:20,643 - ===============SEMANTICKA OBRADA====================
INFO  16:33:20,647 - Obradjuje se funkcija main na liniji 8
INFO  16:33:20,647 - Deklarisana promenljiva niza 'niz' tipa 1 na liniji 9
INFO  16:33:20,648 - Izvresna dodela vrednosti na liniji 15
INFO  16:33:20,648 - Izvresna dodela vrednosti na liniji 16
INFO  16:33:20,648 -  Print poziva ima = 0
INFO  16:33:20,648 -  Deklarisanih promenljivih ima = 0
INFO  16:33:20,660 - 
INFO  16:33:20,660 - Parsiranje uspesno zavrseno!
