INFO  12:29:18,216 - Compiling source file: C:\Users\ikadr\Desktop\PP\Projekat\Rad\workspace\MJCompiler\test\program.mj
INFO  12:29:18,217 - ===============SINTAKSNA OBRADA====================
INFO  12:29:18,285 - #2 program
INFO  12:29:18,285 - #29 test301
INFO  12:29:18,286 - #9 enum
INFO  12:29:18,287 - #29 Broj
INFO  12:29:18,288 - #17 {
INFO  12:29:18,288 - #29 NULA
INFO  12:29:18,289 - #12 ,
INFO  12:29:18,289 - #29 JEDAN
INFO  12:29:18,289 - #12 ,
INFO  12:29:18,289 - #29 PET
INFO  12:29:18,289 - #11 =
INFO  12:29:18,289 - #28 5
INFO  12:29:18,289 - #12 ,
INFO  12:29:18,290 - #29 DESET
INFO  12:29:18,290 - #11 =
INFO  12:29:18,290 - #28 10
INFO  12:29:18,290 - #18 }
INFO  12:29:18,290 - #8 const
INFO  12:29:18,292 - #29 int
INFO  12:29:18,292 - #29 jedan
INFO  12:29:18,293 - #11 =
INFO  12:29:18,293 - #28 1
INFO  12:29:18,293 - #10 ;
INFO  12:29:18,295 - #8 const
INFO  12:29:18,296 - #29 int
INFO  12:29:18,296 - #29 pet
INFO  12:29:18,296 - #11 =
INFO  12:29:18,296 - #28 5
INFO  12:29:18,296 - #10 ;
INFO  12:29:18,297 - #29 int
INFO  12:29:18,297 - #29 niz
INFO  12:29:18,297 - #15 [
INFO  12:29:18,297 - #16 ]
INFO  12:29:18,297 - #10 ;
INFO  12:29:18,297 - #29 char
INFO  12:29:18,298 - #29 nizch
INFO  12:29:18,298 - #15 [
INFO  12:29:18,298 - #16 ]
INFO  12:29:18,299 - #10 ;
INFO  12:29:18,299 - #17 {
INFO  12:29:18,299 - #6 void
INFO  12:29:18,299 - #29 main
INFO  12:29:18,300 - #13 (
INFO  12:29:18,300 - #14 )
INFO  12:29:18,300 - #29 int
INFO  12:29:18,302 - #29 bodovi
INFO  12:29:18,302 - #10 ;
INFO  12:29:18,302 - #29 Broj
INFO  12:29:18,303 - #29 nula
INFO  12:29:18,303 - #12 ,
INFO  12:29:18,303 - #29 jedan
INFO  12:29:18,303 - #10 ;
INFO  12:29:18,304 - #17 {
INFO  12:29:18,304 - #29 nula
INFO  12:29:18,305 - #11 =
INFO  12:29:18,305 - #29 Broj
INFO  12:29:18,305 - #19 .
INFO  12:29:18,305 - #29 NULA
INFO  12:29:18,306 - #10 ;
INFO  12:29:18,306 - #29 jedan
INFO  12:29:18,306 - #11 =
INFO  12:29:18,307 - #29 Broj
INFO  12:29:18,307 - #19 .
INFO  12:29:18,307 - #29 JEDAN
INFO  12:29:18,307 - #10 ;
INFO  12:29:18,307 - #29 bodovi
INFO  12:29:18,307 - #11 =
INFO  12:29:18,307 - #28 0
INFO  12:29:18,308 - #10 ;
INFO  12:29:18,308 - #29 bodovi
INFO  12:29:18,308 - #20 ++
INFO  12:29:18,308 - #10 ;
INFO  12:29:18,308 - #29 bodovi
INFO  12:29:18,308 - #11 =
INFO  12:29:18,308 - #29 bodovi
INFO  12:29:18,309 - #23 +
INFO  12:29:18,309 - #29 pet
INFO  12:29:18,312 - #27 @
INFO  12:29:18,312 - #29 jedan
INFO  12:29:18,314 - #22 -
INFO  12:29:18,314 - #28 1
INFO  12:29:18,316 - #24 *
INFO  12:29:18,316 - #28 2
INFO  12:29:18,317 - #22 -
INFO  12:29:18,317 - #28 3
INFO  12:29:18,317 - #26 %
INFO  12:29:18,317 - #28 2
INFO  12:29:18,319 - #23 +
INFO  12:29:18,319 - #28 3
INFO  12:29:18,319 - #24 *
INFO  12:29:18,319 - #28 2
INFO  12:29:18,319 - #22 -
INFO  12:29:18,320 - #28 3
INFO  12:29:18,320 - #22 -
INFO  12:29:18,320 - #29 Broj
INFO  12:29:18,320 - #19 .
INFO  12:29:18,320 - #29 JEDAN
INFO  12:29:18,320 - #24 *
INFO  12:29:18,320 - #28 0
INFO  12:29:18,320 - #10 ;
INFO  12:29:18,321 - #4 print
INFO  12:29:18,321 - #13 (
INFO  12:29:18,321 - #29 bodovi
INFO  12:29:18,321 - #14 )
INFO  12:29:18,321 - #10 ;
INFO  12:29:18,321 - #18 }
INFO  12:29:18,322 - #18 }
INFO  12:29:18,336 - Program(
  ProgName(
   test301
  ) [ProgName]
  GlobalDeclListL(
    GlobalDeclListL(
      GlobalDeclListL(
        GlobalDeclListL(
          GlobalDeclListL(
            GlobalDeclListEps(
            ) [GlobalDeclListEps]
            GlobalDeclEnum(
              EnumDecl(
                EnumName(
                 Broj
                ) [EnumName]
                EnumDeclListL(
                  EnumDeclListL(
                    EnumDeclListL(
                      EnumDeclItem(
                        EnumDeclDefNoVal(
                         NULA
                        ) [EnumDeclDefNoVal]
                      ) [EnumDeclItem]
                      EnumDeclDefNoVal(
                       JEDAN
                      ) [EnumDeclDefNoVal]
                    ) [EnumDeclListL]
                    EnumDeclDefVal(
                     PET
                     5
                    ) [EnumDeclDefVal]
                  ) [EnumDeclListL]
                  EnumDeclDefVal(
                   DESET
                   10
                  ) [EnumDeclDefVal]
                ) [EnumDeclListL]
              ) [EnumDecl]
            ) [GlobalDeclEnum]
          ) [GlobalDeclListL]
          GlobalDeclConst(
            ConstDecl(
              Type(
               int
              ) [Type]
              ConstDeclItem(
                ConstDef(
                 jedan
                  ConstNum(
                   1
                  ) [ConstNum]
                ) [ConstDef]
              ) [ConstDeclItem]
            ) [ConstDecl]
          ) [GlobalDeclConst]
        ) [GlobalDeclListL]
        GlobalDeclConst(
          ConstDecl(
            Type(
             int
            ) [Type]
            ConstDeclItem(
              ConstDef(
               pet
                ConstNum(
                 5
                ) [ConstNum]
              ) [ConstDef]
            ) [ConstDeclItem]
          ) [ConstDecl]
        ) [GlobalDeclConst]
      ) [GlobalDeclListL]
      GlobalDeclVar(
        GlobalVarDecl(
          Type(
           int
          ) [Type]
          GlobalVarDeclItem(
            GlobalVarDeclDefOk(
              VarDeclDefineArray(
               niz
              ) [VarDeclDefineArray]
            ) [GlobalVarDeclDefOk]
          ) [GlobalVarDeclItem]
        ) [GlobalVarDecl]
      ) [GlobalDeclVar]
    ) [GlobalDeclListL]
    GlobalDeclVar(
      GlobalVarDecl(
        Type(
         char
        ) [Type]
        GlobalVarDeclItem(
          GlobalVarDeclDefOk(
            VarDeclDefineArray(
             nizch
            ) [VarDeclDefineArray]
          ) [GlobalVarDeclDefOk]
        ) [GlobalVarDeclItem]
      ) [GlobalVarDecl]
    ) [GlobalDeclVar]
  ) [GlobalDeclListL]
  MethodDecl(
    MethodSignature(
      VoidableType(
      ) [VoidableType]
     main
    ) [MethodSignature]
    VarMethodDeclList_NoEps(
      VarMethodDeclList_NoEps(
        VarMethodDeclList_Eps(
        ) [VarMethodDeclList_Eps]
        VarDecl(
          Type(
           int
          ) [Type]
          VarDeclItem(
            VarDeclDefineSingle(
             bodovi
            ) [VarDeclDefineSingle]
          ) [VarDeclItem]
        ) [VarDecl]
      ) [VarMethodDeclList_NoEps]
      VarDecl(
        Type(
         Broj
        ) [Type]
        VarDeclListL(
          VarDeclItem(
            VarDeclDefineSingle(
             nula
            ) [VarDeclDefineSingle]
          ) [VarDeclItem]
          VarDeclDefineSingle(
           jedan
          ) [VarDeclDefineSingle]
        ) [VarDeclListL]
      ) [VarDecl]
    ) [VarMethodDeclList_NoEps]
    StatementList_NoEps(
      StatementList_NoEps(
        StatementList_NoEps(
          StatementList_NoEps(
            StatementList_NoEps(
              StatementList_NoEps(
                StatementList_Eps(
                ) [StatementList_Eps]
                StatementDes(
                  DesignStatAssignment(
                    DesIdent(
                     nula
                    ) [DesIdent]
                    AssignementExpr(
                      TermExpr(
                        TermFact(
                          FactorDesign(
                            DesEnum(
                             Broj
                             NULA
                            ) [DesEnum]
                          ) [FactorDesign]
                        ) [TermFact]
                      ) [TermExpr]
                    ) [AssignementExpr]
                  ) [DesignStatAssignment]
                ) [StatementDes]
              ) [StatementList_NoEps]
              StatementDes(
                DesignStatAssignment(
                  DesIdent(
                   jedan
                  ) [DesIdent]
                  AssignementExpr(
                    TermExpr(
                      TermFact(
                        FactorDesign(
                          DesEnum(
                           Broj
                           JEDAN
                          ) [DesEnum]
                        ) [FactorDesign]
                      ) [TermFact]
                    ) [TermExpr]
                  ) [AssignementExpr]
                ) [DesignStatAssignment]
              ) [StatementDes]
            ) [StatementList_NoEps]
            StatementDes(
              DesignStatAssignment(
                DesIdent(
                 bodovi
                ) [DesIdent]
                AssignementExpr(
                  TermExpr(
                    TermFact(
                      FactorConst(
                        ConstNum(
                         0
                        ) [ConstNum]
                      ) [FactorConst]
                    ) [TermFact]
                  ) [TermExpr]
                ) [AssignementExpr]
              ) [DesignStatAssignment]
            ) [StatementDes]
          ) [StatementList_NoEps]
          StatementDes(
            DesignStatInc(
              DesIdent(
               bodovi
              ) [DesIdent]
            ) [DesignStatInc]
          ) [StatementDes]
        ) [StatementList_NoEps]
        StatementDes(
          DesignStatAssignment(
            DesIdent(
             bodovi
            ) [DesIdent]
            AssignementExpr(
              AddopExp(
                AddopExp(
                  AddopExp(
                    AddopExp(
                      AddopExp(
                        AddopExp(
                          TermExpr(
                            TermFact(
                              FactorDesign(
                                DesIdent(
                                 bodovi
                                ) [DesIdent]
                              ) [FactorDesign]
                            ) [TermFact]
                          ) [TermExpr]
                          Addop_Plus(
                          ) [Addop_Plus]
                          TermMulop(
                            TermFact(
                              FactorDesign(
                                DesIdent(
                                 pet
                                ) [DesIdent]
                              ) [FactorDesign]
                            ) [TermFact]
                            Mulop_Et(
                            ) [Mulop_Et]
                            FactorDesign(
                              DesIdent(
                               jedan
                              ) [DesIdent]
                            ) [FactorDesign]
                          ) [TermMulop]
                        ) [AddopExp]
                        Addop_Minus(
                        ) [Addop_Minus]
                        TermMulop(
                          TermFact(
                            FactorConst(
                              ConstNum(
                               1
                              ) [ConstNum]
                            ) [FactorConst]
                          ) [TermFact]
                          Mulop_Mul(
                          ) [Mulop_Mul]
                          FactorConst(
                            ConstNum(
                             2
                            ) [ConstNum]
                          ) [FactorConst]
                        ) [TermMulop]
                      ) [AddopExp]
                      Addop_Minus(
                      ) [Addop_Minus]
                      TermMulop(
                        TermFact(
                          FactorConst(
                            ConstNum(
                             3
                            ) [ConstNum]
                          ) [FactorConst]
                        ) [TermFact]
                        Mulop_Mod(
                        ) [Mulop_Mod]
                        FactorConst(
                          ConstNum(
                           2
                          ) [ConstNum]
                        ) [FactorConst]
                      ) [TermMulop]
                    ) [AddopExp]
                    Addop_Plus(
                    ) [Addop_Plus]
                    TermMulop(
                      TermFact(
                        FactorConst(
                          ConstNum(
                           3
                          ) [ConstNum]
                        ) [FactorConst]
                      ) [TermFact]
                      Mulop_Mul(
                      ) [Mulop_Mul]
                      FactorConst(
                        ConstNum(
                         2
                        ) [ConstNum]
                      ) [FactorConst]
                    ) [TermMulop]
                  ) [AddopExp]
                  Addop_Minus(
                  ) [Addop_Minus]
                  TermFact(
                    FactorConst(
                      ConstNum(
                       3
                      ) [ConstNum]
                    ) [FactorConst]
                  ) [TermFact]
                ) [AddopExp]
                Addop_Minus(
                ) [Addop_Minus]
                TermMulop(
                  TermFact(
                    FactorDesign(
                      DesEnum(
                       Broj
                       JEDAN
                      ) [DesEnum]
                    ) [FactorDesign]
                  ) [TermFact]
                  Mulop_Mul(
                  ) [Mulop_Mul]
                  FactorConst(
                    ConstNum(
                     0
                    ) [ConstNum]
                  ) [FactorConst]
                ) [TermMulop]
              ) [AddopExp]
            ) [AssignementExpr]
          ) [DesignStatAssignment]
        ) [StatementDes]
      ) [StatementList_NoEps]
      StatPrint(
        TermExpr(
          TermFact(
            FactorDesign(
              DesIdent(
               bodovi
              ) [DesIdent]
            ) [FactorDesign]
          ) [TermFact]
        ) [TermExpr]
      ) [StatPrint]
    ) [StatementList_NoEps]
  ) [MethodDecl]
) [Program]
INFO  12:29:18,337 - ===============SEMANTICKA OBRADA====================
INFO  12:29:18,341 - Deklarisan novi enum tip Broj na liniji 5
INFO  12:29:18,341 - Deklarisana konstanta Broj.NULA unutar enuma Broj na liniji 5
INFO  12:29:18,341 - Deklarisana konstanta Broj.JEDAN unutar enuma Broj na liniji 5
INFO  12:29:18,341 - Deklarisana konstanta Broj.PET unutar enuma Broj na liniji 5
INFO  12:29:18,341 - Deklarisana konstanta Broj.DESET unutar enuma Broj na liniji 5
INFO  12:29:18,342 - Deklarisana konstanta 'jedan' na liniji 7
INFO  12:29:18,342 - Deklarisana konstanta 'pet' na liniji 8
INFO  12:29:18,342 - Deklarisana promenljiva niza 'niz' tipa 1 na liniji 10
INFO  12:29:18,342 - Deklarisana promenljiva niza 'nizch' tipa 2 na liniji 11
INFO  12:29:18,342 - Obradjuje se funkcija main na liniji 14
INFO  12:29:18,342 - Deklarisana promenljiva 'bodovi' tipa int na liniji 15
INFO  12:29:18,342 - Deklarisana promenljiva 'nula' tipa Broj na liniji 16
INFO  12:29:18,343 - Deklarisana promenljiva 'jedan' tipa Broj na liniji 16
INFO  12:29:18,343 - Izvresna dodela vrednosti
INFO  12:29:18,343 - Inkrementirana vrednost
INFO  12:29:18,344 - Izvresna dodela vrednosti
INFO  12:29:18,344 - Print funkcija na liniji 27
INFO  12:29:18,344 -  Print count calls = 1
INFO  12:29:18,344 -  Deklarisanih promenljivih ima = 5
INFO  12:29:18,354 - 
INFO  12:29:18,354 - Parsiranje uspesno zavrseno!
