INFO  18:34:22,925 - Compiling source file: C:\Users\ikadr\Desktop\PP\Projekat\Rad\workspace\MJCompiler\test\program.mj
INFO  18:34:22,987 - #2 program
INFO  18:34:22,987 - #28 test301
INFO  18:34:22,987 - #17 {
INFO  18:34:22,987 - #6 void
INFO  18:34:22,987 - #28 main
INFO  18:34:22,987 - #13 (
INFO  18:34:22,987 - #14 )
INFO  18:34:22,987 - #17 {
INFO  18:34:22,987 - #4 print
INFO  18:34:22,987 - #13 (
INFO  18:34:22,987 - #14 )
ERROR 18:34:22,987 - 
Sintaksna greska na liniji 11
ERROR 18:34:22,987 - Fatalna greska, parsiranje se ne moze nastaviti na liniji 11
