INFO  20:55:39,731 - Compiling source file: C:\Users\ikadr\Desktop\PP\Projekat\Rad\workspace\MJCompiler\test\program.mj
INFO  20:55:39,872 - #2 program
INFO  20:55:39,872 - #28 test301
INFO  20:55:39,872 - #17 {
INFO  20:55:39,882 - #6 void
INFO  20:55:39,882 - #28 main
INFO  20:55:39,882 - #13 (
INFO  20:55:39,882 - #14 )
INFO  20:55:39,882 - #17 {
INFO  20:55:39,892 - #4 print
INFO  20:55:39,892 - #13 (
INFO  20:55:39,892 - #27 1
INFO  20:55:39,892 - #14 )
INFO  20:55:39,900 - #10 ;
INFO  20:55:39,900 - #18 }
INFO  20:55:39,902 - #18 }
INFO  20:55:39,942 - Program(
  ProgName(
   test301
  ) [ProgName]
  GlobalDeclListEps(
  ) [GlobalDeclListEps]
  MethodDecl(
    MethodSignature(
      VoidableType(
      ) [VoidableType]
     main
    ) [MethodSignature]
    VarMethodDeclList_Eps(
    ) [VarMethodDeclList_Eps]
    StatementList_NoEps(
      StatementList_Eps(
      ) [StatementList_Eps]
      StatPrint(
        TermExpr(
          TermFact(
            FactorConst(
              ConstNum(
               1
              ) [ConstNum]
            ) [FactorConst]
          ) [TermFact]
        ) [TermExpr]
      ) [StatPrint]
    ) [StatementList_NoEps]
  ) [MethodDecl]
) [Program]
INFO  20:55:39,952 - ===================================
INFO  20:55:39,963 - Obradjuje se funkcija main na liniji 8
INFO  20:55:39,963 -  Print count calls = 1
INFO  20:55:39,963 -  Deklarisanih promenljivih ima = 0
INFO  20:55:39,983 - Parsiranje uspesno zavrseno!
