INFO  20:13:42,505 - Compiling source file: C:\Users\ikadr\Desktop\PP\Projekat\Rad\workspace\MJCompiler\test\program.mj
INFO  20:13:42,567 - #2 program
INFO  20:13:42,567 - #28 test301
INFO  20:13:42,567 - #9 enum
INFO  20:13:42,567 - #28 Broj
INFO  20:13:42,567 - #17 {
INFO  20:13:42,567 - #28 NULA
INFO  20:13:42,567 - #12 ,
INFO  20:13:42,567 - #28 JEDAN
INFO  20:13:42,567 - #12 ,
INFO  20:13:42,567 - #28 PET
INFO  20:13:42,567 - #11 =
INFO  20:13:42,567 - #27 5
INFO  20:13:42,567 - #12 ,
INFO  20:13:42,567 - #28 DESET
INFO  20:13:42,567 - #11 =
INFO  20:13:42,567 - #27 10
INFO  20:13:42,567 - #18 }
INFO  20:13:42,567 - #8 const
INFO  20:13:42,567 - #28 int
INFO  20:13:42,567 - #28 jedan
INFO  20:13:42,583 - #11 =
INFO  20:13:42,583 - #27 1
INFO  20:13:42,583 - #10 ;
INFO  20:13:42,583 - #8 const
INFO  20:13:42,583 - #28 int
INFO  20:13:42,583 - #28 pet
INFO  20:13:42,583 - #11 =
INFO  20:13:42,583 - #27 5
INFO  20:13:42,583 - #10 ;
INFO  20:13:42,583 - #28 int
INFO  20:13:42,583 - #28 niz
INFO  20:13:42,583 - #15 [
INFO  20:13:42,583 - #16 ]
INFO  20:13:42,583 - #10 ;
INFO  20:13:42,583 - #28 char
INFO  20:13:42,583 - #28 nizch
INFO  20:13:42,583 - #15 [
INFO  20:13:42,583 - #16 ]
INFO  20:13:42,583 - #10 ;
INFO  20:13:42,583 - #17 {
INFO  20:13:42,583 - #6 void
INFO  20:13:42,583 - #28 main
INFO  20:13:42,583 - #13 (
INFO  20:13:42,583 - #14 )
INFO  20:13:42,583 - #28 int
INFO  20:13:42,583 - #28 bodovi
INFO  20:13:42,583 - #10 ;
INFO  20:13:42,583 - #28 Broj
INFO  20:13:42,583 - #28 nula
INFO  20:13:42,583 - #12 ,
INFO  20:13:42,583 - #28 jedan
INFO  20:13:42,583 - #10 ;
INFO  20:13:42,583 - #17 {
INFO  20:13:42,583 - #28 nula
INFO  20:13:42,583 - #11 =
INFO  20:13:42,583 - #28 Broj
INFO  20:13:42,583 - #19 .
INFO  20:13:42,583 - #28 NULA
INFO  20:13:42,583 - #10 ;
INFO  20:13:42,583 - #28 jedan
INFO  20:13:42,598 - #11 =
INFO  20:13:42,598 - #28 Broj
INFO  20:13:42,598 - #19 .
INFO  20:13:42,598 - #28 JEDAN
INFO  20:13:42,598 - #10 ;
INFO  20:13:42,598 - #28 bodovi
INFO  20:13:42,598 - #11 =
INFO  20:13:42,598 - #27 0
INFO  20:13:42,598 - #10 ;
INFO  20:13:42,598 - #28 bodovi
ERROR 20:13:42,598 - 
Sintaksna greska na liniji 22
INFO  20:13:42,598 - #20 ++
INFO  20:13:42,598 - #10 ;
INFO  20:13:42,598 - #18 }
INFO  20:13:42,598 - #18 }
INFO  20:13:42,598 - Oporavak od greske u konstrukciji iskaza dodele na liniji 1
INFO  20:13:42,614 - Program(
  ProgName(
   test301
  ) [ProgName]
  GlobalDeclListL(
    GlobalDeclListL(
      GlobalDeclListL(
        GlobalDeclListL(
          GlobalDeclListL(
            GlobalDeclListEps(
            ) [GlobalDeclListEps]
            GlobalDeclEnum(
              EnumDecl(
               Broj
                EnumDeclListL(
                  EnumDeclListL(
                    EnumDeclListL(
                      EnumDeclItem(
                        EnumDeclDefNoVal(
                         NULA
                        ) [EnumDeclDefNoVal]
                      ) [EnumDeclItem]
                      EnumDeclDefNoVal(
                       JEDAN
                      ) [EnumDeclDefNoVal]
                    ) [EnumDeclListL]
                    EnumDeclDefVal(
                     PET
                     5
                    ) [EnumDeclDefVal]
                  ) [EnumDeclListL]
                  EnumDeclDefVal(
                   DESET
                   10
                  ) [EnumDeclDefVal]
                ) [EnumDeclListL]
              ) [EnumDecl]
            ) [GlobalDeclEnum]
          ) [GlobalDeclListL]
          GlobalDeclConst(
            ConstDeclSingle(
              Type(
               int
              ) [Type]
             jedan
              ConstNum(
               1
              ) [ConstNum]
            ) [ConstDeclSingle]
          ) [GlobalDeclConst]
        ) [GlobalDeclListL]
        GlobalDeclConst(
          ConstDeclSingle(
            Type(
             int
            ) [Type]
           pet
            ConstNum(
             5
            ) [ConstNum]
          ) [ConstDeclSingle]
        ) [GlobalDeclConst]
      ) [GlobalDeclListL]
      GlobalDeclVar(
        GlobalVarDecl(
          Type(
           int
          ) [Type]
          GlobalVarDeclItem(
            GlobalVarDeclDefOk(
              VarDeclDefineArray(
               niz
              ) [VarDeclDefineArray]
            ) [GlobalVarDeclDefOk]
          ) [GlobalVarDeclItem]
        ) [GlobalVarDecl]
      ) [GlobalDeclVar]
    ) [GlobalDeclListL]
    GlobalDeclVar(
      GlobalVarDecl(
        Type(
         char
        ) [Type]
        GlobalVarDeclItem(
          GlobalVarDeclDefOk(
            VarDeclDefineArray(
             nizch
            ) [VarDeclDefineArray]
          ) [GlobalVarDeclDefOk]
        ) [GlobalVarDeclItem]
      ) [GlobalVarDecl]
    ) [GlobalDeclVar]
  ) [GlobalDeclListL]
  MethodDecl(
    MethodSignature(
      VoidableType(
      ) [VoidableType]
     main
    ) [MethodSignature]
    VarMethodDeclList_NoEps(
      VarMethodDeclList_NoEps(
        VarMethodDeclList_Eps(
        ) [VarMethodDeclList_Eps]
        VarDecl(
          Type(
           int
          ) [Type]
          VarDeclItem(
            VarDeclDefineSingle(
             bodovi
            ) [VarDeclDefineSingle]
          ) [VarDeclItem]
        ) [VarDecl]
      ) [VarMethodDeclList_NoEps]
      VarDecl(
        Type(
         Broj
        ) [Type]
        VarDeclListL(
          VarDeclItem(
            VarDeclDefineSingle(
             nula
            ) [VarDeclDefineSingle]
          ) [VarDeclItem]
          VarDeclDefineSingle(
           jedan
          ) [VarDeclDefineSingle]
        ) [VarDeclListL]
      ) [VarDecl]
    ) [VarMethodDeclList_NoEps]
    StatementList_NoEps(
      StatementList_NoEps(
        StatementList_NoEps(
          StatementList_Eps(
          ) [StatementList_Eps]
          StatementDes(
            DesignStatAssignment(
              Designator(
               nula
                DesDerived1(
                ) [DesDerived1]
              ) [Designator]
              TermExpr(
                TermFact(
                  FactorDesign(
                    Designator(
                     Broj
                      DesEnum(
                       NULA
                      ) [DesEnum]
                    ) [Designator]
                  ) [FactorDesign]
                ) [TermFact]
              ) [TermExpr]
            ) [DesignStatAssignment]
          ) [StatementDes]
        ) [StatementList_NoEps]
        StatementDes(
          DesignStatAssignment(
            Designator(
             jedan
              DesDerived1(
              ) [DesDerived1]
            ) [Designator]
            TermExpr(
              TermFact(
                FactorDesign(
                  Designator(
                   Broj
                    DesEnum(
                     JEDAN
                    ) [DesEnum]
                  ) [Designator]
                ) [FactorDesign]
              ) [TermFact]
            ) [TermExpr]
          ) [DesignStatAssignment]
        ) [StatementDes]
      ) [StatementList_NoEps]
      StatementDes(
        AssignementExprError(
        ) [AssignementExprError]
      ) [StatementDes]
    ) [StatementList_NoEps]
  ) [MethodDecl]
) [Program]
INFO  20:13:42,614 - ===================================
