INFO  11:29:38,564 - Compiling source file: C:\Users\ikadr\Desktop\PP\Projekat\Rad\workspace\MJCompiler\test\program.mj
INFO  11:29:38,643 - #2 program
INFO  11:29:38,644 - #28 test301
INFO  11:29:38,644 - #9 enum
INFO  11:29:38,646 - #28 Broj
INFO  11:29:38,646 - #17 {
INFO  11:29:38,648 - #28 NULA
INFO  11:29:38,648 - #12 ,
INFO  11:29:38,648 - #28 JEDAN
INFO  11:29:38,649 - #12 ,
INFO  11:29:38,649 - #28 PET
INFO  11:29:38,649 - #11 =
INFO  11:29:38,649 - #27 5
INFO  11:29:38,649 - #12 ,
INFO  11:29:38,650 - #28 DESET
INFO  11:29:38,650 - #11 =
INFO  11:29:38,650 - #27 10
INFO  11:29:38,650 - #18 }
INFO  11:29:38,650 - #9 enum
INFO  11:29:38,652 - #28 Kocka
INFO  11:29:38,652 - #17 {
INFO  11:29:38,652 - #28 STRANA
INFO  11:29:38,653 - #12 ,
INFO  11:29:38,653 - #28 OBIM
INFO  11:29:38,653 - #18 }
INFO  11:29:38,653 - #8 const
INFO  11:29:38,653 - #28 int
INFO  11:29:38,653 - #28 jedan
INFO  11:29:38,655 - #11 =
INFO  11:29:38,655 - #27 1
INFO  11:29:38,655 - #10 ;
INFO  11:29:38,656 - #8 const
INFO  11:29:38,657 - #28 int
INFO  11:29:38,657 - #28 pet
INFO  11:29:38,658 - #11 =
INFO  11:29:38,658 - #27 5
INFO  11:29:38,658 - #10 ;
INFO  11:29:38,658 - #28 int
INFO  11:29:38,658 - #28 niz
INFO  11:29:38,658 - #15 [
INFO  11:29:38,658 - #16 ]
INFO  11:29:38,658 - #10 ;
INFO  11:29:38,659 - #28 char
INFO  11:29:38,660 - #28 nizch
INFO  11:29:38,660 - #15 [
INFO  11:29:38,660 - #16 ]
INFO  11:29:38,660 - #10 ;
INFO  11:29:38,661 - #17 {
INFO  11:29:38,661 - #6 void
INFO  11:29:38,661 - #28 main
INFO  11:29:38,662 - #13 (
INFO  11:29:38,662 - #14 )
INFO  11:29:38,662 - #28 int
INFO  11:29:38,664 - #28 bodovi
INFO  11:29:38,664 - #10 ;
INFO  11:29:38,665 - #28 Broj
INFO  11:29:38,666 - #28 nula
INFO  11:29:38,666 - #12 ,
INFO  11:29:38,666 - #28 jedan
INFO  11:29:38,666 - #10 ;
INFO  11:29:38,667 - #28 Kocka
INFO  11:29:38,667 - #28 povrsina
INFO  11:29:38,667 - #10 ;
INFO  11:29:38,667 - #17 {
INFO  11:29:38,667 - #28 nula
INFO  11:29:38,669 - #11 =
INFO  11:29:38,669 - #28 Broj
INFO  11:29:38,669 - #19 .
INFO  11:29:38,669 - #28 NULA
INFO  11:29:38,669 - #10 ;
INFO  11:29:38,670 - #28 jedan
INFO  11:29:38,670 - #11 =
INFO  11:29:38,670 - #28 Broj
INFO  11:29:38,670 - #19 .
INFO  11:29:38,671 - #28 JEDAN
INFO  11:29:38,671 - #10 ;
INFO  11:29:38,671 - #28 povrsina
INFO  11:29:38,671 - #11 =
INFO  11:29:38,671 - #28 Broj
INFO  11:29:38,671 - #19 .
INFO  11:29:38,671 - #28 STRANA
INFO  11:29:38,671 - #10 ;
INFO  11:29:38,671 - #18 }
INFO  11:29:38,672 - #18 }
INFO  11:29:38,687 - Program(
  ProgName(
   test301
  ) [ProgName]
  GlobalDeclListL(
    GlobalDeclListL(
      GlobalDeclListL(
        GlobalDeclListL(
          GlobalDeclListL(
            GlobalDeclListL(
              GlobalDeclListEps(
              ) [GlobalDeclListEps]
              GlobalDeclEnum(
                EnumDecl(
                  EnumName(
                   Broj
                  ) [EnumName]
                  EnumDeclListL(
                    EnumDeclListL(
                      EnumDeclListL(
                        EnumDeclItem(
                          EnumDeclDefNoVal(
                           NULA
                          ) [EnumDeclDefNoVal]
                        ) [EnumDeclItem]
                        EnumDeclDefNoVal(
                         JEDAN
                        ) [EnumDeclDefNoVal]
                      ) [EnumDeclListL]
                      EnumDeclDefVal(
                       PET
                       5
                      ) [EnumDeclDefVal]
                    ) [EnumDeclListL]
                    EnumDeclDefVal(
                     DESET
                     10
                    ) [EnumDeclDefVal]
                  ) [EnumDeclListL]
                ) [EnumDecl]
              ) [GlobalDeclEnum]
            ) [GlobalDeclListL]
            GlobalDeclEnum(
              EnumDecl(
                EnumName(
                 Kocka
                ) [EnumName]
                EnumDeclListL(
                  EnumDeclItem(
                    EnumDeclDefNoVal(
                     STRANA
                    ) [EnumDeclDefNoVal]
                  ) [EnumDeclItem]
                  EnumDeclDefNoVal(
                   OBIM
                  ) [EnumDeclDefNoVal]
                ) [EnumDeclListL]
              ) [EnumDecl]
            ) [GlobalDeclEnum]
          ) [GlobalDeclListL]
          GlobalDeclConst(
            ConstDecl(
              Type(
               int
              ) [Type]
              ConstDeclItem(
                ConstDef(
                 jedan
                  ConstNum(
                   1
                  ) [ConstNum]
                ) [ConstDef]
              ) [ConstDeclItem]
            ) [ConstDecl]
          ) [GlobalDeclConst]
        ) [GlobalDeclListL]
        GlobalDeclConst(
          ConstDecl(
            Type(
             int
            ) [Type]
            ConstDeclItem(
              ConstDef(
               pet
                ConstNum(
                 5
                ) [ConstNum]
              ) [ConstDef]
            ) [ConstDeclItem]
          ) [ConstDecl]
        ) [GlobalDeclConst]
      ) [GlobalDeclListL]
      GlobalDeclVar(
        GlobalVarDecl(
          Type(
           int
          ) [Type]
          GlobalVarDeclItem(
            GlobalVarDeclDefOk(
              VarDeclDefineArray(
               niz
              ) [VarDeclDefineArray]
            ) [GlobalVarDeclDefOk]
          ) [GlobalVarDeclItem]
        ) [GlobalVarDecl]
      ) [GlobalDeclVar]
    ) [GlobalDeclListL]
    GlobalDeclVar(
      GlobalVarDecl(
        Type(
         char
        ) [Type]
        GlobalVarDeclItem(
          GlobalVarDeclDefOk(
            VarDeclDefineArray(
             nizch
            ) [VarDeclDefineArray]
          ) [GlobalVarDeclDefOk]
        ) [GlobalVarDeclItem]
      ) [GlobalVarDecl]
    ) [GlobalDeclVar]
  ) [GlobalDeclListL]
  MethodDecl(
    MethodSignature(
      VoidableType(
      ) [VoidableType]
     main
    ) [MethodSignature]
    VarMethodDeclList_NoEps(
      VarMethodDeclList_NoEps(
        VarMethodDeclList_NoEps(
          VarMethodDeclList_Eps(
          ) [VarMethodDeclList_Eps]
          VarDecl(
            Type(
             int
            ) [Type]
            VarDeclItem(
              VarDeclDefineSingle(
               bodovi
              ) [VarDeclDefineSingle]
            ) [VarDeclItem]
          ) [VarDecl]
        ) [VarMethodDeclList_NoEps]
        VarDecl(
          Type(
           Broj
          ) [Type]
          VarDeclListL(
            VarDeclItem(
              VarDeclDefineSingle(
               nula
              ) [VarDeclDefineSingle]
            ) [VarDeclItem]
            VarDeclDefineSingle(
             jedan
            ) [VarDeclDefineSingle]
          ) [VarDeclListL]
        ) [VarDecl]
      ) [VarMethodDeclList_NoEps]
      VarDecl(
        Type(
         Kocka
        ) [Type]
        VarDeclItem(
          VarDeclDefineSingle(
           povrsina
          ) [VarDeclDefineSingle]
        ) [VarDeclItem]
      ) [VarDecl]
    ) [VarMethodDeclList_NoEps]
    StatementList_NoEps(
      StatementList_NoEps(
        StatementList_NoEps(
          StatementList_Eps(
          ) [StatementList_Eps]
          StatementDes(
            DesignStatAssignment(
              DesIdent(
               nula
              ) [DesIdent]
              AssignementExpr(
                TermExpr(
                  TermFact(
                    FactorDesign(
                      DesEnum(
                       Broj
                       NULA
                      ) [DesEnum]
                    ) [FactorDesign]
                  ) [TermFact]
                ) [TermExpr]
              ) [AssignementExpr]
            ) [DesignStatAssignment]
          ) [StatementDes]
        ) [StatementList_NoEps]
        StatementDes(
          DesignStatAssignment(
            DesIdent(
             jedan
            ) [DesIdent]
            AssignementExpr(
              TermExpr(
                TermFact(
                  FactorDesign(
                    DesEnum(
                     Broj
                     JEDAN
                    ) [DesEnum]
                  ) [FactorDesign]
                ) [TermFact]
              ) [TermExpr]
            ) [AssignementExpr]
          ) [DesignStatAssignment]
        ) [StatementDes]
      ) [StatementList_NoEps]
      StatementDes(
        DesignStatAssignment(
          DesIdent(
           povrsina
          ) [DesIdent]
          AssignementExpr(
            TermExpr(
              TermFact(
                FactorDesign(
                  DesEnum(
                   Broj
                   STRANA
                  ) [DesEnum]
                ) [FactorDesign]
              ) [TermFact]
            ) [TermExpr]
          ) [AssignementExpr]
        ) [DesignStatAssignment]
      ) [StatementDes]
    ) [StatementList_NoEps]
  ) [MethodDecl]
) [Program]
INFO  11:29:38,687 - ===================================
INFO  11:29:38,691 - Deklarisan novi enum tip Broj na liniji 5
INFO  11:29:38,691 - Deklarisana konstanta NULA unutar enuma Broj na liniji 5
INFO  11:29:38,691 - Deklarisana konstanta JEDAN unutar enuma Broj na liniji 5
INFO  11:29:38,692 - Deklarisana konstanta PET unutar enuma Broj na liniji 5
INFO  11:29:38,692 - Deklarisana konstanta DESET unutar enuma Broj na liniji 5
INFO  11:29:38,692 - Deklarisan novi enum tip Kocka na liniji 6
INFO  11:29:38,692 - Deklarisana konstanta STRANA unutar enuma Kocka na liniji 6
INFO  11:29:38,692 - Deklarisana konstanta OBIM unutar enuma Kocka na liniji 6
INFO  11:29:38,692 - Deklarisana konstanta 'jedan' na liniji 8
INFO  11:29:38,692 - Deklarisana konstanta 'pet' na liniji 9
INFO  11:29:38,692 - Deklarisana promenljiva niza niz tipa 1 na liniji 11
INFO  11:29:38,692 - Deklarisana promenljiva niza nizch tipa 2 na liniji 12
INFO  11:29:38,692 - Obradjuje se funkcija main na liniji 15
INFO  11:29:38,693 - Deklarisana promenljiva bodovi tipa 1 na liniji 16
INFO  11:29:38,693 - Deklarisana promenljiva nula tipa 6 na liniji 17
INFO  11:29:38,693 - Deklarisana promenljiva jedan tipa 6 na liniji 17
INFO  11:29:38,693 - Deklarisana promenljiva povrsina tipa 6 na liniji 18
INFO  11:29:38,693 - Enum tip je Broj, a kind mu je 2
INFO  11:29:38,693 - USAO 2
ERROR 11:29:38,694 - Greska: U enumu Broj ne postoji vrednost za noObj na liniji 20
INFO  11:29:38,694 - factor type je 0 na liniji 20
ERROR 11:29:38,694 - Greska: nekompatibilni tipovi u dodeli na liniji 20
ERROR 11:29:38,694 - 6 je kind designatora, 0 je kind assignmenta
INFO  11:29:38,694 - Enum tip je Broj, a kind mu je 2
INFO  11:29:38,694 - USAO 2
ERROR 11:29:38,694 - Greska: U enumu Broj ne postoji vrednost za noObj na liniji 21
INFO  11:29:38,694 - factor type je 0 na liniji 21
ERROR 11:29:38,695 - Greska: nekompatibilni tipovi u dodeli na liniji 21
ERROR 11:29:38,695 - 6 je kind designatora, 0 je kind assignmenta
INFO  11:29:38,695 - Enum tip je Broj, a kind mu je 2
INFO  11:29:38,695 - USAO 2
ERROR 11:29:38,695 - Greska: U enumu Broj ne postoji vrednost za noObj na liniji 22
INFO  11:29:38,695 - factor type je 0 na liniji 22
ERROR 11:29:38,695 - Greska: nekompatibilni tipovi u dodeli na liniji 22
ERROR 11:29:38,695 - 6 je kind designatora, 0 je kind assignmenta
INFO  11:29:38,695 -  Print count calls = 0
INFO  11:29:38,696 -  Deklarisanih promenljivih ima = 6
ERROR 11:29:38,697 - Parsiranje NIJE uspesno zavrseno!
