INFO  16:57:19,846 - Compiling source file: C:\Users\ikadr\Desktop\PP\Projekat\Rad\workspace\MJCompiler\test\program.mj
INFO  16:57:19,921 - #2 program
INFO  16:57:19,921 - #28 test301
INFO  16:57:19,921 - #9 enum
INFO  16:57:19,924 - #28 Broj
INFO  16:57:19,924 - #17 {
INFO  16:57:19,924 - #28 NULA
INFO  16:57:19,924 - #12 ,
INFO  16:57:19,925 - #28 JEDAN
INFO  16:57:19,925 - #12 ,
INFO  16:57:19,925 - #28 PET
INFO  16:57:19,925 - #11 =
INFO  16:57:19,926 - #27 5
INFO  16:57:19,926 - #12 ,
INFO  16:57:19,926 - #28 DESET
INFO  16:57:19,926 - #11 =
INFO  16:57:19,926 - #27 10
INFO  16:57:19,926 - #18 }
INFO  16:57:19,927 - #28 int
INFO  16:57:19,928 - #28 niz
INFO  16:57:19,931 - #15 [
INFO  16:57:19,931 - #16 ]
INFO  16:57:19,931 - #10 ;
INFO  16:57:19,932 - #17 {
INFO  16:57:19,933 - #6 void
INFO  16:57:19,933 - #28 main
INFO  16:57:19,934 - #13 (
INFO  16:57:19,934 - #14 )
INFO  16:57:19,934 - #28 int
INFO  16:57:19,936 - #28 x
INFO  16:57:19,936 - #12 ,
INFO  16:57:19,936 - #28 y
INFO  16:57:19,937 - #12 ,
INFO  16:57:19,937 - #28 z
INFO  16:57:19,937 - #10 ;
INFO  16:57:19,937 - #28 Broj
INFO  16:57:19,938 - #28 pet
INFO  16:57:19,938 - #10 ;
INFO  16:57:19,938 - #17 {
INFO  16:57:19,938 - #28 pet
INFO  16:57:19,939 - #11 =
INFO  16:57:19,940 - #28 Broj
INFO  16:57:19,940 - #19 .
INFO  16:57:19,940 - #28 JEDAN
INFO  16:57:19,940 - #10 ;
INFO  16:57:19,941 - #28 x
INFO  16:57:19,941 - #11 =
INFO  16:57:19,942 - #27 7
INFO  16:57:19,942 - #10 ;
INFO  16:57:19,942 - #28 y
INFO  16:57:19,942 - #11 =
INFO  16:57:19,942 - #27 5
INFO  16:57:19,943 - #10 ;
INFO  16:57:19,943 - #28 z
INFO  16:57:19,943 - #11 =
INFO  16:57:19,943 - #28 x
INFO  16:57:19,943 - #24 *
INFO  16:57:19,943 - #28 pet
INFO  16:57:19,947 - #10 ;
INFO  16:57:19,947 - #4 print
INFO  16:57:19,947 - #13 (
INFO  16:57:19,947 - #29 a
INFO  16:57:19,948 - #14 )
INFO  16:57:19,948 - #10 ;
INFO  16:57:19,948 - #4 print
INFO  16:57:19,948 - #13 (
INFO  16:57:19,949 - #28 y
INFO  16:57:19,949 - #14 )
INFO  16:57:19,949 - #10 ;
INFO  16:57:19,954 - #4 print
INFO  16:57:19,955 - #13 (
INFO  16:57:19,955 - #28 z
INFO  16:57:19,955 - #14 )
INFO  16:57:19,955 - #10 ;
INFO  16:57:19,955 - #28 x
INFO  16:57:19,955 - #21 --
INFO  16:57:19,955 - #10 ;
INFO  16:57:19,956 - #4 print
INFO  16:57:19,956 - #13 (
INFO  16:57:19,956 - #28 x
INFO  16:57:19,956 - #14 )
INFO  16:57:19,956 - #10 ;
INFO  16:57:19,956 - #18 }
INFO  16:57:19,957 - #18 }
INFO  16:57:19,980 - Program(
  ProgName(
   test301
  ) [ProgName]
  GlobalDeclListL(
    GlobalDeclListL(
      GlobalDeclListEps(
      ) [GlobalDeclListEps]
      GlobalDeclEnum(
        EnumDecl(
         Broj
          EnumDeclListL(
            EnumDeclListL(
              EnumDeclListL(
                EnumDeclItem(
                  EnumDeclDefNoVal(
                   NULA
                  ) [EnumDeclDefNoVal]
                ) [EnumDeclItem]
                EnumDeclDefNoVal(
                 JEDAN
                ) [EnumDeclDefNoVal]
              ) [EnumDeclListL]
              EnumDeclDefVal(
               PET
               5
              ) [EnumDeclDefVal]
            ) [EnumDeclListL]
            EnumDeclDefVal(
             DESET
             10
            ) [EnumDeclDefVal]
          ) [EnumDeclListL]
        ) [EnumDecl]
      ) [GlobalDeclEnum]
    ) [GlobalDeclListL]
    GlobalDeclVar(
      GlobalVarDecl(
        Type(
         int
        ) [Type]
        GlobalVarDeclItem(
          GlobalVarDeclDefOk(
            VarDeclDefineArray(
             niz
            ) [VarDeclDefineArray]
          ) [GlobalVarDeclDefOk]
        ) [GlobalVarDeclItem]
      ) [GlobalVarDecl]
    ) [GlobalDeclVar]
  ) [GlobalDeclListL]
  MethodDecl(
    MethodSignature(
      VoidableType(
      ) [VoidableType]
     main
    ) [MethodSignature]
    VarMethodDeclList_NoEps(
      VarMethodDeclList_NoEps(
        VarMethodDeclList_Eps(
        ) [VarMethodDeclList_Eps]
        VarDecl(
          Type(
           int
          ) [Type]
          VarDeclListL(
            VarDeclListL(
              VarDeclItem(
                VarDeclDefineSingle(
                 x
                ) [VarDeclDefineSingle]
              ) [VarDeclItem]
              VarDeclDefineSingle(
               y
              ) [VarDeclDefineSingle]
            ) [VarDeclListL]
            VarDeclDefineSingle(
             z
            ) [VarDeclDefineSingle]
          ) [VarDeclListL]
        ) [VarDecl]
      ) [VarMethodDeclList_NoEps]
      VarDecl(
        Type(
         Broj
        ) [Type]
        VarDeclItem(
          VarDeclDefineSingle(
           pet
          ) [VarDeclDefineSingle]
        ) [VarDeclItem]
      ) [VarDecl]
    ) [VarMethodDeclList_NoEps]
    StatementList_NoEps(
      StatementList_NoEps(
        StatementList_NoEps(
          StatementList_NoEps(
            StatementList_NoEps(
              StatementList_NoEps(
                StatementList_NoEps(
                  StatementList_NoEps(
                    StatementList_NoEps(
                      StatementList_Eps(
                      ) [StatementList_Eps]
                      StatementDes(
                        DesignStatAssignment(
                          DesIdent(
                           pet
                          ) [DesIdent]
                          AssignementExpr(
                            TermExpr(
                              TermFact(
                                FactorDesign(
                                  DesEnum(
                                   Broj
                                   JEDAN
                                  ) [DesEnum]
                                ) [FactorDesign]
                              ) [TermFact]
                            ) [TermExpr]
                          ) [AssignementExpr]
                        ) [DesignStatAssignment]
                      ) [StatementDes]
                    ) [StatementList_NoEps]
                    StatementDes(
                      DesignStatAssignment(
                        DesIdent(
                         x
                        ) [DesIdent]
                        AssignementExpr(
                          TermExpr(
                            TermFact(
                              FactorConst(
                                ConstNum(
                                 7
                                ) [ConstNum]
                              ) [FactorConst]
                            ) [TermFact]
                          ) [TermExpr]
                        ) [AssignementExpr]
                      ) [DesignStatAssignment]
                    ) [StatementDes]
                  ) [StatementList_NoEps]
                  StatementDes(
                    DesignStatAssignment(
                      DesIdent(
                       y
                      ) [DesIdent]
                      AssignementExpr(
                        TermExpr(
                          TermFact(
                            FactorConst(
                              ConstNum(
                               5
                              ) [ConstNum]
                            ) [FactorConst]
                          ) [TermFact]
                        ) [TermExpr]
                      ) [AssignementExpr]
                    ) [DesignStatAssignment]
                  ) [StatementDes]
                ) [StatementList_NoEps]
                StatementDes(
                  DesignStatAssignment(
                    DesIdent(
                     z
                    ) [DesIdent]
                    AssignementExpr(
                      TermExpr(
                        TermMulop(
                          TermFact(
                            FactorDesign(
                              DesIdent(
                               x
                              ) [DesIdent]
                            ) [FactorDesign]
                          ) [TermFact]
                          Mulop_Mul(
                          ) [Mulop_Mul]
                          FactorDesign(
                            DesIdent(
                             pet
                            ) [DesIdent]
                          ) [FactorDesign]
                        ) [TermMulop]
                      ) [TermExpr]
                    ) [AssignementExpr]
                  ) [DesignStatAssignment]
                ) [StatementDes]
              ) [StatementList_NoEps]
              StatPrint(
                TermExpr(
                  TermFact(
                    FactorConst(
                      ConstChar(
                       a
                      ) [ConstChar]
                    ) [FactorConst]
                  ) [TermFact]
                ) [TermExpr]
              ) [StatPrint]
            ) [StatementList_NoEps]
            StatPrint(
              TermExpr(
                TermFact(
                  FactorDesign(
                    DesIdent(
                     y
                    ) [DesIdent]
                  ) [FactorDesign]
                ) [TermFact]
              ) [TermExpr]
            ) [StatPrint]
          ) [StatementList_NoEps]
          StatPrint(
            TermExpr(
              TermFact(
                FactorDesign(
                  DesIdent(
                   z
                  ) [DesIdent]
                ) [FactorDesign]
              ) [TermFact]
            ) [TermExpr]
          ) [StatPrint]
        ) [StatementList_NoEps]
        StatementDes(
          DesignStatDec(
            DesIdent(
             x
            ) [DesIdent]
          ) [DesignStatDec]
        ) [StatementDes]
      ) [StatementList_NoEps]
      StatPrint(
        TermExpr(
          TermFact(
            FactorDesign(
              DesIdent(
               x
              ) [DesIdent]
            ) [FactorDesign]
          ) [TermFact]
        ) [TermExpr]
      ) [StatPrint]
    ) [StatementList_NoEps]
  ) [MethodDecl]
) [Program]
INFO  16:57:19,981 - ===================================
INFO  16:57:19,986 - Deklarisan novi enum tip Broj na liniji 5
INFO  16:57:19,986 - Deklarisana promenljiva niza niz tipa 1 na liniji 6
INFO  16:57:19,987 - Obradjuje se funkcija main na liniji 8
INFO  16:57:19,987 - Deklarisana promenljiva x tipa 1 na liniji 9
INFO  16:57:19,987 - Deklarisana promenljiva y tipa 1 na liniji 9
INFO  16:57:19,987 - Deklarisana promenljiva z tipa 1 na liniji 9
INFO  16:57:19,987 - Deklarisana promenljiva pet tipa 6 na liniji 10
INFO  16:57:19,988 - Dodeljenja vrednost enuma promenljivoj enuma
INFO  16:57:19,988 - Dodeljenja vrednost: 1 je design,1 je assign
INFO  16:57:19,988 - Dodeljenja vrednost: 1 je design,1 je assign
INFO  16:57:19,988 - Dodeljenja vrednost: 1 je design,1 je assign
INFO  16:57:19,989 - Dekrementirana vrednost
INFO  16:57:19,989 -  Print count calls = 4
INFO  16:57:19,989 -  Deklarisanih promenljivih ima = 4
INFO  16:57:19,990 - Parsiranje uspesno zavrseno!
