INFO  22:03:00,587 - Compiling source file: C:\Users\ikadr\Desktop\PP\Projekat\Rad\workspace\MJCompiler\test\program.mj
INFO  22:03:00,650 - #2 program
INFO  22:03:00,651 - #28 test301
INFO  22:03:00,651 - #9 enum
INFO  22:03:00,653 - #28 Broj
INFO  22:03:00,653 - #17 {
INFO  22:03:00,654 - #28 NULA
INFO  22:03:00,654 - #12 ,
INFO  22:03:00,654 - #28 JEDAN
INFO  22:03:00,654 - #12 ,
INFO  22:03:00,655 - #28 PET
INFO  22:03:00,655 - #11 =
INFO  22:03:00,655 - #27 5
INFO  22:03:00,655 - #12 ,
INFO  22:03:00,655 - #28 DESET
INFO  22:03:00,655 - #11 =
INFO  22:03:00,655 - #27 10
INFO  22:03:00,655 - #18 }
INFO  22:03:00,656 - #17 {
INFO  22:03:00,657 - #6 void
INFO  22:03:00,657 - #28 main
INFO  22:03:00,658 - #13 (
INFO  22:03:00,658 - #14 )
INFO  22:03:00,658 - #28 Broj
INFO  22:03:00,660 - #28 nula
INFO  22:03:00,661 - #12 ,
INFO  22:03:00,662 - #28 jedan
INFO  22:03:00,662 - #10 ;
INFO  22:03:00,662 - #17 {
INFO  22:03:00,663 - #28 nula
INFO  22:03:00,665 - #11 =
INFO  22:03:00,665 - #28 Broj
INFO  22:03:00,665 - #19 .
INFO  22:03:00,665 - #28 NULA
INFO  22:03:00,665 - #10 ;
INFO  22:03:00,666 - #28 jedan
INFO  22:03:00,666 - #11 =
INFO  22:03:00,666 - #28 Broj
INFO  22:03:00,666 - #19 .
INFO  22:03:00,666 - #28 JEDAN
INFO  22:03:00,666 - #10 ;
INFO  22:03:00,666 - #18 }
INFO  22:03:00,666 - #18 }
INFO  22:03:00,683 - Program(
  ProgName(
   test301
  ) [ProgName]
  GlobalDeclListL(
    GlobalDeclListEps(
    ) [GlobalDeclListEps]
    GlobalDeclEnum(
      EnumDecl(
        EnumName(
         Broj
        ) [EnumName]
        EnumDeclListL(
          EnumDeclListL(
            EnumDeclListL(
              EnumDeclItem(
                EnumDeclDefNoVal(
                 NULA
                ) [EnumDeclDefNoVal]
              ) [EnumDeclItem]
              EnumDeclDefNoVal(
               JEDAN
              ) [EnumDeclDefNoVal]
            ) [EnumDeclListL]
            EnumDeclDefVal(
             PET
             5
            ) [EnumDeclDefVal]
          ) [EnumDeclListL]
          EnumDeclDefVal(
           DESET
           10
          ) [EnumDeclDefVal]
        ) [EnumDeclListL]
      ) [EnumDecl]
    ) [GlobalDeclEnum]
  ) [GlobalDeclListL]
  MethodDecl(
    MethodSignature(
      VoidableType(
      ) [VoidableType]
     main
    ) [MethodSignature]
    VarMethodDeclList_NoEps(
      VarMethodDeclList_Eps(
      ) [VarMethodDeclList_Eps]
      VarDecl(
        Type(
         Broj
        ) [Type]
        VarDeclListL(
          VarDeclItem(
            VarDeclDefineSingle(
             nula
            ) [VarDeclDefineSingle]
          ) [VarDeclItem]
          VarDeclDefineSingle(
           jedan
          ) [VarDeclDefineSingle]
        ) [VarDeclListL]
      ) [VarDecl]
    ) [VarMethodDeclList_NoEps]
    StatementList_NoEps(
      StatementList_NoEps(
        StatementList_Eps(
        ) [StatementList_Eps]
        StatementDes(
          DesignStatAssignment(
            DesIdent(
             nula
            ) [DesIdent]
            AssignementExpr(
              TermExpr(
                TermFact(
                  FactorDesign(
                    DesEnum(
                     Broj
                     NULA
                    ) [DesEnum]
                  ) [FactorDesign]
                ) [TermFact]
              ) [TermExpr]
            ) [AssignementExpr]
          ) [DesignStatAssignment]
        ) [StatementDes]
      ) [StatementList_NoEps]
      StatementDes(
        DesignStatAssignment(
          DesIdent(
           jedan
          ) [DesIdent]
          AssignementExpr(
            TermExpr(
              TermFact(
                FactorDesign(
                  DesEnum(
                   Broj
                   JEDAN
                  ) [DesEnum]
                ) [FactorDesign]
              ) [TermFact]
            ) [TermExpr]
          ) [AssignementExpr]
        ) [DesignStatAssignment]
      ) [StatementDes]
    ) [StatementList_NoEps]
  ) [MethodDecl]
) [Program]
INFO  22:03:00,683 - ===================================
INFO  22:03:00,687 - Deklarisan novi enum tip Broj na liniji 5
INFO  22:03:00,687 - Deklarisana konstanta Broj.NULA unutar enuma Broj na liniji 5
INFO  22:03:00,688 - Deklarisana konstanta Broj.JEDAN unutar enuma Broj na liniji 5
INFO  22:03:00,688 - Deklarisana konstanta Broj.PET unutar enuma Broj na liniji 5
INFO  22:03:00,688 - Deklarisana konstanta Broj.DESET unutar enuma Broj na liniji 5
INFO  22:03:00,688 - Obradjuje se funkcija main na liniji 9
INFO  22:03:00,688 - Deklarisana promenljiva nula tipa 6 na liniji 11
INFO  22:03:00,688 - Deklarisana promenljiva jedan tipa 6 na liniji 11
INFO  22:03:00,689 - kind enum konst  unutra je 0
INFO  22:03:00,690 - Broj.NULA
INFO  22:03:00,690 - Dodeljenja vrednost enuma promenljivoj enuma
INFO  22:03:00,690 - kind enum konst  unutra je 0
INFO  22:03:00,690 - Broj.JEDAN
INFO  22:03:00,690 - Dodeljenja vrednost enuma promenljivoj enuma
INFO  22:03:00,690 -  Print count calls = 0
INFO  22:03:00,690 -  Deklarisanih promenljivih ima = 2
INFO  22:03:00,700 - 
INFO  22:03:00,700 - Parsiranje uspesno zavrseno!
