INFO  13:46:57,315 - Compiling source file: C:\Users\ikadr\Desktop\PP\Projekat\Rad\workspace\MJCompiler\test\program.mj
INFO  13:46:57,418 - #2 program
INFO  13:46:57,418 - #28 test301
INFO  13:46:57,419 - #9 enum
INFO  13:46:57,421 - #28 Broj
INFO  13:46:57,421 - #17 {
INFO  13:46:57,422 - #28 NULA
INFO  13:46:57,423 - #12 ,
INFO  13:46:57,423 - #28 JEDAN
INFO  13:46:57,423 - #12 ,
INFO  13:46:57,424 - #28 PET
INFO  13:46:57,424 - #11 =
INFO  13:46:57,424 - #27 5
INFO  13:46:57,424 - #12 ,
INFO  13:46:57,424 - #28 DESET
INFO  13:46:57,424 - #11 =
INFO  13:46:57,425 - #27 10
INFO  13:46:57,425 - #18 }
INFO  13:46:57,425 - #8 const
INFO  13:46:57,427 - #28 int
INFO  13:46:57,427 - #28 jedan
INFO  13:46:57,428 - #11 =
INFO  13:46:57,429 - #27 1
INFO  13:46:57,429 - #10 ;
INFO  13:46:57,431 - #8 const
INFO  13:46:57,432 - #28 int
INFO  13:46:57,432 - #28 pet
INFO  13:46:57,432 - #11 =
INFO  13:46:57,432 - #27 5
INFO  13:46:57,433 - #10 ;
INFO  13:46:57,433 - #28 int
INFO  13:46:57,433 - #28 niz
INFO  13:46:57,433 - #15 [
INFO  13:46:57,433 - #16 ]
INFO  13:46:57,433 - #10 ;
INFO  13:46:57,434 - #28 char
INFO  13:46:57,435 - #28 nizch
INFO  13:46:57,435 - #15 [
INFO  13:46:57,435 - #16 ]
INFO  13:46:57,435 - #10 ;
INFO  13:46:57,435 - #17 {
INFO  13:46:57,435 - #6 void
INFO  13:46:57,435 - #28 main
INFO  13:46:57,437 - #13 (
INFO  13:46:57,437 - #14 )
INFO  13:46:57,437 - #28 int
INFO  13:46:57,440 - #28 bodovi
INFO  13:46:57,440 - #10 ;
INFO  13:46:57,440 - #28 Broj
INFO  13:46:57,442 - #28 nula
INFO  13:46:57,442 - #12 ,
INFO  13:46:57,442 - #28 jedan
INFO  13:46:57,442 - #10 ;
INFO  13:46:57,442 - #17 {
INFO  13:46:57,442 - #28 nula
INFO  13:46:57,444 - #11 =
INFO  13:46:57,444 - #28 Broj
INFO  13:46:57,444 - #19 .
INFO  13:46:57,444 - #28 NULA
INFO  13:46:57,444 - #10 ;
INFO  13:46:57,445 - #28 jedan
INFO  13:46:57,445 - #11 =
INFO  13:46:57,445 - #28 Broj
INFO  13:46:57,445 - #19 .
INFO  13:46:57,446 - #28 JEDAN
INFO  13:46:57,446 - #10 ;
INFO  13:46:57,446 - #28 bodovi
INFO  13:46:57,446 - #11 =
INFO  13:46:57,446 - #27 0
INFO  13:46:57,446 - #10 ;
INFO  13:46:57,447 - #28 bodovi
INFO  13:46:57,447 - #20 ++
INFO  13:46:57,447 - #10 ;
INFO  13:46:57,447 - #28 bodovi
INFO  13:46:57,447 - #11 =
INFO  13:46:57,447 - #28 bodovi
INFO  13:46:57,447 - #23 +
INFO  13:46:57,448 - #28 jedan
INFO  13:46:57,450 - #10 ;
INFO  13:46:57,451 - #28 bodovi
INFO  13:46:57,451 - #11 =
INFO  13:46:57,451 - #28 bodovi
INFO  13:46:57,451 - #24 *
INFO  13:46:57,451 - #28 pet
INFO  13:46:57,454 - #10 ;
INFO  13:46:57,454 - #28 bodovi
INFO  13:46:57,454 - #21 --
INFO  13:46:57,454 - #10 ;
INFO  13:46:57,455 - #4 print
INFO  13:46:57,455 - #13 (
INFO  13:46:57,455 - #28 bodovi
INFO  13:46:57,455 - #14 )
INFO  13:46:57,455 - #10 ;
INFO  13:46:57,455 - #28 niz
INFO  13:46:57,456 - #11 =
INFO  13:46:57,456 - #5 new
INFO  13:46:57,456 - #28 int
INFO  13:46:57,456 - #15 [
INFO  13:46:57,456 - #27 2
INFO  13:46:57,456 - #16 ]
INFO  13:46:57,456 - #10 ;
INFO  13:46:57,457 - #28 niz
INFO  13:46:57,457 - #15 [
INFO  13:46:57,458 - #28 nula
INFO  13:46:57,458 - #16 ]
INFO  13:46:57,458 - #11 =
INFO  13:46:57,459 - #28 pet
INFO  13:46:57,459 - #10 ;
INFO  13:46:57,459 - #28 niz
INFO  13:46:57,459 - #15 [
INFO  13:46:57,459 - #27 1
INFO  13:46:57,459 - #16 ]
INFO  13:46:57,459 - #11 =
INFO  13:46:57,459 - #28 Broj
INFO  13:46:57,459 - #19 .
INFO  13:46:57,459 - #28 DESET
INFO  13:46:57,460 - #10 ;
INFO  13:46:57,460 - #28 bodovi
INFO  13:46:57,460 - #11 =
INFO  13:46:57,460 - #28 niz
INFO  13:46:57,460 - #15 [
INFO  13:46:57,460 - #27 1
INFO  13:46:57,460 - #16 ]
INFO  13:46:57,460 - #25 /
INFO  13:46:57,460 - #28 niz
INFO  13:46:57,462 - #15 [
INFO  13:46:57,462 - #27 0
INFO  13:46:57,462 - #16 ]
INFO  13:46:57,462 - #10 ;
INFO  13:46:57,462 - #4 print
INFO  13:46:57,462 - #13 (
INFO  13:46:57,462 - #28 bodovi
INFO  13:46:57,462 - #14 )
INFO  13:46:57,467 - #10 ;
INFO  13:46:57,467 - #4 print
INFO  13:46:57,467 - #13 (
INFO  13:46:57,467 - #28 niz
INFO  13:46:57,467 - #15 [
INFO  13:46:57,467 - #28 Broj
INFO  13:46:57,467 - #19 .
INFO  13:46:57,467 - #28 JEDAN
INFO  13:46:57,467 - #16 ]
INFO  13:46:57,467 - #14 )
INFO  13:46:57,467 - #10 ;
INFO  13:46:57,468 - #28 nizch
INFO  13:46:57,468 - #11 =
INFO  13:46:57,468 - #5 new
INFO  13:46:57,468 - #28 char
INFO  13:46:57,468 - #15 [
INFO  13:46:57,468 - #27 3
INFO  13:46:57,468 - #16 ]
INFO  13:46:57,468 - #10 ;
INFO  13:46:57,468 - #28 nizch
INFO  13:46:57,468 - #15 [
INFO  13:46:57,468 - #27 0
INFO  13:46:57,468 - #16 ]
INFO  13:46:57,468 - #11 =
INFO  13:46:57,469 - #29 a
INFO  13:46:57,469 - #10 ;
INFO  13:46:57,469 - #28 nizch
INFO  13:46:57,469 - #15 [
INFO  13:46:57,469 - #28 jedan
INFO  13:46:57,469 - #16 ]
INFO  13:46:57,470 - #11 =
INFO  13:46:57,471 - #29 b
INFO  13:46:57,472 - #10 ;
INFO  13:46:57,472 - #28 nizch
INFO  13:46:57,472 - #15 [
INFO  13:46:57,472 - #28 pet
INFO  13:46:57,472 - #22 -
INFO  13:46:57,472 - #27 3
INFO  13:46:57,473 - #16 ]
INFO  13:46:57,474 - #11 =
INFO  13:46:57,474 - #29 c
INFO  13:46:57,474 - #10 ;
INFO  13:46:57,474 - #4 print
INFO  13:46:57,474 - #13 (
INFO  13:46:57,474 - #28 nizch
INFO  13:46:57,475 - #15 [
INFO  13:46:57,476 - #27 2
INFO  13:46:57,476 - #22 -
INFO  13:46:57,476 - #27 1
INFO  13:46:57,476 - #16 ]
INFO  13:46:57,476 - #14 )
INFO  13:46:57,476 - #10 ;
INFO  13:46:57,476 - #4 print
INFO  13:46:57,477 - #13 (
INFO  13:46:57,477 - #28 nizch
INFO  13:46:57,477 - #15 [
INFO  13:46:57,477 - #28 jedan
INFO  13:46:57,477 - #24 *
INFO  13:46:57,477 - #27 2
INFO  13:46:57,478 - #16 ]
INFO  13:46:57,478 - #14 )
INFO  13:46:57,478 - #10 ;
INFO  13:46:57,478 - #28 bodovi
INFO  13:46:57,478 - #11 =
INFO  13:46:57,478 - #28 bodovi
INFO  13:46:57,478 - #23 +
INFO  13:46:57,478 - #13 (
INFO  13:46:57,479 - #13 (
INFO  13:46:57,479 - #28 pet
INFO  13:46:57,479 - #24 *
INFO  13:46:57,479 - #28 jedan
INFO  13:46:57,479 - #22 -
INFO  13:46:57,479 - #27 1
INFO  13:46:57,479 - #14 )
INFO  13:46:57,479 - #24 *
INFO  13:46:57,479 - #27 2
INFO  13:46:57,479 - #22 -
INFO  13:46:57,480 - #13 (
INFO  13:46:57,480 - #27 3
INFO  13:46:57,480 - #26 %
INFO  13:46:57,480 - #27 2
INFO  13:46:57,481 - #23 +
INFO  13:46:57,481 - #27 3
INFO  13:46:57,481 - #24 *
INFO  13:46:57,481 - #27 2
INFO  13:46:57,482 - #22 -
INFO  13:46:57,482 - #27 3
INFO  13:46:57,482 - #14 )
INFO  13:46:57,482 - #22 -
INFO  13:46:57,482 - #28 Broj
INFO  13:46:57,482 - #19 .
INFO  13:46:57,482 - #28 JEDAN
INFO  13:46:57,482 - #24 *
INFO  13:46:57,482 - #27 0
INFO  13:46:57,482 - #14 )
INFO  13:46:57,483 - #10 ;
INFO  13:46:57,483 - #4 print
INFO  13:46:57,483 - #13 (
INFO  13:46:57,483 - #28 bodovi
INFO  13:46:57,483 - #14 )
INFO  13:46:57,483 - #10 ;
INFO  13:46:57,483 - #28 bodovi
INFO  13:46:57,483 - #11 =
INFO  13:46:57,483 - #28 bodovi
INFO  13:46:57,483 - #23 +
INFO  13:46:57,483 - #27 1
INFO  13:46:57,483 - #10 ;
INFO  13:46:57,484 - #4 print
INFO  13:46:57,484 - #13 (
INFO  13:46:57,484 - #28 bodovi
INFO  13:46:57,484 - #14 )
INFO  13:46:57,484 - #10 ;
INFO  13:46:57,484 - #18 }
INFO  13:46:57,484 - #18 }
INFO  13:46:57,511 - Program(
  ProgName(
   test301
  ) [ProgName]
  GlobalDeclListL(
    GlobalDeclListL(
      GlobalDeclListL(
        GlobalDeclListL(
          GlobalDeclListL(
            GlobalDeclListEps(
            ) [GlobalDeclListEps]
            GlobalDeclEnum(
              EnumDecl(
                EnumName(
                 Broj
                ) [EnumName]
                EnumDeclListL(
                  EnumDeclListL(
                    EnumDeclListL(
                      EnumDeclItem(
                        EnumDeclDefNoVal(
                         NULA
                        ) [EnumDeclDefNoVal]
                      ) [EnumDeclItem]
                      EnumDeclDefNoVal(
                       JEDAN
                      ) [EnumDeclDefNoVal]
                    ) [EnumDeclListL]
                    EnumDeclDefVal(
                     PET
                     5
                    ) [EnumDeclDefVal]
                  ) [EnumDeclListL]
                  EnumDeclDefVal(
                   DESET
                   10
                  ) [EnumDeclDefVal]
                ) [EnumDeclListL]
              ) [EnumDecl]
            ) [GlobalDeclEnum]
          ) [GlobalDeclListL]
          GlobalDeclConst(
            ConstDecl(
              Type(
               int
              ) [Type]
              ConstDeclItem(
                ConstDef(
                 jedan
                  ConstNum(
                   1
                  ) [ConstNum]
                ) [ConstDef]
              ) [ConstDeclItem]
            ) [ConstDecl]
          ) [GlobalDeclConst]
        ) [GlobalDeclListL]
        GlobalDeclConst(
          ConstDecl(
            Type(
             int
            ) [Type]
            ConstDeclItem(
              ConstDef(
               pet
                ConstNum(
                 5
                ) [ConstNum]
              ) [ConstDef]
            ) [ConstDeclItem]
          ) [ConstDecl]
        ) [GlobalDeclConst]
      ) [GlobalDeclListL]
      GlobalDeclVar(
        GlobalVarDecl(
          Type(
           int
          ) [Type]
          GlobalVarDeclItem(
            GlobalVarDeclDefOk(
              VarDeclDefineArray(
               niz
              ) [VarDeclDefineArray]
            ) [GlobalVarDeclDefOk]
          ) [GlobalVarDeclItem]
        ) [GlobalVarDecl]
      ) [GlobalDeclVar]
    ) [GlobalDeclListL]
    GlobalDeclVar(
      GlobalVarDecl(
        Type(
         char
        ) [Type]
        GlobalVarDeclItem(
          GlobalVarDeclDefOk(
            VarDeclDefineArray(
             nizch
            ) [VarDeclDefineArray]
          ) [GlobalVarDeclDefOk]
        ) [GlobalVarDeclItem]
      ) [GlobalVarDecl]
    ) [GlobalDeclVar]
  ) [GlobalDeclListL]
  MethodDecl(
    MethodSignature(
      VoidableType(
      ) [VoidableType]
     main
    ) [MethodSignature]
    VarMethodDeclList_NoEps(
      VarMethodDeclList_NoEps(
        VarMethodDeclList_Eps(
        ) [VarMethodDeclList_Eps]
        VarDecl(
          Type(
           int
          ) [Type]
          VarDeclItem(
            VarDeclDefineSingle(
             bodovi
            ) [VarDeclDefineSingle]
          ) [VarDeclItem]
        ) [VarDecl]
      ) [VarMethodDeclList_NoEps]
      VarDecl(
        Type(
         Broj
        ) [Type]
        VarDeclListL(
          VarDeclItem(
            VarDeclDefineSingle(
             nula
            ) [VarDeclDefineSingle]
          ) [VarDeclItem]
          VarDeclDefineSingle(
           jedan
          ) [VarDeclDefineSingle]
        ) [VarDeclListL]
      ) [VarDecl]
    ) [VarMethodDeclList_NoEps]
    StatementList_NoEps(
      StatementList_NoEps(
        StatementList_NoEps(
          StatementList_NoEps(
            StatementList_NoEps(
              StatementList_NoEps(
                StatementList_NoEps(
                  StatementList_NoEps(
                    StatementList_NoEps(
                      StatementList_NoEps(
                        StatementList_NoEps(
                          StatementList_NoEps(
                            StatementList_NoEps(
                              StatementList_NoEps(
                                StatementList_NoEps(
                                  StatementList_NoEps(
                                    StatementList_NoEps(
                                      StatementList_NoEps(
                                        StatementList_NoEps(
                                          StatementList_NoEps(
                                            StatementList_NoEps(
                                              StatementList_NoEps(
                                                StatementList_NoEps(
                                                  StatementList_NoEps(
                                                    StatementList_Eps(
                                                    ) [StatementList_Eps]
                                                    StatementDes(
                                                      DesignStatAssignment(
                                                        DesIdent(
                                                         nula
                                                        ) [DesIdent]
                                                        AssignementExpr(
                                                          TermExpr(
                                                            TermFact(
                                                              FactorDesign(
                                                                DesEnum(
                                                                 Broj
                                                                 NULA
                                                                ) [DesEnum]
                                                              ) [FactorDesign]
                                                            ) [TermFact]
                                                          ) [TermExpr]
                                                        ) [AssignementExpr]
                                                      ) [DesignStatAssignment]
                                                    ) [StatementDes]
                                                  ) [StatementList_NoEps]
                                                  StatementDes(
                                                    DesignStatAssignment(
                                                      DesIdent(
                                                       jedan
                                                      ) [DesIdent]
                                                      AssignementExpr(
                                                        TermExpr(
                                                          TermFact(
                                                            FactorDesign(
                                                              DesEnum(
                                                               Broj
                                                               JEDAN
                                                              ) [DesEnum]
                                                            ) [FactorDesign]
                                                          ) [TermFact]
                                                        ) [TermExpr]
                                                      ) [AssignementExpr]
                                                    ) [DesignStatAssignment]
                                                  ) [StatementDes]
                                                ) [StatementList_NoEps]
                                                StatementDes(
                                                  DesignStatAssignment(
                                                    DesIdent(
                                                     bodovi
                                                    ) [DesIdent]
                                                    AssignementExpr(
                                                      TermExpr(
                                                        TermFact(
                                                          FactorConst(
                                                            ConstNum(
                                                             0
                                                            ) [ConstNum]
                                                          ) [FactorConst]
                                                        ) [TermFact]
                                                      ) [TermExpr]
                                                    ) [AssignementExpr]
                                                  ) [DesignStatAssignment]
                                                ) [StatementDes]
                                              ) [StatementList_NoEps]
                                              StatementDes(
                                                DesignStatInc(
                                                  DesIdent(
                                                   bodovi
                                                  ) [DesIdent]
                                                ) [DesignStatInc]
                                              ) [StatementDes]
                                            ) [StatementList_NoEps]
                                            StatementDes(
                                              DesignStatAssignment(
                                                DesIdent(
                                                 bodovi
                                                ) [DesIdent]
                                                AssignementExpr(
                                                  AddopExp(
                                                    TermExpr(
                                                      TermFact(
                                                        FactorDesign(
                                                          DesIdent(
                                                           bodovi
                                                          ) [DesIdent]
                                                        ) [FactorDesign]
                                                      ) [TermFact]
                                                    ) [TermExpr]
                                                    Addop_Plus(
                                                    ) [Addop_Plus]
                                                    TermFact(
                                                      FactorDesign(
                                                        DesIdent(
                                                         jedan
                                                        ) [DesIdent]
                                                      ) [FactorDesign]
                                                    ) [TermFact]
                                                  ) [AddopExp]
                                                ) [AssignementExpr]
                                              ) [DesignStatAssignment]
                                            ) [StatementDes]
                                          ) [StatementList_NoEps]
                                          StatementDes(
                                            DesignStatAssignment(
                                              DesIdent(
                                               bodovi
                                              ) [DesIdent]
                                              AssignementExpr(
                                                TermExpr(
                                                  TermMulop(
                                                    TermFact(
                                                      FactorDesign(
                                                        DesIdent(
                                                         bodovi
                                                        ) [DesIdent]
                                                      ) [FactorDesign]
                                                    ) [TermFact]
                                                    Mulop_Mul(
                                                    ) [Mulop_Mul]
                                                    FactorDesign(
                                                      DesIdent(
                                                       pet
                                                      ) [DesIdent]
                                                    ) [FactorDesign]
                                                  ) [TermMulop]
                                                ) [TermExpr]
                                              ) [AssignementExpr]
                                            ) [DesignStatAssignment]
                                          ) [StatementDes]
                                        ) [StatementList_NoEps]
                                        StatementDes(
                                          DesignStatDec(
                                            DesIdent(
                                             bodovi
                                            ) [DesIdent]
                                          ) [DesignStatDec]
                                        ) [StatementDes]
                                      ) [StatementList_NoEps]
                                      StatPrint(
                                        TermExpr(
                                          TermFact(
                                            FactorDesign(
                                              DesIdent(
                                               bodovi
                                              ) [DesIdent]
                                            ) [FactorDesign]
                                          ) [TermFact]
                                        ) [TermExpr]
                                      ) [StatPrint]
                                    ) [StatementList_NoEps]
                                    StatementDes(
                                      DesignStatAssignment(
                                        DesIdent(
                                         niz
                                        ) [DesIdent]
                                        AssignementExpr(
                                          TermExpr(
                                            TermFact(
                                              FactorNewArr(
                                                Type(
                                                 int
                                                ) [Type]
                                                TermExpr(
                                                  TermFact(
                                                    FactorConst(
                                                      ConstNum(
                                                       2
                                                      ) [ConstNum]
                                                    ) [FactorConst]
                                                  ) [TermFact]
                                                ) [TermExpr]
                                              ) [FactorNewArr]
                                            ) [TermFact]
                                          ) [TermExpr]
                                        ) [AssignementExpr]
                                      ) [DesignStatAssignment]
                                    ) [StatementDes]
                                  ) [StatementList_NoEps]
                                  StatementDes(
                                    DesignStatAssignment(
                                      DesArr(
                                        ArrayName(
                                         niz
                                        ) [ArrayName]
                                        TermExpr(
                                          TermFact(
                                            FactorDesign(
                                              DesIdent(
                                               nula
                                              ) [DesIdent]
                                            ) [FactorDesign]
                                          ) [TermFact]
                                        ) [TermExpr]
                                      ) [DesArr]
                                      AssignementExpr(
                                        TermExpr(
                                          TermFact(
                                            FactorDesign(
                                              DesIdent(
                                               pet
                                              ) [DesIdent]
                                            ) [FactorDesign]
                                          ) [TermFact]
                                        ) [TermExpr]
                                      ) [AssignementExpr]
                                    ) [DesignStatAssignment]
                                  ) [StatementDes]
                                ) [StatementList_NoEps]
                                StatementDes(
                                  DesignStatAssignment(
                                    DesArr(
                                      ArrayName(
                                       niz
                                      ) [ArrayName]
                                      TermExpr(
                                        TermFact(
                                          FactorConst(
                                            ConstNum(
                                             1
                                            ) [ConstNum]
                                          ) [FactorConst]
                                        ) [TermFact]
                                      ) [TermExpr]
                                    ) [DesArr]
                                    AssignementExpr(
                                      TermExpr(
                                        TermFact(
                                          FactorDesign(
                                            DesEnum(
                                             Broj
                                             DESET
                                            ) [DesEnum]
                                          ) [FactorDesign]
                                        ) [TermFact]
                                      ) [TermExpr]
                                    ) [AssignementExpr]
                                  ) [DesignStatAssignment]
                                ) [StatementDes]
                              ) [StatementList_NoEps]
                              StatementDes(
                                DesignStatAssignment(
                                  DesIdent(
                                   bodovi
                                  ) [DesIdent]
                                  AssignementExpr(
                                    TermExpr(
                                      TermMulop(
                                        TermFact(
                                          FactorDesign(
                                            DesArr(
                                              ArrayName(
                                               niz
                                              ) [ArrayName]
                                              TermExpr(
                                                TermFact(
                                                  FactorConst(
                                                    ConstNum(
                                                     1
                                                    ) [ConstNum]
                                                  ) [FactorConst]
                                                ) [TermFact]
                                              ) [TermExpr]
                                            ) [DesArr]
                                          ) [FactorDesign]
                                        ) [TermFact]
                                        Mulop_Div(
                                        ) [Mulop_Div]
                                        FactorDesign(
                                          DesArr(
                                            ArrayName(
                                             niz
                                            ) [ArrayName]
                                            TermExpr(
                                              TermFact(
                                                FactorConst(
                                                  ConstNum(
                                                   0
                                                  ) [ConstNum]
                                                ) [FactorConst]
                                              ) [TermFact]
                                            ) [TermExpr]
                                          ) [DesArr]
                                        ) [FactorDesign]
                                      ) [TermMulop]
                                    ) [TermExpr]
                                  ) [AssignementExpr]
                                ) [DesignStatAssignment]
                              ) [StatementDes]
                            ) [StatementList_NoEps]
                            StatPrint(
                              TermExpr(
                                TermFact(
                                  FactorDesign(
                                    DesIdent(
                                     bodovi
                                    ) [DesIdent]
                                  ) [FactorDesign]
                                ) [TermFact]
                              ) [TermExpr]
                            ) [StatPrint]
                          ) [StatementList_NoEps]
                          StatPrint(
                            TermExpr(
                              TermFact(
                                FactorDesign(
                                  DesArr(
                                    ArrayName(
                                     niz
                                    ) [ArrayName]
                                    TermExpr(
                                      TermFact(
                                        FactorDesign(
                                          DesEnum(
                                           Broj
                                           JEDAN
                                          ) [DesEnum]
                                        ) [FactorDesign]
                                      ) [TermFact]
                                    ) [TermExpr]
                                  ) [DesArr]
                                ) [FactorDesign]
                              ) [TermFact]
                            ) [TermExpr]
                          ) [StatPrint]
                        ) [StatementList_NoEps]
                        StatementDes(
                          DesignStatAssignment(
                            DesIdent(
                             nizch
                            ) [DesIdent]
                            AssignementExpr(
                              TermExpr(
                                TermFact(
                                  FactorNewArr(
                                    Type(
                                     char
                                    ) [Type]
                                    TermExpr(
                                      TermFact(
                                        FactorConst(
                                          ConstNum(
                                           3
                                          ) [ConstNum]
                                        ) [FactorConst]
                                      ) [TermFact]
                                    ) [TermExpr]
                                  ) [FactorNewArr]
                                ) [TermFact]
                              ) [TermExpr]
                            ) [AssignementExpr]
                          ) [DesignStatAssignment]
                        ) [StatementDes]
                      ) [StatementList_NoEps]
                      StatementDes(
                        DesignStatAssignment(
                          DesArr(
                            ArrayName(
                             nizch
                            ) [ArrayName]
                            TermExpr(
                              TermFact(
                                FactorConst(
                                  ConstNum(
                                   0
                                  ) [ConstNum]
                                ) [FactorConst]
                              ) [TermFact]
                            ) [TermExpr]
                          ) [DesArr]
                          AssignementExpr(
                            TermExpr(
                              TermFact(
                                FactorConst(
                                  ConstChar(
                                   a
                                  ) [ConstChar]
                                ) [FactorConst]
                              ) [TermFact]
                            ) [TermExpr]
                          ) [AssignementExpr]
                        ) [DesignStatAssignment]
                      ) [StatementDes]
                    ) [StatementList_NoEps]
                    StatementDes(
                      DesignStatAssignment(
                        DesArr(
                          ArrayName(
                           nizch
                          ) [ArrayName]
                          TermExpr(
                            TermFact(
                              FactorDesign(
                                DesIdent(
                                 jedan
                                ) [DesIdent]
                              ) [FactorDesign]
                            ) [TermFact]
                          ) [TermExpr]
                        ) [DesArr]
                        AssignementExpr(
                          TermExpr(
                            TermFact(
                              FactorConst(
                                ConstChar(
                                 b
                                ) [ConstChar]
                              ) [FactorConst]
                            ) [TermFact]
                          ) [TermExpr]
                        ) [AssignementExpr]
                      ) [DesignStatAssignment]
                    ) [StatementDes]
                  ) [StatementList_NoEps]
                  StatementDes(
                    DesignStatAssignment(
                      DesArr(
                        ArrayName(
                         nizch
                        ) [ArrayName]
                        AddopExp(
                          TermExpr(
                            TermFact(
                              FactorDesign(
                                DesIdent(
                                 pet
                                ) [DesIdent]
                              ) [FactorDesign]
                            ) [TermFact]
                          ) [TermExpr]
                          Addop_Minus(
                          ) [Addop_Minus]
                          TermFact(
                            FactorConst(
                              ConstNum(
                               3
                              ) [ConstNum]
                            ) [FactorConst]
                          ) [TermFact]
                        ) [AddopExp]
                      ) [DesArr]
                      AssignementExpr(
                        TermExpr(
                          TermFact(
                            FactorConst(
                              ConstChar(
                               c
                              ) [ConstChar]
                            ) [FactorConst]
                          ) [TermFact]
                        ) [TermExpr]
                      ) [AssignementExpr]
                    ) [DesignStatAssignment]
                  ) [StatementDes]
                ) [StatementList_NoEps]
                StatPrint(
                  TermExpr(
                    TermFact(
                      FactorDesign(
                        DesArr(
                          ArrayName(
                           nizch
                          ) [ArrayName]
                          AddopExp(
                            TermExpr(
                              TermFact(
                                FactorConst(
                                  ConstNum(
                                   2
                                  ) [ConstNum]
                                ) [FactorConst]
                              ) [TermFact]
                            ) [TermExpr]
                            Addop_Minus(
                            ) [Addop_Minus]
                            TermFact(
                              FactorConst(
                                ConstNum(
                                 1
                                ) [ConstNum]
                              ) [FactorConst]
                            ) [TermFact]
                          ) [AddopExp]
                        ) [DesArr]
                      ) [FactorDesign]
                    ) [TermFact]
                  ) [TermExpr]
                ) [StatPrint]
              ) [StatementList_NoEps]
              StatPrint(
                TermExpr(
                  TermFact(
                    FactorDesign(
                      DesArr(
                        ArrayName(
                         nizch
                        ) [ArrayName]
                        TermExpr(
                          TermMulop(
                            TermFact(
                              FactorDesign(
                                DesIdent(
                                 jedan
                                ) [DesIdent]
                              ) [FactorDesign]
                            ) [TermFact]
                            Mulop_Mul(
                            ) [Mulop_Mul]
                            FactorConst(
                              ConstNum(
                               2
                              ) [ConstNum]
                            ) [FactorConst]
                          ) [TermMulop]
                        ) [TermExpr]
                      ) [DesArr]
                    ) [FactorDesign]
                  ) [TermFact]
                ) [TermExpr]
              ) [StatPrint]
            ) [StatementList_NoEps]
            StatementDes(
              DesignStatAssignment(
                DesIdent(
                 bodovi
                ) [DesIdent]
                AssignementExpr(
                  AddopExp(
                    TermExpr(
                      TermFact(
                        FactorDesign(
                          DesIdent(
                           bodovi
                          ) [DesIdent]
                        ) [FactorDesign]
                      ) [TermFact]
                    ) [TermExpr]
                    Addop_Plus(
                    ) [Addop_Plus]
                    TermFact(
                      FactorExpr(
                        AddopExp(
                          AddopExp(
                            TermExpr(
                              TermMulop(
                                TermFact(
                                  FactorExpr(
                                    AddopExp(
                                      TermExpr(
                                        TermMulop(
                                          TermFact(
                                            FactorDesign(
                                              DesIdent(
                                               pet
                                              ) [DesIdent]
                                            ) [FactorDesign]
                                          ) [TermFact]
                                          Mulop_Mul(
                                          ) [Mulop_Mul]
                                          FactorDesign(
                                            DesIdent(
                                             jedan
                                            ) [DesIdent]
                                          ) [FactorDesign]
                                        ) [TermMulop]
                                      ) [TermExpr]
                                      Addop_Minus(
                                      ) [Addop_Minus]
                                      TermFact(
                                        FactorConst(
                                          ConstNum(
                                           1
                                          ) [ConstNum]
                                        ) [FactorConst]
                                      ) [TermFact]
                                    ) [AddopExp]
                                  ) [FactorExpr]
                                ) [TermFact]
                                Mulop_Mul(
                                ) [Mulop_Mul]
                                FactorConst(
                                  ConstNum(
                                   2
                                  ) [ConstNum]
                                ) [FactorConst]
                              ) [TermMulop]
                            ) [TermExpr]
                            Addop_Minus(
                            ) [Addop_Minus]
                            TermFact(
                              FactorExpr(
                                AddopExp(
                                  AddopExp(
                                    TermExpr(
                                      TermMulop(
                                        TermFact(
                                          FactorConst(
                                            ConstNum(
                                             3
                                            ) [ConstNum]
                                          ) [FactorConst]
                                        ) [TermFact]
                                        Mulop_Mod(
                                        ) [Mulop_Mod]
                                        FactorConst(
                                          ConstNum(
                                           2
                                          ) [ConstNum]
                                        ) [FactorConst]
                                      ) [TermMulop]
                                    ) [TermExpr]
                                    Addop_Plus(
                                    ) [Addop_Plus]
                                    TermMulop(
                                      TermFact(
                                        FactorConst(
                                          ConstNum(
                                           3
                                          ) [ConstNum]
                                        ) [FactorConst]
                                      ) [TermFact]
                                      Mulop_Mul(
                                      ) [Mulop_Mul]
                                      FactorConst(
                                        ConstNum(
                                         2
                                        ) [ConstNum]
                                      ) [FactorConst]
                                    ) [TermMulop]
                                  ) [AddopExp]
                                  Addop_Minus(
                                  ) [Addop_Minus]
                                  TermFact(
                                    FactorConst(
                                      ConstNum(
                                       3
                                      ) [ConstNum]
                                    ) [FactorConst]
                                  ) [TermFact]
                                ) [AddopExp]
                              ) [FactorExpr]
                            ) [TermFact]
                          ) [AddopExp]
                          Addop_Minus(
                          ) [Addop_Minus]
                          TermMulop(
                            TermFact(
                              FactorDesign(
                                DesEnum(
                                 Broj
                                 JEDAN
                                ) [DesEnum]
                              ) [FactorDesign]
                            ) [TermFact]
                            Mulop_Mul(
                            ) [Mulop_Mul]
                            FactorConst(
                              ConstNum(
                               0
                              ) [ConstNum]
                            ) [FactorConst]
                          ) [TermMulop]
                        ) [AddopExp]
                      ) [FactorExpr]
                    ) [TermFact]
                  ) [AddopExp]
                ) [AssignementExpr]
              ) [DesignStatAssignment]
            ) [StatementDes]
          ) [StatementList_NoEps]
          StatPrint(
            TermExpr(
              TermFact(
                FactorDesign(
                  DesIdent(
                   bodovi
                  ) [DesIdent]
                ) [FactorDesign]
              ) [TermFact]
            ) [TermExpr]
          ) [StatPrint]
        ) [StatementList_NoEps]
        StatementDes(
          DesignStatAssignment(
            DesIdent(
             bodovi
            ) [DesIdent]
            AssignementExpr(
              AddopExp(
                TermExpr(
                  TermFact(
                    FactorDesign(
                      DesIdent(
                       bodovi
                      ) [DesIdent]
                    ) [FactorDesign]
                  ) [TermFact]
                ) [TermExpr]
                Addop_Plus(
                ) [Addop_Plus]
                TermFact(
                  FactorConst(
                    ConstNum(
                     1
                    ) [ConstNum]
                  ) [FactorConst]
                ) [TermFact]
              ) [AddopExp]
            ) [AssignementExpr]
          ) [DesignStatAssignment]
        ) [StatementDes]
      ) [StatementList_NoEps]
      StatPrint(
        TermExpr(
          TermFact(
            FactorDesign(
              DesIdent(
               bodovi
              ) [DesIdent]
            ) [FactorDesign]
          ) [TermFact]
        ) [TermExpr]
      ) [StatPrint]
    ) [StatementList_NoEps]
  ) [MethodDecl]
) [Program]
INFO  13:46:57,514 - ===================================
INFO  13:46:57,523 - Deklarisan novi enum tip Broj na liniji 5
INFO  13:46:57,523 - Deklarisana konstanta NULA unutar enuma Broj na liniji 5
INFO  13:46:57,524 - Deklarisana konstanta JEDAN unutar enuma Broj na liniji 5
INFO  13:46:57,524 - Deklarisana konstanta PET unutar enuma Broj na liniji 5
INFO  13:46:57,524 - Deklarisana konstanta DESET unutar enuma Broj na liniji 5
INFO  13:46:57,524 - Deklarisana konstanta 'jedan' na liniji 7
INFO  13:46:57,524 - Deklarisana konstanta 'pet' na liniji 8
INFO  13:46:57,525 - Deklarisana promenljiva niza niz tipa 1 na liniji 10
INFO  13:46:57,525 - Deklarisana promenljiva niza nizch tipa 2 na liniji 11
INFO  13:46:57,525 - Obradjuje se funkcija main na liniji 14
INFO  13:46:57,525 - Deklarisana promenljiva bodovi tipa 1 na liniji 15
INFO  13:47:04,278 - Deklarisana promenljiva nula tipa 6 na liniji 16
INFO  13:47:04,281 - Deklarisana promenljiva jedan tipa 6 na liniji 16
INFO  13:47:06,387 - USAO 2
INFO  13:47:06,388 - factor type je 1 na liniji 18
INFO  13:47:06,389 - Dodeljenja vrednost enuma promenljivoj enuma
INFO  13:47:06,389 - USAO 2
INFO  13:47:06,390 - factor type je 1 na liniji 19
INFO  13:47:06,390 - Dodeljenja vrednost enuma promenljivoj enuma
INFO  13:47:06,391 - Dodeljenja vrednost: 1 je design,1 je assign
INFO  13:47:06,392 - Inkrementirana vrednost
INFO  13:47:06,392 - factor type je 1 na liniji 23
INFO  13:47:06,395 - factor type je 6 na liniji 23
INFO  13:47:06,396 - Dodeljenja vrednost: 1 je design,1 je assign
INFO  13:47:06,397 - factor type je 1 na liniji 24
INFO  13:47:06,397 - factor type je 1 na liniji 24
INFO  13:47:06,398 - Dodeljenja vrednost: 1 je design,1 je assign
INFO  13:47:06,398 - Dekrementirana vrednost
INFO  13:47:06,399 - factor type je 1 na liniji 26
INFO  13:47:06,399 - Print funkcija na liniji 26
INFO  13:47:06,401 - factor type je 6 na liniji 30
INFO  13:47:06,401 - factor type je 1 na liniji 30
INFO  13:47:06,402 - USAO 2
INFO  13:47:06,403 - factor type je 1 na liniji 31
INFO  13:47:06,404 - factor type je 1 na liniji 32
INFO  13:47:06,405 - factor type je 1 na liniji 32
INFO  13:47:06,405 - Dodeljenja vrednost: 1 je design,1 je assign
INFO  13:47:06,406 - factor type je 1 na liniji 33
INFO  13:47:06,407 - Print funkcija na liniji 33
INFO  13:47:06,407 - USAO 2
INFO  13:47:06,408 - factor type je 1 na liniji 34
INFO  13:47:06,409 - factor type je 1 na liniji 34
INFO  13:47:06,409 - Print funkcija na liniji 34
INFO  13:47:06,410 - factor type je 6 na liniji 39
INFO  13:47:06,412 - factor type je 1 na liniji 40
INFO  13:47:06,412 - factor type je 2 na liniji 41
INFO  13:47:06,413 - Print funkcija na liniji 41
INFO  13:47:06,414 - factor type je 6 na liniji 42
INFO  13:47:06,414 - factor type je 2 na liniji 42
INFO  13:47:06,415 - Print funkcija na liniji 42
INFO  13:47:06,416 - factor type je 1 na liniji 45
INFO  13:47:06,416 - factor type je 1 na liniji 45
INFO  13:47:06,417 - factor type je 6 na liniji 45
INFO  13:47:06,418 - USAO 2
INFO  13:47:06,419 - factor type je 1 na liniji 45
INFO  13:47:06,419 - Dodeljenja vrednost: 1 je design,1 je assign
INFO  13:47:06,420 - factor type je 1 na liniji 46
INFO  13:47:06,421 - Print funkcija na liniji 46
INFO  13:47:06,421 - factor type je 1 na liniji 50
INFO  13:47:06,422 - Dodeljenja vrednost: 1 je design,1 je assign
INFO  13:47:06,429 - factor type je 1 na liniji 51
INFO  13:47:06,430 - Print funkcija na liniji 51
INFO  13:47:08,973 -  Print count calls = 7
INFO  13:47:09,511 -  Deklarisanih promenljivih ima = 5
