INFO  19:01:10,875 - Compiling source file: C:\Users\ikadr\Desktop\PP\Projekat\Rad\workspace\MJCompiler\test\program.mj
INFO  19:01:10,957 - #2 program
INFO  19:01:10,957 - #28 prvi
INFO  19:01:10,958 - #9 enum
INFO  19:01:10,961 - #28 Broj
INFO  19:01:10,961 - #17 {
INFO  19:01:10,963 - #28 NULA
INFO  19:01:10,963 - #12 ,
INFO  19:01:10,964 - #28 JEDAN
INFO  19:01:10,964 - #12 ,
INFO  19:01:10,964 - #28 PET
INFO  19:01:10,965 - #11 =
INFO  19:01:10,965 - #27 5
INFO  19:01:10,965 - #12 ,
INFO  19:01:10,965 - #28 DESET
INFO  19:01:10,966 - #11 =
INFO  19:01:10,966 - #27 10
INFO  19:01:10,966 - #18 }
INFO  19:01:10,966 - #9 enum
INFO  19:01:10,968 - #28 Oblik
INFO  19:01:10,968 - #17 {
INFO  19:01:10,968 - #28 KOCKA
INFO  19:01:10,970 - #12 ,
INFO  19:01:10,970 - #28 KVADAR
INFO  19:01:10,970 - #11 =
INFO  19:01:10,970 - #27 5
INFO  19:01:10,971 - #12 ,
INFO  19:01:10,971 - #28 KUPA
INFO  19:01:10,971 - #18 }
INFO  19:01:10,971 - #28 int
INFO  19:01:10,971 - #28 bodovi
INFO  19:01:10,973 - #10 ;
INFO  19:01:10,974 - #17 {
INFO  19:01:10,976 - #6 void
INFO  19:01:10,976 - #28 main
INFO  19:01:10,977 - #13 (
INFO  19:01:10,977 - #14 )
INFO  19:01:10,977 - #28 Broj
INFO  19:01:10,981 - #28 nula
INFO  19:01:10,981 - #12 ,
INFO  19:01:10,981 - #28 jedan
INFO  19:01:10,981 - #10 ;
INFO  19:01:10,981 - #28 Oblik
INFO  19:01:10,982 - #28 ob
INFO  19:01:10,983 - #10 ;
INFO  19:01:10,983 - #17 {
INFO  19:01:10,983 - #28 ob
INFO  19:01:10,984 - #11 =
INFO  19:01:10,984 - #28 Oblik
INFO  19:01:10,984 - #19 .
INFO  19:01:10,984 - #28 KUPA
INFO  19:01:10,984 - #10 ;
INFO  19:01:10,985 - #4 print
INFO  19:01:10,986 - #13 (
INFO  19:01:10,986 - #28 ob
INFO  19:01:10,986 - #14 )
INFO  19:01:10,986 - #10 ;
INFO  19:01:10,986 - #28 nula
INFO  19:01:10,987 - #11 =
INFO  19:01:10,987 - #28 Oblik
INFO  19:01:10,987 - #19 .
INFO  19:01:10,987 - #28 KUPA
INFO  19:01:10,987 - #10 ;
INFO  19:01:10,987 - #28 jedan
INFO  19:01:10,988 - #11 =
INFO  19:01:10,988 - #28 Broj
INFO  19:01:10,988 - #19 .
INFO  19:01:10,989 - #28 JEDAN
INFO  19:01:10,990 - #10 ;
INFO  19:01:10,990 - #28 bodovi
INFO  19:01:10,990 - #11 =
INFO  19:01:10,991 - #27 0
INFO  19:01:10,991 - #10 ;
INFO  19:01:10,992 - #28 bodovi
INFO  19:01:10,992 - #20 ++
INFO  19:01:10,992 - #10 ;
INFO  19:01:10,992 - #28 jedan
INFO  19:01:10,992 - #11 =
INFO  19:01:10,992 - #28 Broj
INFO  19:01:10,992 - #19 .
INFO  19:01:10,993 - #28 PET
INFO  19:01:10,993 - #10 ;
INFO  19:01:10,993 - #4 print
INFO  19:01:10,993 - #13 (
INFO  19:01:10,993 - #28 bodovi
INFO  19:01:10,993 - #14 )
INFO  19:01:10,993 - #10 ;
INFO  19:01:10,993 - #4 print
INFO  19:01:10,993 - #13 (
INFO  19:01:10,993 - #28 jedan
INFO  19:01:10,994 - #14 )
INFO  19:01:10,994 - #10 ;
INFO  19:01:10,994 - #28 bodovi
INFO  19:01:10,994 - #11 =
INFO  19:01:10,994 - #28 bodovi
INFO  19:01:10,994 - #23 +
INFO  19:01:10,995 - #28 jedan
INFO  19:01:10,998 - #10 ;
INFO  19:01:10,998 - #4 print
INFO  19:01:10,998 - #13 (
INFO  19:01:10,998 - #28 bodovi
INFO  19:01:10,998 - #14 )
INFO  19:01:10,999 - #10 ;
INFO  19:01:10,999 - #28 bodovi
INFO  19:01:10,999 - #11 =
INFO  19:01:10,999 - #28 bodovi
INFO  19:01:10,999 - #23 +
INFO  19:01:10,999 - #13 (
INFO  19:01:10,999 - #13 (
INFO  19:01:11,000 - #28 jedan
INFO  19:01:11,000 - #24 *
INFO  19:01:11,000 - #28 jedan
INFO  19:01:11,003 - #22 -
INFO  19:01:11,003 - #27 1
INFO  19:01:11,006 - #14 )
INFO  19:01:11,006 - #24 *
INFO  19:01:11,006 - #27 2
INFO  19:01:11,006 - #22 -
INFO  19:01:11,006 - #13 (
INFO  19:01:11,007 - #27 3
INFO  19:01:11,007 - #26 %
INFO  19:01:11,007 - #27 2
INFO  19:01:11,008 - #23 +
INFO  19:01:11,008 - #27 3
INFO  19:01:11,008 - #24 *
INFO  19:01:11,009 - #27 2
INFO  19:01:11,009 - #22 -
INFO  19:01:11,009 - #27 3
INFO  19:01:11,009 - #14 )
INFO  19:01:11,009 - #22 -
INFO  19:01:11,009 - #28 Broj
INFO  19:01:11,009 - #19 .
INFO  19:01:11,009 - #28 JEDAN
INFO  19:01:11,010 - #24 *
INFO  19:01:11,010 - #27 2
INFO  19:01:11,010 - #14 )
INFO  19:01:11,010 - #10 ;
INFO  19:01:11,010 - #4 print
INFO  19:01:11,010 - #13 (
INFO  19:01:11,010 - #28 bodovi
INFO  19:01:11,010 - #14 )
INFO  19:01:11,010 - #10 ;
INFO  19:01:11,010 - #18 }
INFO  19:01:11,011 - #18 }
INFO  19:01:11,026 - Program(
  ProgName(
   prvi
  ) [ProgName]
  GlobalDeclListL(
    GlobalDeclListL(
      GlobalDeclListL(
        GlobalDeclListEps(
        ) [GlobalDeclListEps]
        GlobalDeclEnum(
          EnumDecl(
            EnumName(
             Broj
            ) [EnumName]
            EnumDeclListL(
              EnumDeclListL(
                EnumDeclListL(
                  EnumDeclItem(
                    EnumDeclDefNoVal(
                     NULA
                    ) [EnumDeclDefNoVal]
                  ) [EnumDeclItem]
                  EnumDeclDefNoVal(
                   JEDAN
                  ) [EnumDeclDefNoVal]
                ) [EnumDeclListL]
                EnumDeclDefVal(
                 PET
                 5
                ) [EnumDeclDefVal]
              ) [EnumDeclListL]
              EnumDeclDefVal(
               DESET
               10
              ) [EnumDeclDefVal]
            ) [EnumDeclListL]
          ) [EnumDecl]
        ) [GlobalDeclEnum]
      ) [GlobalDeclListL]
      GlobalDeclEnum(
        EnumDecl(
          EnumName(
           Oblik
          ) [EnumName]
          EnumDeclListL(
            EnumDeclListL(
              EnumDeclItem(
                EnumDeclDefNoVal(
                 KOCKA
                ) [EnumDeclDefNoVal]
              ) [EnumDeclItem]
              EnumDeclDefVal(
               KVADAR
               5
              ) [EnumDeclDefVal]
            ) [EnumDeclListL]
            EnumDeclDefNoVal(
             KUPA
            ) [EnumDeclDefNoVal]
          ) [EnumDeclListL]
        ) [EnumDecl]
      ) [GlobalDeclEnum]
    ) [GlobalDeclListL]
    GlobalDeclVar(
      GlobalVarDecl(
        Type(
         int
        ) [Type]
        GlobalVarDeclItem(
          GlobalVarDeclDefOk(
            VarDeclDefineSingle(
             bodovi
            ) [VarDeclDefineSingle]
          ) [GlobalVarDeclDefOk]
        ) [GlobalVarDeclItem]
      ) [GlobalVarDecl]
    ) [GlobalDeclVar]
  ) [GlobalDeclListL]
  MethodDecl(
    MethodSignature(
      VoidableType(
      ) [VoidableType]
     main
    ) [MethodSignature]
    VarMethodDeclList_NoEps(
      VarMethodDeclList_NoEps(
        VarMethodDeclList_Eps(
        ) [VarMethodDeclList_Eps]
        VarDecl(
          Type(
           Broj
          ) [Type]
          VarDeclListL(
            VarDeclItem(
              VarDeclDefineSingle(
               nula
              ) [VarDeclDefineSingle]
            ) [VarDeclItem]
            VarDeclDefineSingle(
             jedan
            ) [VarDeclDefineSingle]
          ) [VarDeclListL]
        ) [VarDecl]
      ) [VarMethodDeclList_NoEps]
      VarDecl(
        Type(
         Oblik
        ) [Type]
        VarDeclItem(
          VarDeclDefineSingle(
           ob
          ) [VarDeclDefineSingle]
        ) [VarDeclItem]
      ) [VarDecl]
    ) [VarMethodDeclList_NoEps]
    StatementList_NoEps(
      StatementList_NoEps(
        StatementList_NoEps(
          StatementList_NoEps(
            StatementList_NoEps(
              StatementList_NoEps(
                StatementList_NoEps(
                  StatementList_NoEps(
                    StatementList_NoEps(
                      StatementList_NoEps(
                        StatementList_NoEps(
                          StatementList_NoEps(
                            StatementList_NoEps(
                              StatementList_Eps(
                              ) [StatementList_Eps]
                              StatementDes(
                                DesignStatAssignment(
                                  DesIdent(
                                   ob
                                  ) [DesIdent]
                                  AssignementExpr(
                                    TermExpr(
                                      TermFact(
                                        FactorDesign(
                                          DesEnum(
                                           Oblik
                                           KUPA
                                          ) [DesEnum]
                                        ) [FactorDesign]
                                      ) [TermFact]
                                    ) [TermExpr]
                                  ) [AssignementExpr]
                                ) [DesignStatAssignment]
                              ) [StatementDes]
                            ) [StatementList_NoEps]
                            StatPrint(
                              TermExpr(
                                TermFact(
                                  FactorDesign(
                                    DesIdent(
                                     ob
                                    ) [DesIdent]
                                  ) [FactorDesign]
                                ) [TermFact]
                              ) [TermExpr]
                            ) [StatPrint]
                          ) [StatementList_NoEps]
                          StatementDes(
                            DesignStatAssignment(
                              DesIdent(
                               nula
                              ) [DesIdent]
                              AssignementExpr(
                                TermExpr(
                                  TermFact(
                                    FactorDesign(
                                      DesEnum(
                                       Oblik
                                       KUPA
                                      ) [DesEnum]
                                    ) [FactorDesign]
                                  ) [TermFact]
                                ) [TermExpr]
                              ) [AssignementExpr]
                            ) [DesignStatAssignment]
                          ) [StatementDes]
                        ) [StatementList_NoEps]
                        StatementDes(
                          DesignStatAssignment(
                            DesIdent(
                             jedan
                            ) [DesIdent]
                            AssignementExpr(
                              TermExpr(
                                TermFact(
                                  FactorDesign(
                                    DesEnum(
                                     Broj
                                     JEDAN
                                    ) [DesEnum]
                                  ) [FactorDesign]
                                ) [TermFact]
                              ) [TermExpr]
                            ) [AssignementExpr]
                          ) [DesignStatAssignment]
                        ) [StatementDes]
                      ) [StatementList_NoEps]
                      StatementDes(
                        DesignStatAssignment(
                          DesIdent(
                           bodovi
                          ) [DesIdent]
                          AssignementExpr(
                            TermExpr(
                              TermFact(
                                FactorConst(
                                  ConstNum(
                                   0
                                  ) [ConstNum]
                                ) [FactorConst]
                              ) [TermFact]
                            ) [TermExpr]
                          ) [AssignementExpr]
                        ) [DesignStatAssignment]
                      ) [StatementDes]
                    ) [StatementList_NoEps]
                    StatementDes(
                      DesignStatInc(
                        DesIdent(
                         bodovi
                        ) [DesIdent]
                      ) [DesignStatInc]
                    ) [StatementDes]
                  ) [StatementList_NoEps]
                  StatementDes(
                    DesignStatAssignment(
                      DesIdent(
                       jedan
                      ) [DesIdent]
                      AssignementExpr(
                        TermExpr(
                          TermFact(
                            FactorDesign(
                              DesEnum(
                               Broj
                               PET
                              ) [DesEnum]
                            ) [FactorDesign]
                          ) [TermFact]
                        ) [TermExpr]
                      ) [AssignementExpr]
                    ) [DesignStatAssignment]
                  ) [StatementDes]
                ) [StatementList_NoEps]
                StatPrint(
                  TermExpr(
                    TermFact(
                      FactorDesign(
                        DesIdent(
                         bodovi
                        ) [DesIdent]
                      ) [FactorDesign]
                    ) [TermFact]
                  ) [TermExpr]
                ) [StatPrint]
              ) [StatementList_NoEps]
              StatPrint(
                TermExpr(
                  TermFact(
                    FactorDesign(
                      DesIdent(
                       jedan
                      ) [DesIdent]
                    ) [FactorDesign]
                  ) [TermFact]
                ) [TermExpr]
              ) [StatPrint]
            ) [StatementList_NoEps]
            StatementDes(
              DesignStatAssignment(
                DesIdent(
                 bodovi
                ) [DesIdent]
                AssignementExpr(
                  AddopExp(
                    TermExpr(
                      TermFact(
                        FactorDesign(
                          DesIdent(
                           bodovi
                          ) [DesIdent]
                        ) [FactorDesign]
                      ) [TermFact]
                    ) [TermExpr]
                    Addop_Plus(
                    ) [Addop_Plus]
                    TermFact(
                      FactorDesign(
                        DesIdent(
                         jedan
                        ) [DesIdent]
                      ) [FactorDesign]
                    ) [TermFact]
                  ) [AddopExp]
                ) [AssignementExpr]
              ) [DesignStatAssignment]
            ) [StatementDes]
          ) [StatementList_NoEps]
          StatPrint(
            TermExpr(
              TermFact(
                FactorDesign(
                  DesIdent(
                   bodovi
                  ) [DesIdent]
                ) [FactorDesign]
              ) [TermFact]
            ) [TermExpr]
          ) [StatPrint]
        ) [StatementList_NoEps]
        StatementDes(
          DesignStatAssignment(
            DesIdent(
             bodovi
            ) [DesIdent]
            AssignementExpr(
              AddopExp(
                TermExpr(
                  TermFact(
                    FactorDesign(
                      DesIdent(
                       bodovi
                      ) [DesIdent]
                    ) [FactorDesign]
                  ) [TermFact]
                ) [TermExpr]
                Addop_Plus(
                ) [Addop_Plus]
                TermFact(
                  FactorExpr(
                    AddopExp(
                      AddopExp(
                        TermExpr(
                          TermMulop(
                            TermFact(
                              FactorExpr(
                                AddopExp(
                                  TermExpr(
                                    TermMulop(
                                      TermFact(
                                        FactorDesign(
                                          DesIdent(
                                           jedan
                                          ) [DesIdent]
                                        ) [FactorDesign]
                                      ) [TermFact]
                                      Mulop_Mul(
                                      ) [Mulop_Mul]
                                      FactorDesign(
                                        DesIdent(
                                         jedan
                                        ) [DesIdent]
                                      ) [FactorDesign]
                                    ) [TermMulop]
                                  ) [TermExpr]
                                  Addop_Minus(
                                  ) [Addop_Minus]
                                  TermFact(
                                    FactorConst(
                                      ConstNum(
                                       1
                                      ) [ConstNum]
                                    ) [FactorConst]
                                  ) [TermFact]
                                ) [AddopExp]
                              ) [FactorExpr]
                            ) [TermFact]
                            Mulop_Mul(
                            ) [Mulop_Mul]
                            FactorConst(
                              ConstNum(
                               2
                              ) [ConstNum]
                            ) [FactorConst]
                          ) [TermMulop]
                        ) [TermExpr]
                        Addop_Minus(
                        ) [Addop_Minus]
                        TermFact(
                          FactorExpr(
                            AddopExp(
                              AddopExp(
                                TermExpr(
                                  TermMulop(
                                    TermFact(
                                      FactorConst(
                                        ConstNum(
                                         3
                                        ) [ConstNum]
                                      ) [FactorConst]
                                    ) [TermFact]
                                    Mulop_Mod(
                                    ) [Mulop_Mod]
                                    FactorConst(
                                      ConstNum(
                                       2
                                      ) [ConstNum]
                                    ) [FactorConst]
                                  ) [TermMulop]
                                ) [TermExpr]
                                Addop_Plus(
                                ) [Addop_Plus]
                                TermMulop(
                                  TermFact(
                                    FactorConst(
                                      ConstNum(
                                       3
                                      ) [ConstNum]
                                    ) [FactorConst]
                                  ) [TermFact]
                                  Mulop_Mul(
                                  ) [Mulop_Mul]
                                  FactorConst(
                                    ConstNum(
                                     2
                                    ) [ConstNum]
                                  ) [FactorConst]
                                ) [TermMulop]
                              ) [AddopExp]
                              Addop_Minus(
                              ) [Addop_Minus]
                              TermFact(
                                FactorConst(
                                  ConstNum(
                                   3
                                  ) [ConstNum]
                                ) [FactorConst]
                              ) [TermFact]
                            ) [AddopExp]
                          ) [FactorExpr]
                        ) [TermFact]
                      ) [AddopExp]
                      Addop_Minus(
                      ) [Addop_Minus]
                      TermMulop(
                        TermFact(
                          FactorDesign(
                            DesEnum(
                             Broj
                             JEDAN
                            ) [DesEnum]
                          ) [FactorDesign]
                        ) [TermFact]
                        Mulop_Mul(
                        ) [Mulop_Mul]
                        FactorConst(
                          ConstNum(
                           2
                          ) [ConstNum]
                        ) [FactorConst]
                      ) [TermMulop]
                    ) [AddopExp]
                  ) [FactorExpr]
                ) [TermFact]
              ) [AddopExp]
            ) [AssignementExpr]
          ) [DesignStatAssignment]
        ) [StatementDes]
      ) [StatementList_NoEps]
      StatPrint(
        TermExpr(
          TermFact(
            FactorDesign(
              DesIdent(
               bodovi
              ) [DesIdent]
            ) [FactorDesign]
          ) [TermFact]
        ) [TermExpr]
      ) [StatPrint]
    ) [StatementList_NoEps]
  ) [MethodDecl]
) [Program]
INFO  19:01:11,027 - ===================================
INFO  19:01:11,032 - Deklarisan novi enum tip Broj na liniji 3
INFO  19:01:11,032 - Deklarisana konstanta NULA unutar enuma Broj na liniji 3
INFO  19:01:11,032 - Deklarisana konstanta JEDAN unutar enuma Broj na liniji 3
INFO  19:01:11,032 - Deklarisana konstanta PET unutar enuma Broj na liniji 3
INFO  19:01:11,032 - Deklarisana konstanta DESET unutar enuma Broj na liniji 3
INFO  19:01:11,032 - Deklarisan novi enum tip Oblik na liniji 4
INFO  19:01:11,032 - Deklarisana konstanta KOCKA unutar enuma Oblik na liniji 4
INFO  19:01:11,032 - Deklarisana konstanta KVADAR unutar enuma Oblik na liniji 4
INFO  19:01:11,032 - Deklarisana konstanta KUPA unutar enuma Oblik na liniji 4
INFO  19:01:11,032 - Deklarisana promenljiva bodovi tipa 1 na liniji 5
INFO  19:01:11,032 - Obradjuje se funkcija main na liniji 8
INFO  19:01:11,033 - Deklarisana promenljiva nula tipa 6 na liniji 9
INFO  19:01:11,033 - Deklarisana promenljiva jedan tipa 6 na liniji 9
INFO  19:01:11,033 - Deklarisana promenljiva ob tipa 6 na liniji 10
INFO  19:01:11,033 - Print funkcija na liniji 13
ERROR 19:01:11,033 - Greska: Nemoguce dodeliti jedan tip enuma drugom tipu enuma na liniji 14
INFO  19:01:11,033 - Dodeljenja vrednost: 1 je design,1 je assign
INFO  19:01:11,034 - Inkrementirana vrednost
INFO  19:01:11,034 - Print funkcija na liniji 20
INFO  19:01:11,034 - Print funkcija na liniji 21
INFO  19:01:11,034 - Dodeljenja vrednost: 1 je design,1 je assign
INFO  19:01:11,034 - Print funkcija na liniji 23
INFO  19:01:11,034 - Dodeljenja vrednost: 1 je design,1 je assign
INFO  19:01:11,034 - Print funkcija na liniji 26
INFO  19:01:11,034 -  Print count calls = 5
INFO  19:01:11,034 -  Deklarisanih promenljivih ima = 5
ERROR 19:01:11,035 - Parsiranje NIJE uspesno zavrseno!
