INFO  17:04:01,015 - Compiling source file: C:\Users\ikadr\Desktop\PP\Projekat\Rad\workspace\MJCompiler\test\program.mj
INFO  17:04:01,183 - #2 program
INFO  17:04:01,184 - #28 test301
INFO  17:04:01,184 - #9 enum
INFO  17:04:01,191 - #28 Broj
INFO  17:04:01,191 - #17 {
INFO  17:04:01,192 - #28 NULA
INFO  17:04:01,192 - #12 ,
INFO  17:04:01,192 - #28 JEDAN
INFO  17:04:01,193 - #12 ,
INFO  17:04:01,194 - #28 PET
INFO  17:04:01,194 - #11 =
INFO  17:04:01,194 - #27 5
INFO  17:04:01,195 - #12 ,
INFO  17:04:01,195 - #28 DESET
INFO  17:04:01,195 - #11 =
INFO  17:04:01,195 - #27 10
INFO  17:04:01,196 - #18 }
INFO  17:04:01,196 - #17 {
INFO  17:04:01,199 - #6 void
INFO  17:04:01,199 - #28 main
INFO  17:04:01,201 - #13 (
INFO  17:04:01,227 - #14 )
INFO  17:04:01,227 - #28 int
INFO  17:04:01,230 - #28 x
INFO  17:04:01,231 - #12 ,
INFO  17:04:01,232 - #28 y
INFO  17:04:01,232 - #12 ,
INFO  17:04:01,232 - #28 z
INFO  17:04:01,232 - #10 ;
INFO  17:04:01,233 - #28 Broj
INFO  17:04:01,235 - #28 pet
INFO  17:04:01,235 - #10 ;
INFO  17:04:01,235 - #17 {
INFO  17:04:01,235 - #28 pet
INFO  17:04:01,237 - #11 =
INFO  17:04:01,237 - #28 Broj
INFO  17:04:01,237 - #19 .
INFO  17:04:01,237 - #28 JEDAN
INFO  17:04:01,238 - #10 ;
INFO  17:04:01,239 - #28 x
INFO  17:04:01,240 - #11 =
INFO  17:04:01,240 - #27 7
INFO  17:04:01,240 - #10 ;
INFO  17:04:01,241 - #28 y
INFO  17:04:01,241 - #11 =
INFO  17:04:01,242 - #27 5
INFO  17:04:01,242 - #10 ;
INFO  17:04:01,242 - #28 z
INFO  17:04:01,242 - #11 =
INFO  17:04:01,242 - #28 x
INFO  17:04:01,242 - #24 *
INFO  17:04:01,243 - #28 pet
INFO  17:04:01,245 - #10 ;
INFO  17:04:01,246 - #4 print
INFO  17:04:01,246 - #13 (
INFO  17:04:01,246 - #29 a
INFO  17:04:01,246 - #14 )
INFO  17:04:01,247 - #10 ;
INFO  17:04:01,247 - #4 print
INFO  17:04:01,247 - #13 (
INFO  17:04:01,248 - #28 y
INFO  17:04:01,248 - #14 )
INFO  17:04:01,248 - #10 ;
INFO  17:04:01,248 - #4 print
INFO  17:04:01,249 - #13 (
INFO  17:04:01,249 - #28 z
INFO  17:04:01,249 - #14 )
INFO  17:04:01,249 - #10 ;
INFO  17:04:01,249 - #28 x
INFO  17:04:01,249 - #21 --
INFO  17:04:01,249 - #10 ;
INFO  17:04:01,250 - #4 print
INFO  17:04:01,250 - #13 (
INFO  17:04:01,250 - #28 x
INFO  17:04:01,250 - #14 )
INFO  17:04:01,250 - #10 ;
INFO  17:04:01,250 - #18 }
INFO  17:04:01,251 - #18 }
INFO  17:04:01,284 - Program(
  ProgName(
   test301
  ) [ProgName]
  GlobalDeclListL(
    GlobalDeclListEps(
    ) [GlobalDeclListEps]
    GlobalDeclEnum(
      EnumDecl(
       Broj
        EnumDeclListL(
          EnumDeclListL(
            EnumDeclListL(
              EnumDeclItem(
                EnumDeclDefNoVal(
                 NULA
                ) [EnumDeclDefNoVal]
              ) [EnumDeclItem]
              EnumDeclDefNoVal(
               JEDAN
              ) [EnumDeclDefNoVal]
            ) [EnumDeclListL]
            EnumDeclDefVal(
             PET
             5
            ) [EnumDeclDefVal]
          ) [EnumDeclListL]
          EnumDeclDefVal(
           DESET
           10
          ) [EnumDeclDefVal]
        ) [EnumDeclListL]
      ) [EnumDecl]
    ) [GlobalDeclEnum]
  ) [GlobalDeclListL]
  MethodDecl(
    MethodSignature(
      VoidableType(
      ) [VoidableType]
     main
    ) [MethodSignature]
    VarMethodDeclList_NoEps(
      VarMethodDeclList_NoEps(
        VarMethodDeclList_Eps(
        ) [VarMethodDeclList_Eps]
        VarDecl(
          Type(
           int
          ) [Type]
          VarDeclListL(
            VarDeclListL(
              VarDeclItem(
                VarDeclDefineSingle(
                 x
                ) [VarDeclDefineSingle]
              ) [VarDeclItem]
              VarDeclDefineSingle(
               y
              ) [VarDeclDefineSingle]
            ) [VarDeclListL]
            VarDeclDefineSingle(
             z
            ) [VarDeclDefineSingle]
          ) [VarDeclListL]
        ) [VarDecl]
      ) [VarMethodDeclList_NoEps]
      VarDecl(
        Type(
         Broj
        ) [Type]
        VarDeclItem(
          VarDeclDefineSingle(
           pet
          ) [VarDeclDefineSingle]
        ) [VarDeclItem]
      ) [VarDecl]
    ) [VarMethodDeclList_NoEps]
    StatementList_NoEps(
      StatementList_NoEps(
        StatementList_NoEps(
          StatementList_NoEps(
            StatementList_NoEps(
              StatementList_NoEps(
                StatementList_NoEps(
                  StatementList_NoEps(
                    StatementList_NoEps(
                      StatementList_Eps(
                      ) [StatementList_Eps]
                      StatementDes(
                        DesignStatAssignment(
                          DesIdent(
                           pet
                          ) [DesIdent]
                          AssignementExpr(
                            TermExpr(
                              TermFact(
                                FactorDesign(
                                  DesEnum(
                                   Broj
                                   JEDAN
                                  ) [DesEnum]
                                ) [FactorDesign]
                              ) [TermFact]
                            ) [TermExpr]
                          ) [AssignementExpr]
                        ) [DesignStatAssignment]
                      ) [StatementDes]
                    ) [StatementList_NoEps]
                    StatementDes(
                      DesignStatAssignment(
                        DesIdent(
                         x
                        ) [DesIdent]
                        AssignementExpr(
                          TermExpr(
                            TermFact(
                              FactorConst(
                                ConstNum(
                                 7
                                ) [ConstNum]
                              ) [FactorConst]
                            ) [TermFact]
                          ) [TermExpr]
                        ) [AssignementExpr]
                      ) [DesignStatAssignment]
                    ) [StatementDes]
                  ) [StatementList_NoEps]
                  StatementDes(
                    DesignStatAssignment(
                      DesIdent(
                       y
                      ) [DesIdent]
                      AssignementExpr(
                        TermExpr(
                          TermFact(
                            FactorConst(
                              ConstNum(
                               5
                              ) [ConstNum]
                            ) [FactorConst]
                          ) [TermFact]
                        ) [TermExpr]
                      ) [AssignementExpr]
                    ) [DesignStatAssignment]
                  ) [StatementDes]
                ) [StatementList_NoEps]
                StatementDes(
                  DesignStatAssignment(
                    DesIdent(
                     z
                    ) [DesIdent]
                    AssignementExpr(
                      TermExpr(
                        TermMulop(
                          TermFact(
                            FactorDesign(
                              DesIdent(
                               x
                              ) [DesIdent]
                            ) [FactorDesign]
                          ) [TermFact]
                          Mulop_Mul(
                          ) [Mulop_Mul]
                          FactorDesign(
                            DesIdent(
                             pet
                            ) [DesIdent]
                          ) [FactorDesign]
                        ) [TermMulop]
                      ) [TermExpr]
                    ) [AssignementExpr]
                  ) [DesignStatAssignment]
                ) [StatementDes]
              ) [StatementList_NoEps]
              StatPrint(
                TermExpr(
                  TermFact(
                    FactorConst(
                      ConstChar(
                       a
                      ) [ConstChar]
                    ) [FactorConst]
                  ) [TermFact]
                ) [TermExpr]
              ) [StatPrint]
            ) [StatementList_NoEps]
            StatPrint(
              TermExpr(
                TermFact(
                  FactorDesign(
                    DesIdent(
                     y
                    ) [DesIdent]
                  ) [FactorDesign]
                ) [TermFact]
              ) [TermExpr]
            ) [StatPrint]
          ) [StatementList_NoEps]
          StatPrint(
            TermExpr(
              TermFact(
                FactorDesign(
                  DesIdent(
                   z
                  ) [DesIdent]
                ) [FactorDesign]
              ) [TermFact]
            ) [TermExpr]
          ) [StatPrint]
        ) [StatementList_NoEps]
        StatementDes(
          DesignStatDec(
            DesIdent(
             x
            ) [DesIdent]
          ) [DesignStatDec]
        ) [StatementDes]
      ) [StatementList_NoEps]
      StatPrint(
        TermExpr(
          TermFact(
            FactorDesign(
              DesIdent(
               x
              ) [DesIdent]
            ) [FactorDesign]
          ) [TermFact]
        ) [TermExpr]
      ) [StatPrint]
    ) [StatementList_NoEps]
  ) [MethodDecl]
) [Program]
INFO  17:04:01,285 - ===================================
INFO  17:04:01,296 - Deklarisan novi enum tip Broj na liniji 5
INFO  17:04:01,296 - Obradjuje se funkcija main na liniji 8
INFO  17:04:01,301 - Deklarisana promenljiva x tipa 1 na liniji 9
INFO  17:04:01,302 - Deklarisana promenljiva y tipa 1 na liniji 9
INFO  17:04:01,303 - Deklarisana promenljiva z tipa 1 na liniji 9
INFO  17:04:01,303 - Deklarisana promenljiva pet tipa 6 na liniji 10
INFO  17:04:01,306 - Dodeljenja vrednost enuma promenljivoj enuma
INFO  17:04:01,308 - Dodeljenja vrednost: 1 je design,1 je assign
INFO  17:04:01,308 - Dodeljenja vrednost: 1 je design,1 je assign
INFO  17:04:01,309 - Dodeljenja vrednost: 1 je design,1 je assign
INFO  17:04:01,309 - Dekrementirana vrednost
INFO  17:04:01,309 -  Print count calls = 4
INFO  17:04:01,310 -  Deklarisanih promenljivih ima = 4
INFO  17:04:01,312 - Parsiranje uspesno zavrseno!
