INFO  00:03:12,230 - Compiling source file: C:\Users\ikadr\Desktop\PP\Projekat\Rad\workspace\MJCompiler\test\program.mj
INFO  00:03:12,333 - #2 program
INFO  00:03:12,333 - #28 test301
INFO  00:03:12,334 - #9 enum
INFO  00:03:12,337 - #28 Broj
INFO  00:03:12,337 - #17 {
INFO  00:03:12,338 - #28 NULA
INFO  00:03:12,338 - #12 ,
INFO  00:03:12,339 - #28 JEDAN
INFO  00:03:12,339 - #12 ,
INFO  00:03:12,339 - #28 PET
INFO  00:03:12,339 - #11 =
INFO  00:03:12,340 - #27 5
INFO  00:03:12,340 - #12 ,
INFO  00:03:12,340 - #28 DESET
INFO  00:03:12,340 - #11 =
INFO  00:03:12,340 - #27 10
INFO  00:03:12,340 - #18 }
INFO  00:03:12,340 - #9 enum
INFO  00:03:12,343 - #28 Kocka
INFO  00:03:12,343 - #17 {
INFO  00:03:12,343 - #28 STRANA
INFO  00:03:12,343 - #12 ,
INFO  00:03:12,343 - #28 OBIM
INFO  00:03:12,343 - #18 }
INFO  00:03:12,344 - #8 const
INFO  00:03:12,344 - #28 int
INFO  00:03:12,344 - #28 jedan
INFO  00:03:12,345 - #11 =
INFO  00:03:12,346 - #27 1
INFO  00:03:12,346 - #10 ;
INFO  00:03:12,347 - #8 const
INFO  00:03:12,349 - #28 int
INFO  00:03:12,349 - #28 pet
INFO  00:03:12,349 - #11 =
INFO  00:03:12,349 - #27 5
INFO  00:03:12,349 - #10 ;
INFO  00:03:12,349 - #28 int
INFO  00:03:12,350 - #28 niz
INFO  00:03:12,350 - #15 [
INFO  00:03:12,350 - #16 ]
INFO  00:03:12,350 - #10 ;
INFO  00:03:12,350 - #28 char
INFO  00:03:12,352 - #28 nizch
INFO  00:03:12,352 - #15 [
INFO  00:03:12,353 - #16 ]
INFO  00:03:12,353 - #10 ;
INFO  00:03:12,353 - #17 {
INFO  00:03:12,353 - #6 void
INFO  00:03:12,353 - #28 main
INFO  00:03:12,354 - #13 (
INFO  00:03:12,355 - #14 )
INFO  00:03:12,355 - #28 int
INFO  00:03:12,358 - #28 bodovi
INFO  00:03:12,358 - #10 ;
INFO  00:03:12,359 - #28 Broj
INFO  00:03:12,361 - #28 nula
INFO  00:03:12,361 - #12 ,
INFO  00:03:12,361 - #28 jedan
INFO  00:03:12,361 - #10 ;
INFO  00:03:12,361 - #28 Kocka
INFO  00:03:12,362 - #28 povrsina
INFO  00:03:12,362 - #10 ;
INFO  00:03:12,362 - #17 {
INFO  00:03:12,362 - #28 nula
INFO  00:03:12,364 - #11 =
INFO  00:03:12,364 - #28 Broj
INFO  00:03:12,364 - #19 .
INFO  00:03:12,364 - #28 NULA
INFO  00:03:12,364 - #10 ;
INFO  00:03:12,366 - #28 jedan
INFO  00:03:12,366 - #11 =
INFO  00:03:12,366 - #28 Broj
INFO  00:03:12,366 - #19 .
INFO  00:03:12,366 - #28 JEDAN
INFO  00:03:12,367 - #10 ;
INFO  00:03:12,367 - #28 povrsina
INFO  00:03:12,367 - #11 =
INFO  00:03:12,367 - #28 Broj
INFO  00:03:12,367 - #19 .
INFO  00:03:12,367 - #28 STRANA
INFO  00:03:12,367 - #10 ;
INFO  00:03:12,367 - #28 bodovi
INFO  00:03:12,367 - #11 =
INFO  00:03:12,368 - #27 0
INFO  00:03:12,368 - #10 ;
INFO  00:03:12,368 - #28 bodovi
INFO  00:03:12,368 - #20 ++
INFO  00:03:12,368 - #10 ;
INFO  00:03:12,369 - #28 bodovi
INFO  00:03:12,369 - #11 =
INFO  00:03:12,369 - #28 bodovi
INFO  00:03:12,369 - #23 +
INFO  00:03:12,369 - #28 jedan
INFO  00:03:12,372 - #10 ;
INFO  00:03:12,372 - #28 bodovi
INFO  00:03:12,372 - #11 =
INFO  00:03:12,373 - #28 bodovi
INFO  00:03:12,373 - #24 *
INFO  00:03:12,373 - #28 pet
INFO  00:03:12,376 - #10 ;
INFO  00:03:12,376 - #28 bodovi
INFO  00:03:12,377 - #21 --
INFO  00:03:12,377 - #10 ;
INFO  00:03:12,377 - #4 print
INFO  00:03:12,377 - #13 (
INFO  00:03:12,377 - #28 bodovi
INFO  00:03:12,377 - #14 )
INFO  00:03:12,378 - #10 ;
INFO  00:03:12,378 - #28 niz
INFO  00:03:12,378 - #11 =
INFO  00:03:12,378 - #5 new
INFO  00:03:12,378 - #28 int
INFO  00:03:12,378 - #15 [
INFO  00:03:12,378 - #27 2
INFO  00:03:12,378 - #16 ]
INFO  00:03:12,378 - #10 ;
INFO  00:03:12,379 - #28 niz
INFO  00:03:12,379 - #15 [
INFO  00:03:12,380 - #28 nula
INFO  00:03:12,380 - #16 ]
INFO  00:03:12,381 - #11 =
INFO  00:03:12,381 - #28 pet
INFO  00:03:12,381 - #10 ;
INFO  00:03:12,381 - #28 niz
INFO  00:03:12,381 - #15 [
INFO  00:03:12,381 - #27 1
INFO  00:03:12,381 - #16 ]
INFO  00:03:12,382 - #11 =
INFO  00:03:12,382 - #28 Broj
INFO  00:03:12,382 - #19 .
INFO  00:03:12,382 - #28 DESET
INFO  00:03:12,382 - #10 ;
INFO  00:03:12,388 - #28 bodovi
INFO  00:03:12,389 - #11 =
INFO  00:03:12,389 - #28 niz
INFO  00:03:12,389 - #15 [
INFO  00:03:12,389 - #27 1
INFO  00:03:12,390 - #16 ]
INFO  00:03:12,390 - #25 /
INFO  00:03:12,390 - #28 niz
INFO  00:03:12,392 - #15 [
INFO  00:03:12,393 - #27 0
INFO  00:03:12,393 - #16 ]
INFO  00:03:12,393 - #10 ;
INFO  00:03:12,394 - #4 print
INFO  00:03:12,394 - #13 (
INFO  00:03:12,394 - #28 bodovi
INFO  00:03:12,394 - #14 )
INFO  00:03:12,394 - #10 ;
INFO  00:03:12,394 - #4 print
INFO  00:03:12,395 - #13 (
INFO  00:03:12,395 - #28 niz
INFO  00:03:12,395 - #15 [
INFO  00:03:12,395 - #28 Broj
INFO  00:03:12,395 - #19 .
INFO  00:03:12,396 - #28 JEDAN
INFO  00:03:12,397 - #16 ]
INFO  00:03:12,397 - #14 )
INFO  00:03:12,397 - #10 ;
INFO  00:03:12,397 - #28 nizch
INFO  00:03:12,397 - #11 =
INFO  00:03:12,397 - #5 new
INFO  00:03:12,398 - #28 char
INFO  00:03:12,398 - #15 [
INFO  00:03:12,398 - #27 3
INFO  00:03:12,398 - #16 ]
INFO  00:03:12,398 - #10 ;
INFO  00:03:12,398 - #28 nizch
INFO  00:03:12,398 - #15 [
INFO  00:03:12,398 - #27 0
INFO  00:03:12,399 - #16 ]
INFO  00:03:12,399 - #11 =
INFO  00:03:12,399 - #29 a
INFO  00:03:12,399 - #10 ;
INFO  00:03:12,399 - #28 nizch
INFO  00:03:12,400 - #15 [
INFO  00:03:12,400 - #28 jedan
INFO  00:03:12,400 - #16 ]
INFO  00:03:12,400 - #11 =
INFO  00:03:12,400 - #29 b
INFO  00:03:12,400 - #10 ;
INFO  00:03:12,400 - #28 nizch
INFO  00:03:12,401 - #15 [
INFO  00:03:12,401 - #28 pet
INFO  00:03:12,401 - #22 -
INFO  00:03:12,401 - #27 3
INFO  00:03:12,403 - #16 ]
INFO  00:03:12,403 - #11 =
INFO  00:03:12,403 - #29 c
INFO  00:03:12,403 - #10 ;
INFO  00:03:12,403 - #4 print
INFO  00:03:12,404 - #13 (
INFO  00:03:12,404 - #28 nizch
INFO  00:03:12,404 - #15 [
INFO  00:03:12,404 - #27 2
INFO  00:03:12,404 - #22 -
INFO  00:03:12,404 - #27 1
INFO  00:03:12,404 - #16 ]
INFO  00:03:12,404 - #14 )
INFO  00:03:12,405 - #10 ;
INFO  00:03:12,405 - #4 print
INFO  00:03:12,405 - #13 (
INFO  00:03:12,405 - #28 nizch
INFO  00:03:12,405 - #15 [
INFO  00:03:12,405 - #28 jedan
INFO  00:03:12,405 - #24 *
INFO  00:03:12,405 - #27 2
INFO  00:03:12,406 - #16 ]
INFO  00:03:12,406 - #14 )
INFO  00:03:12,406 - #10 ;
INFO  00:03:12,406 - #28 bodovi
INFO  00:03:12,406 - #11 =
INFO  00:03:12,406 - #28 bodovi
INFO  00:03:12,406 - #23 +
INFO  00:03:12,406 - #13 (
INFO  00:03:12,406 - #13 (
INFO  00:03:12,408 - #28 pet
INFO  00:03:12,408 - #24 *
INFO  00:03:12,408 - #28 jedan
INFO  00:03:12,409 - #22 -
INFO  00:03:12,409 - #27 1
INFO  00:03:12,409 - #14 )
INFO  00:03:12,409 - #24 *
INFO  00:03:12,409 - #27 2
INFO  00:03:12,410 - #22 -
INFO  00:03:12,410 - #13 (
INFO  00:03:12,410 - #27 3
INFO  00:03:12,410 - #26 %
INFO  00:03:12,410 - #27 2
INFO  00:03:12,412 - #23 +
INFO  00:03:12,412 - #27 3
INFO  00:03:12,412 - #24 *
INFO  00:03:12,412 - #27 2
INFO  00:03:12,412 - #22 -
INFO  00:03:12,413 - #27 3
INFO  00:03:12,413 - #14 )
INFO  00:03:12,413 - #22 -
INFO  00:03:12,413 - #28 Broj
INFO  00:03:12,413 - #19 .
INFO  00:03:12,413 - #28 JEDAN
INFO  00:03:12,413 - #24 *
INFO  00:03:12,413 - #27 0
INFO  00:03:12,414 - #14 )
INFO  00:03:12,414 - #10 ;
INFO  00:03:12,414 - #4 print
INFO  00:03:12,414 - #13 (
INFO  00:03:12,414 - #28 bodovi
INFO  00:03:12,414 - #14 )
INFO  00:03:12,414 - #10 ;
INFO  00:03:12,415 - #3 read
INFO  00:03:12,415 - #13 (
INFO  00:03:12,415 - #28 bodovi
INFO  00:03:12,415 - #14 )
INFO  00:03:12,415 - #10 ;
INFO  00:03:12,415 - #28 bodovi
INFO  00:03:12,421 - #11 =
INFO  00:03:12,421 - #28 bodovi
INFO  00:03:12,422 - #23 +
INFO  00:03:12,422 - #27 1
INFO  00:03:12,422 - #10 ;
INFO  00:03:12,422 - #4 print
INFO  00:03:12,422 - #13 (
INFO  00:03:12,422 - #28 bodovi
INFO  00:03:12,422 - #14 )
INFO  00:03:12,423 - #10 ;
INFO  00:03:12,423 - #18 }
INFO  00:03:12,423 - #18 }
INFO  00:03:12,462 - Program(
  ProgName(
   test301
  ) [ProgName]
  GlobalDeclListL(
    GlobalDeclListL(
      GlobalDeclListL(
        GlobalDeclListL(
          GlobalDeclListL(
            GlobalDeclListL(
              GlobalDeclListEps(
              ) [GlobalDeclListEps]
              GlobalDeclEnum(
                EnumDecl(
                  EnumName(
                   Broj
                  ) [EnumName]
                  EnumDeclListL(
                    EnumDeclListL(
                      EnumDeclListL(
                        EnumDeclItem(
                          EnumDeclDefNoVal(
                           NULA
                          ) [EnumDeclDefNoVal]
                        ) [EnumDeclItem]
                        EnumDeclDefNoVal(
                         JEDAN
                        ) [EnumDeclDefNoVal]
                      ) [EnumDeclListL]
                      EnumDeclDefVal(
                       PET
                       5
                      ) [EnumDeclDefVal]
                    ) [EnumDeclListL]
                    EnumDeclDefVal(
                     DESET
                     10
                    ) [EnumDeclDefVal]
                  ) [EnumDeclListL]
                ) [EnumDecl]
              ) [GlobalDeclEnum]
            ) [GlobalDeclListL]
            GlobalDeclEnum(
              EnumDecl(
                EnumName(
                 Kocka
                ) [EnumName]
                EnumDeclListL(
                  EnumDeclItem(
                    EnumDeclDefNoVal(
                     STRANA
                    ) [EnumDeclDefNoVal]
                  ) [EnumDeclItem]
                  EnumDeclDefNoVal(
                   OBIM
                  ) [EnumDeclDefNoVal]
                ) [EnumDeclListL]
              ) [EnumDecl]
            ) [GlobalDeclEnum]
          ) [GlobalDeclListL]
          GlobalDeclConst(
            ConstDecl(
              Type(
               int
              ) [Type]
              ConstDeclItem(
                ConstDef(
                 jedan
                  ConstNum(
                   1
                  ) [ConstNum]
                ) [ConstDef]
              ) [ConstDeclItem]
            ) [ConstDecl]
          ) [GlobalDeclConst]
        ) [GlobalDeclListL]
        GlobalDeclConst(
          ConstDecl(
            Type(
             int
            ) [Type]
            ConstDeclItem(
              ConstDef(
               pet
                ConstNum(
                 5
                ) [ConstNum]
              ) [ConstDef]
            ) [ConstDeclItem]
          ) [ConstDecl]
        ) [GlobalDeclConst]
      ) [GlobalDeclListL]
      GlobalDeclVar(
        GlobalVarDecl(
          Type(
           int
          ) [Type]
          GlobalVarDeclItem(
            GlobalVarDeclDefOk(
              VarDeclDefineArray(
               niz
              ) [VarDeclDefineArray]
            ) [GlobalVarDeclDefOk]
          ) [GlobalVarDeclItem]
        ) [GlobalVarDecl]
      ) [GlobalDeclVar]
    ) [GlobalDeclListL]
    GlobalDeclVar(
      GlobalVarDecl(
        Type(
         char
        ) [Type]
        GlobalVarDeclItem(
          GlobalVarDeclDefOk(
            VarDeclDefineArray(
             nizch
            ) [VarDeclDefineArray]
          ) [GlobalVarDeclDefOk]
        ) [GlobalVarDeclItem]
      ) [GlobalVarDecl]
    ) [GlobalDeclVar]
  ) [GlobalDeclListL]
  MethodDecl(
    MethodSignature(
      VoidableType(
      ) [VoidableType]
     main
    ) [MethodSignature]
    VarMethodDeclList_NoEps(
      VarMethodDeclList_NoEps(
        VarMethodDeclList_NoEps(
          VarMethodDeclList_Eps(
          ) [VarMethodDeclList_Eps]
          VarDecl(
            Type(
             int
            ) [Type]
            VarDeclItem(
              VarDeclDefineSingle(
               bodovi
              ) [VarDeclDefineSingle]
            ) [VarDeclItem]
          ) [VarDecl]
        ) [VarMethodDeclList_NoEps]
        VarDecl(
          Type(
           Broj
          ) [Type]
          VarDeclListL(
            VarDeclItem(
              VarDeclDefineSingle(
               nula
              ) [VarDeclDefineSingle]
            ) [VarDeclItem]
            VarDeclDefineSingle(
             jedan
            ) [VarDeclDefineSingle]
          ) [VarDeclListL]
        ) [VarDecl]
      ) [VarMethodDeclList_NoEps]
      VarDecl(
        Type(
         Kocka
        ) [Type]
        VarDeclItem(
          VarDeclDefineSingle(
           povrsina
          ) [VarDeclDefineSingle]
        ) [VarDeclItem]
      ) [VarDecl]
    ) [VarMethodDeclList_NoEps]
    StatementList_NoEps(
      StatementList_NoEps(
        StatementList_NoEps(
          StatementList_NoEps(
            StatementList_NoEps(
              StatementList_NoEps(
                StatementList_NoEps(
                  StatementList_NoEps(
                    StatementList_NoEps(
                      StatementList_NoEps(
                        StatementList_NoEps(
                          StatementList_NoEps(
                            StatementList_NoEps(
                              StatementList_NoEps(
                                StatementList_NoEps(
                                  StatementList_NoEps(
                                    StatementList_NoEps(
                                      StatementList_NoEps(
                                        StatementList_NoEps(
                                          StatementList_NoEps(
                                            StatementList_NoEps(
                                              StatementList_NoEps(
                                                StatementList_NoEps(
                                                  StatementList_NoEps(
                                                    StatementList_NoEps(
                                                      StatementList_NoEps(
                                                        StatementList_Eps(
                                                        ) [StatementList_Eps]
                                                        StatementDes(
                                                          DesignStatAssignment(
                                                            DesIdent(
                                                             nula
                                                            ) [DesIdent]
                                                            AssignementExpr(
                                                              TermExpr(
                                                                TermFact(
                                                                  FactorDesign(
                                                                    DesEnum(
                                                                     Broj
                                                                     NULA
                                                                    ) [DesEnum]
                                                                  ) [FactorDesign]
                                                                ) [TermFact]
                                                              ) [TermExpr]
                                                            ) [AssignementExpr]
                                                          ) [DesignStatAssignment]
                                                        ) [StatementDes]
                                                      ) [StatementList_NoEps]
                                                      StatementDes(
                                                        DesignStatAssignment(
                                                          DesIdent(
                                                           jedan
                                                          ) [DesIdent]
                                                          AssignementExpr(
                                                            TermExpr(
                                                              TermFact(
                                                                FactorDesign(
                                                                  DesEnum(
                                                                   Broj
                                                                   JEDAN
                                                                  ) [DesEnum]
                                                                ) [FactorDesign]
                                                              ) [TermFact]
                                                            ) [TermExpr]
                                                          ) [AssignementExpr]
                                                        ) [DesignStatAssignment]
                                                      ) [StatementDes]
                                                    ) [StatementList_NoEps]
                                                    StatementDes(
                                                      DesignStatAssignment(
                                                        DesIdent(
                                                         povrsina
                                                        ) [DesIdent]
                                                        AssignementExpr(
                                                          TermExpr(
                                                            TermFact(
                                                              FactorDesign(
                                                                DesEnum(
                                                                 Broj
                                                                 STRANA
                                                                ) [DesEnum]
                                                              ) [FactorDesign]
                                                            ) [TermFact]
                                                          ) [TermExpr]
                                                        ) [AssignementExpr]
                                                      ) [DesignStatAssignment]
                                                    ) [StatementDes]
                                                  ) [StatementList_NoEps]
                                                  StatementDes(
                                                    DesignStatAssignment(
                                                      DesIdent(
                                                       bodovi
                                                      ) [DesIdent]
                                                      AssignementExpr(
                                                        TermExpr(
                                                          TermFact(
                                                            FactorConst(
                                                              ConstNum(
                                                               0
                                                              ) [ConstNum]
                                                            ) [FactorConst]
                                                          ) [TermFact]
                                                        ) [TermExpr]
                                                      ) [AssignementExpr]
                                                    ) [DesignStatAssignment]
                                                  ) [StatementDes]
                                                ) [StatementList_NoEps]
                                                StatementDes(
                                                  DesignStatInc(
                                                    DesIdent(
                                                     bodovi
                                                    ) [DesIdent]
                                                  ) [DesignStatInc]
                                                ) [StatementDes]
                                              ) [StatementList_NoEps]
                                              StatementDes(
                                                DesignStatAssignment(
                                                  DesIdent(
                                                   bodovi
                                                  ) [DesIdent]
                                                  AssignementExpr(
                                                    AddopExp(
                                                      TermExpr(
                                                        TermFact(
                                                          FactorDesign(
                                                            DesIdent(
                                                             bodovi
                                                            ) [DesIdent]
                                                          ) [FactorDesign]
                                                        ) [TermFact]
                                                      ) [TermExpr]
                                                      Addop_Plus(
                                                      ) [Addop_Plus]
                                                      TermFact(
                                                        FactorDesign(
                                                          DesIdent(
                                                           jedan
                                                          ) [DesIdent]
                                                        ) [FactorDesign]
                                                      ) [TermFact]
                                                    ) [AddopExp]
                                                  ) [AssignementExpr]
                                                ) [DesignStatAssignment]
                                              ) [StatementDes]
                                            ) [StatementList_NoEps]
                                            StatementDes(
                                              DesignStatAssignment(
                                                DesIdent(
                                                 bodovi
                                                ) [DesIdent]
                                                AssignementExpr(
                                                  TermExpr(
                                                    TermMulop(
                                                      TermFact(
                                                        FactorDesign(
                                                          DesIdent(
                                                           bodovi
                                                          ) [DesIdent]
                                                        ) [FactorDesign]
                                                      ) [TermFact]
                                                      Mulop_Mul(
                                                      ) [Mulop_Mul]
                                                      FactorDesign(
                                                        DesIdent(
                                                         pet
                                                        ) [DesIdent]
                                                      ) [FactorDesign]
                                                    ) [TermMulop]
                                                  ) [TermExpr]
                                                ) [AssignementExpr]
                                              ) [DesignStatAssignment]
                                            ) [StatementDes]
                                          ) [StatementList_NoEps]
                                          StatementDes(
                                            DesignStatDec(
                                              DesIdent(
                                               bodovi
                                              ) [DesIdent]
                                            ) [DesignStatDec]
                                          ) [StatementDes]
                                        ) [StatementList_NoEps]
                                        StatPrint(
                                          TermExpr(
                                            TermFact(
                                              FactorDesign(
                                                DesIdent(
                                                 bodovi
                                                ) [DesIdent]
                                              ) [FactorDesign]
                                            ) [TermFact]
                                          ) [TermExpr]
                                        ) [StatPrint]
                                      ) [StatementList_NoEps]
                                      StatementDes(
                                        DesignStatAssignment(
                                          DesIdent(
                                           niz
                                          ) [DesIdent]
                                          AssignementExpr(
                                            TermExpr(
                                              TermFact(
                                                FactorNewArr(
                                                  Type(
                                                   int
                                                  ) [Type]
                                                  TermExpr(
                                                    TermFact(
                                                      FactorConst(
                                                        ConstNum(
                                                         2
                                                        ) [ConstNum]
                                                      ) [FactorConst]
                                                    ) [TermFact]
                                                  ) [TermExpr]
                                                ) [FactorNewArr]
                                              ) [TermFact]
                                            ) [TermExpr]
                                          ) [AssignementExpr]
                                        ) [DesignStatAssignment]
                                      ) [StatementDes]
                                    ) [StatementList_NoEps]
                                    StatementDes(
                                      DesignStatAssignment(
                                        DesArr(
                                          ArrayName(
                                           niz
                                          ) [ArrayName]
                                          TermExpr(
                                            TermFact(
                                              FactorDesign(
                                                DesIdent(
                                                 nula
                                                ) [DesIdent]
                                              ) [FactorDesign]
                                            ) [TermFact]
                                          ) [TermExpr]
                                        ) [DesArr]
                                        AssignementExpr(
                                          TermExpr(
                                            TermFact(
                                              FactorDesign(
                                                DesIdent(
                                                 pet
                                                ) [DesIdent]
                                              ) [FactorDesign]
                                            ) [TermFact]
                                          ) [TermExpr]
                                        ) [AssignementExpr]
                                      ) [DesignStatAssignment]
                                    ) [StatementDes]
                                  ) [StatementList_NoEps]
                                  StatementDes(
                                    DesignStatAssignment(
                                      DesArr(
                                        ArrayName(
                                         niz
                                        ) [ArrayName]
                                        TermExpr(
                                          TermFact(
                                            FactorConst(
                                              ConstNum(
                                               1
                                              ) [ConstNum]
                                            ) [FactorConst]
                                          ) [TermFact]
                                        ) [TermExpr]
                                      ) [DesArr]
                                      AssignementExpr(
                                        TermExpr(
                                          TermFact(
                                            FactorDesign(
                                              DesEnum(
                                               Broj
                                               DESET
                                              ) [DesEnum]
                                            ) [FactorDesign]
                                          ) [TermFact]
                                        ) [TermExpr]
                                      ) [AssignementExpr]
                                    ) [DesignStatAssignment]
                                  ) [StatementDes]
                                ) [StatementList_NoEps]
                                StatementDes(
                                  DesignStatAssignment(
                                    DesIdent(
                                     bodovi
                                    ) [DesIdent]
                                    AssignementExpr(
                                      TermExpr(
                                        TermMulop(
                                          TermFact(
                                            FactorDesign(
                                              DesArr(
                                                ArrayName(
                                                 niz
                                                ) [ArrayName]
                                                TermExpr(
                                                  TermFact(
                                                    FactorConst(
                                                      ConstNum(
                                                       1
                                                      ) [ConstNum]
                                                    ) [FactorConst]
                                                  ) [TermFact]
                                                ) [TermExpr]
                                              ) [DesArr]
                                            ) [FactorDesign]
                                          ) [TermFact]
                                          Mulop_Div(
                                          ) [Mulop_Div]
                                          FactorDesign(
                                            DesArr(
                                              ArrayName(
                                               niz
                                              ) [ArrayName]
                                              TermExpr(
                                                TermFact(
                                                  FactorConst(
                                                    ConstNum(
                                                     0
                                                    ) [ConstNum]
                                                  ) [FactorConst]
                                                ) [TermFact]
                                              ) [TermExpr]
                                            ) [DesArr]
                                          ) [FactorDesign]
                                        ) [TermMulop]
                                      ) [TermExpr]
                                    ) [AssignementExpr]
                                  ) [DesignStatAssignment]
                                ) [StatementDes]
                              ) [StatementList_NoEps]
                              StatPrint(
                                TermExpr(
                                  TermFact(
                                    FactorDesign(
                                      DesIdent(
                                       bodovi
                                      ) [DesIdent]
                                    ) [FactorDesign]
                                  ) [TermFact]
                                ) [TermExpr]
                              ) [StatPrint]
                            ) [StatementList_NoEps]
                            StatPrint(
                              TermExpr(
                                TermFact(
                                  FactorDesign(
                                    DesArr(
                                      ArrayName(
                                       niz
                                      ) [ArrayName]
                                      TermExpr(
                                        TermFact(
                                          FactorDesign(
                                            DesEnum(
                                             Broj
                                             JEDAN
                                            ) [DesEnum]
                                          ) [FactorDesign]
                                        ) [TermFact]
                                      ) [TermExpr]
                                    ) [DesArr]
                                  ) [FactorDesign]
                                ) [TermFact]
                              ) [TermExpr]
                            ) [StatPrint]
                          ) [StatementList_NoEps]
                          StatementDes(
                            DesignStatAssignment(
                              DesIdent(
                               nizch
                              ) [DesIdent]
                              AssignementExpr(
                                TermExpr(
                                  TermFact(
                                    FactorNewArr(
                                      Type(
                                       char
                                      ) [Type]
                                      TermExpr(
                                        TermFact(
                                          FactorConst(
                                            ConstNum(
                                             3
                                            ) [ConstNum]
                                          ) [FactorConst]
                                        ) [TermFact]
                                      ) [TermExpr]
                                    ) [FactorNewArr]
                                  ) [TermFact]
                                ) [TermExpr]
                              ) [AssignementExpr]
                            ) [DesignStatAssignment]
                          ) [StatementDes]
                        ) [StatementList_NoEps]
                        StatementDes(
                          DesignStatAssignment(
                            DesArr(
                              ArrayName(
                               nizch
                              ) [ArrayName]
                              TermExpr(
                                TermFact(
                                  FactorConst(
                                    ConstNum(
                                     0
                                    ) [ConstNum]
                                  ) [FactorConst]
                                ) [TermFact]
                              ) [TermExpr]
                            ) [DesArr]
                            AssignementExpr(
                              TermExpr(
                                TermFact(
                                  FactorConst(
                                    ConstChar(
                                     a
                                    ) [ConstChar]
                                  ) [FactorConst]
                                ) [TermFact]
                              ) [TermExpr]
                            ) [AssignementExpr]
                          ) [DesignStatAssignment]
                        ) [StatementDes]
                      ) [StatementList_NoEps]
                      StatementDes(
                        DesignStatAssignment(
                          DesArr(
                            ArrayName(
                             nizch
                            ) [ArrayName]
                            TermExpr(
                              TermFact(
                                FactorDesign(
                                  DesIdent(
                                   jedan
                                  ) [DesIdent]
                                ) [FactorDesign]
                              ) [TermFact]
                            ) [TermExpr]
                          ) [DesArr]
                          AssignementExpr(
                            TermExpr(
                              TermFact(
                                FactorConst(
                                  ConstChar(
                                   b
                                  ) [ConstChar]
                                ) [FactorConst]
                              ) [TermFact]
                            ) [TermExpr]
                          ) [AssignementExpr]
                        ) [DesignStatAssignment]
                      ) [StatementDes]
                    ) [StatementList_NoEps]
                    StatementDes(
                      DesignStatAssignment(
                        DesArr(
                          ArrayName(
                           nizch
                          ) [ArrayName]
                          AddopExp(
                            TermExpr(
                              TermFact(
                                FactorDesign(
                                  DesIdent(
                                   pet
                                  ) [DesIdent]
                                ) [FactorDesign]
                              ) [TermFact]
                            ) [TermExpr]
                            Addop_Minus(
                            ) [Addop_Minus]
                            TermFact(
                              FactorConst(
                                ConstNum(
                                 3
                                ) [ConstNum]
                              ) [FactorConst]
                            ) [TermFact]
                          ) [AddopExp]
                        ) [DesArr]
                        AssignementExpr(
                          TermExpr(
                            TermFact(
                              FactorConst(
                                ConstChar(
                                 c
                                ) [ConstChar]
                              ) [FactorConst]
                            ) [TermFact]
                          ) [TermExpr]
                        ) [AssignementExpr]
                      ) [DesignStatAssignment]
                    ) [StatementDes]
                  ) [StatementList_NoEps]
                  StatPrint(
                    TermExpr(
                      TermFact(
                        FactorDesign(
                          DesArr(
                            ArrayName(
                             nizch
                            ) [ArrayName]
                            AddopExp(
                              TermExpr(
                                TermFact(
                                  FactorConst(
                                    ConstNum(
                                     2
                                    ) [ConstNum]
                                  ) [FactorConst]
                                ) [TermFact]
                              ) [TermExpr]
                              Addop_Minus(
                              ) [Addop_Minus]
                              TermFact(
                                FactorConst(
                                  ConstNum(
                                   1
                                  ) [ConstNum]
                                ) [FactorConst]
                              ) [TermFact]
                            ) [AddopExp]
                          ) [DesArr]
                        ) [FactorDesign]
                      ) [TermFact]
                    ) [TermExpr]
                  ) [StatPrint]
                ) [StatementList_NoEps]
                StatPrint(
                  TermExpr(
                    TermFact(
                      FactorDesign(
                        DesArr(
                          ArrayName(
                           nizch
                          ) [ArrayName]
                          TermExpr(
                            TermMulop(
                              TermFact(
                                FactorDesign(
                                  DesIdent(
                                   jedan
                                  ) [DesIdent]
                                ) [FactorDesign]
                              ) [TermFact]
                              Mulop_Mul(
                              ) [Mulop_Mul]
                              FactorConst(
                                ConstNum(
                                 2
                                ) [ConstNum]
                              ) [FactorConst]
                            ) [TermMulop]
                          ) [TermExpr]
                        ) [DesArr]
                      ) [FactorDesign]
                    ) [TermFact]
                  ) [TermExpr]
                ) [StatPrint]
              ) [StatementList_NoEps]
              StatementDes(
                DesignStatAssignment(
                  DesIdent(
                   bodovi
                  ) [DesIdent]
                  AssignementExpr(
                    AddopExp(
                      TermExpr(
                        TermFact(
                          FactorDesign(
                            DesIdent(
                             bodovi
                            ) [DesIdent]
                          ) [FactorDesign]
                        ) [TermFact]
                      ) [TermExpr]
                      Addop_Plus(
                      ) [Addop_Plus]
                      TermFact(
                        FactorExpr(
                          AddopExp(
                            AddopExp(
                              TermExpr(
                                TermMulop(
                                  TermFact(
                                    FactorExpr(
                                      AddopExp(
                                        TermExpr(
                                          TermMulop(
                                            TermFact(
                                              FactorDesign(
                                                DesIdent(
                                                 pet
                                                ) [DesIdent]
                                              ) [FactorDesign]
                                            ) [TermFact]
                                            Mulop_Mul(
                                            ) [Mulop_Mul]
                                            FactorDesign(
                                              DesIdent(
                                               jedan
                                              ) [DesIdent]
                                            ) [FactorDesign]
                                          ) [TermMulop]
                                        ) [TermExpr]
                                        Addop_Minus(
                                        ) [Addop_Minus]
                                        TermFact(
                                          FactorConst(
                                            ConstNum(
                                             1
                                            ) [ConstNum]
                                          ) [FactorConst]
                                        ) [TermFact]
                                      ) [AddopExp]
                                    ) [FactorExpr]
                                  ) [TermFact]
                                  Mulop_Mul(
                                  ) [Mulop_Mul]
                                  FactorConst(
                                    ConstNum(
                                     2
                                    ) [ConstNum]
                                  ) [FactorConst]
                                ) [TermMulop]
                              ) [TermExpr]
                              Addop_Minus(
                              ) [Addop_Minus]
                              TermFact(
                                FactorExpr(
                                  AddopExp(
                                    AddopExp(
                                      TermExpr(
                                        TermMulop(
                                          TermFact(
                                            FactorConst(
                                              ConstNum(
                                               3
                                              ) [ConstNum]
                                            ) [FactorConst]
                                          ) [TermFact]
                                          Mulop_Mod(
                                          ) [Mulop_Mod]
                                          FactorConst(
                                            ConstNum(
                                             2
                                            ) [ConstNum]
                                          ) [FactorConst]
                                        ) [TermMulop]
                                      ) [TermExpr]
                                      Addop_Plus(
                                      ) [Addop_Plus]
                                      TermMulop(
                                        TermFact(
                                          FactorConst(
                                            ConstNum(
                                             3
                                            ) [ConstNum]
                                          ) [FactorConst]
                                        ) [TermFact]
                                        Mulop_Mul(
                                        ) [Mulop_Mul]
                                        FactorConst(
                                          ConstNum(
                                           2
                                          ) [ConstNum]
                                        ) [FactorConst]
                                      ) [TermMulop]
                                    ) [AddopExp]
                                    Addop_Minus(
                                    ) [Addop_Minus]
                                    TermFact(
                                      FactorConst(
                                        ConstNum(
                                         3
                                        ) [ConstNum]
                                      ) [FactorConst]
                                    ) [TermFact]
                                  ) [AddopExp]
                                ) [FactorExpr]
                              ) [TermFact]
                            ) [AddopExp]
                            Addop_Minus(
                            ) [Addop_Minus]
                            TermMulop(
                              TermFact(
                                FactorDesign(
                                  DesEnum(
                                   Broj
                                   JEDAN
                                  ) [DesEnum]
                                ) [FactorDesign]
                              ) [TermFact]
                              Mulop_Mul(
                              ) [Mulop_Mul]
                              FactorConst(
                                ConstNum(
                                 0
                                ) [ConstNum]
                              ) [FactorConst]
                            ) [TermMulop]
                          ) [AddopExp]
                        ) [FactorExpr]
                      ) [TermFact]
                    ) [AddopExp]
                  ) [AssignementExpr]
                ) [DesignStatAssignment]
              ) [StatementDes]
            ) [StatementList_NoEps]
            StatPrint(
              TermExpr(
                TermFact(
                  FactorDesign(
                    DesIdent(
                     bodovi
                    ) [DesIdent]
                  ) [FactorDesign]
                ) [TermFact]
              ) [TermExpr]
            ) [StatPrint]
          ) [StatementList_NoEps]
          StatRead(
            DesIdent(
             bodovi
            ) [DesIdent]
          ) [StatRead]
        ) [StatementList_NoEps]
        StatementDes(
          DesignStatAssignment(
            DesIdent(
             bodovi
            ) [DesIdent]
            AssignementExpr(
              AddopExp(
                TermExpr(
                  TermFact(
                    FactorDesign(
                      DesIdent(
                       bodovi
                      ) [DesIdent]
                    ) [FactorDesign]
                  ) [TermFact]
                ) [TermExpr]
                Addop_Plus(
                ) [Addop_Plus]
                TermFact(
                  FactorConst(
                    ConstNum(
                     1
                    ) [ConstNum]
                  ) [FactorConst]
                ) [TermFact]
              ) [AddopExp]
            ) [AssignementExpr]
          ) [DesignStatAssignment]
        ) [StatementDes]
      ) [StatementList_NoEps]
      StatPrint(
        TermExpr(
          TermFact(
            FactorDesign(
              DesIdent(
               bodovi
              ) [DesIdent]
            ) [FactorDesign]
          ) [TermFact]
        ) [TermExpr]
      ) [StatPrint]
    ) [StatementList_NoEps]
  ) [MethodDecl]
) [Program]
INFO  00:03:12,473 - ===================================
INFO  00:03:12,481 - Deklarisan novi enum tip Broj na liniji 5
INFO  00:03:12,481 - Deklarisan novi enum tip Kocka na liniji 6
INFO  00:03:12,482 - Deklarisana konstanta 'jedan' na liniji 8
INFO  00:03:12,482 - Deklarisana konstanta 'pet' na liniji 9
INFO  00:03:12,482 - Deklarisana promenljiva niza niz tipa 1 na liniji 11
INFO  00:03:12,482 - Deklarisana promenljiva niza nizch tipa 2 na liniji 12
INFO  00:03:12,482 - Obradjuje se funkcija main na liniji 15
INFO  00:03:12,482 - Deklarisana promenljiva bodovi tipa 1 na liniji 16
INFO  00:03:12,482 - Deklarisana promenljiva nula tipa 6 na liniji 17
INFO  00:03:12,482 - Deklarisana promenljiva jedan tipa 6 na liniji 17
INFO  00:03:12,482 - Deklarisana promenljiva povrsina tipa 6 na liniji 18
ERROR 00:03:12,483 - Greska: nekompatibilni tipovi u dodeli na liniji 20
ERROR 00:03:12,483 - 6 je kind designatora, 0 je kind assignmenta
ERROR 00:03:12,483 - Greska: nekompatibilni tipovi u dodeli na liniji 21
ERROR 00:03:12,483 - 6 je kind designatora, 0 je kind assignmenta
ERROR 00:03:12,483 - Greska: nekompatibilni tipovi u dodeli na liniji 22
ERROR 00:03:12,483 - 6 je kind designatora, 0 je kind assignmenta
INFO  00:03:12,484 - Dodeljenja vrednost: 1 je design,1 je assign
INFO  00:03:12,484 - Inkrementirana vrednost
INFO  00:03:12,484 - Dodeljenja vrednost: 1 je design,1 je assign
INFO  00:03:12,484 - Dodeljenja vrednost: 1 je design,1 je assign
INFO  00:03:12,484 - Dekrementirana vrednost
INFO  00:03:12,484 - Print funkcija na liniji 28
ERROR 00:03:12,484 -  OVDE Greska: nekompatibilni tipovi u dodeli na liniji 33
ERROR 00:03:12,484 - 1 je kind designatora, 0 je kind assignmenta
INFO  00:03:12,485 - Dodeljenja vrednost: 1 je design,1 je assign
INFO  00:03:12,485 - Print funkcija na liniji 35
ERROR 00:03:12,485 - Greska: indeks u zagradama nije int na liniji 36
INFO  00:03:12,485 - Print funkcija na liniji 36
INFO  00:03:12,485 - Print funkcija na liniji 43
INFO  00:03:12,485 - Print funkcija na liniji 44
INFO  00:03:12,486 - Dodeljenja vrednost: 1 je design,1 je assign
INFO  00:03:12,486 - Print funkcija na liniji 48
INFO  00:03:12,486 - Read funkcija na liniji 51
INFO  00:03:12,486 - Dodeljenja vrednost: 1 je design,1 je assign
INFO  00:03:12,486 - Print funkcija na liniji 53
INFO  00:03:12,486 -  Print count calls = 7
INFO  00:03:12,486 -  Deklarisanih promenljivih ima = 6
ERROR 00:03:12,488 - Parsiranje NIJE uspesno zavrseno!
