INFO  12:27:21,717 - Compiling source file: C:\Users\ikadr\Desktop\PP\Projekat\Rad\workspace\MJCompiler\test\program.mj
INFO  12:27:21,807 - #2 program
INFO  12:27:21,808 - #28 test301
INFO  12:27:21,808 - #28 int
INFO  12:27:21,810 - #28 niz
INFO  12:27:21,811 - #15 [
INFO  12:27:21,811 - #16 ]
INFO  12:27:21,811 - #10 ;
INFO  12:27:21,812 - #17 {
INFO  12:27:21,813 - #6 void
INFO  12:27:21,813 - #28 main
INFO  12:27:21,814 - #13 (
INFO  12:27:21,814 - #14 )
INFO  12:27:21,814 - #17 {
INFO  12:27:21,816 - #28 niz
INFO  12:27:21,817 - #11 =
INFO  12:27:21,817 - #5 new
INFO  12:27:21,817 - #28 int
INFO  12:27:21,817 - #15 [
INFO  12:27:21,818 - #27 2
INFO  12:27:21,818 - #16 ]
INFO  12:27:21,819 - #10 ;
INFO  12:27:21,819 - #18 }
INFO  12:27:21,820 - #18 }
INFO  12:27:21,835 - Program(
  ProgName(
   test301
  ) [ProgName]
  GlobalDeclListL(
    GlobalDeclListEps(
    ) [GlobalDeclListEps]
    GlobalDeclVar(
      GlobalVarDecl(
        Type(
         int
        ) [Type]
        GlobalVarDeclItem(
          GlobalVarDeclDefOk(
            VarDeclDefineArray(
             niz
            ) [VarDeclDefineArray]
          ) [GlobalVarDeclDefOk]
        ) [GlobalVarDeclItem]
      ) [GlobalVarDecl]
    ) [GlobalDeclVar]
  ) [GlobalDeclListL]
  MethodDecl(
    MethodSignature(
      VoidableType(
      ) [VoidableType]
     main
    ) [MethodSignature]
    VarMethodDeclList_Eps(
    ) [VarMethodDeclList_Eps]
    StatementList_NoEps(
      StatementList_Eps(
      ) [StatementList_Eps]
      StatementDes(
        DesignStatAssignment(
          DesIdent(
           niz
          ) [DesIdent]
          AssignementExpr(
            TermExpr(
              TermFact(
                FactorNewArr(
                  Type(
                   int
                  ) [Type]
                  TermExpr(
                    TermFact(
                      FactorConst(
                        ConstNum(
                         2
                        ) [ConstNum]
                      ) [FactorConst]
                    ) [TermFact]
                  ) [TermExpr]
                ) [FactorNewArr]
              ) [TermFact]
            ) [TermExpr]
          ) [AssignementExpr]
        ) [DesignStatAssignment]
      ) [StatementDes]
    ) [StatementList_NoEps]
  ) [MethodDecl]
) [Program]
INFO  12:27:21,835 - ===================================
INFO  12:27:21,839 - Deklarisana promenljiva niza niz tipa 1 na liniji 6
INFO  12:27:21,839 - Obradjuje se funkcija main na liniji 8
INFO  12:27:21,839 -  Print count calls = 0
INFO  12:27:21,839 -  Deklarisanih promenljivih ima = 0
INFO  12:27:21,849 - GENERATOR:design nakon store AssignementExpr(
  TermExpr(
    TermFact(
      FactorNewArr(
        Type(
         int
        ) [Type]
        TermExpr(
          TermFact(
            FactorConst(
              ConstNum(
               2
              ) [ConstNum]
            ) [FactorConst]
          ) [TermFact]
        ) [TermExpr]
      ) [FactorNewArr]
    ) [TermFact]
  ) [TermExpr]
) [AssignementExpr]
INFO  12:27:21,849 - Parsiranje uspesno zavrseno!
