INFO  19:19:14,231 - Compiling source file: C:\Users\ikadr\Desktop\PP\Projekat\Rad\workspace\MJCompiler\test\program.mj
INFO  19:19:14,317 - #2 program
INFO  19:19:14,317 - #28 test301
INFO  19:19:14,317 - #9 enum
INFO  19:19:14,319 - #28 Broj
INFO  19:19:14,320 - #17 {
INFO  19:19:14,320 - #28 NULA
INFO  19:19:14,320 - #12 ,
INFO  19:19:14,320 - #28 JEDAN
INFO  19:19:14,320 - #12 ,
INFO  19:19:14,320 - #28 PET
INFO  19:19:14,321 - #11 =
INFO  19:19:14,321 - #27 5
INFO  19:19:14,321 - #12 ,
INFO  19:19:14,321 - #28 DESET
INFO  19:19:14,321 - #11 =
INFO  19:19:14,321 - #27 10
INFO  19:19:14,321 - #18 }
INFO  19:19:14,321 - #28 int
INFO  19:19:14,323 - #28 niz
INFO  19:19:14,325 - #15 [
INFO  19:19:14,325 - #16 ]
INFO  19:19:14,325 - #10 ;
INFO  19:19:14,325 - #17 {
INFO  19:19:14,327 - #6 void
INFO  19:19:14,327 - #28 main
INFO  19:19:14,328 - #13 (
INFO  19:19:14,328 - #14 )
INFO  19:19:14,328 - #28 int
INFO  19:19:14,330 - #28 x
INFO  19:19:14,330 - #12 ,
INFO  19:19:14,330 - #28 y
INFO  19:19:14,331 - #12 ,
INFO  19:19:14,331 - #28 z
INFO  19:19:14,331 - #10 ;
INFO  19:19:14,331 - #28 Broj
INFO  19:19:14,332 - #28 pet
INFO  19:19:14,332 - #10 ;
INFO  19:19:14,333 - #17 {
INFO  19:19:14,333 - #28 pet
INFO  19:19:14,335 - #11 =
INFO  19:19:14,337 - #28 Broj
INFO  19:19:14,337 - #19 .
INFO  19:19:14,337 - #28 JEDAN
INFO  19:19:14,337 - #10 ;
INFO  19:19:14,338 - #28 x
INFO  19:19:14,338 - #11 =
INFO  19:19:14,338 - #27 7
INFO  19:19:14,338 - #10 ;
INFO  19:19:14,339 - #28 y
INFO  19:19:14,339 - #11 =
INFO  19:19:14,339 - #27 5
INFO  19:19:14,339 - #10 ;
INFO  19:19:14,339 - #28 z
INFO  19:19:14,339 - #11 =
INFO  19:19:14,339 - #28 x
INFO  19:19:14,340 - #24 *
INFO  19:19:14,340 - #28 pet
INFO  19:19:14,342 - #10 ;
INFO  19:19:14,342 - #4 print
INFO  19:19:14,342 - #13 (
INFO  19:19:14,342 - #29 a
INFO  19:19:14,342 - #14 )
INFO  19:19:14,343 - #10 ;
INFO  19:19:14,343 - #4 print
INFO  19:19:14,343 - #13 (
INFO  19:19:14,343 - #28 y
INFO  19:19:14,343 - #14 )
INFO  19:19:14,343 - #10 ;
INFO  19:19:14,348 - #4 print
INFO  19:19:14,348 - #13 (
INFO  19:19:14,349 - #28 z
INFO  19:19:14,349 - #14 )
INFO  19:19:14,349 - #10 ;
INFO  19:19:14,349 - #28 x
INFO  19:19:14,349 - #21 --
INFO  19:19:14,349 - #10 ;
INFO  19:19:14,349 - #4 print
INFO  19:19:14,349 - #13 (
INFO  19:19:14,349 - #28 x
INFO  19:19:14,349 - #14 )
INFO  19:19:14,349 - #10 ;
INFO  19:19:14,349 - #18 }
INFO  19:19:14,349 - #18 }
INFO  19:19:14,366 - Program(
  ProgName(
   test301
  ) [ProgName]
  GlobalDeclListL(
    GlobalDeclListL(
      GlobalDeclListEps(
      ) [GlobalDeclListEps]
      GlobalDeclEnum(
        EnumDecl(
         Broj
          EnumDeclListL(
            EnumDeclListL(
              EnumDeclListL(
                EnumDeclItem(
                  EnumDeclDefNoVal(
                   NULA
                  ) [EnumDeclDefNoVal]
                ) [EnumDeclItem]
                EnumDeclDefNoVal(
                 JEDAN
                ) [EnumDeclDefNoVal]
              ) [EnumDeclListL]
              EnumDeclDefVal(
               PET
               5
              ) [EnumDeclDefVal]
            ) [EnumDeclListL]
            EnumDeclDefVal(
             DESET
             10
            ) [EnumDeclDefVal]
          ) [EnumDeclListL]
        ) [EnumDecl]
      ) [GlobalDeclEnum]
    ) [GlobalDeclListL]
    GlobalDeclVar(
      GlobalVarDecl(
        Type(
         int
        ) [Type]
        GlobalVarDeclItem(
          GlobalVarDeclDefOk(
            VarDeclDefineArray(
             niz
            ) [VarDeclDefineArray]
          ) [GlobalVarDeclDefOk]
        ) [GlobalVarDeclItem]
      ) [GlobalVarDecl]
    ) [GlobalDeclVar]
  ) [GlobalDeclListL]
  MethodDecl(
    MethodSignature(
      VoidableType(
      ) [VoidableType]
     main
    ) [MethodSignature]
    VarMethodDeclList_NoEps(
      VarMethodDeclList_NoEps(
        VarMethodDeclList_Eps(
        ) [VarMethodDeclList_Eps]
        VarDecl(
          Type(
           int
          ) [Type]
          VarDeclListL(
            VarDeclListL(
              VarDeclItem(
                VarDeclDefineSingle(
                 x
                ) [VarDeclDefineSingle]
              ) [VarDeclItem]
              VarDeclDefineSingle(
               y
              ) [VarDeclDefineSingle]
            ) [VarDeclListL]
            VarDeclDefineSingle(
             z
            ) [VarDeclDefineSingle]
          ) [VarDeclListL]
        ) [VarDecl]
      ) [VarMethodDeclList_NoEps]
      VarDecl(
        Type(
         Broj
        ) [Type]
        VarDeclItem(
          VarDeclDefineSingle(
           pet
          ) [VarDeclDefineSingle]
        ) [VarDeclItem]
      ) [VarDecl]
    ) [VarMethodDeclList_NoEps]
    StatementList_NoEps(
      StatementList_NoEps(
        StatementList_NoEps(
          StatementList_NoEps(
            StatementList_NoEps(
              StatementList_NoEps(
                StatementList_NoEps(
                  StatementList_NoEps(
                    StatementList_NoEps(
                      StatementList_Eps(
                      ) [StatementList_Eps]
                      StatementDes(
                        DesignStatAssignment(
                          Designator(
                            ArrayInd(
                            ) [ArrayInd]
                           pet
                            DesDerived1(
                            ) [DesDerived1]
                          ) [Designator]
                          AssignementExpr(
                            TermExpr(
                              TermFact(
                                FactorDesign(
                                  Designator(
                                    ArrayInd(
                                    ) [ArrayInd]
                                   Broj
                                    DesEnum(
                                     JEDAN
                                    ) [DesEnum]
                                  ) [Designator]
                                ) [FactorDesign]
                              ) [TermFact]
                            ) [TermExpr]
                          ) [AssignementExpr]
                        ) [DesignStatAssignment]
                      ) [StatementDes]
                    ) [StatementList_NoEps]
                    StatementDes(
                      DesignStatAssignment(
                        Designator(
                          ArrayInd(
                          ) [ArrayInd]
                         x
                          DesDerived1(
                          ) [DesDerived1]
                        ) [Designator]
                        AssignementExpr(
                          TermExpr(
                            TermFact(
                              FactorConst(
                                ConstNum(
                                 7
                                ) [ConstNum]
                              ) [FactorConst]
                            ) [TermFact]
                          ) [TermExpr]
                        ) [AssignementExpr]
                      ) [DesignStatAssignment]
                    ) [StatementDes]
                  ) [StatementList_NoEps]
                  StatementDes(
                    DesignStatAssignment(
                      Designator(
                        ArrayInd(
                        ) [ArrayInd]
                       y
                        DesDerived1(
                        ) [DesDerived1]
                      ) [Designator]
                      AssignementExpr(
                        TermExpr(
                          TermFact(
                            FactorConst(
                              ConstNum(
                               5
                              ) [ConstNum]
                            ) [FactorConst]
                          ) [TermFact]
                        ) [TermExpr]
                      ) [AssignementExpr]
                    ) [DesignStatAssignment]
                  ) [StatementDes]
                ) [StatementList_NoEps]
                StatementDes(
                  DesignStatAssignment(
                    Designator(
                      ArrayInd(
                      ) [ArrayInd]
                     z
                      DesDerived1(
                      ) [DesDerived1]
                    ) [Designator]
                    AssignementExpr(
                      TermExpr(
                        TermMulop(
                          TermFact(
                            FactorDesign(
                              Designator(
                                ArrayInd(
                                ) [ArrayInd]
                               x
                                DesDerived1(
                                ) [DesDerived1]
                              ) [Designator]
                            ) [FactorDesign]
                          ) [TermFact]
                          Mulop_Mul(
                          ) [Mulop_Mul]
                          FactorDesign(
                            Designator(
                              ArrayInd(
                              ) [ArrayInd]
                             pet
                              DesDerived1(
                              ) [DesDerived1]
                            ) [Designator]
                          ) [FactorDesign]
                        ) [TermMulop]
                      ) [TermExpr]
                    ) [AssignementExpr]
                  ) [DesignStatAssignment]
                ) [StatementDes]
              ) [StatementList_NoEps]
              StatPrint(
                TermExpr(
                  TermFact(
                    FactorConst(
                      ConstChar(
                       a
                      ) [ConstChar]
                    ) [FactorConst]
                  ) [TermFact]
                ) [TermExpr]
              ) [StatPrint]
            ) [StatementList_NoEps]
            StatPrint(
              TermExpr(
                TermFact(
                  FactorDesign(
                    Designator(
                      ArrayInd(
                      ) [ArrayInd]
                     y
                      DesDerived1(
                      ) [DesDerived1]
                    ) [Designator]
                  ) [FactorDesign]
                ) [TermFact]
              ) [TermExpr]
            ) [StatPrint]
          ) [StatementList_NoEps]
          StatPrint(
            TermExpr(
              TermFact(
                FactorDesign(
                  Designator(
                    ArrayInd(
                    ) [ArrayInd]
                   z
                    DesDerived1(
                    ) [DesDerived1]
                  ) [Designator]
                ) [FactorDesign]
              ) [TermFact]
            ) [TermExpr]
          ) [StatPrint]
        ) [StatementList_NoEps]
        StatementDes(
          DesignStatDec(
            Designator(
              ArrayInd(
              ) [ArrayInd]
             x
              DesDerived1(
              ) [DesDerived1]
            ) [Designator]
          ) [DesignStatDec]
        ) [StatementDes]
      ) [StatementList_NoEps]
      StatPrint(
        TermExpr(
          TermFact(
            FactorDesign(
              Designator(
                ArrayInd(
                ) [ArrayInd]
               x
                DesDerived1(
                ) [DesDerived1]
              ) [Designator]
            ) [FactorDesign]
          ) [TermFact]
        ) [TermExpr]
      ) [StatPrint]
    ) [StatementList_NoEps]
  ) [MethodDecl]
) [Program]
INFO  19:19:14,367 - ===================================
INFO  19:19:14,371 - Deklarisan novi enum tip Broj na liniji 5
INFO  19:19:14,371 - Deklarisana promenljiva niza niz tipa 1 na liniji 6
INFO  19:19:14,371 - Obradjuje se funkcija main na liniji 8
INFO  19:19:14,372 - Deklarisana promenljiva x tipa 1 na liniji 9
INFO  19:19:14,372 - Deklarisana promenljiva y tipa 1 na liniji 9
INFO  19:19:14,372 - Deklarisana promenljiva z tipa 1 na liniji 9
INFO  19:19:14,372 - Deklarisana promenljiva pet tipa 6 na liniji 10
INFO  19:19:14,372 - Dodeljenja vrednost: 6 je design,6 je assign
INFO  19:19:14,372 - Dodeljenja vrednost: 1 je design,1 je assign
INFO  19:19:14,372 - Dodeljenja vrednost: 1 je design,1 je assign
INFO  19:19:14,373 - termMulop je 1
INFO  19:19:14,373 - Dodeljenja vrednost: 1 je design,1 je assign
INFO  19:19:14,373 - Dekrementirana vrednost
INFO  19:19:14,373 -  Print count calls = 4
INFO  19:19:14,373 -  Deklarisanih promenljivih ima = 4
