INFO  19:51:23,276 - Compiling source file: C:\Users\ikadr\Desktop\PP\Projekat\Rad\workspace\MJCompiler\test\program.mj
INFO  19:51:23,383 - #2 program
INFO  19:51:23,383 - #28 test301
INFO  19:51:23,383 - #17 {
INFO  19:51:23,383 - #6 void
INFO  19:51:23,383 - #28 main
INFO  19:51:23,383 - #13 (
INFO  19:51:23,383 - #14 )
INFO  19:51:23,383 - #17 {
INFO  19:51:23,393 - #4 print
INFO  19:51:23,393 - #13 (
INFO  19:51:23,393 - #27 1
INFO  19:51:23,393 - #14 )
INFO  19:51:23,393 - #10 ;
INFO  19:51:23,393 - #18 }
INFO  19:51:23,393 - #18 }
INFO  19:51:23,422 - Program(
  ProgName(
   test301
  ) [ProgName]
  GlobalDeclListEps(
  ) [GlobalDeclListEps]
  MethodDecl(
    MethodSignature(
      VoidableType(
      ) [VoidableType]
     main
    ) [MethodSignature]
    VarMethodDeclList_Eps(
    ) [VarMethodDeclList_Eps]
    StatementList_NoEps(
      StatementList_Eps(
      ) [StatementList_Eps]
      StatPrint(
        TermExpr(
          TermFact(
            FactorConst(
              ConstNum(
               1
              ) [ConstNum]
            ) [FactorConst]
          ) [TermFact]
        ) [TermExpr]
      ) [StatPrint]
    ) [StatementList_NoEps]
  ) [MethodDecl]
) [Program]
INFO  19:51:23,422 - ===================================
INFO  19:51:23,424 - Obradjuje se funkcija main na liniji 8
INFO  19:51:23,424 -  Print count calls = 1
INFO  19:51:23,424 -  Deklarisanih promenljivih ima = 0
INFO  19:51:23,432 - Parsiranje uspesno zavrseno!
