INFO  20:53:00,624 - Compiling source file: C:\Users\ikadr\Desktop\PP\Projekat\Rad\workspace\MJCompiler\test\program.mj
INFO  20:53:00,694 - #2 program
INFO  20:53:00,694 - #28 test301
INFO  20:53:00,695 - #9 enum
INFO  20:53:00,697 - #28 Broj
INFO  20:53:00,697 - #17 {
INFO  20:53:00,697 - #28 NULA
INFO  20:53:00,697 - #12 ,
INFO  20:53:00,698 - #28 JEDAN
INFO  20:53:00,698 - #12 ,
INFO  20:53:00,698 - #28 PET
INFO  20:53:00,698 - #11 =
INFO  20:53:00,698 - #27 5
INFO  20:53:00,698 - #12 ,
INFO  20:53:00,698 - #28 DESET
INFO  20:53:00,699 - #11 =
INFO  20:53:00,699 - #27 10
INFO  20:53:00,699 - #18 }
INFO  20:53:00,699 - #8 const
INFO  20:53:00,700 - #28 int
INFO  20:53:00,701 - #28 jedan
INFO  20:53:00,702 - #11 =
INFO  20:53:00,702 - #27 1
INFO  20:53:00,702 - #10 ;
INFO  20:53:00,704 - #8 const
INFO  20:53:00,706 - #28 int
INFO  20:53:00,706 - #28 pet
INFO  20:53:00,706 - #11 =
INFO  20:53:00,706 - #27 5
INFO  20:53:00,706 - #10 ;
INFO  20:53:00,707 - #28 int
INFO  20:53:00,707 - #28 niz
INFO  20:53:00,707 - #15 [
INFO  20:53:00,707 - #16 ]
INFO  20:53:00,707 - #10 ;
INFO  20:53:00,707 - #28 char
INFO  20:53:00,709 - #28 nizch
INFO  20:53:00,709 - #15 [
INFO  20:53:00,709 - #16 ]
INFO  20:53:00,709 - #10 ;
INFO  20:53:00,709 - #17 {
INFO  20:53:00,709 - #6 void
INFO  20:53:00,709 - #28 main
INFO  20:53:00,710 - #13 (
INFO  20:53:00,710 - #14 )
INFO  20:53:00,710 - #28 int
INFO  20:53:00,712 - #28 bodovi
INFO  20:53:00,712 - #10 ;
INFO  20:53:00,713 - #28 Broj
INFO  20:53:00,714 - #28 nula
INFO  20:53:00,715 - #12 ,
INFO  20:53:00,715 - #28 jedan
INFO  20:53:00,715 - #10 ;
INFO  20:53:00,715 - #28 bool
INFO  20:53:00,715 - #28 proba
INFO  20:53:00,715 - #10 ;
INFO  20:53:00,715 - #17 {
INFO  20:53:00,715 - #28 bodovi
INFO  20:53:00,717 - #11 =
INFO  20:53:00,719 - #27 0
INFO  20:53:00,719 - #10 ;
INFO  20:53:00,720 - #18 }
INFO  20:53:00,720 - #18 }
INFO  20:53:00,741 - Program(
  ProgName(
   test301
  ) [ProgName]
  GlobalDeclListL(
    GlobalDeclListL(
      GlobalDeclListL(
        GlobalDeclListL(
          GlobalDeclListL(
            GlobalDeclListEps(
            ) [GlobalDeclListEps]
            GlobalDeclEnum(
              EnumDecl(
               Broj
                EnumDeclListL(
                  EnumDeclListL(
                    EnumDeclListL(
                      EnumDeclItem(
                        EnumDeclDefNoVal(
                         NULA
                        ) [EnumDeclDefNoVal]
                      ) [EnumDeclItem]
                      EnumDeclDefNoVal(
                       JEDAN
                      ) [EnumDeclDefNoVal]
                    ) [EnumDeclListL]
                    EnumDeclDefVal(
                     PET
                     5
                    ) [EnumDeclDefVal]
                  ) [EnumDeclListL]
                  EnumDeclDefVal(
                   DESET
                   10
                  ) [EnumDeclDefVal]
                ) [EnumDeclListL]
              ) [EnumDecl]
            ) [GlobalDeclEnum]
          ) [GlobalDeclListL]
          GlobalDeclConst(
            ConstDecl(
              Type(
               int
              ) [Type]
              ConstDeclItem(
                ConstDef(
                 jedan
                  ConstNum(
                   1
                  ) [ConstNum]
                ) [ConstDef]
              ) [ConstDeclItem]
            ) [ConstDecl]
          ) [GlobalDeclConst]
        ) [GlobalDeclListL]
        GlobalDeclConst(
          ConstDecl(
            Type(
             int
            ) [Type]
            ConstDeclItem(
              ConstDef(
               pet
                ConstNum(
                 5
                ) [ConstNum]
              ) [ConstDef]
            ) [ConstDeclItem]
          ) [ConstDecl]
        ) [GlobalDeclConst]
      ) [GlobalDeclListL]
      GlobalDeclVar(
        GlobalVarDecl(
          Type(
           int
          ) [Type]
          GlobalVarDeclItem(
            GlobalVarDeclDefOk(
              VarDeclDefineArray(
               niz
              ) [VarDeclDefineArray]
            ) [GlobalVarDeclDefOk]
          ) [GlobalVarDeclItem]
        ) [GlobalVarDecl]
      ) [GlobalDeclVar]
    ) [GlobalDeclListL]
    GlobalDeclVar(
      GlobalVarDecl(
        Type(
         char
        ) [Type]
        GlobalVarDeclItem(
          GlobalVarDeclDefOk(
            VarDeclDefineArray(
             nizch
            ) [VarDeclDefineArray]
          ) [GlobalVarDeclDefOk]
        ) [GlobalVarDeclItem]
      ) [GlobalVarDecl]
    ) [GlobalDeclVar]
  ) [GlobalDeclListL]
  MethodDecl(
    MethodSignature(
      VoidableType(
      ) [VoidableType]
     main
    ) [MethodSignature]
    VarMethodDeclList_NoEps(
      VarMethodDeclList_NoEps(
        VarMethodDeclList_NoEps(
          VarMethodDeclList_Eps(
          ) [VarMethodDeclList_Eps]
          VarDecl(
            Type(
             int
            ) [Type]
            VarDeclItem(
              VarDeclDefineSingle(
               bodovi
              ) [VarDeclDefineSingle]
            ) [VarDeclItem]
          ) [VarDecl]
        ) [VarMethodDeclList_NoEps]
        VarDecl(
          Type(
           Broj
          ) [Type]
          VarDeclListL(
            VarDeclItem(
              VarDeclDefineSingle(
               nula
              ) [VarDeclDefineSingle]
            ) [VarDeclItem]
            VarDeclDefineSingle(
             jedan
            ) [VarDeclDefineSingle]
          ) [VarDeclListL]
        ) [VarDecl]
      ) [VarMethodDeclList_NoEps]
      VarDecl(
        Type(
         bool
        ) [Type]
        VarDeclItem(
          VarDeclDefineSingle(
           proba
          ) [VarDeclDefineSingle]
        ) [VarDeclItem]
      ) [VarDecl]
    ) [VarMethodDeclList_NoEps]
    StatementList_NoEps(
      StatementList_Eps(
      ) [StatementList_Eps]
      StatementDes(
        DesignStatAssignment(
          Designator(
           bodovi
            DesDerived1(
            ) [DesDerived1]
          ) [Designator]
          AssignementExpr(
            TermExpr(
              TermFact(
                FactorConst(
                  ConstNum(
                   0
                  ) [ConstNum]
                ) [FactorConst]
              ) [TermFact]
            ) [TermExpr]
          ) [AssignementExpr]
        ) [DesignStatAssignment]
      ) [StatementDes]
    ) [StatementList_NoEps]
  ) [MethodDecl]
) [Program]
INFO  20:53:00,742 - ===================================
INFO  20:53:00,751 - Deklarisan novi enum tip Broj na liniji 5
INFO  20:53:00,752 - Deklarisana konstanta 'jedan' na liniji 7
INFO  20:53:00,752 - Deklarisana konstanta 'pet' na liniji 8
INFO  20:53:00,752 - Deklarisana promenljiva niza niz na liniji 10
INFO  20:53:00,758 - Deklarisana promenljiva niza nizch na liniji 11
INFO  20:53:00,759 - Obradjuje se funkcija main na liniji 14
INFO  20:53:00,759 - Deklarisana promenljiva bodovi tipa 1 na liniji 15
INFO  20:53:00,759 - Deklarisana promenljiva nula tipa 6 na liniji 16
INFO  20:53:00,759 - Deklarisana promenljiva jedan tipa 6 na liniji 16
INFO  20:53:00,759 - Deklarisana promenljiva proba tipa 5 na liniji 17
INFO  20:53:00,760 -  Print count calls = 0
INFO  20:53:00,760 -  Deklarisanih promenljivih ima = 10
INFO  20:53:00,762 - Parsiranje uspesno zavrseno!
