INFO  18:10:14,881 - Compiling source file: C:\Users\ikadr\Desktop\PP\Projekat\Rad\workspace\MJCompiler\test\program.mj
INFO  18:10:14,948 - #2 program
INFO  18:10:14,949 - #28 test301
INFO  18:10:14,949 - #28 int
INFO  18:10:14,951 - #28 niz
INFO  18:10:14,952 - #15 [
INFO  18:10:14,952 - #16 ]
INFO  18:10:14,952 - #10 ;
INFO  18:10:14,953 - #17 {
INFO  18:10:14,954 - #6 void
INFO  18:10:14,954 - #28 main
INFO  18:10:14,955 - #13 (
INFO  18:10:14,956 - #14 )
INFO  18:10:14,956 - #17 {
INFO  18:10:14,958 - #28 niz
INFO  18:10:14,959 - #11 =
INFO  18:10:14,959 - #5 new
INFO  18:10:14,959 - #28 int
INFO  18:10:14,959 - #15 [
INFO  18:10:14,960 - #27 5
INFO  18:10:14,960 - #16 ]
INFO  18:10:14,960 - #10 ;
INFO  18:10:14,962 - #18 }
INFO  18:10:14,963 - #18 }
INFO  18:10:14,978 - Program(
  ProgName(
   test301
  ) [ProgName]
  GlobalDeclListL(
    GlobalDeclListEps(
    ) [GlobalDeclListEps]
    GlobalDeclVar(
      GlobalVarDecl(
        Type(
         int
        ) [Type]
        GlobalVarDeclItem(
          GlobalVarDeclDefOk(
            VarDeclDefineArray(
             niz
            ) [VarDeclDefineArray]
          ) [GlobalVarDeclDefOk]
        ) [GlobalVarDeclItem]
      ) [GlobalVarDecl]
    ) [GlobalDeclVar]
  ) [GlobalDeclListL]
  MethodDecl(
    MethodSignature(
      VoidableType(
      ) [VoidableType]
     main
    ) [MethodSignature]
    VarMethodDeclList_Eps(
    ) [VarMethodDeclList_Eps]
    StatementList_NoEps(
      StatementList_Eps(
      ) [StatementList_Eps]
      StatementDes(
        DesignStatAssignment(
          DesIdent(
           niz
          ) [DesIdent]
          AssignementExpr(
            TermExpr(
              TermFact(
                FactorNewArr(
                  Type(
                   int
                  ) [Type]
                  TermExpr(
                    TermFact(
                      FactorConst(
                        ConstNum(
                         5
                        ) [ConstNum]
                      ) [FactorConst]
                    ) [TermFact]
                  ) [TermExpr]
                ) [FactorNewArr]
              ) [TermFact]
            ) [TermExpr]
          ) [AssignementExpr]
        ) [DesignStatAssignment]
      ) [StatementDes]
    ) [StatementList_NoEps]
  ) [MethodDecl]
) [Program]
INFO  18:10:14,978 - ===================================
INFO  18:10:14,982 - Deklarisana promenljiva niza niz tipa 1 na liniji 5
INFO  18:10:14,983 - Obradjuje se funkcija main na liniji 9
INFO  18:10:14,983 -  Print count calls = 0
INFO  18:10:14,983 -  Deklarisanih promenljivih ima = 0
INFO  18:10:14,993 - GENERATOR:
INFO  18:10:14,993 - Parsiranje uspesno zavrseno!
