INFO  16:31:34,977 - Compiling source file: C:\Users\ikadr\Desktop\PP\Projekat\Rad\workspace\MJCompiler\test\program.mj
INFO  16:31:35,242 - #2 program
INFO  16:31:35,243 - #28 test301
INFO  16:31:35,243 - #9 enum
INFO  16:31:35,246 - #28 Broj
INFO  16:31:35,246 - #17 {
INFO  16:31:35,247 - #28 NULA
INFO  16:31:35,247 - #12 ,
INFO  16:31:35,248 - #28 JEDAN
INFO  16:31:35,248 - #12 ,
INFO  16:31:35,249 - #28 PET
INFO  16:31:35,249 - #11 =
INFO  16:31:35,249 - #27 5
INFO  16:31:35,249 - #12 ,
INFO  16:31:35,250 - #28 DESET
INFO  16:31:35,250 - #11 =
INFO  16:31:35,250 - #27 10
INFO  16:31:35,250 - #18 }
INFO  16:31:35,250 - #8 const
INFO  16:31:35,253 - #28 int
INFO  16:31:35,253 - #28 jedan
INFO  16:31:35,255 - #11 =
INFO  16:31:35,566 - #27 1
INFO  16:31:35,566 - #10 ;
INFO  16:31:35,568 - #8 const
INFO  16:31:35,571 - #28 int
INFO  16:31:35,571 - #28 pet
INFO  16:31:35,571 - #11 =
INFO  16:31:35,571 - #27 5
INFO  16:31:35,571 - #10 ;
INFO  16:31:35,571 - #28 int
INFO  16:31:35,571 - #28 niz
INFO  16:31:35,572 - #15 [
INFO  16:31:35,572 - #16 ]
INFO  16:31:35,572 - #10 ;
INFO  16:31:35,572 - #28 char
INFO  16:31:35,574 - #28 nizch
INFO  16:31:35,575 - #15 [
INFO  16:31:35,575 - #16 ]
INFO  16:31:35,575 - #10 ;
INFO  16:31:35,575 - #17 {
INFO  16:31:35,575 - #6 void
INFO  16:31:35,575 - #28 main
INFO  16:31:35,577 - #13 (
INFO  16:31:35,577 - #14 )
INFO  16:31:35,577 - #28 int
INFO  16:31:35,580 - #28 bodovi
INFO  16:31:35,581 - #10 ;
INFO  16:31:35,581 - #28 Broj
INFO  16:31:35,583 - #28 nula
INFO  16:31:35,583 - #12 ,
INFO  16:31:35,583 - #28 jedan
INFO  16:31:35,584 - #10 ;
INFO  16:31:35,584 - #17 {
INFO  16:31:35,584 - #28 nula
INFO  16:31:35,586 - #11 =
INFO  16:31:35,589 - #28 Broj
INFO  16:31:35,589 - #19 .
INFO  16:31:35,589 - #28 NULA
INFO  16:31:35,589 - #10 ;
INFO  16:31:35,590 - #28 jedan
INFO  16:31:35,591 - #11 =
INFO  16:31:35,591 - #28 Broj
INFO  16:31:35,591 - #19 .
INFO  16:31:35,591 - #28 JEDAN
INFO  16:31:35,591 - #10 ;
INFO  16:31:35,591 - #28 bodovi
INFO  16:31:35,591 - #11 =
INFO  16:31:35,592 - #27 0
INFO  16:31:35,592 - #10 ;
INFO  16:31:35,593 - #28 bodovi
INFO  16:31:35,594 - #20 ++
INFO  16:31:35,594 - #10 ;
INFO  16:31:35,594 - #28 bodovi
INFO  16:31:35,594 - #11 =
INFO  16:31:35,594 - #28 bodovi
INFO  16:31:35,594 - #23 +
INFO  16:31:35,594 - #28 jedan
INFO  16:31:35,596 - #10 ;
INFO  16:31:35,596 - #28 bodovi
INFO  16:31:35,596 - #11 =
INFO  16:31:35,597 - #28 bodovi
INFO  16:31:35,597 - #24 *
INFO  16:31:35,597 - #28 pet
INFO  16:31:35,598 - #10 ;
INFO  16:31:35,599 - #28 bodovi
INFO  16:31:35,599 - #21 --
INFO  16:31:35,599 - #10 ;
INFO  16:31:35,599 - #4 print
INFO  16:31:35,599 - #13 (
INFO  16:31:35,600 - #28 bodovi
INFO  16:31:35,600 - #14 )
INFO  16:31:35,602 - #10 ;
INFO  16:31:35,603 - #28 niz
INFO  16:31:35,603 - #11 =
INFO  16:31:35,603 - #5 new
INFO  16:31:35,604 - #28 int
INFO  16:31:35,605 - #15 [
INFO  16:31:35,605 - #27 2
INFO  16:31:35,605 - #16 ]
INFO  16:31:35,605 - #10 ;
INFO  16:31:35,607 - #28 niz
INFO  16:31:35,608 - #15 [
INFO  16:31:35,608 - #28 nula
INFO  16:31:35,609 - #16 ]
INFO  16:31:35,611 - #11 =
INFO  16:31:35,612 - #28 pet
INFO  16:31:35,613 - #10 ;
INFO  16:31:35,613 - #28 niz
INFO  16:31:35,613 - #15 [
INFO  16:31:35,613 - #27 1
INFO  16:31:35,613 - #16 ]
INFO  16:31:35,614 - #11 =
INFO  16:31:35,614 - #28 Broj
INFO  16:31:35,615 - #19 .
INFO  16:31:35,615 - #28 DESET
INFO  16:31:35,615 - #10 ;
INFO  16:31:35,615 - #28 bodovi
INFO  16:31:35,615 - #11 =
INFO  16:31:35,616 - #28 niz
INFO  16:31:35,616 - #15 [
INFO  16:31:35,616 - #27 1
INFO  16:31:35,616 - #16 ]
INFO  16:31:35,616 - #25 /
INFO  16:31:35,616 - #28 niz
INFO  16:31:35,618 - #15 [
INFO  16:31:35,618 - #27 0
INFO  16:31:35,618 - #16 ]
INFO  16:31:35,618 - #10 ;
INFO  16:31:35,618 - #4 print
INFO  16:31:35,618 - #13 (
INFO  16:31:35,619 - #28 bodovi
INFO  16:31:35,619 - #14 )
INFO  16:31:35,619 - #10 ;
INFO  16:31:35,625 - #4 print
INFO  16:31:35,625 - #13 (
INFO  16:31:35,626 - #28 niz
INFO  16:31:35,626 - #15 [
INFO  16:31:35,626 - #28 Broj
INFO  16:31:35,626 - #19 .
INFO  16:31:35,626 - #28 JEDAN
INFO  16:31:35,626 - #16 ]
INFO  16:31:35,626 - #14 )
INFO  16:31:35,626 - #10 ;
INFO  16:31:35,626 - #28 nizch
INFO  16:31:35,626 - #11 =
INFO  16:31:35,626 - #5 new
INFO  16:31:35,626 - #28 char
INFO  16:31:35,627 - #15 [
INFO  16:31:35,627 - #27 3
INFO  16:31:35,627 - #16 ]
INFO  16:31:35,627 - #10 ;
INFO  16:31:35,627 - #28 nizch
INFO  16:31:35,627 - #15 [
INFO  16:31:35,627 - #27 0
INFO  16:31:35,627 - #16 ]
INFO  16:31:35,627 - #11 =
INFO  16:31:35,627 - #29 a
INFO  16:31:35,628 - #10 ;
INFO  16:31:35,628 - #28 nizch
INFO  16:31:35,630 - #15 [
INFO  16:31:35,632 - #28 jedan
INFO  16:31:35,632 - #16 ]
INFO  16:31:35,632 - #11 =
INFO  16:31:35,632 - #29 b
INFO  16:31:35,633 - #10 ;
INFO  16:31:35,633 - #28 nizch
INFO  16:31:35,633 - #15 [
INFO  16:31:35,633 - #28 pet
INFO  16:31:35,633 - #22 -
INFO  16:31:35,633 - #27 3
INFO  16:31:35,635 - #16 ]
INFO  16:31:35,635 - #11 =
INFO  16:31:35,635 - #29 c
INFO  16:31:35,635 - #10 ;
INFO  16:31:35,635 - #4 print
INFO  16:31:35,636 - #13 (
INFO  16:31:35,636 - #28 nizch
INFO  16:31:35,636 - #15 [
INFO  16:31:35,636 - #27 2
INFO  16:31:35,636 - #22 -
INFO  16:31:35,636 - #27 1
INFO  16:31:35,636 - #16 ]
INFO  16:31:35,636 - #14 )
INFO  16:31:35,636 - #10 ;
INFO  16:31:35,636 - #4 print
INFO  16:31:35,636 - #13 (
INFO  16:31:35,636 - #28 nizch
INFO  16:31:35,636 - #15 [
INFO  16:31:35,636 - #28 jedan
INFO  16:31:35,636 - #24 *
INFO  16:31:35,638 - #27 2
INFO  16:31:35,638 - #16 ]
INFO  16:31:35,638 - #14 )
INFO  16:31:35,638 - #10 ;
INFO  16:31:35,638 - #28 bodovi
INFO  16:31:35,638 - #11 =
INFO  16:31:35,638 - #28 bodovi
INFO  16:31:35,638 - #23 +
INFO  16:31:35,638 - #13 (
INFO  16:31:35,638 - #13 (
INFO  16:31:35,639 - #28 pet
INFO  16:31:35,639 - #24 *
INFO  16:31:35,639 - #28 jedan
INFO  16:31:35,639 - #22 -
INFO  16:31:35,639 - #27 1
INFO  16:31:35,639 - #14 )
INFO  16:31:35,639 - #24 *
INFO  16:31:35,640 - #27 2
INFO  16:31:35,640 - #22 -
INFO  16:31:35,640 - #13 (
INFO  16:31:35,640 - #27 3
INFO  16:31:35,640 - #26 %
INFO  16:31:35,640 - #27 2
INFO  16:31:35,641 - #23 +
INFO  16:31:35,642 - #27 3
INFO  16:31:35,642 - #24 *
INFO  16:31:35,642 - #27 2
INFO  16:31:35,642 - #22 -
INFO  16:31:35,642 - #27 3
INFO  16:31:35,642 - #14 )
INFO  16:31:35,642 - #22 -
INFO  16:31:35,642 - #28 Broj
INFO  16:31:35,642 - #19 .
INFO  16:31:35,642 - #28 JEDAN
INFO  16:31:35,642 - #24 *
INFO  16:31:35,642 - #27 0
INFO  16:31:35,642 - #14 )
INFO  16:31:35,643 - #10 ;
INFO  16:31:35,643 - #4 print
INFO  16:31:35,643 - #13 (
INFO  16:31:35,643 - #28 bodovi
INFO  16:31:35,643 - #14 )
INFO  16:31:35,643 - #10 ;
INFO  16:31:35,643 - #3 read
INFO  16:31:35,643 - #13 (
INFO  16:31:35,643 - #28 bodovi
INFO  16:31:35,643 - #14 )
INFO  16:31:35,643 - #10 ;
INFO  16:31:35,643 - #28 bodovi
INFO  16:31:35,644 - #11 =
INFO  16:31:35,644 - #28 bodovi
INFO  16:31:35,644 - #23 +
INFO  16:31:35,644 - #27 1
INFO  16:31:35,644 - #10 ;
INFO  16:31:35,644 - #4 print
INFO  16:31:35,644 - #13 (
INFO  16:31:35,644 - #28 bodovi
INFO  16:31:35,644 - #14 )
INFO  16:31:35,644 - #10 ;
INFO  16:31:35,644 - #18 }
INFO  16:31:35,644 - #18 }
INFO  16:31:35,712 - Program(
  ProgName(
   test301
  ) [ProgName]
  GlobalDeclListL(
    GlobalDeclListL(
      GlobalDeclListL(
        GlobalDeclListL(
          GlobalDeclListL(
            GlobalDeclListEps(
            ) [GlobalDeclListEps]
            GlobalDeclEnum(
              EnumDecl(
               Broj
                EnumDeclListL(
                  EnumDeclListL(
                    EnumDeclListL(
                      EnumDeclItem(
                        EnumDeclDefNoVal(
                         NULA
                        ) [EnumDeclDefNoVal]
                      ) [EnumDeclItem]
                      EnumDeclDefNoVal(
                       JEDAN
                      ) [EnumDeclDefNoVal]
                    ) [EnumDeclListL]
                    EnumDeclDefVal(
                     PET
                     5
                    ) [EnumDeclDefVal]
                  ) [EnumDeclListL]
                  EnumDeclDefVal(
                   DESET
                   10
                  ) [EnumDeclDefVal]
                ) [EnumDeclListL]
              ) [EnumDecl]
            ) [GlobalDeclEnum]
          ) [GlobalDeclListL]
          GlobalDeclConst(
            ConstDecl(
              Type(
               int
              ) [Type]
              ConstDeclItem(
                ConstDef(
                 jedan
                  ConstNum(
                   1
                  ) [ConstNum]
                ) [ConstDef]
              ) [ConstDeclItem]
            ) [ConstDecl]
          ) [GlobalDeclConst]
        ) [GlobalDeclListL]
        GlobalDeclConst(
          ConstDecl(
            Type(
             int
            ) [Type]
            ConstDeclItem(
              ConstDef(
               pet
                ConstNum(
                 5
                ) [ConstNum]
              ) [ConstDef]
            ) [ConstDeclItem]
          ) [ConstDecl]
        ) [GlobalDeclConst]
      ) [GlobalDeclListL]
      GlobalDeclVar(
        GlobalVarDecl(
          Type(
           int
          ) [Type]
          GlobalVarDeclItem(
            GlobalVarDeclDefOk(
              VarDeclDefineArray(
               niz
              ) [VarDeclDefineArray]
            ) [GlobalVarDeclDefOk]
          ) [GlobalVarDeclItem]
        ) [GlobalVarDecl]
      ) [GlobalDeclVar]
    ) [GlobalDeclListL]
    GlobalDeclVar(
      GlobalVarDecl(
        Type(
         char
        ) [Type]
        GlobalVarDeclItem(
          GlobalVarDeclDefOk(
            VarDeclDefineArray(
             nizch
            ) [VarDeclDefineArray]
          ) [GlobalVarDeclDefOk]
        ) [GlobalVarDeclItem]
      ) [GlobalVarDecl]
    ) [GlobalDeclVar]
  ) [GlobalDeclListL]
  MethodDecl(
    MethodSignature(
      VoidableType(
      ) [VoidableType]
     main
    ) [MethodSignature]
    VarMethodDeclList_NoEps(
      VarMethodDeclList_NoEps(
        VarMethodDeclList_Eps(
        ) [VarMethodDeclList_Eps]
        VarDecl(
          Type(
           int
          ) [Type]
          VarDeclItem(
            VarDeclDefineSingle(
             bodovi
            ) [VarDeclDefineSingle]
          ) [VarDeclItem]
        ) [VarDecl]
      ) [VarMethodDeclList_NoEps]
      VarDecl(
        Type(
         Broj
        ) [Type]
        VarDeclListL(
          VarDeclItem(
            VarDeclDefineSingle(
             nula
            ) [VarDeclDefineSingle]
          ) [VarDeclItem]
          VarDeclDefineSingle(
           jedan
          ) [VarDeclDefineSingle]
        ) [VarDeclListL]
      ) [VarDecl]
    ) [VarMethodDeclList_NoEps]
    StatementList_NoEps(
      StatementList_NoEps(
        StatementList_NoEps(
          StatementList_NoEps(
            StatementList_NoEps(
              StatementList_NoEps(
                StatementList_NoEps(
                  StatementList_NoEps(
                    StatementList_NoEps(
                      StatementList_NoEps(
                        StatementList_NoEps(
                          StatementList_NoEps(
                            StatementList_NoEps(
                              StatementList_NoEps(
                                StatementList_NoEps(
                                  StatementList_NoEps(
                                    StatementList_NoEps(
                                      StatementList_NoEps(
                                        StatementList_NoEps(
                                          StatementList_NoEps(
                                            StatementList_NoEps(
                                              StatementList_NoEps(
                                                StatementList_NoEps(
                                                  StatementList_NoEps(
                                                    StatementList_NoEps(
                                                      StatementList_Eps(
                                                      ) [StatementList_Eps]
                                                      StatementDes(
                                                        DesignStatAssignment(
                                                          Designator(
                                                           nula
                                                            DesDerived1(
                                                            ) [DesDerived1]
                                                          ) [Designator]
                                                          AssignementExpr(
                                                            TermExpr(
                                                              TermFact(
                                                                FactorDesign(
                                                                  Designator(
                                                                   Broj
                                                                    DesEnum(
                                                                     NULA
                                                                    ) [DesEnum]
                                                                  ) [Designator]
                                                                ) [FactorDesign]
                                                              ) [TermFact]
                                                            ) [TermExpr]
                                                          ) [AssignementExpr]
                                                        ) [DesignStatAssignment]
                                                      ) [StatementDes]
                                                    ) [StatementList_NoEps]
                                                    StatementDes(
                                                      DesignStatAssignment(
                                                        Designator(
                                                         jedan
                                                          DesDerived1(
                                                          ) [DesDerived1]
                                                        ) [Designator]
                                                        AssignementExpr(
                                                          TermExpr(
                                                            TermFact(
                                                              FactorDesign(
                                                                Designator(
                                                                 Broj
                                                                  DesEnum(
                                                                   JEDAN
                                                                  ) [DesEnum]
                                                                ) [Designator]
                                                              ) [FactorDesign]
                                                            ) [TermFact]
                                                          ) [TermExpr]
                                                        ) [AssignementExpr]
                                                      ) [DesignStatAssignment]
                                                    ) [StatementDes]
                                                  ) [StatementList_NoEps]
                                                  StatementDes(
                                                    DesignStatAssignment(
                                                      Designator(
                                                       bodovi
                                                        DesDerived1(
                                                        ) [DesDerived1]
                                                      ) [Designator]
                                                      AssignementExpr(
                                                        TermExpr(
                                                          TermFact(
                                                            FactorConst(
                                                              ConstNum(
                                                               0
                                                              ) [ConstNum]
                                                            ) [FactorConst]
                                                          ) [TermFact]
                                                        ) [TermExpr]
                                                      ) [AssignementExpr]
                                                    ) [DesignStatAssignment]
                                                  ) [StatementDes]
                                                ) [StatementList_NoEps]
                                                StatementDes(
                                                  DesignStatInc(
                                                    Designator(
                                                     bodovi
                                                      DesDerived1(
                                                      ) [DesDerived1]
                                                    ) [Designator]
                                                  ) [DesignStatInc]
                                                ) [StatementDes]
                                              ) [StatementList_NoEps]
                                              StatementDes(
                                                DesignStatAssignment(
                                                  Designator(
                                                   bodovi
                                                    DesDerived1(
                                                    ) [DesDerived1]
                                                  ) [Designator]
                                                  AssignementExpr(
                                                    AddopExp(
                                                      TermExpr(
                                                        TermFact(
                                                          FactorDesign(
                                                            Designator(
                                                             bodovi
                                                              DesDerived1(
                                                              ) [DesDerived1]
                                                            ) [Designator]
                                                          ) [FactorDesign]
                                                        ) [TermFact]
                                                      ) [TermExpr]
                                                      Addop(
                                                      ) [Addop]
                                                      TermFact(
                                                        FactorDesign(
                                                          Designator(
                                                           jedan
                                                            DesDerived1(
                                                            ) [DesDerived1]
                                                          ) [Designator]
                                                        ) [FactorDesign]
                                                      ) [TermFact]
                                                    ) [AddopExp]
                                                  ) [AssignementExpr]
                                                ) [DesignStatAssignment]
                                              ) [StatementDes]
                                            ) [StatementList_NoEps]
                                            StatementDes(
                                              DesignStatAssignment(
                                                Designator(
                                                 bodovi
                                                  DesDerived1(
                                                  ) [DesDerived1]
                                                ) [Designator]
                                                AssignementExpr(
                                                  TermExpr(
                                                    TermMulop(
                                                      TermFact(
                                                        FactorDesign(
                                                          Designator(
                                                           bodovi
                                                            DesDerived1(
                                                            ) [DesDerived1]
                                                          ) [Designator]
                                                        ) [FactorDesign]
                                                      ) [TermFact]
                                                      Mulop(
                                                      ) [Mulop]
                                                      FactorDesign(
                                                        Designator(
                                                         pet
                                                          DesDerived1(
                                                          ) [DesDerived1]
                                                        ) [Designator]
                                                      ) [FactorDesign]
                                                    ) [TermMulop]
                                                  ) [TermExpr]
                                                ) [AssignementExpr]
                                              ) [DesignStatAssignment]
                                            ) [StatementDes]
                                          ) [StatementList_NoEps]
                                          StatementDes(
                                            DesignStatDec(
                                              Designator(
                                               bodovi
                                                DesDerived1(
                                                ) [DesDerived1]
                                              ) [Designator]
                                            ) [DesignStatDec]
                                          ) [StatementDes]
                                        ) [StatementList_NoEps]
                                        StatPrint(
                                          TermExpr(
                                            TermFact(
                                              FactorDesign(
                                                Designator(
                                                 bodovi
                                                  DesDerived1(
                                                  ) [DesDerived1]
                                                ) [Designator]
                                              ) [FactorDesign]
                                            ) [TermFact]
                                          ) [TermExpr]
                                        ) [StatPrint]
                                      ) [StatementList_NoEps]
                                      StatementDes(
                                        DesignStatAssignment(
                                          Designator(
                                           niz
                                            DesDerived1(
                                            ) [DesDerived1]
                                          ) [Designator]
                                          AssignementExpr(
                                            TermExpr(
                                              TermFact(
                                                FactorNewConst(
                                                  Type(
                                                   int
                                                  ) [Type]
                                                  TermExpr(
                                                    TermFact(
                                                      FactorConst(
                                                        ConstNum(
                                                         2
                                                        ) [ConstNum]
                                                      ) [FactorConst]
                                                    ) [TermFact]
                                                  ) [TermExpr]
                                                ) [FactorNewConst]
                                              ) [TermFact]
                                            ) [TermExpr]
                                          ) [AssignementExpr]
                                        ) [DesignStatAssignment]
                                      ) [StatementDes]
                                    ) [StatementList_NoEps]
                                    StatementDes(
                                      DesignStatAssignment(
                                        Designator(
                                         niz
                                          DesExpr(
                                            TermExpr(
                                              TermFact(
                                                FactorDesign(
                                                  Designator(
                                                   nula
                                                    DesDerived1(
                                                    ) [DesDerived1]
                                                  ) [Designator]
                                                ) [FactorDesign]
                                              ) [TermFact]
                                            ) [TermExpr]
                                          ) [DesExpr]
                                        ) [Designator]
                                        AssignementExpr(
                                          TermExpr(
                                            TermFact(
                                              FactorDesign(
                                                Designator(
                                                 pet
                                                  DesDerived1(
                                                  ) [DesDerived1]
                                                ) [Designator]
                                              ) [FactorDesign]
                                            ) [TermFact]
                                          ) [TermExpr]
                                        ) [AssignementExpr]
                                      ) [DesignStatAssignment]
                                    ) [StatementDes]
                                  ) [StatementList_NoEps]
                                  StatementDes(
                                    DesignStatAssignment(
                                      Designator(
                                       niz
                                        DesExpr(
                                          TermExpr(
                                            TermFact(
                                              FactorConst(
                                                ConstNum(
                                                 1
                                                ) [ConstNum]
                                              ) [FactorConst]
                                            ) [TermFact]
                                          ) [TermExpr]
                                        ) [DesExpr]
                                      ) [Designator]
                                      AssignementExpr(
                                        TermExpr(
                                          TermFact(
                                            FactorDesign(
                                              Designator(
                                               Broj
                                                DesEnum(
                                                 DESET
                                                ) [DesEnum]
                                              ) [Designator]
                                            ) [FactorDesign]
                                          ) [TermFact]
                                        ) [TermExpr]
                                      ) [AssignementExpr]
                                    ) [DesignStatAssignment]
                                  ) [StatementDes]
                                ) [StatementList_NoEps]
                                StatementDes(
                                  DesignStatAssignment(
                                    Designator(
                                     bodovi
                                      DesDerived1(
                                      ) [DesDerived1]
                                    ) [Designator]
                                    AssignementExpr(
                                      TermExpr(
                                        TermMulop(
                                          TermFact(
                                            FactorDesign(
                                              Designator(
                                               niz
                                                DesExpr(
                                                  TermExpr(
                                                    TermFact(
                                                      FactorConst(
                                                        ConstNum(
                                                         1
                                                        ) [ConstNum]
                                                      ) [FactorConst]
                                                    ) [TermFact]
                                                  ) [TermExpr]
                                                ) [DesExpr]
                                              ) [Designator]
                                            ) [FactorDesign]
                                          ) [TermFact]
                                          Divop(
                                          ) [Divop]
                                          FactorDesign(
                                            Designator(
                                             niz
                                              DesExpr(
                                                TermExpr(
                                                  TermFact(
                                                    FactorConst(
                                                      ConstNum(
                                                       0
                                                      ) [ConstNum]
                                                    ) [FactorConst]
                                                  ) [TermFact]
                                                ) [TermExpr]
                                              ) [DesExpr]
                                            ) [Designator]
                                          ) [FactorDesign]
                                        ) [TermMulop]
                                      ) [TermExpr]
                                    ) [AssignementExpr]
                                  ) [DesignStatAssignment]
                                ) [StatementDes]
                              ) [StatementList_NoEps]
                              StatPrint(
                                TermExpr(
                                  TermFact(
                                    FactorDesign(
                                      Designator(
                                       bodovi
                                        DesDerived1(
                                        ) [DesDerived1]
                                      ) [Designator]
                                    ) [FactorDesign]
                                  ) [TermFact]
                                ) [TermExpr]
                              ) [StatPrint]
                            ) [StatementList_NoEps]
                            StatPrint(
                              TermExpr(
                                TermFact(
                                  FactorDesign(
                                    Designator(
                                     niz
                                      DesExpr(
                                        TermExpr(
                                          TermFact(
                                            FactorDesign(
                                              Designator(
                                               Broj
                                                DesEnum(
                                                 JEDAN
                                                ) [DesEnum]
                                              ) [Designator]
                                            ) [FactorDesign]
                                          ) [TermFact]
                                        ) [TermExpr]
                                      ) [DesExpr]
                                    ) [Designator]
                                  ) [FactorDesign]
                                ) [TermFact]
                              ) [TermExpr]
                            ) [StatPrint]
                          ) [StatementList_NoEps]
                          StatementDes(
                            DesignStatAssignment(
                              Designator(
                               nizch
                                DesDerived1(
                                ) [DesDerived1]
                              ) [Designator]
                              AssignementExpr(
                                TermExpr(
                                  TermFact(
                                    FactorNewConst(
                                      Type(
                                       char
                                      ) [Type]
                                      TermExpr(
                                        TermFact(
                                          FactorConst(
                                            ConstNum(
                                             3
                                            ) [ConstNum]
                                          ) [FactorConst]
                                        ) [TermFact]
                                      ) [TermExpr]
                                    ) [FactorNewConst]
                                  ) [TermFact]
                                ) [TermExpr]
                              ) [AssignementExpr]
                            ) [DesignStatAssignment]
                          ) [StatementDes]
                        ) [StatementList_NoEps]
                        StatementDes(
                          DesignStatAssignment(
                            Designator(
                             nizch
                              DesExpr(
                                TermExpr(
                                  TermFact(
                                    FactorConst(
                                      ConstNum(
                                       0
                                      ) [ConstNum]
                                    ) [FactorConst]
                                  ) [TermFact]
                                ) [TermExpr]
                              ) [DesExpr]
                            ) [Designator]
                            AssignementExpr(
                              TermExpr(
                                TermFact(
                                  FactorConst(
                                    ConstChar(
                                     a
                                    ) [ConstChar]
                                  ) [FactorConst]
                                ) [TermFact]
                              ) [TermExpr]
                            ) [AssignementExpr]
                          ) [DesignStatAssignment]
                        ) [StatementDes]
                      ) [StatementList_NoEps]
                      StatementDes(
                        DesignStatAssignment(
                          Designator(
                           nizch
                            DesExpr(
                              TermExpr(
                                TermFact(
                                  FactorDesign(
                                    Designator(
                                     jedan
                                      DesDerived1(
                                      ) [DesDerived1]
                                    ) [Designator]
                                  ) [FactorDesign]
                                ) [TermFact]
                              ) [TermExpr]
                            ) [DesExpr]
                          ) [Designator]
                          AssignementExpr(
                            TermExpr(
                              TermFact(
                                FactorConst(
                                  ConstChar(
                                   b
                                  ) [ConstChar]
                                ) [FactorConst]
                              ) [TermFact]
                            ) [TermExpr]
                          ) [AssignementExpr]
                        ) [DesignStatAssignment]
                      ) [StatementDes]
                    ) [StatementList_NoEps]
                    StatementDes(
                      DesignStatAssignment(
                        Designator(
                         nizch
                          DesExpr(
                            AddopExp(
                              TermExpr(
                                TermFact(
                                  FactorDesign(
                                    Designator(
                                     pet
                                      DesDerived1(
                                      ) [DesDerived1]
                                    ) [Designator]
                                  ) [FactorDesign]
                                ) [TermFact]
                              ) [TermExpr]
                              Subop(
                              ) [Subop]
                              TermFact(
                                FactorConst(
                                  ConstNum(
                                   3
                                  ) [ConstNum]
                                ) [FactorConst]
                              ) [TermFact]
                            ) [AddopExp]
                          ) [DesExpr]
                        ) [Designator]
                        AssignementExpr(
                          TermExpr(
                            TermFact(
                              FactorConst(
                                ConstChar(
                                 c
                                ) [ConstChar]
                              ) [FactorConst]
                            ) [TermFact]
                          ) [TermExpr]
                        ) [AssignementExpr]
                      ) [DesignStatAssignment]
                    ) [StatementDes]
                  ) [StatementList_NoEps]
                  StatPrint(
                    TermExpr(
                      TermFact(
                        FactorDesign(
                          Designator(
                           nizch
                            DesExpr(
                              AddopExp(
                                TermExpr(
                                  TermFact(
                                    FactorConst(
                                      ConstNum(
                                       2
                                      ) [ConstNum]
                                    ) [FactorConst]
                                  ) [TermFact]
                                ) [TermExpr]
                                Subop(
                                ) [Subop]
                                TermFact(
                                  FactorConst(
                                    ConstNum(
                                     1
                                    ) [ConstNum]
                                  ) [FactorConst]
                                ) [TermFact]
                              ) [AddopExp]
                            ) [DesExpr]
                          ) [Designator]
                        ) [FactorDesign]
                      ) [TermFact]
                    ) [TermExpr]
                  ) [StatPrint]
                ) [StatementList_NoEps]
                StatPrint(
                  TermExpr(
                    TermFact(
                      FactorDesign(
                        Designator(
                         nizch
                          DesExpr(
                            TermExpr(
                              TermMulop(
                                TermFact(
                                  FactorDesign(
                                    Designator(
                                     jedan
                                      DesDerived1(
                                      ) [DesDerived1]
                                    ) [Designator]
                                  ) [FactorDesign]
                                ) [TermFact]
                                Mulop(
                                ) [Mulop]
                                FactorConst(
                                  ConstNum(
                                   2
                                  ) [ConstNum]
                                ) [FactorConst]
                              ) [TermMulop]
                            ) [TermExpr]
                          ) [DesExpr]
                        ) [Designator]
                      ) [FactorDesign]
                    ) [TermFact]
                  ) [TermExpr]
                ) [StatPrint]
              ) [StatementList_NoEps]
              StatementDes(
                DesignStatAssignment(
                  Designator(
                   bodovi
                    DesDerived1(
                    ) [DesDerived1]
                  ) [Designator]
                  AssignementExpr(
                    AddopExp(
                      TermExpr(
                        TermFact(
                          FactorDesign(
                            Designator(
                             bodovi
                              DesDerived1(
                              ) [DesDerived1]
                            ) [Designator]
                          ) [FactorDesign]
                        ) [TermFact]
                      ) [TermExpr]
                      Addop(
                      ) [Addop]
                      TermFact(
                        FactorExpr(
                          AddopExp(
                            AddopExp(
                              TermExpr(
                                TermMulop(
                                  TermFact(
                                    FactorExpr(
                                      AddopExp(
                                        TermExpr(
                                          TermMulop(
                                            TermFact(
                                              FactorDesign(
                                                Designator(
                                                 pet
                                                  DesDerived1(
                                                  ) [DesDerived1]
                                                ) [Designator]
                                              ) [FactorDesign]
                                            ) [TermFact]
                                            Mulop(
                                            ) [Mulop]
                                            FactorDesign(
                                              Designator(
                                               jedan
                                                DesDerived1(
                                                ) [DesDerived1]
                                              ) [Designator]
                                            ) [FactorDesign]
                                          ) [TermMulop]
                                        ) [TermExpr]
                                        Subop(
                                        ) [Subop]
                                        TermFact(
                                          FactorConst(
                                            ConstNum(
                                             1
                                            ) [ConstNum]
                                          ) [FactorConst]
                                        ) [TermFact]
                                      ) [AddopExp]
                                    ) [FactorExpr]
                                  ) [TermFact]
                                  Mulop(
                                  ) [Mulop]
                                  FactorConst(
                                    ConstNum(
                                     2
                                    ) [ConstNum]
                                  ) [FactorConst]
                                ) [TermMulop]
                              ) [TermExpr]
                              Subop(
                              ) [Subop]
                              TermFact(
                                FactorExpr(
                                  AddopExp(
                                    AddopExp(
                                      TermExpr(
                                        TermMulop(
                                          TermFact(
                                            FactorConst(
                                              ConstNum(
                                               3
                                              ) [ConstNum]
                                            ) [FactorConst]
                                          ) [TermFact]
                                          Modop(
                                          ) [Modop]
                                          FactorConst(
                                            ConstNum(
                                             2
                                            ) [ConstNum]
                                          ) [FactorConst]
                                        ) [TermMulop]
                                      ) [TermExpr]
                                      Addop(
                                      ) [Addop]
                                      TermMulop(
                                        TermFact(
                                          FactorConst(
                                            ConstNum(
                                             3
                                            ) [ConstNum]
                                          ) [FactorConst]
                                        ) [TermFact]
                                        Mulop(
                                        ) [Mulop]
                                        FactorConst(
                                          ConstNum(
                                           2
                                          ) [ConstNum]
                                        ) [FactorConst]
                                      ) [TermMulop]
                                    ) [AddopExp]
                                    Subop(
                                    ) [Subop]
                                    TermFact(
                                      FactorConst(
                                        ConstNum(
                                         3
                                        ) [ConstNum]
                                      ) [FactorConst]
                                    ) [TermFact]
                                  ) [AddopExp]
                                ) [FactorExpr]
                              ) [TermFact]
                            ) [AddopExp]
                            Subop(
                            ) [Subop]
                            TermMulop(
                              TermFact(
                                FactorDesign(
                                  Designator(
                                   Broj
                                    DesEnum(
                                     JEDAN
                                    ) [DesEnum]
                                  ) [Designator]
                                ) [FactorDesign]
                              ) [TermFact]
                              Mulop(
                              ) [Mulop]
                              FactorConst(
                                ConstNum(
                                 0
                                ) [ConstNum]
                              ) [FactorConst]
                            ) [TermMulop]
                          ) [AddopExp]
                        ) [FactorExpr]
                      ) [TermFact]
                    ) [AddopExp]
                  ) [AssignementExpr]
                ) [DesignStatAssignment]
              ) [StatementDes]
            ) [StatementList_NoEps]
            StatPrint(
              TermExpr(
                TermFact(
                  FactorDesign(
                    Designator(
                     bodovi
                      DesDerived1(
                      ) [DesDerived1]
                    ) [Designator]
                  ) [FactorDesign]
                ) [TermFact]
              ) [TermExpr]
            ) [StatPrint]
          ) [StatementList_NoEps]
          StatRead(
            Designator(
             bodovi
              DesDerived1(
              ) [DesDerived1]
            ) [Designator]
          ) [StatRead]
        ) [StatementList_NoEps]
        StatementDes(
          DesignStatAssignment(
            Designator(
             bodovi
              DesDerived1(
              ) [DesDerived1]
            ) [Designator]
            AssignementExpr(
              AddopExp(
                TermExpr(
                  TermFact(
                    FactorDesign(
                      Designator(
                       bodovi
                        DesDerived1(
                        ) [DesDerived1]
                      ) [Designator]
                    ) [FactorDesign]
                  ) [TermFact]
                ) [TermExpr]
                Addop(
                ) [Addop]
                TermFact(
                  FactorConst(
                    ConstNum(
                     1
                    ) [ConstNum]
                  ) [FactorConst]
                ) [TermFact]
              ) [AddopExp]
            ) [AssignementExpr]
          ) [DesignStatAssignment]
        ) [StatementDes]
      ) [StatementList_NoEps]
      StatPrint(
        TermExpr(
          TermFact(
            FactorDesign(
              Designator(
               bodovi
                DesDerived1(
                ) [DesDerived1]
              ) [Designator]
            ) [FactorDesign]
          ) [TermFact]
        ) [TermExpr]
      ) [StatPrint]
    ) [StatementList_NoEps]
  ) [MethodDecl]
) [Program]
INFO  16:31:35,775 - ===================================
INFO  16:31:35,780 - Deklarisan novi enum tip Broj na liniji 5
INFO  16:31:35,781 - 1 je trenutni kindu visit Type
INFO  16:31:35,790 - 1 je trenutni kindu visit Type
INFO  16:31:35,790 - 1 je trenutni kindu visit Type
INFO  16:31:35,790 - Deklarisana promenljiva niza niz na liniji 10
INFO  16:31:35,791 - 2 je trenutni kindu visit Type
INFO  16:31:35,791 - Deklarisana promenljiva niza nizch na liniji 11
INFO  16:31:35,791 - Obradjuje se funkcija main na liniji 14
INFO  16:31:35,791 - 1 je trenutni kindu visit Type
INFO  16:31:35,791 - Deklarisana promenljiva bodovi na liniji 15
INFO  16:31:35,791 - 6 je trenutni kindu visit Type
INFO  16:31:35,791 - Deklarisana promenljiva nula na liniji 16
INFO  16:31:35,791 - Deklarisana promenljiva jedan na liniji 16
INFO  16:31:35,791 - 1 je trenutni kindu visit Type
INFO  16:31:35,791 - 2 je trenutni kindu visit Type
INFO  16:31:35,792 -  Print count calls = 0
INFO  16:31:35,792 -  Deklarisanih promenljivih ima = 9
