INFO  16:11:44,015 - Compiling source file: C:\Users\ikadr\Desktop\PP\Projekat\Rad\workspace\MJCompiler\test\program.mj
INFO  16:11:44,016 - ===============SINTAKSNA OBRADA====================
INFO  16:11:44,090 - #2 program
INFO  16:11:44,090 - #28 test301
INFO  16:11:44,090 - #9 enum
INFO  16:11:44,092 - #28 Broj
INFO  16:11:44,093 - #17 {
INFO  16:11:44,095 - #28 NULA
INFO  16:11:44,096 - #12 ,
INFO  16:11:44,096 - #28 JEDAN
INFO  16:11:44,096 - #12 ,
INFO  16:11:44,096 - #28 PET
INFO  16:11:44,097 - #11 =
INFO  16:11:44,097 - #27 5
INFO  16:11:44,097 - #12 ,
INFO  16:11:44,097 - #28 DESET
INFO  16:11:44,097 - #11 =
INFO  16:11:44,097 - #27 10
INFO  16:11:44,097 - #12 ,
INFO  16:11:44,098 - #28 NULA
INFO  16:11:44,155 - #18 }
INFO  16:11:44,155 - #9 enum
INFO  16:11:44,157 - #28 Boja
INFO  16:11:44,157 - #17 {
INFO  16:11:44,157 - #28 CRVENA
INFO  16:11:44,157 - #12 ,
INFO  16:11:44,157 - #28 PLAVA
INFO  16:11:44,157 - #12 ,
INFO  16:11:44,158 - #28 ZELENA
INFO  16:11:44,158 - #18 }
INFO  16:11:44,158 - #8 const
INFO  16:11:44,158 - #28 int
INFO  16:11:44,158 - #28 jedan
INFO  16:11:44,159 - #11 =
INFO  16:11:44,160 - #27 1
INFO  16:11:44,160 - #10 ;
INFO  16:11:44,161 - #8 const
INFO  16:11:44,162 - #28 int
INFO  16:11:44,163 - #28 pet
INFO  16:11:44,163 - #11 =
INFO  16:11:44,163 - #27 5
INFO  16:11:44,163 - #10 ;
INFO  16:11:44,163 - #28 int
INFO  16:11:44,163 - #28 niz
INFO  16:11:44,163 - #15 [
INFO  16:11:44,163 - #16 ]
INFO  16:11:44,163 - #10 ;
INFO  16:11:44,164 - #28 char
INFO  16:11:44,165 - #28 nizch
INFO  16:11:44,165 - #15 [
INFO  16:11:44,165 - #16 ]
INFO  16:11:44,165 - #10 ;
INFO  16:11:44,165 - #17 {
INFO  16:11:44,165 - #6 void
INFO  16:11:44,166 - #28 main
INFO  16:11:44,167 - #13 (
INFO  16:11:44,167 - #14 )
INFO  16:11:44,168 - #28 int
INFO  16:11:44,170 - #28 bodovi
INFO  16:11:44,170 - #10 ;
INFO  16:11:44,170 - #28 Broj
INFO  16:11:44,173 - #28 nula
INFO  16:11:44,173 - #12 ,
INFO  16:11:44,173 - #28 jedan
INFO  16:11:44,174 - #10 ;
INFO  16:11:44,174 - #28 Boja
INFO  16:11:44,174 - #28 neka
INFO  16:11:44,175 - #10 ;
INFO  16:11:44,175 - #17 {
INFO  16:11:44,175 - #28 neka
INFO  16:11:44,179 - #11 =
INFO  16:11:44,179 - #28 Broj
INFO  16:11:44,179 - #19 .
INFO  16:11:44,179 - #28 JEDAN
INFO  16:11:44,179 - #10 ;
INFO  16:11:44,180 - #28 bodovi
INFO  16:11:44,180 - #11 =
INFO  16:11:44,181 - #27 0
INFO  16:11:44,181 - #10 ;
INFO  16:11:44,181 - #28 bodovi
INFO  16:11:44,181 - #20 ++
INFO  16:11:44,181 - #10 ;
INFO  16:11:44,181 - #28 bodovi
INFO  16:11:44,182 - #11 =
INFO  16:11:44,182 - #28 bodovi
INFO  16:11:44,182 - #23 +
INFO  16:11:44,182 - #28 jedan
INFO  16:11:44,187 - #10 ;
INFO  16:11:44,187 - #28 bodovi
INFO  16:11:44,187 - #11 =
INFO  16:11:44,188 - #28 bodovi
INFO  16:11:44,188 - #24 *
INFO  16:11:44,188 - #28 pet
INFO  16:11:44,190 - #10 ;
INFO  16:11:44,190 - #28 bodovi
INFO  16:11:44,190 - #21 --
INFO  16:11:44,191 - #10 ;
INFO  16:11:44,191 - #4 print
INFO  16:11:44,191 - #13 (
INFO  16:11:44,192 - #28 bodovi
INFO  16:11:44,192 - #14 )
INFO  16:11:44,192 - #10 ;
INFO  16:11:44,193 - #28 niz
INFO  16:11:44,194 - #11 =
INFO  16:11:44,194 - #5 new
INFO  16:11:44,195 - #28 int
INFO  16:11:44,195 - #15 [
INFO  16:11:44,195 - #27 2
INFO  16:11:44,195 - #16 ]
INFO  16:11:44,195 - #10 ;
INFO  16:11:44,196 - #28 niz
INFO  16:11:44,196 - #15 [
INFO  16:11:44,197 - #28 nula
INFO  16:11:44,197 - #16 ]
INFO  16:11:44,197 - #11 =
INFO  16:11:44,198 - #28 pet
INFO  16:11:44,198 - #10 ;
INFO  16:11:44,198 - #28 niz
INFO  16:11:44,198 - #15 [
INFO  16:11:44,198 - #27 1
INFO  16:11:44,198 - #16 ]
INFO  16:11:44,198 - #11 =
INFO  16:11:44,198 - #28 Broj
INFO  16:11:44,198 - #19 .
INFO  16:11:44,198 - #28 DESET
INFO  16:11:44,198 - #10 ;
INFO  16:11:44,199 - #28 bodovi
INFO  16:11:44,199 - #11 =
INFO  16:11:44,199 - #28 niz
INFO  16:11:44,199 - #15 [
INFO  16:11:44,199 - #27 1
INFO  16:11:44,199 - #16 ]
INFO  16:11:44,199 - #25 /
INFO  16:11:44,204 - #28 niz
INFO  16:11:44,205 - #15 [
INFO  16:11:44,206 - #27 0
INFO  16:11:44,206 - #16 ]
INFO  16:11:44,206 - #10 ;
INFO  16:11:44,206 - #4 print
INFO  16:11:44,206 - #13 (
INFO  16:11:44,206 - #28 bodovi
INFO  16:11:44,206 - #14 )
INFO  16:11:44,206 - #10 ;
INFO  16:11:44,206 - #4 print
INFO  16:11:44,206 - #13 (
INFO  16:11:44,206 - #28 niz
INFO  16:11:44,207 - #15 [
INFO  16:11:44,207 - #28 Broj
INFO  16:11:44,207 - #19 .
INFO  16:11:44,207 - #28 JEDAN
INFO  16:11:44,207 - #16 ]
INFO  16:11:44,207 - #14 )
INFO  16:11:44,207 - #10 ;
INFO  16:11:44,207 - #28 nizch
INFO  16:11:44,207 - #11 =
INFO  16:11:44,207 - #5 new
INFO  16:11:44,207 - #28 char
INFO  16:11:44,207 - #15 [
INFO  16:11:44,207 - #27 3
INFO  16:11:44,208 - #16 ]
INFO  16:11:44,208 - #10 ;
INFO  16:11:44,208 - #28 nizch
INFO  16:11:44,208 - #15 [
INFO  16:11:44,208 - #27 0
INFO  16:11:44,208 - #16 ]
INFO  16:11:44,208 - #11 =
INFO  16:11:44,209 - #29 a
INFO  16:11:44,209 - #10 ;
INFO  16:11:44,209 - #28 nizch
INFO  16:11:44,210 - #15 [
INFO  16:11:44,210 - #28 jedan
INFO  16:11:44,210 - #16 ]
INFO  16:11:44,210 - #11 =
INFO  16:11:44,210 - #29 b
INFO  16:11:44,211 - #10 ;
INFO  16:11:44,211 - #28 nizch
INFO  16:11:44,211 - #15 [
INFO  16:11:44,211 - #28 pet
INFO  16:11:44,211 - #22 -
INFO  16:11:44,211 - #27 3
INFO  16:11:44,216 - #16 ]
INFO  16:11:44,216 - #11 =
INFO  16:11:44,217 - #29 c
INFO  16:11:44,217 - #10 ;
INFO  16:11:44,217 - #4 print
INFO  16:11:44,217 - #13 (
INFO  16:11:44,218 - #28 nizch
INFO  16:11:44,218 - #15 [
INFO  16:11:44,218 - #27 2
INFO  16:11:44,218 - #22 -
INFO  16:11:44,218 - #27 1
INFO  16:11:44,218 - #16 ]
INFO  16:11:44,219 - #14 )
INFO  16:11:44,219 - #10 ;
INFO  16:11:44,219 - #4 print
INFO  16:11:44,219 - #13 (
INFO  16:11:44,219 - #28 nizch
INFO  16:11:44,219 - #15 [
INFO  16:11:44,219 - #28 jedan
INFO  16:11:44,219 - #24 *
INFO  16:11:44,219 - #27 2
INFO  16:11:44,219 - #16 ]
INFO  16:11:44,219 - #14 )
INFO  16:11:44,219 - #10 ;
INFO  16:11:44,220 - #28 bodovi
INFO  16:11:44,220 - #11 =
INFO  16:11:44,220 - #28 bodovi
INFO  16:11:44,220 - #23 +
INFO  16:11:44,220 - #13 (
INFO  16:11:44,220 - #13 (
INFO  16:11:44,220 - #28 pet
INFO  16:11:44,220 - #24 *
INFO  16:11:44,220 - #28 jedan
INFO  16:11:44,220 - #22 -
INFO  16:11:44,220 - #27 1
INFO  16:11:44,220 - #14 )
INFO  16:11:44,220 - #24 *
INFO  16:11:44,220 - #27 2
INFO  16:11:44,220 - #22 -
INFO  16:11:44,220 - #13 (
INFO  16:11:44,220 - #27 3
INFO  16:11:44,220 - #26 %
INFO  16:11:44,221 - #27 2
INFO  16:11:44,222 - #23 +
INFO  16:11:44,222 - #27 3
INFO  16:11:44,222 - #24 *
INFO  16:11:44,222 - #27 2
INFO  16:11:44,222 - #22 -
INFO  16:11:44,222 - #27 3
INFO  16:11:44,223 - #14 )
INFO  16:11:44,223 - #22 -
INFO  16:11:44,223 - #28 Broj
INFO  16:11:44,223 - #19 .
INFO  16:11:44,223 - #28 JEDAN
INFO  16:11:44,223 - #24 *
INFO  16:11:44,223 - #27 0
INFO  16:11:44,223 - #14 )
INFO  16:11:44,223 - #10 ;
INFO  16:11:44,223 - #4 print
INFO  16:11:44,223 - #13 (
INFO  16:11:44,224 - #28 bodovi
INFO  16:11:44,224 - #14 )
INFO  16:11:44,224 - #10 ;
INFO  16:11:44,224 - #3 read
INFO  16:11:44,224 - #13 (
INFO  16:11:44,224 - #28 bodovi
INFO  16:11:44,224 - #14 )
INFO  16:11:44,224 - #10 ;
INFO  16:11:44,224 - #28 bodovi
INFO  16:11:44,224 - #11 =
INFO  16:11:44,225 - #28 bodovi
INFO  16:11:44,225 - #23 +
INFO  16:11:44,225 - #27 1
INFO  16:11:44,225 - #10 ;
INFO  16:11:44,225 - #4 print
INFO  16:11:44,225 - #13 (
INFO  16:11:44,228 - #28 bodovi
INFO  16:11:44,229 - #14 )
INFO  16:11:44,229 - #10 ;
INFO  16:11:44,229 - #18 }
INFO  16:11:44,229 - #18 }
INFO  16:11:44,249 - Program(
  ProgName(
   test301
  ) [ProgName]
  GlobalDeclListL(
    GlobalDeclListL(
      GlobalDeclListL(
        GlobalDeclListL(
          GlobalDeclListL(
            GlobalDeclListL(
              GlobalDeclListEps(
              ) [GlobalDeclListEps]
              GlobalDeclEnum(
                EnumDecl(
                  EnumName(
                   Broj
                  ) [EnumName]
                  EnumDeclListL(
                    EnumDeclListL(
                      EnumDeclListL(
                        EnumDeclListL(
                          EnumDeclItem(
                            EnumDeclDefNoVal(
                             NULA
                            ) [EnumDeclDefNoVal]
                          ) [EnumDeclItem]
                          EnumDeclDefNoVal(
                           JEDAN
                          ) [EnumDeclDefNoVal]
                        ) [EnumDeclListL]
                        EnumDeclDefVal(
                         PET
                         5
                        ) [EnumDeclDefVal]
                      ) [EnumDeclListL]
                      EnumDeclDefVal(
                       DESET
                       10
                      ) [EnumDeclDefVal]
                    ) [EnumDeclListL]
                    EnumDeclDefNoVal(
                     NULA
                    ) [EnumDeclDefNoVal]
                  ) [EnumDeclListL]
                ) [EnumDecl]
              ) [GlobalDeclEnum]
            ) [GlobalDeclListL]
            GlobalDeclEnum(
              EnumDecl(
                EnumName(
                 Boja
                ) [EnumName]
                EnumDeclListL(
                  EnumDeclListL(
                    EnumDeclItem(
                      EnumDeclDefNoVal(
                       CRVENA
                      ) [EnumDeclDefNoVal]
                    ) [EnumDeclItem]
                    EnumDeclDefNoVal(
                     PLAVA
                    ) [EnumDeclDefNoVal]
                  ) [EnumDeclListL]
                  EnumDeclDefNoVal(
                   ZELENA
                  ) [EnumDeclDefNoVal]
                ) [EnumDeclListL]
              ) [EnumDecl]
            ) [GlobalDeclEnum]
          ) [GlobalDeclListL]
          GlobalDeclConst(
            ConstDecl(
              Type(
               int
              ) [Type]
              ConstDeclItem(
                ConstDef(
                 jedan
                  ConstNum(
                   1
                  ) [ConstNum]
                ) [ConstDef]
              ) [ConstDeclItem]
            ) [ConstDecl]
          ) [GlobalDeclConst]
        ) [GlobalDeclListL]
        GlobalDeclConst(
          ConstDecl(
            Type(
             int
            ) [Type]
            ConstDeclItem(
              ConstDef(
               pet
                ConstNum(
                 5
                ) [ConstNum]
              ) [ConstDef]
            ) [ConstDeclItem]
          ) [ConstDecl]
        ) [GlobalDeclConst]
      ) [GlobalDeclListL]
      GlobalDeclVar(
        GlobalVarDecl(
          Type(
           int
          ) [Type]
          GlobalVarDeclItem(
            GlobalVarDeclDefOk(
              VarDeclDefineArray(
               niz
              ) [VarDeclDefineArray]
            ) [GlobalVarDeclDefOk]
          ) [GlobalVarDeclItem]
        ) [GlobalVarDecl]
      ) [GlobalDeclVar]
    ) [GlobalDeclListL]
    GlobalDeclVar(
      GlobalVarDecl(
        Type(
         char
        ) [Type]
        GlobalVarDeclItem(
          GlobalVarDeclDefOk(
            VarDeclDefineArray(
             nizch
            ) [VarDeclDefineArray]
          ) [GlobalVarDeclDefOk]
        ) [GlobalVarDeclItem]
      ) [GlobalVarDecl]
    ) [GlobalDeclVar]
  ) [GlobalDeclListL]
  MethodDecl(
    MethodSignature(
      VoidableType(
      ) [VoidableType]
     main
    ) [MethodSignature]
    VarMethodDeclList_NoEps(
      VarMethodDeclList_NoEps(
        VarMethodDeclList_NoEps(
          VarMethodDeclList_Eps(
          ) [VarMethodDeclList_Eps]
          VarDecl(
            Type(
             int
            ) [Type]
            VarDeclItem(
              VarDeclDefineSingle(
               bodovi
              ) [VarDeclDefineSingle]
            ) [VarDeclItem]
          ) [VarDecl]
        ) [VarMethodDeclList_NoEps]
        VarDecl(
          Type(
           Broj
          ) [Type]
          VarDeclListL(
            VarDeclItem(
              VarDeclDefineSingle(
               nula
              ) [VarDeclDefineSingle]
            ) [VarDeclItem]
            VarDeclDefineSingle(
             jedan
            ) [VarDeclDefineSingle]
          ) [VarDeclListL]
        ) [VarDecl]
      ) [VarMethodDeclList_NoEps]
      VarDecl(
        Type(
         Boja
        ) [Type]
        VarDeclItem(
          VarDeclDefineSingle(
           neka
          ) [VarDeclDefineSingle]
        ) [VarDeclItem]
      ) [VarDecl]
    ) [VarMethodDeclList_NoEps]
    StatementList_NoEps(
      StatementList_NoEps(
        StatementList_NoEps(
          StatementList_NoEps(
            StatementList_NoEps(
              StatementList_NoEps(
                StatementList_NoEps(
                  StatementList_NoEps(
                    StatementList_NoEps(
                      StatementList_NoEps(
                        StatementList_NoEps(
                          StatementList_NoEps(
                            StatementList_NoEps(
                              StatementList_NoEps(
                                StatementList_NoEps(
                                  StatementList_NoEps(
                                    StatementList_NoEps(
                                      StatementList_NoEps(
                                        StatementList_NoEps(
                                          StatementList_NoEps(
                                            StatementList_NoEps(
                                              StatementList_NoEps(
                                                StatementList_NoEps(
                                                  StatementList_NoEps(
                                                    StatementList_Eps(
                                                    ) [StatementList_Eps]
                                                    StatementDes(
                                                      DesignStatAssignment(
                                                        DesIdent(
                                                         neka
                                                        ) [DesIdent]
                                                        AssignementExpr(
                                                          TermExpr(
                                                            TermFact(
                                                              FactorDesign(
                                                                DesEnum(
                                                                 Broj
                                                                 JEDAN
                                                                ) [DesEnum]
                                                              ) [FactorDesign]
                                                            ) [TermFact]
                                                          ) [TermExpr]
                                                        ) [AssignementExpr]
                                                      ) [DesignStatAssignment]
                                                    ) [StatementDes]
                                                  ) [StatementList_NoEps]
                                                  StatementDes(
                                                    DesignStatAssignment(
                                                      DesIdent(
                                                       bodovi
                                                      ) [DesIdent]
                                                      AssignementExpr(
                                                        TermExpr(
                                                          TermFact(
                                                            FactorConst(
                                                              ConstNum(
                                                               0
                                                              ) [ConstNum]
                                                            ) [FactorConst]
                                                          ) [TermFact]
                                                        ) [TermExpr]
                                                      ) [AssignementExpr]
                                                    ) [DesignStatAssignment]
                                                  ) [StatementDes]
                                                ) [StatementList_NoEps]
                                                StatementDes(
                                                  DesignStatInc(
                                                    DesIdent(
                                                     bodovi
                                                    ) [DesIdent]
                                                  ) [DesignStatInc]
                                                ) [StatementDes]
                                              ) [StatementList_NoEps]
                                              StatementDes(
                                                DesignStatAssignment(
                                                  DesIdent(
                                                   bodovi
                                                  ) [DesIdent]
                                                  AssignementExpr(
                                                    AddopExp(
                                                      TermExpr(
                                                        TermFact(
                                                          FactorDesign(
                                                            DesIdent(
                                                             bodovi
                                                            ) [DesIdent]
                                                          ) [FactorDesign]
                                                        ) [TermFact]
                                                      ) [TermExpr]
                                                      Addop_Plus(
                                                      ) [Addop_Plus]
                                                      TermFact(
                                                        FactorDesign(
                                                          DesIdent(
                                                           jedan
                                                          ) [DesIdent]
                                                        ) [FactorDesign]
                                                      ) [TermFact]
                                                    ) [AddopExp]
                                                  ) [AssignementExpr]
                                                ) [DesignStatAssignment]
                                              ) [StatementDes]
                                            ) [StatementList_NoEps]
                                            StatementDes(
                                              DesignStatAssignment(
                                                DesIdent(
                                                 bodovi
                                                ) [DesIdent]
                                                AssignementExpr(
                                                  TermExpr(
                                                    TermMulop(
                                                      TermFact(
                                                        FactorDesign(
                                                          DesIdent(
                                                           bodovi
                                                          ) [DesIdent]
                                                        ) [FactorDesign]
                                                      ) [TermFact]
                                                      Mulop_Mul(
                                                      ) [Mulop_Mul]
                                                      FactorDesign(
                                                        DesIdent(
                                                         pet
                                                        ) [DesIdent]
                                                      ) [FactorDesign]
                                                    ) [TermMulop]
                                                  ) [TermExpr]
                                                ) [AssignementExpr]
                                              ) [DesignStatAssignment]
                                            ) [StatementDes]
                                          ) [StatementList_NoEps]
                                          StatementDes(
                                            DesignStatDec(
                                              DesIdent(
                                               bodovi
                                              ) [DesIdent]
                                            ) [DesignStatDec]
                                          ) [StatementDes]
                                        ) [StatementList_NoEps]
                                        StatPrint(
                                          TermExpr(
                                            TermFact(
                                              FactorDesign(
                                                DesIdent(
                                                 bodovi
                                                ) [DesIdent]
                                              ) [FactorDesign]
                                            ) [TermFact]
                                          ) [TermExpr]
                                        ) [StatPrint]
                                      ) [StatementList_NoEps]
                                      StatementDes(
                                        DesignStatAssignment(
                                          DesIdent(
                                           niz
                                          ) [DesIdent]
                                          AssignementExpr(
                                            TermExpr(
                                              TermFact(
                                                FactorNewArr(
                                                  Type(
                                                   int
                                                  ) [Type]
                                                  TermExpr(
                                                    TermFact(
                                                      FactorConst(
                                                        ConstNum(
                                                         2
                                                        ) [ConstNum]
                                                      ) [FactorConst]
                                                    ) [TermFact]
                                                  ) [TermExpr]
                                                ) [FactorNewArr]
                                              ) [TermFact]
                                            ) [TermExpr]
                                          ) [AssignementExpr]
                                        ) [DesignStatAssignment]
                                      ) [StatementDes]
                                    ) [StatementList_NoEps]
                                    StatementDes(
                                      DesignStatAssignment(
                                        DesArr(
                                          ArrayName(
                                           niz
                                          ) [ArrayName]
                                          TermExpr(
                                            TermFact(
                                              FactorDesign(
                                                DesIdent(
                                                 nula
                                                ) [DesIdent]
                                              ) [FactorDesign]
                                            ) [TermFact]
                                          ) [TermExpr]
                                        ) [DesArr]
                                        AssignementExpr(
                                          TermExpr(
                                            TermFact(
                                              FactorDesign(
                                                DesIdent(
                                                 pet
                                                ) [DesIdent]
                                              ) [FactorDesign]
                                            ) [TermFact]
                                          ) [TermExpr]
                                        ) [AssignementExpr]
                                      ) [DesignStatAssignment]
                                    ) [StatementDes]
                                  ) [StatementList_NoEps]
                                  StatementDes(
                                    DesignStatAssignment(
                                      DesArr(
                                        ArrayName(
                                         niz
                                        ) [ArrayName]
                                        TermExpr(
                                          TermFact(
                                            FactorConst(
                                              ConstNum(
                                               1
                                              ) [ConstNum]
                                            ) [FactorConst]
                                          ) [TermFact]
                                        ) [TermExpr]
                                      ) [DesArr]
                                      AssignementExpr(
                                        TermExpr(
                                          TermFact(
                                            FactorDesign(
                                              DesEnum(
                                               Broj
                                               DESET
                                              ) [DesEnum]
                                            ) [FactorDesign]
                                          ) [TermFact]
                                        ) [TermExpr]
                                      ) [AssignementExpr]
                                    ) [DesignStatAssignment]
                                  ) [StatementDes]
                                ) [StatementList_NoEps]
                                StatementDes(
                                  DesignStatAssignment(
                                    DesIdent(
                                     bodovi
                                    ) [DesIdent]
                                    AssignementExpr(
                                      TermExpr(
                                        TermMulop(
                                          TermFact(
                                            FactorDesign(
                                              DesArr(
                                                ArrayName(
                                                 niz
                                                ) [ArrayName]
                                                TermExpr(
                                                  TermFact(
                                                    FactorConst(
                                                      ConstNum(
                                                       1
                                                      ) [ConstNum]
                                                    ) [FactorConst]
                                                  ) [TermFact]
                                                ) [TermExpr]
                                              ) [DesArr]
                                            ) [FactorDesign]
                                          ) [TermFact]
                                          Mulop_Div(
                                          ) [Mulop_Div]
                                          FactorDesign(
                                            DesArr(
                                              ArrayName(
                                               niz
                                              ) [ArrayName]
                                              TermExpr(
                                                TermFact(
                                                  FactorConst(
                                                    ConstNum(
                                                     0
                                                    ) [ConstNum]
                                                  ) [FactorConst]
                                                ) [TermFact]
                                              ) [TermExpr]
                                            ) [DesArr]
                                          ) [FactorDesign]
                                        ) [TermMulop]
                                      ) [TermExpr]
                                    ) [AssignementExpr]
                                  ) [DesignStatAssignment]
                                ) [StatementDes]
                              ) [StatementList_NoEps]
                              StatPrint(
                                TermExpr(
                                  TermFact(
                                    FactorDesign(
                                      DesIdent(
                                       bodovi
                                      ) [DesIdent]
                                    ) [FactorDesign]
                                  ) [TermFact]
                                ) [TermExpr]
                              ) [StatPrint]
                            ) [StatementList_NoEps]
                            StatPrint(
                              TermExpr(
                                TermFact(
                                  FactorDesign(
                                    DesArr(
                                      ArrayName(
                                       niz
                                      ) [ArrayName]
                                      TermExpr(
                                        TermFact(
                                          FactorDesign(
                                            DesEnum(
                                             Broj
                                             JEDAN
                                            ) [DesEnum]
                                          ) [FactorDesign]
                                        ) [TermFact]
                                      ) [TermExpr]
                                    ) [DesArr]
                                  ) [FactorDesign]
                                ) [TermFact]
                              ) [TermExpr]
                            ) [StatPrint]
                          ) [StatementList_NoEps]
                          StatementDes(
                            DesignStatAssignment(
                              DesIdent(
                               nizch
                              ) [DesIdent]
                              AssignementExpr(
                                TermExpr(
                                  TermFact(
                                    FactorNewArr(
                                      Type(
                                       char
                                      ) [Type]
                                      TermExpr(
                                        TermFact(
                                          FactorConst(
                                            ConstNum(
                                             3
                                            ) [ConstNum]
                                          ) [FactorConst]
                                        ) [TermFact]
                                      ) [TermExpr]
                                    ) [FactorNewArr]
                                  ) [TermFact]
                                ) [TermExpr]
                              ) [AssignementExpr]
                            ) [DesignStatAssignment]
                          ) [StatementDes]
                        ) [StatementList_NoEps]
                        StatementDes(
                          DesignStatAssignment(
                            DesArr(
                              ArrayName(
                               nizch
                              ) [ArrayName]
                              TermExpr(
                                TermFact(
                                  FactorConst(
                                    ConstNum(
                                     0
                                    ) [ConstNum]
                                  ) [FactorConst]
                                ) [TermFact]
                              ) [TermExpr]
                            ) [DesArr]
                            AssignementExpr(
                              TermExpr(
                                TermFact(
                                  FactorConst(
                                    ConstChar(
                                     a
                                    ) [ConstChar]
                                  ) [FactorConst]
                                ) [TermFact]
                              ) [TermExpr]
                            ) [AssignementExpr]
                          ) [DesignStatAssignment]
                        ) [StatementDes]
                      ) [StatementList_NoEps]
                      StatementDes(
                        DesignStatAssignment(
                          DesArr(
                            ArrayName(
                             nizch
                            ) [ArrayName]
                            TermExpr(
                              TermFact(
                                FactorDesign(
                                  DesIdent(
                                   jedan
                                  ) [DesIdent]
                                ) [FactorDesign]
                              ) [TermFact]
                            ) [TermExpr]
                          ) [DesArr]
                          AssignementExpr(
                            TermExpr(
                              TermFact(
                                FactorConst(
                                  ConstChar(
                                   b
                                  ) [ConstChar]
                                ) [FactorConst]
                              ) [TermFact]
                            ) [TermExpr]
                          ) [AssignementExpr]
                        ) [DesignStatAssignment]
                      ) [StatementDes]
                    ) [StatementList_NoEps]
                    StatementDes(
                      DesignStatAssignment(
                        DesArr(
                          ArrayName(
                           nizch
                          ) [ArrayName]
                          AddopExp(
                            TermExpr(
                              TermFact(
                                FactorDesign(
                                  DesIdent(
                                   pet
                                  ) [DesIdent]
                                ) [FactorDesign]
                              ) [TermFact]
                            ) [TermExpr]
                            Addop_Minus(
                            ) [Addop_Minus]
                            TermFact(
                              FactorConst(
                                ConstNum(
                                 3
                                ) [ConstNum]
                              ) [FactorConst]
                            ) [TermFact]
                          ) [AddopExp]
                        ) [DesArr]
                        AssignementExpr(
                          TermExpr(
                            TermFact(
                              FactorConst(
                                ConstChar(
                                 c
                                ) [ConstChar]
                              ) [FactorConst]
                            ) [TermFact]
                          ) [TermExpr]
                        ) [AssignementExpr]
                      ) [DesignStatAssignment]
                    ) [StatementDes]
                  ) [StatementList_NoEps]
                  StatPrint(
                    TermExpr(
                      TermFact(
                        FactorDesign(
                          DesArr(
                            ArrayName(
                             nizch
                            ) [ArrayName]
                            AddopExp(
                              TermExpr(
                                TermFact(
                                  FactorConst(
                                    ConstNum(
                                     2
                                    ) [ConstNum]
                                  ) [FactorConst]
                                ) [TermFact]
                              ) [TermExpr]
                              Addop_Minus(
                              ) [Addop_Minus]
                              TermFact(
                                FactorConst(
                                  ConstNum(
                                   1
                                  ) [ConstNum]
                                ) [FactorConst]
                              ) [TermFact]
                            ) [AddopExp]
                          ) [DesArr]
                        ) [FactorDesign]
                      ) [TermFact]
                    ) [TermExpr]
                  ) [StatPrint]
                ) [StatementList_NoEps]
                StatPrint(
                  TermExpr(
                    TermFact(
                      FactorDesign(
                        DesArr(
                          ArrayName(
                           nizch
                          ) [ArrayName]
                          TermExpr(
                            TermMulop(
                              TermFact(
                                FactorDesign(
                                  DesIdent(
                                   jedan
                                  ) [DesIdent]
                                ) [FactorDesign]
                              ) [TermFact]
                              Mulop_Mul(
                              ) [Mulop_Mul]
                              FactorConst(
                                ConstNum(
                                 2
                                ) [ConstNum]
                              ) [FactorConst]
                            ) [TermMulop]
                          ) [TermExpr]
                        ) [DesArr]
                      ) [FactorDesign]
                    ) [TermFact]
                  ) [TermExpr]
                ) [StatPrint]
              ) [StatementList_NoEps]
              StatementDes(
                DesignStatAssignment(
                  DesIdent(
                   bodovi
                  ) [DesIdent]
                  AssignementExpr(
                    AddopExp(
                      TermExpr(
                        TermFact(
                          FactorDesign(
                            DesIdent(
                             bodovi
                            ) [DesIdent]
                          ) [FactorDesign]
                        ) [TermFact]
                      ) [TermExpr]
                      Addop_Plus(
                      ) [Addop_Plus]
                      TermFact(
                        FactorExpr(
                          AddopExp(
                            AddopExp(
                              TermExpr(
                                TermMulop(
                                  TermFact(
                                    FactorExpr(
                                      AddopExp(
                                        TermExpr(
                                          TermMulop(
                                            TermFact(
                                              FactorDesign(
                                                DesIdent(
                                                 pet
                                                ) [DesIdent]
                                              ) [FactorDesign]
                                            ) [TermFact]
                                            Mulop_Mul(
                                            ) [Mulop_Mul]
                                            FactorDesign(
                                              DesIdent(
                                               jedan
                                              ) [DesIdent]
                                            ) [FactorDesign]
                                          ) [TermMulop]
                                        ) [TermExpr]
                                        Addop_Minus(
                                        ) [Addop_Minus]
                                        TermFact(
                                          FactorConst(
                                            ConstNum(
                                             1
                                            ) [ConstNum]
                                          ) [FactorConst]
                                        ) [TermFact]
                                      ) [AddopExp]
                                    ) [FactorExpr]
                                  ) [TermFact]
                                  Mulop_Mul(
                                  ) [Mulop_Mul]
                                  FactorConst(
                                    ConstNum(
                                     2
                                    ) [ConstNum]
                                  ) [FactorConst]
                                ) [TermMulop]
                              ) [TermExpr]
                              Addop_Minus(
                              ) [Addop_Minus]
                              TermFact(
                                FactorExpr(
                                  AddopExp(
                                    AddopExp(
                                      TermExpr(
                                        TermMulop(
                                          TermFact(
                                            FactorConst(
                                              ConstNum(
                                               3
                                              ) [ConstNum]
                                            ) [FactorConst]
                                          ) [TermFact]
                                          Mulop_Mod(
                                          ) [Mulop_Mod]
                                          FactorConst(
                                            ConstNum(
                                             2
                                            ) [ConstNum]
                                          ) [FactorConst]
                                        ) [TermMulop]
                                      ) [TermExpr]
                                      Addop_Plus(
                                      ) [Addop_Plus]
                                      TermMulop(
                                        TermFact(
                                          FactorConst(
                                            ConstNum(
                                             3
                                            ) [ConstNum]
                                          ) [FactorConst]
                                        ) [TermFact]
                                        Mulop_Mul(
                                        ) [Mulop_Mul]
                                        FactorConst(
                                          ConstNum(
                                           2
                                          ) [ConstNum]
                                        ) [FactorConst]
                                      ) [TermMulop]
                                    ) [AddopExp]
                                    Addop_Minus(
                                    ) [Addop_Minus]
                                    TermFact(
                                      FactorConst(
                                        ConstNum(
                                         3
                                        ) [ConstNum]
                                      ) [FactorConst]
                                    ) [TermFact]
                                  ) [AddopExp]
                                ) [FactorExpr]
                              ) [TermFact]
                            ) [AddopExp]
                            Addop_Minus(
                            ) [Addop_Minus]
                            TermMulop(
                              TermFact(
                                FactorDesign(
                                  DesEnum(
                                   Broj
                                   JEDAN
                                  ) [DesEnum]
                                ) [FactorDesign]
                              ) [TermFact]
                              Mulop_Mul(
                              ) [Mulop_Mul]
                              FactorConst(
                                ConstNum(
                                 0
                                ) [ConstNum]
                              ) [FactorConst]
                            ) [TermMulop]
                          ) [AddopExp]
                        ) [FactorExpr]
                      ) [TermFact]
                    ) [AddopExp]
                  ) [AssignementExpr]
                ) [DesignStatAssignment]
              ) [StatementDes]
            ) [StatementList_NoEps]
            StatPrint(
              TermExpr(
                TermFact(
                  FactorDesign(
                    DesIdent(
                     bodovi
                    ) [DesIdent]
                  ) [FactorDesign]
                ) [TermFact]
              ) [TermExpr]
            ) [StatPrint]
          ) [StatementList_NoEps]
          StatRead(
            DesIdent(
             bodovi
            ) [DesIdent]
          ) [StatRead]
        ) [StatementList_NoEps]
        StatementDes(
          DesignStatAssignment(
            DesIdent(
             bodovi
            ) [DesIdent]
            AssignementExpr(
              AddopExp(
                TermExpr(
                  TermFact(
                    FactorDesign(
                      DesIdent(
                       bodovi
                      ) [DesIdent]
                    ) [FactorDesign]
                  ) [TermFact]
                ) [TermExpr]
                Addop_Plus(
                ) [Addop_Plus]
                TermFact(
                  FactorConst(
                    ConstNum(
                     1
                    ) [ConstNum]
                  ) [FactorConst]
                ) [TermFact]
              ) [AddopExp]
            ) [AssignementExpr]
          ) [DesignStatAssignment]
        ) [StatementDes]
      ) [StatementList_NoEps]
      StatPrint(
        TermExpr(
          TermFact(
            FactorDesign(
              DesIdent(
               bodovi
              ) [DesIdent]
            ) [FactorDesign]
          ) [TermFact]
        ) [TermExpr]
      ) [StatPrint]
    ) [StatementList_NoEps]
  ) [MethodDecl]
) [Program]
INFO  16:11:44,364 - ===============SEMANTICKA OBRADA====================
INFO  16:11:44,373 - Deklarisan novi enum tip Broj na liniji 5
INFO  16:11:44,373 - Deklarisana konstanta Broj.NULA unutar enuma Broj na liniji 5
INFO  16:11:44,373 - Deklarisana konstanta Broj.JEDAN unutar enuma Broj na liniji 5
INFO  16:11:44,373 - Deklarisana konstanta Broj.PET unutar enuma Broj na liniji 5
INFO  16:11:44,373 - Deklarisana konstanta Broj.DESET unutar enuma Broj na liniji 5
ERROR 16:11:44,374 - Greska: Konstanta NULA vec postoji unutar enuma Broj na liniji 5
INFO  16:11:44,374 - Deklarisan novi enum tip Boja na liniji 6
INFO  16:11:44,374 - Deklarisana konstanta Boja.CRVENA unutar enuma Boja na liniji 6
INFO  16:11:44,374 - Deklarisana konstanta Boja.PLAVA unutar enuma Boja na liniji 6
INFO  16:11:44,374 - Deklarisana konstanta Boja.ZELENA unutar enuma Boja na liniji 6
INFO  16:11:44,374 - Deklarisana konstanta 'jedan' na liniji 8
INFO  16:11:44,374 - Deklarisana konstanta 'pet' na liniji 9
INFO  16:11:44,374 - Deklarisana promenljiva niza 'niz' tipa 1 na liniji 11
INFO  16:11:44,375 - Deklarisana promenljiva niza 'nizch' tipa 2 na liniji 12
INFO  16:11:44,375 - Obradjuje se funkcija main na liniji 15
INFO  16:11:44,375 - Deklarisana promenljiva 'bodovi' tipa int na liniji 16
INFO  16:11:44,375 - Deklarisana promenljiva 'nula' tipa Broj na liniji 17
INFO  16:11:44,375 - Deklarisana promenljiva 'jedan' tipa Broj na liniji 17
INFO  16:11:44,375 - Deklarisana promenljiva 'neka' tipa Boja na liniji 18
ERROR 16:11:44,376 - Greska: Ne moze se jedan enum tip dodeliti drugom enum tipu na liniji 20
INFO  16:11:44,377 - Izvresna dodela vrednosti
INFO  16:11:44,377 - Inkrementirana vrednost
INFO  16:11:44,377 - Izvresna dodela vrednosti
INFO  16:11:44,377 - Izvresna dodela vrednosti
INFO  16:11:44,377 - Dekrementirana vrednost
INFO  16:11:44,377 - Print funkcija na liniji 26
INFO  16:11:44,377 - Izvresna dodela vrednosti
INFO  16:11:44,378 - Print funkcija na liniji 33
INFO  16:11:44,378 - Print funkcija na liniji 34
INFO  16:11:44,378 - Print funkcija na liniji 41
INFO  16:11:44,378 - Print funkcija na liniji 42
INFO  16:11:44,378 - Izvresna dodela vrednosti
INFO  16:11:44,379 - Print funkcija na liniji 46
INFO  16:11:44,379 - Read funkcija na liniji 49
INFO  16:11:44,379 - Izvresna dodela vrednosti
INFO  16:11:44,379 - Print funkcija na liniji 51
INFO  16:11:44,379 -  Print count calls = 7
INFO  16:11:44,379 -  Deklarisanih promenljivih ima = 6
ERROR 16:11:44,382 - Parsiranje NIJE uspesno zavrseno!
