INFO  18:47:13,988 - Compiling source file: C:\Users\ikadr\Desktop\PP\Projekat\Rad\workspace\MJCompiler\test\program.mj
INFO  18:47:14,056 - #2 program
INFO  18:47:14,056 - #28 test301
INFO  18:47:14,056 - #9 enum
INFO  18:47:14,059 - #28 Broj
INFO  18:47:14,059 - #17 {
INFO  18:47:14,060 - #28 NULA
INFO  18:47:14,060 - #12 ,
INFO  18:47:14,060 - #28 JEDAN
INFO  18:47:14,060 - #12 ,
INFO  18:47:14,060 - #28 PET
INFO  18:47:14,060 - #11 =
INFO  18:47:14,061 - #27 5
INFO  18:47:14,061 - #12 ,
INFO  18:47:14,061 - #28 DESET
INFO  18:47:14,061 - #11 =
INFO  18:47:14,061 - #27 10
INFO  18:47:14,061 - #18 }
INFO  18:47:14,062 - #8 const
INFO  18:47:14,063 - #28 int
INFO  18:47:14,063 - #28 jedan
INFO  18:47:14,064 - #11 =
INFO  18:47:14,065 - #27 1
INFO  18:47:14,065 - #10 ;
INFO  18:47:14,066 - #8 const
INFO  18:47:14,067 - #28 int
INFO  18:47:14,067 - #28 pet
INFO  18:47:14,067 - #11 =
INFO  18:47:14,067 - #27 5
INFO  18:47:14,068 - #10 ;
INFO  18:47:14,068 - #28 int
INFO  18:47:14,068 - #28 a
INFO  18:47:14,068 - #11 =
ERROR 18:47:14,068 - 
Sintaksna greska na liniji 10
INFO  18:47:14,068 - #27 5
INFO  18:47:14,068 - #28 int
INFO  18:47:14,068 - #28 niz
INFO  18:47:14,069 - #15 [
INFO  18:47:14,069 - #16 ]
INFO  18:47:14,069 - #10 ;
INFO  18:47:14,069 - #28 char
INFO  18:47:14,069 - #28 nizch
INFO  18:47:14,070 - #15 [
INFO  18:47:14,070 - Oporavak od greske u definiciji globalne promenljive na liniji 10
INFO  18:47:14,072 - #16 ]
INFO  18:47:14,072 - #10 ;
INFO  18:47:14,072 - #17 {
INFO  18:47:14,072 - #6 void
INFO  18:47:14,072 - #28 main
INFO  18:47:14,073 - #13 (
INFO  18:47:14,073 - #14 )
INFO  18:47:14,073 - #28 int
INFO  18:47:14,075 - #28 bodovi
INFO  18:47:14,075 - #10 ;
INFO  18:47:14,076 - #28 Broj
INFO  18:47:14,077 - #28 nula
INFO  18:47:14,077 - #12 ,
INFO  18:47:14,077 - #28 jedan
INFO  18:47:14,077 - #10 ;
INFO  18:47:14,077 - #17 {
INFO  18:47:14,078 - #28 nula
INFO  18:47:14,079 - #11 =
INFO  18:47:14,079 - #28 Broj
INFO  18:47:14,079 - #19 .
INFO  18:47:14,080 - #28 NULA
INFO  18:47:14,080 - #10 ;
INFO  18:47:14,080 - #28 jedan
INFO  18:47:14,081 - #11 =
INFO  18:47:14,081 - #28 Broj
INFO  18:47:14,081 - #19 .
INFO  18:47:14,081 - #28 JEDAN
INFO  18:47:14,081 - #10 ;
INFO  18:47:14,081 - #28 bodovi
INFO  18:47:14,081 - #11 =
INFO  18:47:14,082 - #27 0
INFO  18:47:14,082 - #10 ;
INFO  18:47:14,082 - #28 bodovi
INFO  18:47:14,082 - #20 ++
INFO  18:47:14,082 - #10 ;
INFO  18:47:14,082 - #28 bodovi
INFO  18:47:14,082 - #11 =
INFO  18:47:14,083 - #28 bodovi
INFO  18:47:14,083 - #23 +
INFO  18:47:14,083 - #28 jedan
INFO  18:47:14,085 - #10 ;
INFO  18:47:14,086 - #28 bodovi
INFO  18:47:14,086 - #11 =
INFO  18:47:14,086 - #28 bodovi
INFO  18:47:14,086 - #24 *
INFO  18:47:14,086 - #28 pet
INFO  18:47:14,088 - #10 ;
INFO  18:47:14,089 - #28 bodovi
INFO  18:47:14,089 - #21 --
INFO  18:47:14,089 - #10 ;
INFO  18:47:14,089 - #4 print
INFO  18:47:14,089 - #13 (
INFO  18:47:14,089 - #28 bodovi
INFO  18:47:14,089 - #14 )
INFO  18:47:14,089 - #10 ;
INFO  18:47:14,089 - #28 niz
INFO  18:47:14,090 - #11 =
INFO  18:47:14,090 - #5 new
INFO  18:47:14,090 - #28 int
INFO  18:47:14,090 - #15 [
INFO  18:47:14,090 - #27 2
INFO  18:47:14,090 - #16 ]
INFO  18:47:14,091 - #10 ;
INFO  18:47:14,091 - #28 niz
INFO  18:47:14,091 - #15 [
INFO  18:47:14,092 - #28 nula
INFO  18:47:14,092 - #16 ]
INFO  18:47:14,092 - #11 =
INFO  18:47:14,093 - #28 pet
INFO  18:47:14,093 - #10 ;
INFO  18:47:14,093 - #28 niz
INFO  18:47:14,093 - #15 [
INFO  18:47:14,093 - #27 1
INFO  18:47:14,093 - #16 ]
INFO  18:47:14,093 - #11 =
INFO  18:47:14,093 - #28 Broj
INFO  18:47:14,094 - #19 .
INFO  18:47:14,094 - #28 DESET
INFO  18:47:14,094 - #10 ;
INFO  18:47:14,094 - #28 bodovi
INFO  18:47:14,094 - #11 =
INFO  18:47:14,094 - #28 niz
INFO  18:47:14,094 - #15 [
INFO  18:47:14,094 - #27 1
INFO  18:47:14,094 - #16 ]
INFO  18:47:14,095 - #25 /
INFO  18:47:14,095 - #28 niz
INFO  18:47:14,096 - #15 [
INFO  18:47:14,096 - #27 0
INFO  18:47:14,101 - #16 ]
INFO  18:47:14,101 - #10 ;
INFO  18:47:14,101 - #4 print
INFO  18:47:14,101 - #13 (
INFO  18:47:14,101 - #28 bodovi
INFO  18:47:14,101 - #14 )
INFO  18:47:14,101 - #10 ;
INFO  18:47:14,101 - #4 print
INFO  18:47:14,101 - #13 (
INFO  18:47:14,101 - #28 niz
INFO  18:47:14,101 - #15 [
INFO  18:47:14,101 - #28 Broj
INFO  18:47:14,101 - #19 .
INFO  18:47:14,102 - #28 JEDAN
INFO  18:47:14,102 - #16 ]
INFO  18:47:14,102 - #14 )
INFO  18:47:14,102 - #10 ;
INFO  18:47:14,102 - #28 nizch
INFO  18:47:14,102 - #11 =
INFO  18:47:14,102 - #5 new
INFO  18:47:14,102 - #28 char
INFO  18:47:14,102 - #15 [
INFO  18:47:14,102 - #27 3
INFO  18:47:14,102 - #16 ]
INFO  18:47:14,102 - #10 ;
INFO  18:47:14,102 - #28 nizch
INFO  18:47:14,102 - #15 [
INFO  18:47:14,103 - #27 0
INFO  18:47:14,103 - #16 ]
INFO  18:47:14,103 - #11 =
INFO  18:47:14,103 - #29 a
INFO  18:47:14,103 - #10 ;
INFO  18:47:14,103 - #28 nizch
INFO  18:47:14,103 - #15 [
INFO  18:47:14,103 - #28 jedan
INFO  18:47:14,103 - #16 ]
INFO  18:47:14,104 - #11 =
INFO  18:47:14,104 - #29 b
INFO  18:47:14,104 - #10 ;
INFO  18:47:14,104 - #28 nizch
INFO  18:47:14,104 - #15 [
INFO  18:47:14,104 - #28 pet
INFO  18:47:14,104 - #22 -
INFO  18:47:14,104 - #27 3
INFO  18:47:14,105 - #16 ]
INFO  18:47:14,105 - #11 =
INFO  18:47:14,106 - #29 c
INFO  18:47:14,106 - #10 ;
INFO  18:47:14,106 - #4 print
INFO  18:47:14,106 - #13 (
INFO  18:47:14,106 - #28 nizch
INFO  18:47:14,106 - #15 [
INFO  18:47:14,106 - #27 2
INFO  18:47:14,106 - #22 -
INFO  18:47:14,106 - #27 1
INFO  18:47:14,106 - #16 ]
INFO  18:47:14,107 - #14 )
INFO  18:47:14,107 - #10 ;
INFO  18:47:14,107 - #4 print
INFO  18:47:14,107 - #13 (
INFO  18:47:14,107 - #28 nizch
INFO  18:47:14,107 - #15 [
INFO  18:47:14,107 - #28 jedan
INFO  18:47:14,108 - #24 *
INFO  18:47:14,108 - #27 2
INFO  18:47:14,108 - #16 ]
INFO  18:47:14,108 - #14 )
INFO  18:47:14,108 - #10 ;
INFO  18:47:14,108 - #28 bodovi
INFO  18:47:14,108 - #11 =
INFO  18:47:14,108 - #28 bodovi
INFO  18:47:14,108 - #23 +
INFO  18:47:14,108 - #13 (
INFO  18:47:14,108 - #13 (
INFO  18:47:14,108 - #28 pet
INFO  18:47:14,108 - #24 *
INFO  18:47:14,108 - #28 jedan
INFO  18:47:14,108 - #22 -
INFO  18:47:14,109 - #27 1
INFO  18:47:14,109 - #14 )
INFO  18:47:14,109 - #24 *
INFO  18:47:14,109 - #27 2
INFO  18:47:14,109 - #22 -
INFO  18:47:14,109 - #13 (
INFO  18:47:14,109 - #27 3
INFO  18:47:14,109 - #26 %
INFO  18:47:14,109 - #27 2
INFO  18:47:14,111 - #23 +
INFO  18:47:14,112 - #27 3
INFO  18:47:14,112 - #24 *
INFO  18:47:14,112 - #27 2
INFO  18:47:14,112 - #22 -
INFO  18:47:14,112 - #27 3
INFO  18:47:14,112 - #14 )
INFO  18:47:14,112 - #22 -
INFO  18:47:14,112 - #28 Broj
INFO  18:47:14,113 - #19 .
INFO  18:47:14,113 - #28 JEDAN
INFO  18:47:14,113 - #24 *
INFO  18:47:14,113 - #27 0
INFO  18:47:14,113 - #14 )
INFO  18:47:14,113 - #10 ;
INFO  18:47:14,113 - #4 print
INFO  18:47:14,113 - #13 (
INFO  18:47:14,113 - #28 bodovi
INFO  18:47:14,113 - #14 )
INFO  18:47:14,114 - #10 ;
INFO  18:47:14,114 - #3 read
INFO  18:47:14,114 - #13 (
INFO  18:47:14,114 - #28 bodovi
INFO  18:47:14,114 - #14 )
INFO  18:47:14,114 - #10 ;
INFO  18:47:14,114 - #28 bodovi
INFO  18:47:14,114 - #11 =
INFO  18:47:14,114 - #28 bodovi
INFO  18:47:14,114 - #23 +
INFO  18:47:14,115 - #27 1
INFO  18:47:14,115 - #10 ;
INFO  18:47:14,115 - #4 print
INFO  18:47:14,115 - #13 (
INFO  18:47:14,115 - #28 bodovi
INFO  18:47:14,115 - #14 )
INFO  18:47:14,115 - #10 ;
INFO  18:47:14,116 - #18 }
INFO  18:47:14,116 - #18 }
INFO  18:47:14,155 - Program(
  ProgName(
   test301
  ) [ProgName]
  GlobalDeclListL(
    GlobalDeclListL(
      GlobalDeclListL(
        GlobalDeclListL(
          GlobalDeclListL(
            GlobalDeclListEps(
            ) [GlobalDeclListEps]
            GlobalDeclEnum(
              EnumDecl(
                EnumName(
                 Broj
                ) [EnumName]
                EnumDeclListL(
                  EnumDeclListL(
                    EnumDeclListL(
                      EnumDeclItem(
                        EnumDeclDefNoVal(
                         NULA
                        ) [EnumDeclDefNoVal]
                      ) [EnumDeclItem]
                      EnumDeclDefNoVal(
                       JEDAN
                      ) [EnumDeclDefNoVal]
                    ) [EnumDeclListL]
                    EnumDeclDefVal(
                     PET
                     5
                    ) [EnumDeclDefVal]
                  ) [EnumDeclListL]
                  EnumDeclDefVal(
                   DESET
                   10
                  ) [EnumDeclDefVal]
                ) [EnumDeclListL]
              ) [EnumDecl]
            ) [GlobalDeclEnum]
          ) [GlobalDeclListL]
          GlobalDeclConst(
            ConstDecl(
              Type(
               int
              ) [Type]
              ConstDeclItem(
                ConstDef(
                 jedan
                  ConstNum(
                   1
                  ) [ConstNum]
                ) [ConstDef]
              ) [ConstDeclItem]
            ) [ConstDecl]
          ) [GlobalDeclConst]
        ) [GlobalDeclListL]
        GlobalDeclConst(
          ConstDecl(
            Type(
             int
            ) [Type]
            ConstDeclItem(
              ConstDef(
               pet
                ConstNum(
                 5
                ) [ConstNum]
              ) [ConstDef]
            ) [ConstDeclItem]
          ) [ConstDecl]
        ) [GlobalDeclConst]
      ) [GlobalDeclListL]
      GlobalDeclVar(
        GlobalVarDecl(
          Type(
           int
          ) [Type]
          GlobalVarDeclItem(
            GlobalVarDeclDefError(
            ) [GlobalVarDeclDefError]
          ) [GlobalVarDeclItem]
        ) [GlobalVarDecl]
      ) [GlobalDeclVar]
    ) [GlobalDeclListL]
    GlobalDeclVar(
      GlobalVarDecl(
        Type(
         char
        ) [Type]
        GlobalVarDeclItem(
          GlobalVarDeclDefOk(
            VarDeclDefineArray(
             nizch
            ) [VarDeclDefineArray]
          ) [GlobalVarDeclDefOk]
        ) [GlobalVarDeclItem]
      ) [GlobalVarDecl]
    ) [GlobalDeclVar]
  ) [GlobalDeclListL]
  MethodDecl(
    MethodSignature(
      VoidableType(
      ) [VoidableType]
     main
    ) [MethodSignature]
    VarMethodDeclList_NoEps(
      VarMethodDeclList_NoEps(
        VarMethodDeclList_Eps(
        ) [VarMethodDeclList_Eps]
        VarDecl(
          Type(
           int
          ) [Type]
          VarDeclItem(
            VarDeclDefineSingle(
             bodovi
            ) [VarDeclDefineSingle]
          ) [VarDeclItem]
        ) [VarDecl]
      ) [VarMethodDeclList_NoEps]
      VarDecl(
        Type(
         Broj
        ) [Type]
        VarDeclListL(
          VarDeclItem(
            VarDeclDefineSingle(
             nula
            ) [VarDeclDefineSingle]
          ) [VarDeclItem]
          VarDeclDefineSingle(
           jedan
          ) [VarDeclDefineSingle]
        ) [VarDeclListL]
      ) [VarDecl]
    ) [VarMethodDeclList_NoEps]
    StatementList_NoEps(
      StatementList_NoEps(
        StatementList_NoEps(
          StatementList_NoEps(
            StatementList_NoEps(
              StatementList_NoEps(
                StatementList_NoEps(
                  StatementList_NoEps(
                    StatementList_NoEps(
                      StatementList_NoEps(
                        StatementList_NoEps(
                          StatementList_NoEps(
                            StatementList_NoEps(
                              StatementList_NoEps(
                                StatementList_NoEps(
                                  StatementList_NoEps(
                                    StatementList_NoEps(
                                      StatementList_NoEps(
                                        StatementList_NoEps(
                                          StatementList_NoEps(
                                            StatementList_NoEps(
                                              StatementList_NoEps(
                                                StatementList_NoEps(
                                                  StatementList_NoEps(
                                                    StatementList_NoEps(
                                                      StatementList_Eps(
                                                      ) [StatementList_Eps]
                                                      StatementDes(
                                                        DesignStatAssignment(
                                                          DesIdent(
                                                           nula
                                                          ) [DesIdent]
                                                          AssignementExpr(
                                                            TermExpr(
                                                              TermFact(
                                                                FactorDesign(
                                                                  DesEnum(
                                                                   Broj
                                                                   NULA
                                                                  ) [DesEnum]
                                                                ) [FactorDesign]
                                                              ) [TermFact]
                                                            ) [TermExpr]
                                                          ) [AssignementExpr]
                                                        ) [DesignStatAssignment]
                                                      ) [StatementDes]
                                                    ) [StatementList_NoEps]
                                                    StatementDes(
                                                      DesignStatAssignment(
                                                        DesIdent(
                                                         jedan
                                                        ) [DesIdent]
                                                        AssignementExpr(
                                                          TermExpr(
                                                            TermFact(
                                                              FactorDesign(
                                                                DesEnum(
                                                                 Broj
                                                                 JEDAN
                                                                ) [DesEnum]
                                                              ) [FactorDesign]
                                                            ) [TermFact]
                                                          ) [TermExpr]
                                                        ) [AssignementExpr]
                                                      ) [DesignStatAssignment]
                                                    ) [StatementDes]
                                                  ) [StatementList_NoEps]
                                                  StatementDes(
                                                    DesignStatAssignment(
                                                      DesIdent(
                                                       bodovi
                                                      ) [DesIdent]
                                                      AssignementExpr(
                                                        TermExpr(
                                                          TermFact(
                                                            FactorConst(
                                                              ConstNum(
                                                               0
                                                              ) [ConstNum]
                                                            ) [FactorConst]
                                                          ) [TermFact]
                                                        ) [TermExpr]
                                                      ) [AssignementExpr]
                                                    ) [DesignStatAssignment]
                                                  ) [StatementDes]
                                                ) [StatementList_NoEps]
                                                StatementDes(
                                                  DesignStatInc(
                                                    DesIdent(
                                                     bodovi
                                                    ) [DesIdent]
                                                  ) [DesignStatInc]
                                                ) [StatementDes]
                                              ) [StatementList_NoEps]
                                              StatementDes(
                                                DesignStatAssignment(
                                                  DesIdent(
                                                   bodovi
                                                  ) [DesIdent]
                                                  AssignementExpr(
                                                    AddopExp(
                                                      TermExpr(
                                                        TermFact(
                                                          FactorDesign(
                                                            DesIdent(
                                                             bodovi
                                                            ) [DesIdent]
                                                          ) [FactorDesign]
                                                        ) [TermFact]
                                                      ) [TermExpr]
                                                      Addop_Plus(
                                                      ) [Addop_Plus]
                                                      TermFact(
                                                        FactorDesign(
                                                          DesIdent(
                                                           jedan
                                                          ) [DesIdent]
                                                        ) [FactorDesign]
                                                      ) [TermFact]
                                                    ) [AddopExp]
                                                  ) [AssignementExpr]
                                                ) [DesignStatAssignment]
                                              ) [StatementDes]
                                            ) [StatementList_NoEps]
                                            StatementDes(
                                              DesignStatAssignment(
                                                DesIdent(
                                                 bodovi
                                                ) [DesIdent]
                                                AssignementExpr(
                                                  TermExpr(
                                                    TermMulop(
                                                      TermFact(
                                                        FactorDesign(
                                                          DesIdent(
                                                           bodovi
                                                          ) [DesIdent]
                                                        ) [FactorDesign]
                                                      ) [TermFact]
                                                      Mulop_Mul(
                                                      ) [Mulop_Mul]
                                                      FactorDesign(
                                                        DesIdent(
                                                         pet
                                                        ) [DesIdent]
                                                      ) [FactorDesign]
                                                    ) [TermMulop]
                                                  ) [TermExpr]
                                                ) [AssignementExpr]
                                              ) [DesignStatAssignment]
                                            ) [StatementDes]
                                          ) [StatementList_NoEps]
                                          StatementDes(
                                            DesignStatDec(
                                              DesIdent(
                                               bodovi
                                              ) [DesIdent]
                                            ) [DesignStatDec]
                                          ) [StatementDes]
                                        ) [StatementList_NoEps]
                                        StatPrint(
                                          TermExpr(
                                            TermFact(
                                              FactorDesign(
                                                DesIdent(
                                                 bodovi
                                                ) [DesIdent]
                                              ) [FactorDesign]
                                            ) [TermFact]
                                          ) [TermExpr]
                                        ) [StatPrint]
                                      ) [StatementList_NoEps]
                                      StatementDes(
                                        DesignStatAssignment(
                                          DesIdent(
                                           niz
                                          ) [DesIdent]
                                          AssignementExpr(
                                            TermExpr(
                                              TermFact(
                                                FactorNewArr(
                                                  Type(
                                                   int
                                                  ) [Type]
                                                  TermExpr(
                                                    TermFact(
                                                      FactorConst(
                                                        ConstNum(
                                                         2
                                                        ) [ConstNum]
                                                      ) [FactorConst]
                                                    ) [TermFact]
                                                  ) [TermExpr]
                                                ) [FactorNewArr]
                                              ) [TermFact]
                                            ) [TermExpr]
                                          ) [AssignementExpr]
                                        ) [DesignStatAssignment]
                                      ) [StatementDes]
                                    ) [StatementList_NoEps]
                                    StatementDes(
                                      DesignStatAssignment(
                                        DesArr(
                                          ArrayName(
                                           niz
                                          ) [ArrayName]
                                          TermExpr(
                                            TermFact(
                                              FactorDesign(
                                                DesIdent(
                                                 nula
                                                ) [DesIdent]
                                              ) [FactorDesign]
                                            ) [TermFact]
                                          ) [TermExpr]
                                        ) [DesArr]
                                        AssignementExpr(
                                          TermExpr(
                                            TermFact(
                                              FactorDesign(
                                                DesIdent(
                                                 pet
                                                ) [DesIdent]
                                              ) [FactorDesign]
                                            ) [TermFact]
                                          ) [TermExpr]
                                        ) [AssignementExpr]
                                      ) [DesignStatAssignment]
                                    ) [StatementDes]
                                  ) [StatementList_NoEps]
                                  StatementDes(
                                    DesignStatAssignment(
                                      DesArr(
                                        ArrayName(
                                         niz
                                        ) [ArrayName]
                                        TermExpr(
                                          TermFact(
                                            FactorConst(
                                              ConstNum(
                                               1
                                              ) [ConstNum]
                                            ) [FactorConst]
                                          ) [TermFact]
                                        ) [TermExpr]
                                      ) [DesArr]
                                      AssignementExpr(
                                        TermExpr(
                                          TermFact(
                                            FactorDesign(
                                              DesEnum(
                                               Broj
                                               DESET
                                              ) [DesEnum]
                                            ) [FactorDesign]
                                          ) [TermFact]
                                        ) [TermExpr]
                                      ) [AssignementExpr]
                                    ) [DesignStatAssignment]
                                  ) [StatementDes]
                                ) [StatementList_NoEps]
                                StatementDes(
                                  DesignStatAssignment(
                                    DesIdent(
                                     bodovi
                                    ) [DesIdent]
                                    AssignementExpr(
                                      TermExpr(
                                        TermMulop(
                                          TermFact(
                                            FactorDesign(
                                              DesArr(
                                                ArrayName(
                                                 niz
                                                ) [ArrayName]
                                                TermExpr(
                                                  TermFact(
                                                    FactorConst(
                                                      ConstNum(
                                                       1
                                                      ) [ConstNum]
                                                    ) [FactorConst]
                                                  ) [TermFact]
                                                ) [TermExpr]
                                              ) [DesArr]
                                            ) [FactorDesign]
                                          ) [TermFact]
                                          Mulop_Div(
                                          ) [Mulop_Div]
                                          FactorDesign(
                                            DesArr(
                                              ArrayName(
                                               niz
                                              ) [ArrayName]
                                              TermExpr(
                                                TermFact(
                                                  FactorConst(
                                                    ConstNum(
                                                     0
                                                    ) [ConstNum]
                                                  ) [FactorConst]
                                                ) [TermFact]
                                              ) [TermExpr]
                                            ) [DesArr]
                                          ) [FactorDesign]
                                        ) [TermMulop]
                                      ) [TermExpr]
                                    ) [AssignementExpr]
                                  ) [DesignStatAssignment]
                                ) [StatementDes]
                              ) [StatementList_NoEps]
                              StatPrint(
                                TermExpr(
                                  TermFact(
                                    FactorDesign(
                                      DesIdent(
                                       bodovi
                                      ) [DesIdent]
                                    ) [FactorDesign]
                                  ) [TermFact]
                                ) [TermExpr]
                              ) [StatPrint]
                            ) [StatementList_NoEps]
                            StatPrint(
                              TermExpr(
                                TermFact(
                                  FactorDesign(
                                    DesArr(
                                      ArrayName(
                                       niz
                                      ) [ArrayName]
                                      TermExpr(
                                        TermFact(
                                          FactorDesign(
                                            DesEnum(
                                             Broj
                                             JEDAN
                                            ) [DesEnum]
                                          ) [FactorDesign]
                                        ) [TermFact]
                                      ) [TermExpr]
                                    ) [DesArr]
                                  ) [FactorDesign]
                                ) [TermFact]
                              ) [TermExpr]
                            ) [StatPrint]
                          ) [StatementList_NoEps]
                          StatementDes(
                            DesignStatAssignment(
                              DesIdent(
                               nizch
                              ) [DesIdent]
                              AssignementExpr(
                                TermExpr(
                                  TermFact(
                                    FactorNewArr(
                                      Type(
                                       char
                                      ) [Type]
                                      TermExpr(
                                        TermFact(
                                          FactorConst(
                                            ConstNum(
                                             3
                                            ) [ConstNum]
                                          ) [FactorConst]
                                        ) [TermFact]
                                      ) [TermExpr]
                                    ) [FactorNewArr]
                                  ) [TermFact]
                                ) [TermExpr]
                              ) [AssignementExpr]
                            ) [DesignStatAssignment]
                          ) [StatementDes]
                        ) [StatementList_NoEps]
                        StatementDes(
                          DesignStatAssignment(
                            DesArr(
                              ArrayName(
                               nizch
                              ) [ArrayName]
                              TermExpr(
                                TermFact(
                                  FactorConst(
                                    ConstNum(
                                     0
                                    ) [ConstNum]
                                  ) [FactorConst]
                                ) [TermFact]
                              ) [TermExpr]
                            ) [DesArr]
                            AssignementExpr(
                              TermExpr(
                                TermFact(
                                  FactorConst(
                                    ConstChar(
                                     a
                                    ) [ConstChar]
                                  ) [FactorConst]
                                ) [TermFact]
                              ) [TermExpr]
                            ) [AssignementExpr]
                          ) [DesignStatAssignment]
                        ) [StatementDes]
                      ) [StatementList_NoEps]
                      StatementDes(
                        DesignStatAssignment(
                          DesArr(
                            ArrayName(
                             nizch
                            ) [ArrayName]
                            TermExpr(
                              TermFact(
                                FactorDesign(
                                  DesIdent(
                                   jedan
                                  ) [DesIdent]
                                ) [FactorDesign]
                              ) [TermFact]
                            ) [TermExpr]
                          ) [DesArr]
                          AssignementExpr(
                            TermExpr(
                              TermFact(
                                FactorConst(
                                  ConstChar(
                                   b
                                  ) [ConstChar]
                                ) [FactorConst]
                              ) [TermFact]
                            ) [TermExpr]
                          ) [AssignementExpr]
                        ) [DesignStatAssignment]
                      ) [StatementDes]
                    ) [StatementList_NoEps]
                    StatementDes(
                      DesignStatAssignment(
                        DesArr(
                          ArrayName(
                           nizch
                          ) [ArrayName]
                          AddopExp(
                            TermExpr(
                              TermFact(
                                FactorDesign(
                                  DesIdent(
                                   pet
                                  ) [DesIdent]
                                ) [FactorDesign]
                              ) [TermFact]
                            ) [TermExpr]
                            Addop_Minus(
                            ) [Addop_Minus]
                            TermFact(
                              FactorConst(
                                ConstNum(
                                 3
                                ) [ConstNum]
                              ) [FactorConst]
                            ) [TermFact]
                          ) [AddopExp]
                        ) [DesArr]
                        AssignementExpr(
                          TermExpr(
                            TermFact(
                              FactorConst(
                                ConstChar(
                                 c
                                ) [ConstChar]
                              ) [FactorConst]
                            ) [TermFact]
                          ) [TermExpr]
                        ) [AssignementExpr]
                      ) [DesignStatAssignment]
                    ) [StatementDes]
                  ) [StatementList_NoEps]
                  StatPrint(
                    TermExpr(
                      TermFact(
                        FactorDesign(
                          DesArr(
                            ArrayName(
                             nizch
                            ) [ArrayName]
                            AddopExp(
                              TermExpr(
                                TermFact(
                                  FactorConst(
                                    ConstNum(
                                     2
                                    ) [ConstNum]
                                  ) [FactorConst]
                                ) [TermFact]
                              ) [TermExpr]
                              Addop_Minus(
                              ) [Addop_Minus]
                              TermFact(
                                FactorConst(
                                  ConstNum(
                                   1
                                  ) [ConstNum]
                                ) [FactorConst]
                              ) [TermFact]
                            ) [AddopExp]
                          ) [DesArr]
                        ) [FactorDesign]
                      ) [TermFact]
                    ) [TermExpr]
                  ) [StatPrint]
                ) [StatementList_NoEps]
                StatPrint(
                  TermExpr(
                    TermFact(
                      FactorDesign(
                        DesArr(
                          ArrayName(
                           nizch
                          ) [ArrayName]
                          TermExpr(
                            TermMulop(
                              TermFact(
                                FactorDesign(
                                  DesIdent(
                                   jedan
                                  ) [DesIdent]
                                ) [FactorDesign]
                              ) [TermFact]
                              Mulop_Mul(
                              ) [Mulop_Mul]
                              FactorConst(
                                ConstNum(
                                 2
                                ) [ConstNum]
                              ) [FactorConst]
                            ) [TermMulop]
                          ) [TermExpr]
                        ) [DesArr]
                      ) [FactorDesign]
                    ) [TermFact]
                  ) [TermExpr]
                ) [StatPrint]
              ) [StatementList_NoEps]
              StatementDes(
                DesignStatAssignment(
                  DesIdent(
                   bodovi
                  ) [DesIdent]
                  AssignementExpr(
                    AddopExp(
                      TermExpr(
                        TermFact(
                          FactorDesign(
                            DesIdent(
                             bodovi
                            ) [DesIdent]
                          ) [FactorDesign]
                        ) [TermFact]
                      ) [TermExpr]
                      Addop_Plus(
                      ) [Addop_Plus]
                      TermFact(
                        FactorExpr(
                          AddopExp(
                            AddopExp(
                              TermExpr(
                                TermMulop(
                                  TermFact(
                                    FactorExpr(
                                      AddopExp(
                                        TermExpr(
                                          TermMulop(
                                            TermFact(
                                              FactorDesign(
                                                DesIdent(
                                                 pet
                                                ) [DesIdent]
                                              ) [FactorDesign]
                                            ) [TermFact]
                                            Mulop_Mul(
                                            ) [Mulop_Mul]
                                            FactorDesign(
                                              DesIdent(
                                               jedan
                                              ) [DesIdent]
                                            ) [FactorDesign]
                                          ) [TermMulop]
                                        ) [TermExpr]
                                        Addop_Minus(
                                        ) [Addop_Minus]
                                        TermFact(
                                          FactorConst(
                                            ConstNum(
                                             1
                                            ) [ConstNum]
                                          ) [FactorConst]
                                        ) [TermFact]
                                      ) [AddopExp]
                                    ) [FactorExpr]
                                  ) [TermFact]
                                  Mulop_Mul(
                                  ) [Mulop_Mul]
                                  FactorConst(
                                    ConstNum(
                                     2
                                    ) [ConstNum]
                                  ) [FactorConst]
                                ) [TermMulop]
                              ) [TermExpr]
                              Addop_Minus(
                              ) [Addop_Minus]
                              TermFact(
                                FactorExpr(
                                  AddopExp(
                                    AddopExp(
                                      TermExpr(
                                        TermMulop(
                                          TermFact(
                                            FactorConst(
                                              ConstNum(
                                               3
                                              ) [ConstNum]
                                            ) [FactorConst]
                                          ) [TermFact]
                                          Mulop_Mod(
                                          ) [Mulop_Mod]
                                          FactorConst(
                                            ConstNum(
                                             2
                                            ) [ConstNum]
                                          ) [FactorConst]
                                        ) [TermMulop]
                                      ) [TermExpr]
                                      Addop_Plus(
                                      ) [Addop_Plus]
                                      TermMulop(
                                        TermFact(
                                          FactorConst(
                                            ConstNum(
                                             3
                                            ) [ConstNum]
                                          ) [FactorConst]
                                        ) [TermFact]
                                        Mulop_Mul(
                                        ) [Mulop_Mul]
                                        FactorConst(
                                          ConstNum(
                                           2
                                          ) [ConstNum]
                                        ) [FactorConst]
                                      ) [TermMulop]
                                    ) [AddopExp]
                                    Addop_Minus(
                                    ) [Addop_Minus]
                                    TermFact(
                                      FactorConst(
                                        ConstNum(
                                         3
                                        ) [ConstNum]
                                      ) [FactorConst]
                                    ) [TermFact]
                                  ) [AddopExp]
                                ) [FactorExpr]
                              ) [TermFact]
                            ) [AddopExp]
                            Addop_Minus(
                            ) [Addop_Minus]
                            TermMulop(
                              TermFact(
                                FactorDesign(
                                  DesEnum(
                                   Broj
                                   JEDAN
                                  ) [DesEnum]
                                ) [FactorDesign]
                              ) [TermFact]
                              Mulop_Mul(
                              ) [Mulop_Mul]
                              FactorConst(
                                ConstNum(
                                 0
                                ) [ConstNum]
                              ) [FactorConst]
                            ) [TermMulop]
                          ) [AddopExp]
                        ) [FactorExpr]
                      ) [TermFact]
                    ) [AddopExp]
                  ) [AssignementExpr]
                ) [DesignStatAssignment]
              ) [StatementDes]
            ) [StatementList_NoEps]
            StatPrint(
              TermExpr(
                TermFact(
                  FactorDesign(
                    DesIdent(
                     bodovi
                    ) [DesIdent]
                  ) [FactorDesign]
                ) [TermFact]
              ) [TermExpr]
            ) [StatPrint]
          ) [StatementList_NoEps]
          StatRead(
            DesIdent(
             bodovi
            ) [DesIdent]
          ) [StatRead]
        ) [StatementList_NoEps]
        StatementDes(
          DesignStatAssignment(
            DesIdent(
             bodovi
            ) [DesIdent]
            AssignementExpr(
              AddopExp(
                TermExpr(
                  TermFact(
                    FactorDesign(
                      DesIdent(
                       bodovi
                      ) [DesIdent]
                    ) [FactorDesign]
                  ) [TermFact]
                ) [TermExpr]
                Addop_Plus(
                ) [Addop_Plus]
                TermFact(
                  FactorConst(
                    ConstNum(
                     1
                    ) [ConstNum]
                  ) [FactorConst]
                ) [TermFact]
              ) [AddopExp]
            ) [AssignementExpr]
          ) [DesignStatAssignment]
        ) [StatementDes]
      ) [StatementList_NoEps]
      StatPrint(
        TermExpr(
          TermFact(
            FactorDesign(
              DesIdent(
               bodovi
              ) [DesIdent]
            ) [FactorDesign]
          ) [TermFact]
        ) [TermExpr]
      ) [StatPrint]
    ) [StatementList_NoEps]
  ) [MethodDecl]
) [Program]
INFO  18:47:14,160 - ===================================
INFO  18:47:14,185 - Deklarisan novi enum tip Broj na liniji 5
INFO  18:47:14,185 - Deklarisana konstanta Broj.NULA unutar enuma Broj na liniji 5
INFO  18:47:14,186 - Deklarisana konstanta Broj.JEDAN unutar enuma Broj na liniji 5
INFO  18:47:14,186 - Deklarisana konstanta Broj.PET unutar enuma Broj na liniji 5
INFO  18:47:14,186 - Deklarisana konstanta Broj.DESET unutar enuma Broj na liniji 5
INFO  18:47:14,186 - Deklarisana konstanta 'jedan' na liniji 7
INFO  18:47:14,187 - Deklarisana konstanta 'pet' na liniji 8
INFO  18:47:14,187 - Deklarisana promenljiva niza nizch tipa 2 na liniji 13
INFO  18:47:14,187 - Obradjuje se funkcija main na liniji 16
INFO  18:47:14,187 - Deklarisana promenljiva bodovi tipa 1 na liniji 17
INFO  18:47:14,187 - Deklarisana promenljiva nula tipa 6 na liniji 19
INFO  18:47:14,187 - Deklarisana promenljiva jedan tipa 6 na liniji 19
INFO  18:47:14,189 - Dodeljenja vrednost: 1 je design,1 je assign
INFO  18:47:14,189 - Inkrementirana vrednost
INFO  18:47:14,189 - Dodeljenja vrednost: 1 je design,1 je assign
INFO  18:47:14,189 - Dodeljenja vrednost: 1 je design,1 je assign
INFO  18:47:14,189 - Dekrementirana vrednost
INFO  18:47:14,190 - Print funkcija na liniji 29
ERROR 18:47:14,190 - Greska: niz nije pronadjen na liniji 32
ERROR 18:47:14,190 - Greska: niz nije pronadjen na liniji 33
ERROR 18:47:14,190 - Greska: promenljiva kojoj pristupate nije deklarisana na liniji 33
