INFO  17:21:40,019 - Compiling source file: C:\Users\ikadr\Desktop\PP\Projekat\Rad\workspace\MJCompiler\test\program.mj
INFO  17:21:40,086 - #2 program
INFO  17:21:40,086 - #28 test301
INFO  17:21:40,086 - #9 enum
INFO  17:21:40,086 - #28 Broj
INFO  17:21:40,086 - #17 {
INFO  17:21:40,086 - #28 NULA
INFO  17:21:40,086 - #12 ,
INFO  17:21:40,086 - #28 JEDAN
INFO  17:21:40,086 - #12 ,
INFO  17:21:40,086 - #28 PET
INFO  17:21:40,086 - #11 =
INFO  17:21:40,086 - #27 5
INFO  17:21:40,086 - #12 ,
INFO  17:21:40,086 - #28 DESET
INFO  17:21:40,086 - #11 =
INFO  17:21:40,086 - #27 10
INFO  17:21:40,086 - #18 }
INFO  17:21:40,086 - #28 int
INFO  17:21:40,086 - #28 niz
INFO  17:21:40,086 - #15 [
INFO  17:21:40,086 - #16 ]
INFO  17:21:40,117 - #10 ;
INFO  17:21:40,117 - #17 {
INFO  17:21:40,133 - #6 void
INFO  17:21:40,133 - #28 main
INFO  17:21:40,133 - #13 (
INFO  17:21:40,133 - #14 )
INFO  17:21:40,133 - #28 int
INFO  17:21:40,133 - #28 x
INFO  17:21:40,133 - #12 ,
INFO  17:21:40,133 - #28 y
INFO  17:21:40,133 - #12 ,
INFO  17:21:40,133 - #28 z
INFO  17:21:40,133 - #10 ;
INFO  17:21:40,133 - #28 Broj
INFO  17:21:40,133 - #28 pet
INFO  17:21:40,133 - #10 ;
INFO  17:21:40,133 - #17 {
INFO  17:21:40,133 - #28 niz
INFO  17:21:40,133 - #11 =
INFO  17:21:40,133 - #5 new
INFO  17:21:40,133 - #28 int
INFO  17:21:40,133 - #15 [
INFO  17:21:40,133 - #27 2
INFO  17:21:40,133 - #16 ]
INFO  17:21:40,133 - #10 ;
INFO  17:21:40,133 - #28 niz
INFO  17:21:40,133 - #15 [
INFO  17:21:40,133 - #27 1
INFO  17:21:40,133 - #16 ]
INFO  17:21:40,133 - #11 =
INFO  17:21:40,133 - #27 2
INFO  17:21:40,133 - #10 ;
INFO  17:21:40,133 - #28 z
INFO  17:21:40,133 - #11 =
INFO  17:21:40,133 - #28 x
INFO  17:21:40,133 - #24 *
INFO  17:21:40,133 - #28 niz
INFO  17:21:40,181 - #15 [
INFO  17:21:40,181 - #27 1
INFO  17:21:40,181 - #16 ]
INFO  17:21:40,181 - #10 ;
INFO  17:21:40,182 - #4 print
INFO  17:21:40,182 - #13 (
INFO  17:21:40,182 - #28 z
INFO  17:21:40,183 - #14 )
INFO  17:21:40,183 - #10 ;
INFO  17:21:40,183 - #18 }
INFO  17:21:40,188 - #18 }
INFO  17:21:40,205 - Program(
  ProgName(
   test301
  ) [ProgName]
  GlobalDeclListL(
    GlobalDeclListL(
      GlobalDeclListEps(
      ) [GlobalDeclListEps]
      GlobalDeclEnum(
        EnumDecl(
         Broj
          EnumDeclListL(
            EnumDeclListL(
              EnumDeclListL(
                EnumDeclItem(
                  EnumDeclDefNoVal(
                   NULA
                  ) [EnumDeclDefNoVal]
                ) [EnumDeclItem]
                EnumDeclDefNoVal(
                 JEDAN
                ) [EnumDeclDefNoVal]
              ) [EnumDeclListL]
              EnumDeclDefVal(
               PET
               5
              ) [EnumDeclDefVal]
            ) [EnumDeclListL]
            EnumDeclDefVal(
             DESET
             10
            ) [EnumDeclDefVal]
          ) [EnumDeclListL]
        ) [EnumDecl]
      ) [GlobalDeclEnum]
    ) [GlobalDeclListL]
    GlobalDeclVar(
      GlobalVarDecl(
        Type(
         int
        ) [Type]
        GlobalVarDeclItem(
          GlobalVarDeclDefOk(
            VarDeclDefineArray(
             niz
            ) [VarDeclDefineArray]
          ) [GlobalVarDeclDefOk]
        ) [GlobalVarDeclItem]
      ) [GlobalVarDecl]
    ) [GlobalDeclVar]
  ) [GlobalDeclListL]
  MethodDecl(
    MethodSignature(
      VoidableType(
      ) [VoidableType]
     main
    ) [MethodSignature]
    VarMethodDeclList_NoEps(
      VarMethodDeclList_NoEps(
        VarMethodDeclList_Eps(
        ) [VarMethodDeclList_Eps]
        VarDecl(
          Type(
           int
          ) [Type]
          VarDeclListL(
            VarDeclListL(
              VarDeclItem(
                VarDeclDefineSingle(
                 x
                ) [VarDeclDefineSingle]
              ) [VarDeclItem]
              VarDeclDefineSingle(
               y
              ) [VarDeclDefineSingle]
            ) [VarDeclListL]
            VarDeclDefineSingle(
             z
            ) [VarDeclDefineSingle]
          ) [VarDeclListL]
        ) [VarDecl]
      ) [VarMethodDeclList_NoEps]
      VarDecl(
        Type(
         Broj
        ) [Type]
        VarDeclItem(
          VarDeclDefineSingle(
           pet
          ) [VarDeclDefineSingle]
        ) [VarDeclItem]
      ) [VarDecl]
    ) [VarMethodDeclList_NoEps]
    StatementList_NoEps(
      StatementList_NoEps(
        StatementList_NoEps(
          StatementList_NoEps(
            StatementList_Eps(
            ) [StatementList_Eps]
            StatementDes(
              DesignStatAssignment(
                Designator(
                 niz
                  DesDerived1(
                  ) [DesDerived1]
                ) [Designator]
                AssignementExpr(
                  TermExpr(
                    TermFact(
                      FactorNewArr(
                        Type(
                         int
                        ) [Type]
                        TermExpr(
                          TermFact(
                            FactorConst(
                              ConstNum(
                               2
                              ) [ConstNum]
                            ) [FactorConst]
                          ) [TermFact]
                        ) [TermExpr]
                      ) [FactorNewArr]
                    ) [TermFact]
                  ) [TermExpr]
                ) [AssignementExpr]
              ) [DesignStatAssignment]
            ) [StatementDes]
          ) [StatementList_NoEps]
          StatementDes(
            DesignStatAssignment(
              Designator(
               niz
                DesArr(
                  TermExpr(
                    TermFact(
                      FactorConst(
                        ConstNum(
                         1
                        ) [ConstNum]
                      ) [FactorConst]
                    ) [TermFact]
                  ) [TermExpr]
                ) [DesArr]
              ) [Designator]
              AssignementExpr(
                TermExpr(
                  TermFact(
                    FactorConst(
                      ConstNum(
                       2
                      ) [ConstNum]
                    ) [FactorConst]
                  ) [TermFact]
                ) [TermExpr]
              ) [AssignementExpr]
            ) [DesignStatAssignment]
          ) [StatementDes]
        ) [StatementList_NoEps]
        StatementDes(
          DesignStatAssignment(
            Designator(
             z
              DesDerived1(
              ) [DesDerived1]
            ) [Designator]
            AssignementExpr(
              TermExpr(
                TermMulop(
                  TermFact(
                    FactorDesign(
                      Designator(
                       x
                        DesDerived1(
                        ) [DesDerived1]
                      ) [Designator]
                    ) [FactorDesign]
                  ) [TermFact]
                  Mulop_Mul(
                  ) [Mulop_Mul]
                  FactorDesign(
                    Designator(
                     niz
                      DesArr(
                        TermExpr(
                          TermFact(
                            FactorConst(
                              ConstNum(
                               1
                              ) [ConstNum]
                            ) [FactorConst]
                          ) [TermFact]
                        ) [TermExpr]
                      ) [DesArr]
                    ) [Designator]
                  ) [FactorDesign]
                ) [TermMulop]
              ) [TermExpr]
            ) [AssignementExpr]
          ) [DesignStatAssignment]
        ) [StatementDes]
      ) [StatementList_NoEps]
      StatPrint(
        TermExpr(
          TermFact(
            FactorDesign(
              Designator(
               z
                DesDerived1(
                ) [DesDerived1]
              ) [Designator]
            ) [FactorDesign]
          ) [TermFact]
        ) [TermExpr]
      ) [StatPrint]
    ) [StatementList_NoEps]
  ) [MethodDecl]
) [Program]
INFO  17:21:40,205 - ===================================
INFO  17:21:40,212 - Deklarisan novi enum tip Broj na liniji 5
INFO  17:21:40,212 - Deklarisana promenljiva niza niz tipa 1 na liniji 6
INFO  17:21:40,212 - Obradjuje se funkcija main na liniji 8
INFO  17:21:40,212 - Deklarisana promenljiva x tipa 1 na liniji 9
INFO  17:21:40,212 - Deklarisana promenljiva y tipa 1 na liniji 9
INFO  17:21:40,212 - Deklarisana promenljiva z tipa 1 na liniji 9
INFO  17:21:40,213 - Deklarisana promenljiva pet tipa 6 na liniji 10
INFO  17:21:40,213 - Dodeljenja vrednost: 1 je design,1 je assign
INFO  17:21:40,213 - Dodeljenja vrednost: 1 je design,1 je assign
INFO  17:21:40,213 - Dodeljenja vrednost: 1 je design,1 je assign
INFO  17:21:40,213 -  Print count calls = 1
INFO  17:21:40,213 -  Deklarisanih promenljivih ima = 4
INFO  17:21:40,294 - Parsiranje uspesno zavrseno!
