INFO  21:53:22,496 - Compiling source file: C:\Users\ikadr\Desktop\PP\Projekat\Rad\workspace\MJCompiler\test\program.mj
INFO  21:53:22,610 - #2 program
INFO  21:53:22,610 - #28 test301
INFO  21:53:22,610 - #17 {
INFO  21:53:22,610 - #6 void
INFO  21:53:22,610 - #28 main
INFO  21:53:22,617 - #13 (
INFO  21:53:22,617 - #14 )
INFO  21:53:22,617 - #17 {
INFO  21:53:22,617 - #4 print
INFO  21:53:22,617 - #13 (
INFO  21:53:22,617 - #27 1
INFO  21:53:22,617 - #14 )
INFO  21:53:22,617 - #10 ;
INFO  21:53:22,617 - #18 }
INFO  21:53:22,617 - #18 }
INFO  21:53:22,648 - Program(
  ProgName(
   test301
  ) [ProgName]
  GlobalDeclListEps(
  ) [GlobalDeclListEps]
  MethodDecl(
    MethodSignature(
      VoidableType(
      ) [VoidableType]
     main
    ) [MethodSignature]
    VarMethodDeclList_Eps(
    ) [VarMethodDeclList_Eps]
    StatementList_NoEps(
      StatementList_Eps(
      ) [StatementList_Eps]
      StatPrint(
        TermExpr(
          TermFact(
            FactorConst(
              ConstNum(
               1
              ) [ConstNum]
            ) [FactorConst]
          ) [TermFact]
        ) [TermExpr]
      ) [StatPrint]
    ) [StatementList_NoEps]
  ) [MethodDecl]
) [Program]
INFO  21:53:22,648 - ===================================
INFO  21:53:22,648 - Obradjuje se funkcija main na liniji 8
INFO  21:53:22,648 -  Print count calls = 1
INFO  21:53:22,648 -  Deklarisanih promenljivih ima = 0
INFO  21:53:22,664 - Parsiranje uspesno zavrseno!
