INFO  18:38:26,555 - Compiling source file: C:\Users\ikadr\Desktop\PP\Projekat\Rad\workspace\MJCompiler\test\program.mj
INFO  18:38:26,646 - #2 program
INFO  18:38:26,647 - #28 test301
INFO  18:38:26,647 - #28 int
INFO  18:38:26,656 - #28 niz
INFO  18:38:26,694 - #15 [
INFO  18:38:26,694 - #16 ]
INFO  18:38:26,694 - #10 ;
INFO  18:38:26,695 - #17 {
INFO  18:38:26,697 - #6 void
INFO  18:38:26,697 - #28 main
INFO  18:38:26,699 - #13 (
INFO  18:38:26,699 - #14 )
INFO  18:38:26,699 - #17 {
INFO  18:38:26,703 - #28 niz
INFO  18:38:26,704 - #11 =
INFO  18:38:26,705 - #5 new
INFO  18:38:26,705 - #28 int
INFO  18:38:26,705 - #15 [
INFO  18:38:26,721 - #27 2
INFO  18:38:26,723 - #16 ]
INFO  18:38:26,724 - #10 ;
INFO  18:38:26,750 - #18 }
INFO  18:38:26,750 - #18 }
INFO  18:38:26,774 - Program(
  ProgName(
   test301
  ) [ProgName]
  GlobalDeclListL(
    GlobalDeclListEps(
    ) [GlobalDeclListEps]
    GlobalDeclVar(
      GlobalVarDecl(
        Type(
         int
        ) [Type]
        GlobalVarDeclItem(
          GlobalVarDeclDefOk(
            VarDeclDefineArray(
             niz
            ) [VarDeclDefineArray]
          ) [GlobalVarDeclDefOk]
        ) [GlobalVarDeclItem]
      ) [GlobalVarDecl]
    ) [GlobalDeclVar]
  ) [GlobalDeclListL]
  MethodDecl(
    MethodSignature(
      VoidableType(
      ) [VoidableType]
     main
    ) [MethodSignature]
    VarMethodDeclList_Eps(
    ) [VarMethodDeclList_Eps]
    StatementList_NoEps(
      StatementList_Eps(
      ) [StatementList_Eps]
      StatementDes(
        DesignStatAssignment(
          DesIdent(
           niz
          ) [DesIdent]
          AssignementExpr(
            TermExpr(
              TermFact(
                FactorNewArr(
                  Type(
                   int
                  ) [Type]
                  TermExpr(
                    TermFact(
                      FactorConst(
                        ConstNum(
                         2
                        ) [ConstNum]
                      ) [FactorConst]
                    ) [TermFact]
                  ) [TermExpr]
                ) [FactorNewArr]
              ) [TermFact]
            ) [TermExpr]
          ) [AssignementExpr]
        ) [DesignStatAssignment]
      ) [StatementDes]
    ) [StatementList_NoEps]
  ) [MethodDecl]
) [Program]
INFO  18:38:26,774 - ===================================
INFO  18:38:26,785 - Deklarisana promenljiva niza niz tipa 1 na liniji 4
INFO  18:38:26,785 - Obradjuje se funkcija main na liniji 7
