INFO  16:45:05,982 - Compiling source file: C:\Users\ikadr\Desktop\PP\Projekat\Rad\workspace\MJCompiler\test\program.mj
INFO  16:45:05,983 - ===============SINTAKSNA OBRADA====================
INFO  16:45:06,049 - #2 program
INFO  16:45:06,049 - #29 test301
INFO  16:45:06,050 - #17 {
INFO  16:45:06,052 - #6 void
INFO  16:45:06,052 - #29 main
INFO  16:45:06,053 - #13 (
INFO  16:45:06,053 - #14 )
INFO  16:45:06,053 - #29 int
INFO  16:45:06,055 - #29 bodovi
INFO  16:45:06,056 - #12 ,
INFO  16:45:06,057 - #29 x
INFO  16:45:06,057 - #10 ;
INFO  16:45:06,057 - #17 {
INFO  16:45:06,058 - #29 bodovi
INFO  16:45:06,059 - #11 =
INFO  16:45:06,059 - #28 0
INFO  16:45:06,059 - #10 ;
INFO  16:45:06,061 - #29 bodovi
INFO  16:45:06,096 - #20 ++
INFO  16:45:06,096 - #10 ;
INFO  16:45:06,096 - #4 print
INFO  16:45:06,096 - #13 (
INFO  16:45:06,096 - #29 x
INFO  16:45:06,096 - #14 )
INFO  16:45:06,096 - #10 ;
INFO  16:45:06,097 - #18 }
INFO  16:45:06,097 - #18 }
INFO  16:45:06,115 - Program(
  ProgName(
   test301
  ) [ProgName]
  GlobalDeclListEps(
  ) [GlobalDeclListEps]
  MethodDecl(
    MethodSignature(
      VoidableType(
      ) [VoidableType]
     main
    ) [MethodSignature]
    VarMethodDeclList_NoEps(
      VarMethodDeclList_Eps(
      ) [VarMethodDeclList_Eps]
      VarDecl(
        Type(
         int
        ) [Type]
        VarDeclListL(
          VarDeclItem(
            VarDeclDefineSingle(
             bodovi
            ) [VarDeclDefineSingle]
          ) [VarDeclItem]
          VarDeclDefineSingle(
           x
          ) [VarDeclDefineSingle]
        ) [VarDeclListL]
      ) [VarDecl]
    ) [VarMethodDeclList_NoEps]
    StatementList_NoEps(
      StatementList_NoEps(
        StatementList_NoEps(
          StatementList_Eps(
          ) [StatementList_Eps]
          StatementDes(
            DesignStatAssignment(
              DesIdent(
               bodovi
              ) [DesIdent]
              AssignementExpr(
                TermExpr(
                  TermFact(
                    FactorConst(
                      ConstNum(
                       0
                      ) [ConstNum]
                    ) [FactorConst]
                  ) [TermFact]
                ) [TermExpr]
              ) [AssignementExpr]
            ) [DesignStatAssignment]
          ) [StatementDes]
        ) [StatementList_NoEps]
        StatementDes(
          DesignStatInc(
            DesIdent(
             bodovi
            ) [DesIdent]
          ) [DesignStatInc]
        ) [StatementDes]
      ) [StatementList_NoEps]
      StatPrint(
        TermExpr(
          TermFact(
            FactorDesign(
              DesIdent(
               x
              ) [DesIdent]
            ) [FactorDesign]
          ) [TermFact]
        ) [TermExpr]
      ) [StatPrint]
    ) [StatementList_NoEps]
  ) [MethodDecl]
) [Program]
INFO  16:45:06,116 - ===============SEMANTICKA OBRADA====================
INFO  16:45:06,126 - Obradjuje se funkcija main na liniji 8
INFO  16:45:06,126 - Deklarisana promenljiva bodovi tipa 1 na liniji 9
INFO  16:45:06,126 - Deklarisana promenljiva x tipa 1 na liniji 9
INFO  16:45:06,127 - Dodeljenja vrednost: 1 je design,1 je assign
INFO  16:45:06,127 - Inkrementirana vrednost
INFO  16:45:06,127 - Print funkcija na liniji 16
INFO  16:45:06,127 -  Print count calls = 1
INFO  16:45:06,127 -  Deklarisanih promenljivih ima = 2
INFO  16:45:06,137 - 
INFO  16:45:06,140 - Parsiranje uspesno zavrseno!
