INFO  18:07:54,822 - Compiling source file: C:\Users\ikadr\Desktop\PP\Projekat\Rad\workspace\MJCompiler\test\program.mj
INFO  18:07:54,887 - #2 program
INFO  18:07:54,887 - #28 test301
INFO  18:07:54,887 - #28 int
INFO  18:07:54,890 - #28 niz
INFO  18:07:54,891 - #15 [
INFO  18:07:54,891 - #16 ]
INFO  18:07:54,891 - #10 ;
INFO  18:07:54,892 - #17 {
INFO  18:07:54,894 - #6 void
INFO  18:07:54,894 - #28 main
INFO  18:07:54,895 - #13 (
INFO  18:07:54,895 - #14 )
INFO  18:07:54,895 - #17 {
INFO  18:07:54,897 - #28 niz
INFO  18:07:54,898 - #11 =
INFO  18:07:54,898 - #5 new
INFO  18:07:54,898 - #28 int
INFO  18:07:54,899 - #15 [
INFO  18:07:54,899 - #27 5
INFO  18:07:54,899 - #16 ]
INFO  18:07:54,899 - #10 ;
INFO  18:07:54,902 - #18 }
INFO  18:07:54,903 - #18 }
INFO  18:07:54,917 - Program(
  ProgName(
   test301
  ) [ProgName]
  GlobalDeclListL(
    GlobalDeclListEps(
    ) [GlobalDeclListEps]
    GlobalDeclVar(
      GlobalVarDecl(
        Type(
         int
        ) [Type]
        GlobalVarDeclItem(
          GlobalVarDeclDefOk(
            VarDeclDefineArray(
             niz
            ) [VarDeclDefineArray]
          ) [GlobalVarDeclDefOk]
        ) [GlobalVarDeclItem]
      ) [GlobalVarDecl]
    ) [GlobalDeclVar]
  ) [GlobalDeclListL]
  MethodDecl(
    MethodSignature(
      VoidableType(
      ) [VoidableType]
     main
    ) [MethodSignature]
    VarMethodDeclList_Eps(
    ) [VarMethodDeclList_Eps]
    StatementList_NoEps(
      StatementList_Eps(
      ) [StatementList_Eps]
      StatementDes(
        DesignStatAssignment(
          DesIdent(
           niz
          ) [DesIdent]
          AssignementExpr(
            TermExpr(
              TermFact(
                FactorNewArr(
                  Type(
                   int
                  ) [Type]
                  TermExpr(
                    TermFact(
                      FactorConst(
                        ConstNum(
                         5
                        ) [ConstNum]
                      ) [FactorConst]
                    ) [TermFact]
                  ) [TermExpr]
                ) [FactorNewArr]
              ) [TermFact]
            ) [TermExpr]
          ) [AssignementExpr]
        ) [DesignStatAssignment]
      ) [StatementDes]
    ) [StatementList_NoEps]
  ) [MethodDecl]
) [Program]
INFO  18:07:54,918 - ===================================
INFO  18:07:54,921 - Deklarisana promenljiva niza niz tipa 1 na liniji 5
INFO  18:07:54,921 - Obradjuje se funkcija main na liniji 9
INFO  18:07:54,921 -  Print count calls = 0
INFO  18:07:54,921 -  Deklarisanih promenljivih ima = 0
INFO  18:07:54,931 - GENERATOR:
INFO  18:07:54,931 - Parsiranje uspesno zavrseno!
